data_analysis/experimental_data_3_17/Oscilloscope/acq0068.csv

#Digilent WaveForms Oscilloscope Acquisition
#Device Name: Discovery2
#Serial Number: SN:210321B02866
#Date Time: 2021-03-17 16:05:52.337
#Sample rate: 4000Hz
#Samples: 8192
#Trigger: None
#Channel 1: Range: 50 mV/div Offset: -395 mV Attenuation: 1 X
#Channel 2: Range: 50 mV/div Offset: -105 mV Attenuation: 1 X
#Power Supplies: ON
#Positive Supply: ON
#Voltage: 3.3 V
#Negative Supply: OFF
#Voltage: -1 V

Time (s),Channel 1 (V),Channel 2 (V)
-1.018,0.46271675919971617,0.04646062756770719
-1.01775,0.4620565143754452,0.04612855466665702
-1.0175,0.461396269551175,0.045132335963508775
-1.01725,0.460736024726904,0.04413611726035918
-1.017,0.4597456574904976,0.04347197145825944
-1.01675,0.4590854126662272,0.042807825656160314
-1.0165,0.45842516784195647,0.04181160695301116
-1.01625,0.45776492301768607,0.0414795340519616
-1.016,0.45710467819341505,0.040815388249862014
-1.01575,0.45677455578127923,0.040151242447762275
-1.0155,0.455784188544874,0.03948709664566345
-1.01525,0.4551239437206029,0.038490877942514004
-1.015,0.454463698896332,0.03815880504146413
-1.01475,0.4541335764841968,0.03782673214041457
-1.0145,0.4538034540720614,0.03749465923936485
-1.01425,0.4538034540720614,0.03749465923936485
-1.014,0.4538034540720614,0.03749465923936485
-1.01375,0.4538034540720614,0.03782673214041457
-1.0135,0.4538034540720614,0.03782673214041457
-1.01325,0.4538034540720614,0.03782673214041457
-1.013,0.4538034540720616,0.03815880504146428
-1.01275,0.4541335764841968,0.03815880504146428
-1.0125,0.4538034540720614,0.03815880504146428
-1.01225,0.4538034540720614,0.03782673214041472
-1.012,0.4521528420113846,0.03583429473411627
-1.01175,0.4508323523628426,0.03450600312991665
-1.0115,0.4495118627143023,0.03284563862466958
-1.01125,0.4481913730657603,0.03151734702046996
-1.011,0.4472010058293539,0.030521128317320664
-1.01075,0.44654076100508344,0.030189055416271093
-1.0105,0.44621063859294813,0.029856982515221384
-1.01025,0.44621063859294813,0.029856982515221384
-1.01,0.44654076100508344,0.030521128317320817
-1.00975,0.4468708834172191,0.03085320121837083
-1.0095,0.4475311282414893,0.031517347020469655
-1.00925,0.44885161789003103,0.03284563862466883
-1.009,0.4498419851264375,0.034173930228868145
-1.00875,0.4508323523628432,0.03517014893201684
-1.0085,0.4514925971871139,0.03583429473411627
-1.00825,0.45215284201138434,0.0364984405362154
-1.008,0.45281308683565535,0.03716258633831514
-1.00775,0.4534733316599262,0.037494659239365
-1.0075,0.45380345407206124,0.03782673214041442
-1.00725,0.4541335764841968,0.038490877942514004
-1.007,0.4547938213084678,0.03915502374461359
-1.00675,0.4554540661327382,0.03948709664566315
-1.0065,0.45611431095700894,0.03981916954671287
-1.00625,0.45611431095700894,0.04015124244776243
-1.006,0.45611431095700894,0.04015124244776258
-1.00575,0.45644443336914414,0.04015124244776258
-1.0055,0.4561143109570091,0.04015124244776258
-1.00525,0.45611431095700894,0.03981916954671287
-1.005,0.45611431095700894,0.03981916954671287
-1.00475,0.45611431095700894,0.03981916954671287
-1.0045,0.45611431095700894,0.03948709664566315
-1.00425,0.45611431095700894,0.03948709664566315
-1.004,0.45611431095700894,0.03948709664566315
-1.00375,0.4564444333691451,0.04015124244776334
-1.0035,0.4580950454298203,0.0418116069530104
-1.00325,0.4594155350783626,0.04347197145825975
-1.003,0.4607360247269046,0.04513233596350893
-1.00275,0.4620565143754455,0.04646062756770719
-1.0025,0.46271675919971617,0.047124773369806625
-1.00225,0.4633770040239866,0.04745684627085619
-1.002,0.4633770040239869,0.04745684627085634
-1.00175,0.46304688161185137,0.04712477336980647
-1.0015,0.46271675919971633,0.04679270046875706
-1.00125,0.4623866367875808,0.046128554666657474
-1.001,0.46205651437544504,0.04579648176560731
-1.00075,0.4610661471390394,0.04480026306245861
-1.0005,0.46040590231476863,0.04413611726035918
-1.00025,0.45974565749049817,0.04313989855721048
-1,0.45875529025409184,0.04247575275511059
-0.9997499999999999,0.4580950454298208,0.04181160695301085
-0.9995,0.4574348006055507,0.04114746115091204
-0.99925,0.45710467819341505,0.040483315348812304
-0.9989999999999999,0.45644443336914386,0.039819169546712566
-0.99875,0.4554540661327382,0.03915502374461344
-0.9984999999999999,0.4547938213084675,0.038490877942514004
-0.9982500000000001,0.45413357648419705,0.037826732140414876
-0.998,0.4538034540720614,0.03749465923936485
-0.9977499999999999,0.4538034540720614,0.037494659239365
-0.9975,0.4538034540720614,0.03782673214041442
-0.99725,0.4538034540720614,0.03782673214041457
-0.9969999999999999,0.4538034540720614,0.03782673214041457
-0.99675,0.4538034540720614,0.03782673214041457
-0.9964999999999999,0.4538034540720614,0.03782673214041457
-0.9962500000000001,0.4538034540720614,0.03815880504146413
-0.996,0.4541335764841968,0.03815880504146428
-0.9957499999999999,0.45380345407206124,0.038158805041463975
-0.9955,0.45347333165992604,0.03749465923936485
-0.99525,0.4514925971871139,0.03550222183306656
-0.9949999999999999,0.450172107538572,0.033841857327817366
-0.99475,0.44918174030216634,0.0325135657236191
-0.9944999999999999,0.4478612506536249,0.031185274119420237
-0.9942500000000001,0.44687088341721926,0.03052112831732112
-0.994,0.44654076100508344,0.029856982515221384
-0.99375,0.44621063859294813,0.029856982515221384
-0.9935,0.44654076100508344,0.030189055416271093
-0.99325,0.4468708834172188,0.030521128317320817
-0.993,0.4472010058293542,0.030853201218370527
-0.99275,0.4478612506536249,0.032181492822569394
-0.9925,0.44918174030216634,0.03350978442676826
-0.99225,0.45017210753857245,0.034506003129917404
-0.992,0.4508323523628432,0.03517014893201684
-0.99175,0.45182271959924925,0.03616636763516598
-0.9915,0.45248296442352,0.036830513437265414
-0.99125,0.4531432092477907,0.03716258633831514
-0.991,0.45347333165992604,0.03782673214041457
-0.99075,0.4538034540720614,0.03815880504146428
-0.9905,0.45446369889633215,0.038490877942514004
-0.99025,0.4551239437206029,0.03915502374461344
-0.99,0.4554540661327382,0.03948709664566315
-0.98975,0.45611431095700894,0.04015124244776258
-0.9895,0.4564444333691443,0.04015124244776258
-0.98925,0.4564444333691443,0.04015124244776258
-0.989,0.4564444333691443,0.04015124244776258
-0.98875,0.45611431095700894,0.04015124244776258
-0.9885,0.45611431095700894,0.03981916954671287
-0.98825,0.4564444333691443,0.03981916954671287
-0.988,0.45611431095700894,0.03981916954671287
-0.98775,0.45611431095700894,0.03981916954671287
-0.9875,0.45611431095700894,0.03981916954671287
-0.98725,0.45611431095700894,0.03948709664566315
-0.987,0.4567745557812797,0.040815388249862014
-0.98675,0.45842516784195647,0.04247575275511059
-0.9865,0.4597456574904979,0.043804044359309464
-0.98625,0.46139626955117474,0.04546440886455804
-0.986,0.4623866367875808,0.04679270046875691
-0.98575,0.46304688161185154,0.047124773369806625
-0.9855,0.4633770040239869,0.04745684627085634
-0.98525,0.4633770040239869,0.04745684627085634
-0.985,0.46304688161185154,0.04679270046875691
-0.98475,0.46271675919971617,0.04679270046875691
-0.9845,0.4623866367875808,0.046128554666657474
-0.98425,0.4617263919633101,0.04546440886455804
-0.984,0.4610661471390394,0.04446819016140889
-0.98375,0.46007577990263326,0.043804044359309464
-0.9835,0.4594155350783626,0.042807825656160314
-0.98325,0.45875529025409184,0.04214367985406088
-0.983,0.4580950454298211,0.04147953405196145
-0.98275,0.4574348006055504,0.040815388249862014
-0.9825,0.4567745557812797,0.04015124244776258
-0.98225,0.45611431095700894,0.03948709664566315
-0.982,0.4551239437206029,0.038822950843563714
-0.98175,0.45446369889633215,0.03815880504146428
-0.9815,0.4541335764841968,0.03782673214041457
-0.98125,0.4538034540720614,0.03749465923936485
-0.981,0.4538034540720614,0.03749465923936485
-0.98075,0.4538034540720614,0.03749465923936485
-0.9805,0.45347333165992604,0.03749465923936485
-0.98025,0.4538034540720614,0.03749465923936485
-0.98,0.4538034540720614,0.03782673214041457
-0.97975,0.4538034540720614,0.03782673214041457
-0.9795,0.4541335764841968,0.03782673214041457
-0.97925,0.4538034540720614,0.03782673214041457
-0.979,0.4538034540720614,0.03782673214041457
-0.97875,0.45281308683565535,0.036498440536215704
-0.9785,0.4511624747749785,0.03483807603096713
-0.97825,0.45017210753857245,0.03350978442676826
-0.978,0.44885161789003103,0.032181492822569394
-0.97775,0.44753112824148955,0.030853201218370527
-0.9775,0.4468708834172188,0.030189055416271093
-0.97725,0.44654076100508344,0.029856982515221384
-0.977,0.44621063859294813,0.029856982515221384
-0.97675,0.44654076100508344,0.030189055416271093
-0.9765,0.4468708834172188,0.030521128317320817
-0.97625,0.4472010058293542,0.031185274119420237
-0.976,0.4481913730657603,0.032181492822569394
-0.97575,0.44918174030216634,0.03350978442676826
-0.9755,0.45017210753857245,0.034506003129917404
-0.97525,0.4511624747749785,0.03517014893201684
-0.975,0.4521528420113846,0.03616636763516598
-0.97475,0.45248296442352,0.036830513437265414
-0.9745,0.4531432092477907,0.03716258633831514
-0.97425,0.45347333165992604,0.03749465923936485
-0.974,0.4541335764841968,0.03815880504146428
-0.97375,0.4547938213084675,0.038822950843563714
-0.9735,0.4554540661327382,0.03948709664566315
-0.97325,0.45578418854487357,0.03981916954671287
-0.973,0.45611431095700894,0.03981916954671287
-0.97275,0.45611431095700894,0.04015124244776258
-0.9725,0.45611431095700894,0.03981916954671287
-0.97225,0.4564444333691443,0.03981916954671287
-0.972,0.45611431095700894,0.03981916954671287
-0.97175,0.45611431095700894,0.03981916954671287
-0.9715,0.45611431095700894,0.03981916954671287
-0.97125,0.45611431095700894,0.03948709664566315
-0.971,0.45611431095700894,0.03948709664566315
-0.97075,0.45611431095700894,0.03948709664566315
-0.9705,0.45611431095700894,0.03948709664566315
-0.97025,0.4574348006055504,0.04114746115091174
-0.97,0.45875529025409184,0.042807825656160314
-0.96975,0.46007577990263326,0.04413611726035918
-0.9695,0.4617263919633101,0.04579648176560776
-0.96925,0.46271675919971617,0.04679270046875691
-0.969,0.46304688161185154,0.04745684627085634
-0.96875,0.4633770040239869,0.04745684627085634
-0.9685,0.4633770040239869,0.047124773369806625
-0.9682499999999999,0.46271675919971617,0.04679270046875691
-0.968,0.46271675919971617,0.04646062756770719
-0.96775,0.4623866367875808,0.04579648176560776
-0.9675,0.46139626955117474,0.04480026306245861
-0.9672499999999999,0.46040590231476863,0.04413611726035918
-0.967,0.4597456574904979,0.04347197145825975
-0.96675,0.4590854126662272,0.04247575275511059
-0.9665,0.45842516784195647,0.04181160695301116
-0.9662499999999999,0.4577649230176858,0.04114746115091174
-0.966,0.45710467819341505,0.040483315348812304
-0.96575,0.4564444333691443,0.04015124244776258
-0.9655,0.45578418854487357,0.03915502374461344
-0.9652499999999999,0.4551239437206029,0.038490877942514004
-0.965,0.45446369889633215,0.03815880504146428
-0.96475,0.4538034540720614,0.03749465923936485
-0.9645,0.4538034540720614,0.03749465923936485
-0.9642499999999999,0.4538034540720614,0.03749465923936485
-0.964,0.4538034540720614,0.03749465923936485
-0.96375,0.4538034540720614,0.03782673214041457
-0.9635,0.4538034540720614,0.03782673214041457
-0.9632499999999999,0.4538034540720614,0.03782673214041457
-0.963,0.4538034540720614,0.03782673214041457
-0.96275,0.4538034540720614,0.03782673214041457
-0.9625,0.4541335764841968,0.03815880504146428
-0.96225,0.4538034540720614,0.03782673214041457
-0.962,0.45248296442352,0.03616636763516598
-0.96175,0.4508323523628432,0.034506003129917404
-0.9615,0.4498419851264371,0.03317771152571854
-0.96125,0.4481913730657603,0.03151734702046996
-0.961,0.4472010058293542,0.030521128317320817
-0.96075,0.44654076100508344,0.029856982515221384
-0.9605,0.44621063859294813,0.029856982515221384
-0.96025,0.44654076100508344,0.029856982515221384
-0.96,0.44654076100508344,0.030189055416271093
-0.95975,0.4468708834172188,0.030521128317320817
-0.9595,0.44753112824148955,0.03151734702046996
-0.95925,0.44885161789003103,0.0325135657236191
-0.959,0.4495118627143017,0.03384185732781797
-0.95875,0.4505022299507078,0.03483807603096713
-0.9585,0.4514925971871139,0.03550222183306656
-0.95825,0.4521528420113846,0.03616636763516598
-0.958,0.45281308683565535,0.036830513437265414
-0.95775,0.4531432092477907,0.03716258633831514
-0.9575,0.45347333165992604,0.03749465923936485
-0.95725,0.4541335764841968,0.03815880504146428
-0.957,0.4551239437206029,0.038822950843563714
-0.95675,0.4554540661327382,0.03948709664566315
-0.9565,0.45611431095700894,0.03981916954671287
-0.95625,0.45611431095700894,0.04015124244776258
-0.956,0.4564444333691443,0.03981916954671287
-0.95575,0.4564444333691443,0.03981916954671287
-0.9555,0.45611431095700894,0.03981916954671287
-0.95525,0.4564444333691443,0.03981916954671287
-0.955,0.45611431095700894,0.03948709664566315
-0.95475,0.45611431095700894,0.03948709664566315
-0.9545,0.45611431095700894,0.03948709664566315
-0.95425,0.45611431095700894,0.03948709664566315
-0.954,0.45611431095700894,0.03948709664566315
-0.95375,0.4564444333691443,0.03981916954671287
-0.9535,0.4580950454298211,0.04147953405196145
-0.95325,0.4594155350783626,0.04313989855721003
-0.953,0.460736024726904,0.04480026306245861
-0.95275,0.4620565143754455,0.046128554666657474
-0.9525,0.46271675919971617,0.04679270046875691
-0.95225,0.4633770040239869,0.04745684627085634
-0.952,0.4633770040239869,0.04745684627085634
-0.95175,0.46304688161185154,0.04679270046875691
-0.9515,0.46304688161185154,0.04646062756770719
-0.95125,0.46271675919971617,0.04646062756770719
-0.951,0.4620565143754455,0.04546440886455804
-0.95075,0.4610661471390394,0.04480026306245861
-0.9505,0.46040590231476863,0.043804044359309464
-0.95025,0.4597456574904979,0.04313989855721003
-0.95,0.4590854126662272,0.04214367985406088
-0.94975,0.45842516784195647,0.04147953405196145
-0.9495,0.4574348006055504,0.040815388249862014
-0.94925,0.45710467819341505,0.040483315348812304
-0.949,0.4564444333691443,0.03981916954671287
-0.94875,0.4554540661327382,0.038822950843563714
-0.9485,0.4547938213084675,0.03815880504146428
-0.94825,0.45446369889633215,0.03782673214041457
-0.948,0.4538034540720614,0.03749465923936485
-0.94775,0.4538034540720614,0.03749465923936485
-0.9475,0.4538034540720614,0.03749465923936485
-0.94725,0.4538034540720614,0.03749465923936485
-0.947,0.4538034540720614,0.03782673214041457
-0.94675,0.4538034540720614,0.03782673214041457
-0.9465,0.4541335764841968,0.03782673214041457
-0.94625,0.4538034540720614,0.03782673214041457
-0.946,0.4538034540720614,0.03782673214041457
-0.94575,0.4541335764841968,0.03782673214041457
-0.9455,0.4538034540720614,0.03749465923936485
-0.94525,0.4521528420113846,0.03583429473411627
-0.945,0.4508323523628432,0.034173930228867694
-0.94475,0.4495118627143017,0.03284563862466883
-0.9445,0.4481913730657603,0.031185274119420237
-0.94425,0.4472010058293542,0.030521128317320817
-0.944,0.44654076100508344,0.029856982515221384
-0.94375,0.44654076100508344,0.029856982515221384
-0.9435,0.44654076100508344,0.030189055416271093
-0.94325,0.4468708834172188,0.030521128317320817
-0.943,0.4472010058293542,0.030521128317320817
-0.94275,0.4478612506536249,0.03151734702046996
-0.9425,0.44885161789003103,0.0325135657236191
-0.94225,0.4498419851264371,0.03384185732781797
-0.942,0.4508323523628432,0.03483807603096713
-0.94175,0.4514925971871139,0.03550222183306656
-0.9415,0.4521528420113846,0.03616636763516598
-0.94125,0.45281308683565535,0.036830513437265414
-0.941,0.4531432092477907,0.03716258633831514
-0.94075,0.4538034540720614,0.03782673214041457
-0.9405,0.45446369889633215,0.03815880504146428
-0.94025,0.4551239437206029,0.038822950843563714
-0.94,0.4554540661327382,0.03948709664566315
-0.93975,0.45611431095700894,0.03981916954671287
-0.9395,0.4564444333691443,0.04015124244776258
-0.93925,0.4564444333691443,0.04015124244776258
-0.939,0.4564444333691443,0.03981916954671287
-0.93875,0.4564444333691443,0.03981916954671287
-0.9385,0.4564444333691443,0.03981916954671287
-0.93825,0.45611431095700894,0.03948709664566315
-0.938,0.45611431095700894,0.03948709664566315
-0.93775,0.45611431095700894,0.03948709664566315
-0.9375,0.45611431095700894,0.03948709664566315
-0.93725,0.45611431095700894,0.03948709664566315
-0.9369999999999999,0.45710467819341505,0.040483315348812304
-0.93675,0.45842516784195647,0.04214367985406088
-0.9365,0.4597456574904979,0.04347197145825975
-0.93625,0.46139626955117474,0.045132335963508324
-0.9359999999999999,0.4623866367875808,0.04646062756770719
-0.93575,0.46304688161185154,0.047124773369806625
-0.9355,0.4633770040239869,0.047124773369806625
-0.93525,0.4633770040239869,0.047124773369806625
-0.9349999999999999,0.46304688161185154,0.04679270046875691
-0.93475,0.46304688161185154,0.04646062756770719
-0.9345,0.4623866367875808,0.046128554666657474
-0.93425,0.4617263919633101,0.045132335963508324
-0.9339999999999999,0.4610661471390394,0.04446819016140889
-0.93375,0.46040590231476863,0.04347197145825975
-0.9335,0.4594155350783626,0.042807825656160314
-0.93325,0.45875529025409184,0.04214367985406088
-0.9329999999999999,0.4580950454298211,0.04114746115091174
-0.93275,0.4574348006055504,0.040483315348812304
-0.9325,0.4567745557812797,0.04015124244776258
-0.93225,0.45611431095700894,0.03948709664566315
-0.9319999999999999,0.4554540661327382,0.038490877942514004
-0.93175,0.4547938213084675,0.03815880504146428
-0.9315,0.4541335764841968,0.03749465923936485
-0.93125,0.4538034540720614,0.03716258633831514
-0.931,0.4538034540720614,0.03749465923936485
-0.93075,0.4538034540720614,0.03749465923936485
-0.9305,0.4538034540720614,0.03749465923936485
-0.93025,0.4538034540720614,0.03749465923936485
-0.93,0.4538034540720614,0.03782673214041457
-0.92975,0.4538034540720614,0.03782673214041457
-0.9295,0.4541335764841968,0.03782673214041457
-0.92925,0.4541335764841968,0.03782673214041457
-0.929,0.4541335764841968,0.03782673214041457
-0.92875,0.4531432092477907,0.036498440536215704
-0.9285,0.4511624747749785,0.03483807603096713
-0.92825,0.45017210753857245,0.03317771152571854
-0.928,0.44852149547789566,0.03184941992151967
-0.92775,0.44753112824148955,0.030521128317320817
-0.9275,0.4468708834172188,0.029856982515221384
-0.92725,0.44654076100508344,0.02952490961417166
-0.927,0.44621063859294813,0.02952490961417166
-0.92675,0.44654076100508344,0.029856982515221384
-0.9265,0.4468708834172188,0.030189055416271093
-0.92625,0.4472010058293542,0.030853201218370527
-0.926,0.44852149547789566,0.032181492822569394
-0.92575,0.4495118627143017,0.03350978442676826
-0.9255,0.4505022299507078,0.034506003129917404
-0.92525,0.4511624747749785,0.03517014893201684
-0.925,0.4521528420113846,0.03583429473411627
-0.92475,0.45281308683565535,0.036498440536215704
-0.9245,0.4531432092477907,0.036830513437265414
-0.92425,0.45347333165992604,0.03749465923936485
-0.924,0.4541335764841968,0.03782673214041457
-0.92375,0.4547938213084675,0.038490877942514004
-0.9235,0.4554540661327382,0.03915502374461344
-0.92325,0.45611431095700894,0.03948709664566315
-0.923,0.4564444333691443,0.03981916954671287
-0.92275,0.45611431095700894,0.03981916954671287
-0.9225,0.4564444333691443,0.03981916954671287
-0.92225,0.45611431095700894,0.03948709664566315
-0.922,0.45611431095700894,0.03948709664566315
-0.92175,0.45611431095700894,0.03948709664566315
-0.9215,0.45611431095700894,0.03948709664566315
-0.92125,0.45611431095700894,0.03915502374461344
-0.921,0.45611431095700894,0.03915502374461344
-0.92075,0.45611431095700894,0.03915502374461344
-0.9205,0.45611431095700894,0.03915502374461344
-0.92025,0.4574348006055504,0.040815388249862014
-0.92,0.4590854126662272,0.04247575275511059
-0.91975,0.46040590231476863,0.04413611726035918
-0.9195,0.4617263919633101,0.04546440886455804
-0.91925,0.46271675919971617,0.04646062756770719
-0.919,0.4633770040239869,0.047124773369806625
-0.91875,0.4633770040239869,0.047124773369806625
-0.9185,0.4633770040239869,0.04679270046875691
-0.91825,0.46304688161185154,0.04646062756770719
-0.918,0.46271675919971617,0.046128554666657474
-0.91775,0.4623866367875808,0.04546440886455804
