data_analysis/experimental_data_3_17/Oscilloscope/acq0015.csv

#Digilent WaveForms Oscilloscope Acquisition
#Device Name: Discovery2
#Serial Number: SN:210321B02866
#Date Time: 2021-03-17 15:14:07.599
#Sample rate: 4000Hz
#Samples: 8192
#Trigger: None
#Channel 1: Range: 5 V/div Offset: -650 mV Attenuation: 1 X
#Channel 2: Range: 5 V/div Offset: 0 V Attenuation: 1 X
#Power Supplies: ON
#Positive Supply: ON
#Voltage: 3.3 V
#Negative Supply: OFF
#Voltage: -1 V

Time (s),Channel 1 (V),Channel 2 (V)
-1.16375,-1.6395971273224366,-1.3849061584253284
-1.1635,-1.1401219177613948,-1.0492592371299319
-1.1632500000000001,-0.6125863031695672,-0.7099639797339632
-1.163,-0.23096479474084952,-0.46552546096444763
-1.16275,0.4692248413985966,-0.002186776132748025
-1.1625,1.2271858996610416,0.49033859750678555
-1.16225,1.7005814386631497,0.7858538216906401
-1.1620000000000001,1.95906728736502,0.9317872657319834
-1.16175,2.07560049884892,0.9901606433486136
-1.1615,2.1109235969473903,1.001105651651706
-1.1612500000000001,2.0805523350309643,0.9719189628434508
-1.161,2.0260821370286157,0.9317872657320498
-1.16075,1.9967012423486095,0.9135455852269017
-1.1605,2.0858342936251164,0.9755672989444726
-1.16025,2.2409918273287364,1.0813690458744947
-1.1600000000000001,2.2660811306510125,1.0923140541775955
-1.15975,2.256507580699098,1.0813690458744947
-1.1595,2.086824660861426,0.960973954540267
-1.1592500000000001,1.875216194682852,0.8186888466000221
-1.159,1.6794536042864865,0.6873487469626887
-1.15875,1.5077899499760328,0.5742503278305546
-1.1585,1.362866211048675,0.48304192530471507
-1.15825,1.2509547133347876,0.41007520328401026
-1.1580000000000001,1.170404844773796,0.36264683397057373
-1.15775,1.1103225657651237,0.3225151368591645
-1.1575,1.072358488369542,0.30062512025294474
-1.1572500000000001,1.039346247156036,0.28238343974778507
-1.157,1.359895109339457,0.5195252863150674
-1.15675,2.5539478740333545,1.3622909256544156
-1.1565,3.2042890259397208,1.8183329382836133
-1.15625,3.3426103166244374,2.1649248678819615
-1.1560000000000001,3.343930806272978,2.281671623115036
-1.15575,3.3439308062729785,2.139386515174715
-1.1555,3.306296851289421,1.8949479964052072
-1.15525,3.0289940250959697,1.573894419514398
-1.155,2.4321327039551104,1.1506874317941642
-1.15475,2.024761647379946,0.8807105603174735
-1.1545,1.7415166177679344,0.6982937552657944
-1.15425,1.314338216464777,0.4027785310819398
-1.1540000000000001,0.8498559825905347,0.09266996249408527
-1.15375,0.4758272896409591,-0.15176855627541688
-1.1535,0.19192201520445185,-0.3341853613272387
-1.15325,-0.02034669579839249,-0.4655254609643879
-1.153,-0.15437639512544565,-0.545788855187223
-1.15275,-0.24846128258405115,-0.6005138967027663
-1.1525,-0.30887368400479476,-0.6333489216120687
-1.15225,-0.444223872980293,-0.7245573241379497
-1.1520000000000001,-0.6383358513157972,-0.8522490876741252
-1.15175,-0.7152543733434247,-0.896029120886606
-1.1515,-0.696437395851645,-0.8741391042803467
-1.15125,-0.555805248282109,-0.7683373573504207
-1.151,-0.3148158874232313,-0.5968655606017164
-1.15075,-0.09165313681964006,-0.4436354443581798
-1.1505,0.09948773980664716,-0.319592016923038
-1.15025,0.26487906828646324,-0.2064935977909455
-1.1500000000000001,0.39098582972211393,-0.1262302035682067
-1.14975,0.4863912068292907,-0.06785682595160634
-1.1495,0.5557169133777371,-0.020428456638136593
-1.14925,0.6009436838402406,0.005109896069086871
-1.149,0.6313149457567143,0.02335157657427469
-1.14875,0.1939027496768114,-0.3086470086203288
-1.1485,-1.0136850339137913,-1.180599336767355
-1.14825,-1.6524719013957154,-1.6147513327905487
-1.1480000000000001,-1.9244927689951297,-1.8336514988525636
-1.14775,-2.0634743045042407,-2.0270133122075307
-1.1475,-2.028151206405662,-1.8847282042670537
-1.14725,-1.8201740867605738,-1.6585313660030743
-1.147,-1.4372320886834598,-1.3630161418191171
-1.14675,-0.8888987621264417,-0.9653475068061497
-1.1465,-0.4864795417336192,-0.6880739631275974
-1.14625,-0.05897101801832627,-0.38526206674167235
-1.1460000000000001,0.664987431794192,0.13280165960509632
-1.14575,1.3447094783812301,0.6070853527399134
-1.1455,1.7398660057073507,0.8697655520145088
-1.14525,1.9445419012310887,0.997457315550626
-1.145,2.037966543865489,1.0485340209651774
-1.14475,2.0485304610538027,1.0412373487630888
-1.1445,2.009576016421848,1.0011056516517194
-1.14425,1.9650094907835742,0.9646222906413668
-1.1440000000000001,1.9683107149049262,0.9646222906413668
-1.14375,2.1046512711168317,1.0631273653693183
-1.1435,2.2304279101404036,1.1506874317941609
-1.14325,2.2284471756675934,1.1433907595920971
-1.143,2.186851751738537,1.1069073985817413
-1.14275,1.9864674475722803,0.95732561843923
-1.1425,1.7834421641091254,0.8113921743978867
-1.14225,1.5992338581375938,0.680052074760618
-1.1420000000000001,1.4387943658398812,0.5669536556285771
-1.14175,1.3103767475191526,0.47939358920367986
-1.1415,1.2090291669935638,0.41007520328398867
-1.14125,1.1367323587359526,0.36264683397055214
-1.141,1.0829224055578885,0.3261634729601997
-1.14075,1.0499101643443394,0.30427345635398
-1.1405,1.021189514488576,0.28603177584881206
-1.14025,1.7401961281193932,0.8405788632061688
-1.1400000000000001,2.796587846952069,1.6103777805242547
-1.13975,3.2620604480634086,2.004398079436411
-1.1395,3.3439308062729785,2.3509900090347604
-1.13925,3.3439308062729785,2.354638345135794
-1.139,3.342940439036572,2.1977598927912787
-1.13875,3.2554579998205018,1.9022446686072547
-1.1385,2.816065069268536,1.5301143863018292
-1.13825,2.25353647898988,1.165280776198305
-1.138,1.8851198670466807,0.8953039047215944
-1.13775,1.585698839240044,0.6691070664575123
-1.1375,1.0984381589280696,0.3006251202528186
-1.13725,0.7003105298930048,0.005109896069098483
-1.137,0.36391579192707163,-0.23932862270026267
-1.13675,0.10146847427937981,-0.4253937638531147
-1.1365,-0.07349640415228209,-0.545788855187223
-1.13625,-0.18870912598755202,-0.618755577207946
-1.136,-0.2520926291175491,-0.6588872743193404
-1.13575,-0.33231237526640545,-0.713612315834844
-1.1355,-0.5171809260622897,-0.8486007515732077
-1.13525,-0.6974277630881152,-0.9799408512104166
-1.135,-0.690165070021137,-0.9616991707052405
-1.13475,-0.6548419719225637,-0.9252158096948149
-1.1345,-0.4574287694657073,-0.7646890212493374
-1.13425,-0.22898406026794182,-0.5895688883995746
-1.134,-0.019026206149866477,-0.43269043605507074
-1.13375,0.15923989640314762,-0.3013503364178618
-1.1335,0.3081251042762475,-0.19190025338676805
-1.13325,0.42234745887503056,-0.11163685916402924
-1.133,0.5058684291452771,-0.05326348154746538
-1.13275,0.5682615650388776,-0.009483448335030868
-1.1325,0.6062256424344269,0.016054904372204207
-1.13225,0.6369270267627396,0.03794492097819334
-1.132,0.030162033257726657,-0.45093211656068494
-1.13175,-1.0575913147277942,-1.2827527475963418
-1.1315,-1.6247416187765082,-1.6877180548113946
-1.13125,-1.982924435943212,-1.997826623399249
-1.131,-2.050929652843097,-2.0780900176220243
-1.13075,-1.9717002739305052,-1.9358049096815386
-1.1305,-1.7419350750843983,-1.6913663909122887
-1.13025,-1.324660346145054,-1.3593678057178926
-1.13,-0.7796282437096779,-0.9434574901999614
-1.12975,-0.4670023194176329,-0.7172606519358793
-1.1295,-0.0906627695829844,-0.4326904360548717
-1.12925,0.6494716784241592,0.13644999570636718
-1.129,1.277034383893481,0.603437016638878
-1.12875,1.6715306663953309,0.8843588964186546
-1.1285,1.876206561919162,1.0229956682579306
-1.12825,1.9834963458631627,1.0850173819755298
-1.128,2.001653078530585,1.0850173819755131
-1.12775,1.97029144937774,1.0485340209651774
-1.1275,1.9352984736914152,1.0156989960558784
-1.12725,1.9871276923966434,1.0558306931672479
-1.127,2.150208163991512,1.1798741206024461
-1.12675,2.2317483997889487,1.23824749821901
-1.1265,2.237360480795247,1.23824749821901
-1.12625,2.140634614039492,1.154335767895123
-1.126,1.93232737198208,0.9865123072475053
-1.12575,1.7269912316339786,0.8259855188020278
-1.1255,1.5483950066686776,0.690997083063669
-1.12525,1.3935675953772637,0.5706019917295608
-1.125,1.274393404596398,0.48304192530471507
-1.12475,1.179318149901383,0.41372353938502393
-1.1245,1.110652688177259,0.36629517007158735
-1.12425,1.0657560401268351,0.33346014516226025
-1.1239999999999999,1.0337341661497323,0.311570128556072
-1.12375,1.0617945711812256,0.34075681736434066
-1.1235,2.0676775609580713,1.168929112299649
-1.12325,2.9471236668862737,1.8475196270918952
-1.123,3.298373913398299,2.237891589902666
-1.12275,3.3439308062729785,2.5188134696823417
-1.1225,3.3439308062729785,2.4349017393585695
-1.12225,3.331056032199617,2.234243253801477
-1.1219999999999999,3.150148950349264,1.8949479964051377
-1.12175,2.583328768713106,1.420664303270772
-1.1215,2.1584612242947396,1.095962390278516
-1.12125,1.8151339156741202,0.8332821910040982
-1.121,1.4467173037310568,0.5487119751233493
-1.12075,0.9630879699525844,0.1729333567165935
-1.1205,0.5933508683611478,-0.10434018696195875
-1.12025,0.2807249440688528,-0.33418536132725696
-1.1199999999999999,0.04369705215570298,-0.5056571580758817
-1.11975,-0.10617852295368291,-0.6078105689048221
-1.1195,-0.21676953101905883,-0.6807772909255452
-1.11925,-0.28246389103396585,-0.7209089880369146
-1.119,-0.3824909819109803,-0.7938757100576193
-1.11875,-0.5766029602466289,-0.9434574902001042
-1.1185,-0.7000687423851979,-1.03101755662491
-1.11825,-0.689174702784699,-1.0091275400186688
-1.1179999999999999,-0.6185285065876605,-0.943457490199978
-1.11775,-0.39140428703863517,-0.7537440129462316
-1.1175,-0.16824153643504108,-0.5713272078943998
-1.11725,0.0291716660218152,-0.4180970916509895
-1.117,0.20149556515647388,-0.2867569920137208
-1.11675,0.3368457541320212,-0.1809552450836623
-1.1165,0.4451259053123705,-0.10069185086092351
-1.11625,0.5194034480428508,-0.049615145446411886
-1.1159999999999999,0.5722230339844998,-0.009483448335032528
-1.11575,0.6055653976101562,0.012406568271168966
-1.1155,0.5695820546868817,-0.024076792739616465
-1.11525,-0.57396198094949,-0.9762925151093813
-1.115,-1.3484291598190477,-1.5782679717801962
-1.11475,-1.7435856871452098,-1.8628381876610778
-1.1145,-2.039705490830494,-2.154705075743764
-1.11425,-2.0360741442969403,-2.0999800342281456
-1.1139999999999999,-1.8924708950179676,-1.9029698847721965
-1.11375,-1.5501339536337533,-1.603806324487443
-1.1135,-1.066834742267356,-1.2097860255754562
-1.11325,-0.5647185534096999,-0.8121173905627956
-1.113,-0.32934127355718723,-0.6406455938141393
-1.11275,0.13117949137196402,-0.26851531150828745
-1.1125,0.8396221878141273,0.2969767841519178
-1.11225,1.3648469455216405,0.701942091366944
-1.1119999999999999,1.7019019283117724,0.9536772823383175
-1.11175,1.880828275689057,1.0777207097734594
-1.1115,1.9534552063588382,1.1142040707838068
-1.11125,1.9574166753044608,1.103259062480706
-1.111,1.9286960254486845,1.0667757014703536
-1.11075,1.9237441892667229,1.0558306931673043
-1.1105,2.0749402540246495,1.1798741206024461
-1.11025,2.251225622104942,1.3148625563407534
-1.1099999999999999,2.271693211657299,1.3221592285427972
-1.10975,2.2155724015943132,1.2710825231283271
-1.1095,2.0221206680828967,1.1032590624806262
-1.10925,1.813153181201308,0.9281389296310145
-1.109,1.6226725493992045,0.771260477286499
-1.10875,1.4612426898649507,0.6399203776491823
-1.1085,1.3252322560652439,0.5341186307192085
-1.10825,1.2172822272969452,0.4502069003953697
-1.108,1.1390432156209,0.38818518667779883
-1.10775,1.080611548672941,0.34805348956641113
-1.1075,1.043967960925901,0.3225151368591529
-1.10725,1.0106255973002445,0.2969767841519178
-1.107,1.23510883755229,0.5012836058098913
-1.10675,2.311638023526032,1.413367631068967
-1.1065,3.034606106102145,1.99710140723434
-1.10625,3.3366681132060036,2.4349017393586374
-1.106,3.3439308062729785,2.5844835195010143
-1.10575,3.3439308062729785,2.4385500754596046
-1.1055,3.309928197822892,2.2014082288921397
-1.10525,2.992680559760954,1.8183329382836133
-1.105,2.4179374402331417,1.336752572946842
-1.10475,2.0917764970434423,1.0740723736723377
-1.1045,1.8484762792997915,0.8843588964185916
-1.10425,1.2856175666087908,0.41372353938487794
-1.104,0.824766679268036,0.04524159318048614
-1.10375,0.48573096200502,-0.22108694219508648
-1.1035,0.21899205299955435,-0.4217454277520944
-1.10325,0.012995667827182533,-0.5749755439955049
-1.103,-0.12961721421533054,-0.6771289548245132
-1.10275,-0.21082732760062078,-0.7245573241379663
-1.1025,-0.2732204634941757,-0.7610406851483023
-1.10225,-0.43399007820420066,-0.8887324486846185
-1.102,-0.6627649098139021,-1.0711492537362977
-1.10175,-0.6967675182638444,-1.0820942620394034
-1.1015,-0.6525311150376434,-1.0310175566248518
-1.10125,-0.5148700691772603,-0.9033257930886767
-1.101,-0.29269768581006644,-0.7099639797337293
-1.10075,-0.08240970927985548,-0.5348438468840492
-1.1005,0.09651663809742894,-0.38526206674167235
-1.10025,0.2556356407467272,-0.2575703032053974
-1.1,0.3744797091154032,-0.16636190067955786
-1.09975,0.4682344741618458,-0.09339517865885302
-1.0995,0.5372300582981564,-0.04231847324434306
-1.09925,0.5814664615242747,-0.005835112234007241
-1.099,0.6128280906770965,0.012406568271134125
-1.09875,0.5302974876428143,-0.06420848985098752
-1.0985,-0.5241134967170504,-0.9799408512104166
-1.09825,-1.315086796193575,-1.6293446771948454
-1.098,-1.7528291146848651,-1.9722882706920024
-1.09775,-2.029471696054298,-2.238616806067575
-1.0975,-1.9868859048887417,-2.1291667230364077
-1.09725,-1.7782485404192883,-1.8883765403681918
-1.097,-1.404880092293962,-1.5563779551737857
-1.09675,-0.8931903534842051,-1.1185776230496116
-1.0965,-0.499024193394763,-0.8011723822596899
-1.09625,-0.34584739416374194,-0.6880739631274165
-1.096,0.12325655348039322,-0.29040532811475606
-1.09575,0.761713298550182,0.2459000787374244
-1.0955,1.267790956353841,0.6581620581545229
-1.09525,1.5972531236647816,0.9135455852268735
-1.095,1.7867433882305164,1.052182357066234
-1.09475,1.8689438688521907,1.0996107263796675
-1.0945,1.8834692549861398,1.0923140541776004
-1.09425,1.8666330119672545,1.0631273653693316
-1.094,1.9062477014234798,1.0923140541776004
-1.09375,2.0924367418678234,1.2491925065221157
-1.0935,2.20930007576375,1.336752572946963
-1.09325,2.2277869308433216,1.3404009090479967
-1.093,2.1776083241986552,1.2856758675323836
-1.0927499999999999,1.9755734079718141,1.0996107263795911
-1.0925,1.7741987365693352,0.9244905935299792
-1.09225,1.5909807978341388,0.7676121411854026
-1.092,1.4345027744820484,0.63262370544716
-1.09175,1.307075523397799,0.5268219585171379
-1.0915,1.2063881876964808,0.4429102281933009
-1.09125,1.1337612570267344,0.38453685057676357
-1.091,1.0809416710850608,0.34805348956639953
-1.0907499999999999,1.0462788178108495,0.32251513685915456
-1.0905,1.015577433482275,0.300625120252953
-1.09025,1.5124116637464557,0.7712604772869038
-1.09,2.527868203474365,1.6614544859390978
-1.08975,3.117136709135985,2.1503315234778206
-1.0895,3.341619949388032,2.544351822389635
-1.08925,3.3439308062729785,2.562593502894803
-1.089,3.3379886028544816,2.4239567310553096
-1.0887499999999999,3.2059396380002068,2.0846614736590054
-1.0885,2.7873444194127597,1.6869928386463446
-1.08825,2.248914765219893,1.2163574816127287
-1.088,2.0472099714052794,1.0631273653693183
-1.08775,1.6523835664913868,0.7128870996699352
-1.0875,1.1756868033677517,0.2969767841517735
-1.08725,0.7937351725273121,-0.020428456638148206
-1.087,0.47714777928938557,-0.2794603198117416
-1.0867499999999999,0.2242740115937324,-0.48011880536864665
-1.0865,0.04534766421644798,-0.6078105689048221
-1.08625,-0.07679762827367287,-0.6917222992286557
-1.086,-0.15833786407106998,-0.7427990046431259
-1.08575,-0.23822748780782743,-0.7975240461586546
-1.0855,-0.4178140800095387,-0.9471058263011575
-1.08525,-0.5818849188407387,-1.074797589837333
-1.085,-0.5993814066839007,-1.0675009176352444
-1.0847499999999999,-0.5729716137130041,-1.0273692205237952
-1.0845,-0.3976766128692071,-0.8522490876741833
-1.08425,-0.188048881163167,-0.662535610420276
-1.084,0.00012089375390345047,-0.4983604858737648
-1.08375,0.16485197740944874,-0.3560753779333904
-1.0835,0.30350339050634945,-0.23932862270022284
-1.08325,0.4111232968624283,-0.15176855627541688
-1.083,0.49299365507202564,-0.08974684255779622
-1.0827499999999999,0.5540663013170571,-0.04231847324434804
-1.0825,0.5923605011247417,-0.016780120537112964
-1.08225,0.6237221302773502,0.005109896068846305
-1.082,0.07208757959941225,-0.5494371912882581
-1.08175,-0.8631492139800665,-1.392202830627399
-1.0815,-1.4207259680768742,-1.8409481710548814
-1.08125,-1.8214945764090202,-2.1656500840468698
-1.081,-1.9759918652883175,-2.278748503178886
-1.0807499999999999,-1.8611092658651316,-2.1109250425312065
-1.0805,-1.570601543186146,-1.815409818347487
-1.08025,-1.2167103173768028,-1.4907079053551364
-1.08,-0.6987482527366564,-1.0200725483218043
-1.07975,-0.3983368576934776,-0.7756340295524431
-1.0795,-0.10947974707475006,-0.5166021663786756
-1.07925,0.5203938152792329,0.06713160978669758
-1.079,1.068727141836234,0.556008647325561
-1.0787499999999999,1.4335124072457368,0.8661172159134868
-1.0785,1.6411594044787847,1.0229956682579306
-1.07825,1.7613239624960737,1.1032590624807093
-1.078,1.7999482847158934,1.1105557346827766
-1.07775,1.7946663261217277,1.0813690458744947
-1.0775,1.7864132658183631,1.059479029268298
-1.07725,1.8293291793959405,1.0923140541776004
-1.077,2.0082555267733424,1.256489178724211
-1.07675,2.087484905685793,1.3112142202397148
-1.0765,2.088805395334335,1.2966208758355737
-1.07625,1.9943903854635388,1.1944674650065072
-1.076,1.8128230587891725,1.0193473321568955
-1.07575,1.6371979355331603,0.8551722076103097
-1.0755,1.4846813811265624,0.7165354357709158
-1.07525,1.350981804211802,0.5961403444368076
-1.075,1.2453426323284493,0.5012836058098598
-1.07475,1.1638023965310522,0.4319652198902217
-1.0745,1.1030598726981458,0.3808885144757283
-1.07425,1.0611343263569408,0.3480534895664012
-1.074,1.0304329420283662,0.3261634729601997
-1.07375,1.0578331022359677,0.3626468339709188
-1.0735,1.8639920326705148,1.168929112299664
-1.07325,2.658266556267833,1.8803546520012124
-1.073,3.1352934418035234,2.2853199592162556
-1.07275,3.3399693373273545,2.5735385111979086
-1.0725,3.3366681132060005,2.5005717891772035
-1.07225,3.271633998015209,2.3072099758221913
-1.072,2.9969721511187135,1.9898047350322696
-1.07175,2.49947767603056,1.5191693779985773
-1.0715,2.1379936347423794,1.1981158011075128
-1.07125,1.8649823999065596,0.9573256184392964
-1.071,1.503498358618153,0.6216786971438817
-1.07075,1.0944766899826264,0.24225174263638916
-1.0705,0.7613831761380467,-0.0642084898505711
-1.07025,0.4920032878354931,-0.3013503364179464
-1.07,0.27478274065052405,-0.48741547757065906
-1.06975,0.129859001723063,-0.615107241106929
-1.0695,0.04765852110136348,-0.6953706353296943
-1.06925,-0.0226575526834365,-0.7537440129462316
-1.069,-0.12532562285761287,-0.8413040793711521
-1.06875,-0.2989700116407339,-1.0054792039176634
-1.0685,-0.4227659161914945,-1.1076326147466502
-1.06825,-0.4442238729802715,-1.1039842786455818
-1.068,-0.39701636804493634,-1.03101755662491
-1.06775,-0.22304185684952205,-0.837655743269961
-1.0675,-0.049727590478464985,-0.6588872743192409
-1.06725,0.10675043287362518,-0.49471214977272954
-1.067,0.24408135632198588,-0.35607537793334226
-1.06675,0.35500248679941687,-0.2502736310033684
-1.0665,0.4461162725487766,-0.16271356457852262
-1.06625,0.5124708773880066,-0.1043401869619405
-1.066,0.5616591167961531,-0.0642084898505711
-1.06575,0.5923605011247143,-0.03502180104232567
-1.0655,0.5319480997035542,-0.11528519526550579
-1.06525,-0.3834813491473865,-1.0857425981404387
-1.065,-1.0632033957342533,-1.7169047436196665
-1.06475,-1.41016205088836,-2.005123295601319
-1.0645,-1.7898028248440256,-2.337121880795526
-1.06425,-1.8350295953065041,-2.322528536391302
-1.064,-1.6901058563791465,-2.140111731339623
-1.06375,-1.399928256111982,-1.8263548266504068
-1.0635,-0.9988295253675086,-1.4177411833344615
-1.06325,-0.5779234498951142,-1.0127758761197339
-1.063,-0.30260135817399386,-0.757392349047033
-1.06275,0.2011654427443385,-0.2429769588012979
-1.0625,0.8076003138369973,0.36629517007158735
-1.06225,1.2384100616737646,0.7749088133876388
-1.062,1.503498358618339,1.0047539877527545
