data_analysis/experimental_data_3_17/Oscilloscope/acq0058.csv

#Digilent WaveForms Oscilloscope Acquisition
#Device Name: Discovery2
#Serial Number: SN:210321B02866
#Date Time: 2021-03-17 15:44:39.695
#Sample rate: 16000Hz
#Samples: 8192
#Trigger: None
#Channel 1: Range: 2 V/div Offset: -500 mV Attenuation: 1 X
#Channel 2: Range: 1 V/div Offset: 10 mV Attenuation: 1 X
#Power Supplies: ON
#Positive Supply: ON
#Voltage: 3.3 V
#Negative Supply: OFF
#Voltage: -1 V

Time (s),Channel 1 (V),Channel 2 (V)
0.955875,0.8047205598128575,0.10009366789350008
0.9559375000000001,0.8083489759165359,0.10374200399454195
0.956,0.8119773920202026,0.11103867619659584
0.9560625,0.8156058081238826,0.11468701229764103
0.9561250000000001,0.8192342242275626,0.11833534839867627
0.9561875,0.8228626403312294,0.11833534839867627
0.95625,0.8228626403312327,0.12198368449971153
0.9563125,0.8264910564349061,0.1256320206007451
0.956375,0.8264910564349077,0.12563202060074677
0.9564375,0.8301194725385811,0.12563202060074677
0.9565,0.8264910564349094,0.12563202060074677
0.9565625,0.8301194725385794,0.12928035670177868
0.9566250000000001,0.8264910564349094,0.12563202060074843
0.9566875,0.8301194725385828,0.129280356701782
0.95675,0.826491056434911,0.12198368449971816
0.9568125000000001,0.8301194725385811,0.1256320206007451
0.956875,0.8264910564349077,0.12198368449971153
0.9569375,0.8264910564349077,0.1256320206007451
0.9570000000000001,0.8264910564349077,0.12198368449971153
0.9570625,0.8264910564349077,0.12198368449971153
0.957125,0.7611795665687866,0.0453686263780063
0.9571875000000001,0.6305565868363365,-0.1115098259666866
0.95725,0.4999336071041536,-0.26838827831105927
0.9573125,0.3765674595792581,-0.4216183945544697
0.9573750000000001,0.3366548824387336,-0.4726950999690892
0.9574375,0.2894854730909959,-0.5347168136866385
0.9575,0.27860022477998064,-0.5493101580907662
0.9575625000000001,0.22780239932848878,-0.6113318718084184
0.9576250000000001,0.18788982218809794,-0.6624085772228671
0.9576875,0.18426140608442454,-0.6660569133239005
0.9577500000000001,0.19514665439546613,-0.6551119050207751
0.9578125,0.21328873491380013,-0.6332218884146134
0.957875,0.1770045738770744,-0.6733535855259711
0.9579375000000001,0.16249090946231487,-0.691595266031212
0.958,0.11894991621833306,-0.7390236353445406
0.9580625,0.1262067484256238,-0.7317269631425349
0.9581250000000001,0.11169308401094834,-0.7499686436476862
0.9581875,0.12983516452928234,-0.7317269631425515
0.95825,0.1370919967366489,-0.7207819548394292
0.9583125,0.1661193255660361,-0.6842985938290934
0.958375,0.19514665439542325,-0.6478152328187575
0.9584375,0.2060319027064913,-0.6332218884145636
0.9585,0.2423160637432088,-0.5894418552021804
0.9585625,0.24957289595056875,-0.5784968468990648
0.9586250000000001,0.29311388919468256,-0.5274201414845514
0.9586875,0.3076275536093761,-0.5055301248783499
0.95875,0.3729390434754676,-0.42891506675667956
0.9588125000000001,0.38745270789024855,-0.41067338625140715
0.958875,0.4346221172380027,-0.3523000086348698
0.9589375,0.4527641977563697,-0.33040999202866833
0.9590000000000001,0.4890483587931515,-0.28298162271517374
0.9590625,0.5398461842445791,-0.2246082450986364
0.959125,0.5797587613849864,-0.17353153968416626
0.9591875000000001,0.6269281707328033,-0.11515816206755261
0.95925,0.6523270834585055,-0.08597147325929723
0.9593125,0.692239660598913,-0.034894767844827076
0.9593750000000001,0.6886112444952726,-0.03854310394581919
0.9594375,0.7067533250136362,-0.016653087339622667
0.9595,0.7176385733246514,-0.005708079036526899
0.9595625000000001,0.7430374860504279,0.027126945872851662
0.9596250000000001,0.7938353115018406,0.08914865959040265
0.9596875,0.8119773920202076,0.10739034009557055
0.9597500000000001,0.8809172979900665,0.19495040652045284
0.9598125,0.9172014590267344,0.23508210363174925
0.959875,0.9933981972039599,0.326290506157685
0.9599375000000001,1.0224255260334396,0.3664222032691722
0.96,1.0804801836921083,0.4393889252897112
0.9600625,1.1058790964178864,0.4649272779970242
0.9601250000000001,1.1421632574546714,0.512355647310527
0.9601875,1.167562170180339,0.5451906722197696
0.96025,1.163933754076687,0.5415423361187643
0.9603125,1.189332666802401,0.5707290249270329
0.960375,1.2074747473207712,0.5926190415332379
0.9604375,1.1965894990097725,0.581674033230162
0.9605,1.218359995631803,0.6035640498363535
0.9605625,1.2111031634244693,0.5926190415332677
0.9606250000000001,1.2038463312171175,0.5853223693311937
0.9606875,1.2147315795281377,0.5999157137353281
0.96075,1.196589499009779,0.5743773610281045
0.9608125000000001,1.203846331217111,0.5853223693311838
0.960875,1.2002179151134376,0.5780256971291167
0.9609375,1.1929610829060908,0.5707290249270496
0.9610000000000001,1.1893326668024058,0.5634323527249689
0.9610625,1.174819002387712,0.5488390083208348
0.961125,1.1675621701803653,0.5342456639167004
0.9611875000000001,1.1748190023876957,0.5415423361187478
0.96125,1.156676921869337,0.523300655613588
0.9613125,1.1457916735583167,0.5050589751084201
0.9613750000000001,1.1530485057656388,0.5160039834114877
0.9614375000000001,1.127649593039935,0.48316895850219704
0.9615,1.1240211769362616,0.4758722863001299
0.9615625000000001,1.1203927608325701,0.47952062240114196
0.9616250000000001,1.1022506803142162,0.4539822696939218
0.9616875,1.1131359286252365,0.46127894189598895
0.9617500000000001,1.098622264210533,0.44668559749184467
0.9618125,1.0949938481068662,0.4430372613908177
0.961875,1.1058790964178864,0.45398226969391847
0.9619375,1.091365432003193,0.4393889252897842
0.962,1.109507512521545,0.45763060579493714
0.9620625,1.1095075125215614,0.45763060579495374
0.962125,1.1276495930399284,0.4758722863001216
0.9621875,1.149420089661967,0.5087073112094173
0.96225,1.1457916735583118,0.5050589751084118
0.9623125,1.1421632574546383,0.49776230290634466
0.962375,1.1421632574546368,0.5014106390073734
0.9624375000000001,1.1530485057656634,0.5160039834115192
0.9625,1.156676921869337,0.5196523195125529
0.9625625,1.1457916735583218,0.5050589751084251
0.9626250000000001,1.1312780091436117,0.4904656307042709
0.9626875,1.1312780091436117,0.4904656307042709
0.96275,1.1457916735583051,0.5087073112094388
0.9628125000000001,1.156676921869332,0.5160039834115142
0.962875,1.1457916735583118,0.5087073112094471
0.9629375,1.1312780091436183,0.4904656307042792
0.9630000000000001,1.1058790964178633,0.4576306057949272
0.9630625,1.0804801836921611,0.4284439169866718
0.963125,1.0587096870701207,0.4029055642794367
0.9631875000000001,1.0405676065517158,0.37371887547112326
0.96325,1.0187971099296784,0.35182885886492343
0.9633125,1.0042834455149916,0.33358717835976376
0.9633750000000001,0.9825129488929215,0.30804882565249225
0.9634375000000001,0.967999284478228,0.28980714514732436
0.9635,0.9534856200635344,0.2715654646421564
0.9635625000000001,0.9426003717524961,0.25332378413697026
0.9636250000000001,0.9280867073378041,0.24237877583386783
0.9636875,0.917201459026784,0.2277854314297335
0.96375,0.9099446268194371,0.21684042312663276
0.9638125000000001,0.8990593785084053,0.2022470787224835
0.963875,0.8918025463010586,0.19495040652041634
0.9639375,0.8809172979900385,0.18035706211628202
0.964,0.87366046578269,0.17306038991421152
0.9640625,0.8664036335753333,0.16211538161109917
0.964125,0.8591468013679866,0.1584670455100656
0.9641875,0.8555183852643115,0.15481870940903203
0.96425,0.8518899691606314,0.14752203720695656
0.9643125,0.8482615530569597,0.14387370110592462
0.964375,0.8410047208496145,0.13657702890385912
0.9644375000000001,0.8410047208496063,0.13657702890385082
0.9645,0.8373763047459328,0.13292869280281724
0.9645625,0.8373763047459328,0.12928035670178534
0.9646250000000001,0.8373763047459312,0.12928035670178034
0.9646875,0.8337478886422578,0.12563202060074677
0.96475,0.8337478886422578,0.12563202060074677
0.9648125000000001,0.8337478886422578,0.12563202060074677
0.964875,0.8337478886422578,0.12563202060074677
0.9649375,0.8337478886422578,0.12563202060074677
0.9650000000000001,0.8337478886422578,0.12563202060074677
0.9650625,0.8337478886422578,0.12563202060074677
0.965125,0.8337478886422578,0.12563202060074677
0.9651875000000001,0.8337478886422578,0.12928035670177868
0.96525,0.8337478886422561,0.12563202060074677
0.9653125,0.8301194725385844,0.12563202060074677
0.9653750000000001,0.8301194725385828,0.12563202060074677
0.9654375000000001,0.8301194725385844,0.1256320206007501
0.9655,0.8337478886422578,0.13292869280281724
0.9655625000000001,0.880917297990182,0.18400539821749312
0.9656250000000001,1.04419602265546,0.3846638837743086
0.9656875,1.1530485057656619,0.5160039834115175
0.96575,1.22561682783913,0.607212385937357
0.9658125000000001,1.2691578210832948,0.6655857635540006
0.965875,1.3380977270530894,0.749497493877773
0.9659375,1.3816387202971703,0.8042225353932768
0.966,1.436064961852266,0.8698925852118762
0.9660625,1.4215512974376154,0.8552992408077951
0.966125,1.4288081296449622,0.8662442491108958
0.9661875,1.4396933779559806,0.8808375935150283
0.96625,1.490491203407453,0.9392109711316203
0.9663125,1.515890116133155,0.9720459960409078
0.966375,1.5412890288588688,0.997584348748146
0.9664375000000001,1.559431109377259,1.0194743653543725
0.9665,1.5412890288588919,1.0012326848492046
0.9665625,1.5485458610662355,1.0085293570512683
0.9666250000000001,1.5086332839258083,0.9611009877378053
0.9666875,1.4904912034074413,0.9355626350305704
0.96675,1.4650922906817274,0.9063759462223018
0.9668125000000001,1.439693377955989,0.8735409213129679
0.966875,1.4360649618523156,0.8662442491109008
0.9669375,1.3997808008155816,0.8224642158984977
0.9670000000000001,1.370753471986135,0.7859808548880857
0.9670625,1.3380977270530894,0.7422008216757026
0.967125,1.280043069394315,0.6728824357560645
0.9671875000000001,1.2619009888758936,0.6509924191497983
0.96725,1.2401304922538416,0.6254540664425449
0.9673125,1.192961082906109,0.5597840166239704
0.9673750000000001,1.1639337540766408,0.5269489917145702
0.9674375000000001,1.1131359286252085,0.46857561409802456
0.9675,1.0514528548627606,0.39196055597631935
0.9675625000000001,1.011540277722322,0.3408838505618094
0.9676250000000001,0.9970266133076201,0.32264217005663154
0.9676875,0.9643708683745595,0.28251047294526216
0.96775,0.9534856200635394,0.2679171285411278
0.9678125000000001,0.9462287878561711,0.2606204563390324
0.967875,0.917201459026784,0.22048875922766303
0.9679375,0.8772888818863767,0.17670872601526003
0.968,0.8918025463010454,0.19130207041936784
0.9680625,0.8664036335753333,0.15846704551006394
0.968125,0.8700320496790067,0.1621153816110975
0.9681875,0.8301194725386191,0.11468701229768416
0.96825,0.8083489759165193,0.08914865959038108
0.9683125,0.7793216470871454,0.059961970782125694
0.968375,0.7357806538430712,0.005236929266633571
0.9684375000000001,0.72126698942831,-0.01300475123862061
0.9685,0.6740975800805558,-0.0750264649561915
0.9685625,0.670469163976884,-0.07867480105722342
0.9686250000000001,0.648698667354819,-0.1042131537644867
0.9686875,0.6232997546291051,-0.13339984257275536
0.96875,0.6160429224217584,-0.1406965147748225
0.9688125000000001,0.5797587613850063,-0.18447654798724708
0.968875,0.5833871774886796,-0.1808282118862135
0.9689375,0.5725019291776595,-0.19542155629034783
0.9690000000000001,0.5579882647629577,-0.21001490069449544
0.9690625,0.5616166808666294,-0.21001490069449544
0.969125,0.5325893520372422,-0.24284992560379767
0.9691875000000001,0.539846184244556,-0.23555325340176536
0.9692500000000001,0.5144472715188603,-0.26109160610898213
0.9693125,0.528960935933554,-0.24649826170484784
0.9693750000000001,0.5253325198298624,-0.24649826170486444
0.9694375000000001,0.5071904393115102,-0.26473994221001906
0.9695,0.5217041037262039,-0.2537949339069183
0.9695625000000001,0.507190439311507,-0.26838827831105594
0.9696250000000001,0.5108188554151837,-0.2647399422100174
0.9696875,0.5217041037262039,-0.2501465978058831
0.96975,0.49993360710416346,-0.2720366144120846
0.9698125,0.5144472715188405,-0.2574432700079668
0.969875,0.5217041037262039,-0.2501465978058831
0.9699375,0.5035620232078368,-0.2647399422100174
0.97,0.5144472715188438,-0.25379493390692826
0.9700625,0.5217041037262039,-0.24649826170484784
0.970125,0.4963051910004901,-0.2756849505131165
0.9701875,0.518075687622509,-0.2501465978059063
0.9702500000000001,0.49630519100047854,-0.2756849505131314
0.9703125,0.49630519100047854,-0.279333286614165
0.970375,0.48541994268946326,-0.2902782949172608
0.9704375000000001,0.46727786217107814,-0.31216831152348384
0.9705,0.46727786217107814,-0.31581664762451744
0.9705625,0.44550736554903775,-0.33770666423071893
0.9706250000000001,0.44550736554902953,-0.3377066642307272
0.9706875,0.4491357816527029,-0.33405832812969366
0.97075,0.4491357816527029,-0.3377066642307272
0.9708125000000001,0.45639261386005303,-0.3267616559276198
0.970875,0.45639261386005303,-0.3231133198265879
0.9709375,0.47453469437842,-0.30487163932142
0.9710000000000001,0.4854199426894369,-0.2902782949172907
0.9710625,0.46727786217107814,-0.3121683115234822
0.971125,0.46727786217107814,-0.3121683115234822
0.9711875000000001,0.470906278274773,-0.3048716393213918
0.9712500000000001,0.49267677489681505,-0.28298162271518534
0.9713125,0.5180756876225288,-0.2501465978058831
0.9713750000000001,0.5434746003482772,-0.21731157289653605
0.9714375000000001,0.568873513073991,-0.18447654798723714
0.9715,0.5942724257997047,-0.15893819528000205
0.9715625,0.6124145063180718,-0.13339984257276696
0.9716250000000001,0.637813419043812,-0.10421315376446348
0.9716875,0.6523270834585055,-0.08232313715826199
0.97175,0.6740975800805459,-0.056784784451026915
0.9718125,0.6922396605989145,-0.03854310394585569
0.971875,0.7067533250136312,-0.020301423440662887
0.9719375,0.7176385733246514,-0.0020597429354949764
0.972,0.7321522377393433,0.012533601468641012
0.9720625,0.7430374860503867,0.02712694587280189
0.972125,0.7539227343614018,0.041720290276929584
0.9721875,0.7611795665687504,0.05266529858003198
0.9722500000000001,0.7756932309834604,0.06361030688315264
0.9723125,0.7829500631908073,0.07455531518625338
0.972375,0.7902068953981508,0.08550032348934916
0.9724375000000001,0.7974637276055091,0.08914865959039767
0.9725,0.8010921437091825,0.09644533179246484
0.9725625,0.8047205598128558,0.103742003994532
0.9726250000000001,0.8083489759165359,0.1037420039945403
0.9726875,0.8156058081238826,0.11468701229764103
0.97275,0.8156058081238826,0.11468701229764103
0.9728125000000001,0.8192342242275577,0.11468701229764434
0.972875,0.8192342242275577,0.11833534839867627
0.9729375,0.822862640331231,0.12198368449970987
0.9730000000000001,0.8264910564349077,0.12563202060074344
0.9730625,0.8264910564349077,0.1219836844997132
0.973125,0.8264910564349077,0.1256320206007451
0.9731875000000001,0.8264910564349077,0.12563202060074677
0.9732500000000001,0.8264910564349077,0.12563202060074677
0.9733125,0.8264910564349077,0.12563202060074677
0.9733750000000001,0.8264910564349077,0.12563202060074344
0.9734375000000001,0.8264910564349077,0.1219836844997132
0.9735,0.8264910564349077,0.12563202060074677
0.9735625,0.8264910564349077,0.1219836844997132
0.9736250000000001,0.8264910564349077,0.12198368449971153
0.9736875,0.8264910564349077,0.12198368449971153
0.97375,0.819234224227561,0.11468701229764434
0.9738125,0.7140101572210771,-0.013004751238476275
0.973875,0.5833871774886796,-0.17353153968414303
0.9739375,0.45639261386011076,-0.3231133198265199
0.974,0.36205379516458763,-0.43986007505960945
0.9740625,0.2967423052983345,-0.5201234692825125
0.974125,0.260458144261617,-0.5675518385959275
0.9741875,0.24594447984691353,-0.5857935191011087
0.9742500000000001,0.20966031881013336,-0.633221888414605
0.9743125,0.17337615777339938,-0.6806502577280416
0.974375,0.19151823829175812,-0.6587602411218499
0.9744375000000001,0.18788982218810452,-0.6660569133238922
0.9745,0.19877507049912468,-0.6478152328187243
0.9745625,0.15886249335871733,-0.6952436021321611
0.9746250000000001,0.137091996736639,-0.7207819548394409
0.9746875,0.11532150011459863,-0.746320307546676
0.97475,0.11532150011459863,-0.7499686436477094
0.9748125000000001,0.1116930840109434,-0.7499686436476912
0.974875,0.13346358063297387,-0.7280786270414996
0.9749375,0.1443488289439941,-0.7134852826373654
0.9750000000000001,0.16974774166976395,-0.6806502577279918
0.9750625,0.21328873491382158,-0.6259252162125178
0.975125,0.20603190270647811,-0.6368702245156136
0.9751875000000001,0.24594447984690693,-0.5894418552021472
0.9752500000000001,0.2532013120542718,-0.5748485107979929
0.9753125,0.30037072140202603,-0.5164751331814557
0.9753750000000001,0.318512801920454,-0.49458511657518117
0.9754375000000001,0.37656745957921356,-0.42526673065555975
0.9755,0.4019663723049273,-0.39243170574625746
0.9755625,0.43099370113431446,-0.35959668083695523
0.9756250000000001,0.4672778621710963,-0.312168311523459
0.9756875,0.5071904393115036,-0.2610916061089888
0.97575,0.5543598486592578,-0.20636656459348507
0.9758125,0.5979008419033401,-0.15164152307798134
0.975875,0.6486986673548305,-0.08961980936033247
0.9759375,0.6595839156658506,-0.07502646495619814
0.976,0.6849828283915579,-0.04583977614793612
0.9760625,0.7031249089099595,-0.02394975954169315
0.976125,0.710381741117303,-0.013004751238597382
0.9761875,0.7248954055319933,0.0052369292665672106
0.9762500000000001,0.7720648148797986,0.059961970782133986
0.9763125,0.8083489759165325,0.10739034009557055
0.976375,0.8555183852642653,0.1621153816110494
0.9764375000000001,0.9026877946121068,0.22048875922769123
0.9765,0.9534856200635344,0.28251047294526216
0.9765625,1.0006550294112884,0.3372355144607659
0.9766250000000001,1.0478244387591054,0.3956088920773795
0.9766875,1.0913654320031863,0.4503339335928832
0.97675,1.1312780091435934,0.49776230290631973
0.9768125000000001,1.1530485057656783,0.5269489917146432
0.976875,1.171190586284037,0.5488390083208348
0.9769375,1.1820758345950575,0.5634323527249689
0.9770000000000001,1.1929610829060975,0.5743773610280947
0.9770625000000001,1.203846331217116,0.5889707054322257
0.977125,1.2111031634244627,0.5962673776342928
0.9771875000000001,1.2111031634244627,0.5962673776342928
0.9772500000000001,1.2111031634244611,0.5962673776342912
0.9773125,1.2074747473207876,0.5926190415332577
0.9773750000000001,1.2038463312171193,0.5889707054322257
0.9774375000000001,1.2111031634244578,0.5926190415332511
0.9775,1.2002179151134376,0.5780256971291167
0.9775625,1.2074747473207843,0.5889707054322174
0.977625,1.1893326668024289,0.5634323527249988
0.9776875,1.1857042506987374,0.5597840166239405
0.97775,1.174819002387717,0.5451906722198061
0.9778125,1.178447418491384,0.5488390083208314
0.977875,1.171190586284037,0.5415423361187643
0.9779375,1.15304850576567,0.5196523195125629
0.978,1.1494200896619902,0.5123556473104889
0.9780625000000001,1.14216325745463,0.50141063900737
0.978125,1.1276495930399366,0.48681729460323564
0.9781875,1.124021176936265,0.4831689585022037
0.9782500000000001,1.11676434472891,0.4685756140980594
0.9783125,1.1131359286252365,0.4685756140980594
0.978375,1.1058790964178897,0.45763060579495873
0.9784375000000001,1.0986222642105379,0.44668559749184966
0.9785,1.1022506803142114,0.4503339335928832
0.9785625,1.109507512521558,0.46127894189598395
0.9786250000000001,1.124021176936278,0.47952062240118176
0.9786875,1.1421632574546368,0.4977623029063413
0.97875,1.1494200896619835,0.5087073112094421
0.9788125000000001,1.1566769218693436,0.5160039834115275
0.978875,1.1639337540766903,0.5269489917146283
0.9789375,1.1711905862840337,0.537894000017724
0.9790000000000001,1.163933754076687,0.5305973278156553
0.9790625000000001,1.1639337540766854,0.5269489917146216
0.979125,1.160305337973012,0.523300655613588
0.9791875000000001,1.1566769218693302,0.523300655613578
0.9792500000000001,1.1494200896619802,0.5123556473104739
0.9793125,1.1349064252472867,0.4941139668053061
0.979375,1.1421632574546334,0.5014106390073734
0.9794375000000001,1.1457916735583102,0.5087073112094438
0.9795,1.1421632574546368,0.5014106390073767
0.9795625,1.1240211769362698,0.4795206224011751
0.979625,1.1022506803142311,0.4539822696939417
0.9796875,1.076851767588486,0.42479558088563657
0.97975,1.0550812709664457,0.3956088920773679
0.9798125,1.0333107743444052,0.3700705393701311
