data_analysis/experimental_data_3_17/Oscilloscope/acq0028.csv

#Digilent WaveForms Oscilloscope Acquisition
#Device Name: Discovery2
#Serial Number: SN:210321B02866
#Date Time: 2021-03-17 15:34:27.175
#Sample rate: 1600Hz
#Samples: 8192
#Trigger: None
#Channel 1: Range: 20 mV/div Offset: -1.615 V Attenuation: 1 X
#Channel 2: Range: 20 mV/div Offset: -1.314 V Attenuation: 1 X
#Power Supplies: ON
#Positive Supply: ON
#Voltage: 3.3 V
#Negative Supply: OFF
#Voltage: -1 V

Time (s),Channel 1 (V),Channel 2 (V)
-2.31375,1.5995582521879057,1.3505157977164979
-2.3131250000000003,1.6021992314849876,1.3588176202427371
-2.3125,1.6104522917883728,1.3495195790133487
-2.311875,1.6051703331942069,1.3571572557374922
-2.3112500000000002,1.600548619424312,1.3564931099353927
-2.310625,1.6084715573155564,1.343874339695517
-2.31,1.5992281297757704,1.373760900789978
-2.309375,1.608141434903425,1.3588176202427409
-2.3087500000000003,1.6101221693762364,1.354832745430146
-2.308125,1.6091318021398298,1.3757533381962648
-2.3075,1.6058305780184776,1.3505157977164979
-2.3068750000000002,1.601538986660718,1.3558289641332935
-2.3062500000000004,1.5979076401272305,1.3641307866595325
-2.305625,1.6028594763092594,1.3402215377839568
-2.305,1.5965871504786875,1.3564931099353927
-2.3043750000000003,1.598898007363635,1.351512016419647
-2.30375,1.6002184970121753,1.345866777101808
-2.303125,1.5975775177150935,1.3594817660448402
-2.3025,1.5992281297757704,1.3478592145081003
-2.3018750000000003,1.5975775177150942,1.3481912874091497
-2.30125,1.595266660830146,1.3461988500028517
-2.300625,1.5959269056544167,1.3395573919818573
-2.3000000000000003,1.5995582521879057,1.3458667771018018
-2.299375,1.601538986660718,1.3455347042007548
-2.29875,1.601538986660718,1.351512016419647
-2.298125,1.602529353897124,1.3518440893206969
-2.2975000000000003,1.6028594763092592,1.3511799435185976
-2.296875,1.6051703331942069,1.3578214015395917
-2.29625,1.6088016797276958,1.3541685996280448
-2.2956250000000002,1.6078113124912898,1.3564931099353927
-2.295,1.6071510676670182,1.3574893286385394
-2.294375,1.6051703331942069,1.3521761622217465
-2.29375,1.6048402107820716,1.3578214015395917
-2.2931250000000003,1.6078113124912885,1.3601459118469386
-2.2925,1.6107824142005083,1.359813838945891
-2.291875,1.6111125366126433,1.3618062763521883
-2.2912500000000002,1.6094619245519666,1.3568251828364426
-2.2906250000000004,1.6058305780184792,1.3561610370343433
-2.29,1.6035197211335301,1.3545006725290945
-2.289375,1.6018691090728532,1.3498516519143986
-2.2887500000000003,1.6021992314849887,1.3505157977164979
-2.288125,1.6005486194243121,1.3475271416070502
-2.2875,1.6012088642485827,1.3468629958049512
-2.286875,1.600548619424312,1.349187506112299
-2.2862500000000003,1.600548619424312,1.3488554332112497
-2.285625,1.6002184970121764,1.3498516519143986
-2.285,1.5982377625393642,1.3452026312997025
-2.2843750000000003,1.5972473953029582,1.341217756487106
-2.28375,1.5979076401272296,1.342878120992355
-2.283125,1.5992281297757704,1.344538485497603
-2.2825,1.6012088642485827,1.349187506112299
-2.2818750000000003,1.603519721133529,1.3521761622217452
-2.28125,1.6051703331942069,1.352840308023846
-2.280625,1.606160700430613,1.3554968912322436
-2.2800000000000002,1.6074811900791544,1.355164818331194
-2.279375,1.6071510676670187,1.3551648183311942
-2.27875,1.606160700430613,1.3558289641332935
-2.278125,1.6055004556063424,1.355164818331194
-2.2775000000000003,1.605170333194207,1.3548327454301445
-2.276875,1.6064908228427495,1.3564931099353938
-2.27625,1.6091318021398313,1.3591496931437905
-2.2756250000000002,1.6101221693762373,1.3608100576490392
-2.2750000000000004,1.6088016797276965,1.3581534744406425
-2.274375,1.6068209452548836,1.3564931099353927
-2.27375,1.6041799659578009,1.3548327454301443
-2.2731250000000003,1.602529353897124,1.3521761622217465
-2.2725,1.601208864248582,1.3511799435185967
-2.271875,1.5998883746000412,1.3495195790133487
-2.27125,1.5992281297757704,1.3485233603101996
-2.2706250000000003,1.599888374600041,1.3495195790133483
-2.27,1.6008787418364472,1.3495195790133487
-2.269375,1.601538986660718,1.3501837248154482
-2.2687500000000003,1.6012088642485827,1.349187506112299
-2.268125,1.5985678849514993,1.3442064125965525
-2.2675,1.5975775177150935,1.342213975190255
-2.266875,1.597907640127229,1.342213975190255
-2.2662500000000003,1.5992281297757698,1.3425460480913045
-2.265625,1.6012088642485827,1.3388932461797578
-2.265,1.6041799659578009,1.3432101938934042
-2.2643750000000002,1.6055004556063424,1.3475271416070504
-2.26375,1.6064908228427486,1.3508478706175486
-2.263125,1.607151067667019,1.352840308023846
-2.2625,1.606160700430613,1.3538365267269952
-2.2618750000000003,1.6055004556063426,1.3535044538259455
-2.26125,1.604510088369936,1.352840308023846
-2.260625,1.6041799659578009,1.352840308023846
-2.2600000000000002,1.6068209452548836,1.3564931099353927
-2.2593750000000004,1.6091318021398302,1.3598138389458885
-2.25875,1.6094619245519666,1.3594817660448402
-2.258125,1.6088016797276958,1.3568251828364426
-2.2575000000000003,1.6064908228427484,1.355164818331194
-2.256875,1.6035197211335295,1.3564931099353914
-2.25625,1.6021992314849887,1.3535044538259453
-2.255625,1.6031895987213947,1.3511799435185974
-2.2550000000000003,1.6041799659578004,1.350515797716498
-2.254375,1.6035197211335301,1.3505157977164979
-2.25375,1.6038498435456654,1.3511799435185974
-2.2531250000000003,1.6038498435456654,1.3511799435185974
-2.2525,1.6041799659577998,1.3511799435185965
-2.251875,1.6018691090728532,1.349187506112299
-2.25125,1.598898007363635,1.3475271416070504
-2.2506250000000003,1.5982377625393644,1.3461988500028523
-2.25,1.5998883746000412,1.3452026312997025
-2.249375,1.600548619424312,1.3475271416070504
-2.2487500000000002,1.6028594763092594,1.3511799435185974
-2.248125,1.6055004556063426,1.3558289641332946
-2.2475,1.6058305780184776,1.358485547341691
-2.246875,1.6064908228427484,1.3581534744406414
-2.2462500000000003,1.6071510676670189,1.357489328638542
-2.245625,1.6064908228427481,1.356825182836442
-2.245,1.6058305780184776,1.355164818331194
-2.2443750000000002,1.6058305780184776,1.3538365267269952
-2.2437500000000004,1.6064908228427481,1.3545006725290942
-2.243125,1.609792046964102,1.3581534744406414
-2.2425,1.6111125366126433,1.3601459118469397
-2.2418750000000003,1.6101221693762373,1.358485547341691
-2.24125,1.6084715573155595,1.3568251828364415
-2.240625,1.606160700430613,1.3541685996280448
-2.24,1.6048402107820716,1.351512016419647
-2.2393750000000003,1.6035197211335308,1.3498516519143993
-2.23875,1.601538986660718,1.3485233603101996
-2.238125,1.600548619424312,1.3475271416070504
-2.2375000000000003,1.6012088642485827,1.3478592145081003
-2.236875,1.6021992314849889,1.3481912874091504
-2.23625,1.602529353897124,1.349187506112299
-2.235625,1.602529353897124,1.3488554332112495
-2.2350000000000003,1.5998883746000423,1.3461988500028528
-2.234375,1.5975775177150935,1.3435422667944539
-2.23375,1.596917272890823,1.3435422667944539
-2.2331250000000002,1.5982377625393642,1.3455347042007522
-2.2325,1.6008787418364483,1.3481912874091513
-2.231875,1.6031895987213947,1.3511799435185974
-2.23125,1.6045100883699361,1.3531723809248957
-2.2306250000000003,1.605500455606342,1.3548327454301436
-2.23,1.6064908228427486,1.3558289641332937
-2.229375,1.6068209452548836,1.356161037034343
-2.2287500000000002,1.606160700430613,1.355164818331194
-2.2281250000000004,1.6051703331942073,1.3545006725290947
-2.2275,1.6051703331942069,1.3541685996280448
-2.226875,1.6064908228427484,1.355164818331194
-2.2262500000000003,1.6091318021398313,1.3588176202427409
-2.225625,1.6114426590247786,1.3598138389458898
-2.225,1.610782414200508,1.3591496931437905
-2.224375,1.6091318021398313,1.3578214015395917
-2.2237500000000003,1.6058305780184792,1.355164818331195
-2.223125,1.602529353897124,1.3525082351227962
-2.2225,1.6012088642485827,1.3495195790133487
-2.2218750000000003,1.5995582521879057,1.3488554332112495
-2.22125,1.599558252187906,1.3491875061122993
-2.220625,1.6002184970121764,1.3495195790133487
-2.22,1.6008787418364472,1.3498516519143986
-2.2193750000000003,1.6012088642485824,1.350183724815448
-2.21875,1.600548619424312,1.3495195790133487
-2.218125,1.5975775177150935,1.3468629958049512
-2.2175000000000002,1.5959269056544167,1.340885683586056
-2.216875,1.5965871504786886,1.340221537783958
-2.21625,1.598898007363635,1.3428781209923544
-2.215625,1.6018691090728532,1.3468629958049512
-2.2150000000000003,1.6038498435456645,1.3515120164196448
-2.214375,1.6055004556063426,1.3541685996280455
-2.21375,1.606160700430613,1.3558289641332935
-2.2131250000000002,1.607151067667019,1.3564931099353927
-2.2125000000000004,1.607151067667019,1.3561610370343433
-2.211875,1.6058305780184776,1.3554968912322436
-2.21125,1.6055004556063424,1.3548327454301443
-2.2106250000000003,1.6055004556063424,1.3538365267269952
-2.21,1.6074811900791555,1.3554968912322443
-2.209375,1.6101221693762373,1.3571572557374922
-2.20875,1.6101221693762373,1.3578214015395917
-2.2081250000000003,1.607811312491291,1.357489328638542
-2.2075,1.6064908228427484,1.3558289641332935
-2.206875,1.6055004556063424,1.3538365267269952
-2.2062500000000003,1.6031895987213947,1.3535044538259453
-2.205625,1.6015389866607177,1.3508478706175455
-2.205,1.6008787418364472,1.3461988500028517
-2.204375,1.600548619424312,1.3461988500028517
-2.2037500000000003,1.600878741836447,1.3471950687060004
-2.203125,1.601538986660718,1.34819128740915
-2.2025,1.6018691090728532,1.3488554332112495
-2.2018750000000002,1.5998883746000412,1.3471950687060008
-2.20125,1.5972473953029578,1.344870558398652
-2.200625,1.5962570280665522,1.3432101938934042
-2.2,1.5975775177150935,1.344538485497603
-2.1993750000000003,1.5992281297757698,1.3475271416070491
-2.19875,1.6018691090728545,1.3515120164196477
-2.198125,1.6048402107820716,1.352840308023846
-2.1975000000000002,1.6068209452548836,1.3531723809248957
-2.1968750000000004,1.6074811900791541,1.3548327454301436
-2.19625,1.608141434903425,1.3548327454301443
-2.195625,1.607151067667019,1.3538365267269952
-2.1950000000000003,1.606160700430613,1.3535044538259453
-2.194375,1.605170333194207,1.353172380924896
-2.19375,1.6055004556063424,1.3535044538259453
-2.193125,1.6088016797276958,1.3568251828364426
-2.1925000000000003,1.609131802139831,1.3598138389458887
-2.191875,1.608141434903425,1.3594817660448402
-2.19125,1.6064908228427484,1.35981383894589
-2.1906250000000003,1.6048402107820716,1.3564931099353927
-2.19,1.6031895987213944,1.3528403080238438
-2.189375,1.602529353897124,1.34819128740915
-2.18875,1.600548619424312,1.3438743396955035
-2.1881250000000003,1.5998883746000414,1.343542266794454
-2.1875,1.600548619424312,1.3438743396955035
-2.186875,1.6008787418364472,1.3448705583986527
-2.1862500000000002,1.6008787418364472,1.3461988500028517
-2.185625,1.6008787418364456,1.3468629958049505
-2.185,1.5975775177150935,1.3452026312997025
-2.184375,1.5949365384180108,1.3438743396955035
-2.1837500000000003,1.5955967832422813,1.3425460480913054
-2.183125,1.5965871504786882,1.3442064125965552
-2.1825,1.5982377625393642,1.34819128740915
-2.1818750000000002,1.6012088642485827,1.3531723809248957
-2.1812500000000004,1.6028594763092587,1.355164818331193
-2.180625,1.6045100883699361,1.356161037034343
-2.18,1.606160700430613,1.3568251828364426
-2.1793750000000003,1.6064908228427484,1.3568251828364426
-2.17875,1.606490822842748,1.3551648183311933
-2.178125,1.6055004556063424,1.3538365267269952
-2.1775,1.6051703331942069,1.3531723809248957
-2.1768750000000003,1.6064908228427477,1.3545006725290938
-2.17625,1.609792046964102,1.3578214015395917
-2.175625,1.6104522917883728,1.3594817660448402
-2.1750000000000003,1.6091318021398313,1.3588176202427409
-2.174375,1.607811312491289,1.3564931099353914
-2.17375,1.6058305780184776,1.3535044538259453
-2.173125,1.6035197211335301,1.3508478706175477
-2.1725000000000003,1.6025293538971244,1.3488554332112503
-2.171875,1.601538986660718,1.3475271416070504
-2.17125,1.6008787418364472,1.3468629958049512
-2.1706250000000002,1.6012088642485827,1.3478592145081003
-2.17,1.6021992314849887,1.3481912874091504
-2.169375,1.6021992314849887,1.349187506112299
-2.16875,1.6012088642485827,1.3478592145081003
-2.1681250000000003,1.5985678849515008,1.344870558398654
-2.1675,1.5975775177150937,1.3428781209923546
-2.166875,1.597907640127229,1.3435422667944539
-2.1662500000000002,1.5998883746000412,1.3455347042007522
-2.1656250000000004,1.6021992314849876,1.348855433211248
-2.165,1.6045100883699361,1.351512016419647
-2.164375,1.6058305780184776,1.352840308023846
-2.1637500000000003,1.6068209452548836,1.3538365267269952
-2.163125,1.6074811900791541,1.355164818331194
-2.1625,1.607151067667019,1.355164818331194
-2.161875,1.606160700430613,1.3545006725290945
-2.1612500000000003,1.6055004556063426,1.354168599628045
-2.160625,1.6048402107820716,1.3541685996280448
-2.16,1.6074811900791544,1.3571572557374922
-2.1593750000000003,1.609792046964102,1.35981383894589
-2.15875,1.6097920469641012,1.3594817660448395
-2.158125,1.6078113124912898,1.3581534744406414
-2.1575,1.6064908228427484,1.356161037034343
-2.1568750000000003,1.604510088369937,1.353172380924897
-2.15625,1.602529353897124,1.351512016419647
-2.155625,1.601538986660718,1.3498516519143986
-2.1550000000000002,1.6002184970121764,1.3485233603101996
-2.154375,1.6005486194243121,1.3478592145081008
-2.15375,1.6008787418364472,1.3488554332112495
-2.153125,1.6012088642485827,1.3501837248154482
-2.1525000000000003,1.6012088642485827,1.3508478706175475
-2.151875,1.600218497012175,1.348523360310198
-2.15125,1.5965871504786875,1.3448705583986527
-2.1506250000000002,1.5959269056544167,1.340885683586056
-2.1500000000000004,1.5972473953029576,1.3418819022892048
-2.149375,1.5985678849514997,1.344538485497603
-2.14875,1.601538986660718,1.3478592145081003
-2.1481250000000003,1.6038498435456654,1.3505157977164979
-2.1475,1.6051703331942075,1.3521761622217472
-2.146875,1.6064908228427484,1.3538365267269952
-2.14625,1.6068209452548836,1.3538365267269952
-2.1456250000000003,1.6064908228427486,1.3538365267269952
-2.145,1.6055004556063424,1.3538365267269952
-2.144375,1.6051703331942069,1.3531723809248957
-2.1437500000000003,1.6058305780184776,1.3541685996280448
-2.143125,1.6088016797276965,1.3571572557374934
-2.1425,1.6104522917883728,1.3594817660448402
-2.141875,1.6091318021398313,1.3591496931437905
-2.1412500000000003,1.607481190079155,1.3584855473416912
-2.140625,1.6055004556063424,1.3554968912322436
-2.14,1.6035197211335301,1.3511799435185974
-2.1393750000000002,1.6008787418364472,1.349187506112299
-2.13875,1.5995582521879053,1.3478592145081
-2.138125,1.5985678849514997,1.3471950687060008
-2.1375,1.5992281297757704,1.3475271416070504
-2.1368750000000003,1.600218497012176,1.3485233603101991
-2.13625,1.6008787418364474,1.349519579013349
-2.135625,1.601538986660718,1.3501837248154482
-2.1350000000000002,1.598898007363635,1.3471950687060008
-2.1343750000000004,1.5962570280665533,1.3452026312997034
-2.13375,1.5965871504786875,1.3455347042007522
-2.133125,1.596917272890823,1.3475271416070504
-2.1325000000000003,1.5992281297757704,1.3521761622217465
-2.131875,1.601869109072854,1.355164818331195
-2.13125,1.6038498435456654,1.3578214015395917
-2.130625,1.6051703331942069,1.3581534744406414
-2.1300000000000003,1.6061607004306127,1.3584855473416908
-2.129375,1.606160700430613,1.3581534744406414
-2.12875,1.6055004556063424,1.3564931099353927
-2.1281250000000003,1.6048402107820716,1.3558289641332935
-2.1275,1.6045100883699368,1.3551648183311946
-2.126875,1.6058305780184776,1.3564931099353927
-2.12625,1.6088016797276958,1.3591496931437905
-2.1256250000000003,1.6101221693762366,1.3601459118469392
-2.125,1.6091318021398313,1.358485547341691
-2.124375,1.6074811900791544,1.3558289641332935
-2.1237500000000002,1.6051703331942069,1.3531723809248957
-2.123125,1.6031895987213942,1.351512016419646
-2.1225,1.6021992314849887,1.3488554332112495
-2.121875,1.6008787418364472,1.3478592145081003
-2.1212500000000003,1.6005486194243121,1.3475271416070507
-2.120625,1.6012088642485829,1.3481912874091504
-2.12,1.6018691090728532,1.349187506112299
-2.1193750000000002,1.6021992314849887,1.3501837248154482
-2.1187500000000004,1.601208864248583,1.3485233603102003
-2.118125,1.5982377625393642,1.3448705583986527
-2.1175,1.5959269056544167,1.3435422667944539
-2.1168750000000003,1.5959269056544167,1.3448705583986527
-2.11625,1.5972473953029596,1.3468629958049527
-2.115625,1.6002184970121764,1.3501837248154482
-2.115,1.602529353897124,1.3525082351227962
-2.1143750000000003,1.6038498435456647,1.3535044538259449
-2.11375,1.6051703331942069,1.355164818331194
-2.113125,1.6058305780184776,1.3564931099353927
-2.1125000000000003,1.6055004556063424,1.3558289641332935
-2.111875,1.6051703331942067,1.3554968912322432
-2.11125,1.6048402107820716,1.3545006725290945
-2.110625,1.6045100883699361,1.3541685996280448
-2.1100000000000003,1.607481190079153,1.3568251828364415
-2.109375,1.6101221693762373,1.3591496931437905
-2.10875,1.6104522917883728,1.3591496931437905
-2.1081250000000002,1.6084715573155606,1.3581534744406414
-2.1075,1.6058305780184767,1.3568251828364415
-2.106875,1.6038498435456654,1.3545006725290945
-2.10625,1.6021992314849887,1.3521761622217465
-2.1056250000000003,1.601208864248583,1.3498516519143997
-2.105,1.6008787418364472,1.3478592145081005
-2.104375,1.6008787418364472,1.3485233603101996
-2.1037500000000002,1.601538986660718,1.3488554332112495
-2.1031250000000004,1.601869109072853,1.3491875061122989
-2.1025,1.6021992314849887,1.3495195790133487
-2.101875,1.5998883746000412,1.3478592145081003
-2.1012500000000003,1.5982377625393642,1.3452026312997025
-2.100625,1.5979076401272292,1.344206412596554
-2.1,1.5985678849514997,1.3455347042007522
-2.099375,1.5998883746000412,1.3471950687060008
-2.0987500000000003,1.6025293538971228,1.350183724815447
-2.098125,1.6045100883699361,1.3525082351227962
-2.0975,1.6058305780184776,1.3545006725290945
-2.0968750000000003,1.6068209452548836,1.3558289641332935
-2.09625,1.6068209452548834,1.3568251828364424
-2.095625,1.606160700430613,1.356161037034343
-2.095,1.6055004556063424,1.355164818331194
-2.0943750000000003,1.605170333194207,1.3545006725290947
-2.09375,1.6055004556063424,1.3548327454301443
-2.093125,1.6078113124912898,1.3588176202427409
-2.0925000000000002,1.6094619245519666,1.3611421305500888
-2.091875,1.6097920469641014,1.3608100576490385
-2.09125,1.608141434903425,1.3594817660448402
-2.090625,1.6058305780184776,1.3574893286385419
-2.0900000000000003,1.6038498435456663,1.3548327454301454
-2.089375,1.6018691090728525,1.3521761622217454
-2.08875,1.600548619424312,1.3498516519143986
-2.0881250000000002,1.6002184970121764,1.3485233603101996
-2.0875000000000004,1.6005486194243117,1.3481912874091502
-2.086875,1.6008787418364472,1.3485233603101996
-2.08625,1.6018691090728532,1.349187506112299
-2.0856250000000003,1.601538986660718,1.349187506112299
-2.085,1.5985678849514986,1.3445384854976021
-2.084375,1.5962570280665522,1.3425460480913047
-2.08375,1.5962570280665522,1.341217756487106
-2.0831250000000003,1.5972473953029578,1.3432101938934033
-2.0825,1.5998883746000412,1.3465309229039013
-2.081875,1.6021992314849887,1.34819128740915
-2.0812500000000003,1.6045100883699361,1.3498516519143986
-2.080625,1.6058305780184783,1.3515120164196475
-2.08,1.607151067667019,1.3525082351227962
-2.079375,1.607151067667019,1.3525082351227962
-2.0787500000000003,1.6061607004306135,1.3521761622217467
-2.078125,1.6051703331942069,1.3521761622217465
-2.0775,1.6045100883699361,1.3521761622217465
-2.0768750000000002,1.6064908228427484,1.3541685996280448
-2.07625,1.6097920469641023,1.3584855473416912
-2.075625,1.6101221693762373,1.3588176202427409
-2.075,1.6088016797276958,1.3578214015395917
-2.0743750000000003,1.6071510676670198,1.3541685996280464
-2.07375,1.603189598721394,1.3505157977164954
-2.073125,1.6018691090728532,1.3452026312997025
-2.0725000000000002,1.6012088642485827,1.342213975190255
-2.0718750000000004,1.6005486194243121,1.3415498293881558
-2.07125,1.6002184970121764,1.3428781209923544
-2.070625,1.6008787418364472,1.3442064125965534
