data_analysis/experimental_data_3_17/Oscilloscope/acq0019.csv

#Digilent WaveForms Oscilloscope Acquisition
#Device Name: Discovery2
#Serial Number: SN:210321B02866
#Date Time: 2021-03-17 15:28:35.455
#Sample rate: 3686.5Hz
#Samples: 8192
#Trigger: None
#Channel 1: Range: 50 mV/div Offset: -1.615 V Attenuation: 1 X
#Channel 2: Range: 50 mV/div Offset: -1.27 V Attenuation: 1 X
#Power Supplies: ON
#Positive Supply: ON
#Voltage: 3.3 V
#Negative Supply: OFF
#Voltage: -1 V

Time (s),Channel 1 (V),Channel 2 (V)
-2.19639222,1.6091318021398306,1.3599292272977073
-2.19612096,1.6084715573155601,1.3592650814956084
-2.1958497,1.6074811900791544,1.3586009356935091
-2.1955784400000002,1.6068209452548838,1.3576047169903604
-2.1953071800000004,1.6058305780184785,1.3562764253861623
-2.19503592,1.6051703331942064,1.3549481337819616
-2.19476466,1.6041799659578009,1.3536198421777634
-2.1944934,1.6035197211335293,1.3526236234746134
-2.19422214,1.6028594763092576,1.3519594776725146
-2.19395088,1.6008787418364465,1.351627404771465
-2.19367962,1.5995582521879057,1.3509632589693656
-2.1934083600000003,1.5992281297757707,1.3506311860683162
-2.1931371000000004,1.5992281297757704,1.3496349673651677
-2.19286584,1.598898007363635,1.3493028944641168
-2.19259458,1.598898007363635,1.3489708215630674
-2.19232332,1.5988980073636352,1.3486387486620175
-2.19205206,1.5992281297757707,1.348306675760968
-2.1917808,1.5998883746000412,1.3486387486620177
-2.19150954,1.6005486194243117,1.3489708215630671
-2.1912382800000003,1.600548619424312,1.3493028944641168
-2.1909670200000004,1.600878741836447,1.3496349673651666
-2.19069576,1.6008787418364472,1.3496349673651669
-2.1904245,1.6008787418364472,1.3493028944641172
-2.19015324,1.6012088642485824,1.3493028944641163
-2.18988198,1.6008787418364463,1.348638748662017
-2.18961072,1.598898007363635,1.3473104570578187
-2.1893394600000002,1.5979076401272294,1.3466463112557197
-2.1890682000000004,1.5965871504786886,1.3443218009483735
-2.18879694,1.5962570280665522,1.3429935093441723
-2.18852568,1.5962570280665522,1.3426614364431226
-2.18825442,1.5965871504786888,1.3433255822452226
-2.18798316,1.5975775177150942,1.343657655146272
-2.1877119,1.5982377625393642,1.3436576551462727
-2.18744064,1.5982377625393642,1.3449859467504708
-2.1871693800000003,1.5972473953029587,1.3469783841567682
-2.1868981200000004,1.5985678849514986,1.3486387486620162
-2.18662686,1.6008787418364478,1.3512953318704166
-2.1863556,1.6021992314849887,1.354283987979863
-2.18608434,1.604510088369937,1.3549481337819624
-2.18581308,1.6055004556063424,1.3552802066830116
-2.18554182,1.6055004556063424,1.354283987979863
-2.18527056,1.6061607004306129,1.3529556963756646
-2.1849993000000003,1.6074811900791537,1.3532877692767133
-2.1847280400000004,1.6084715573155597,1.3539519150788124
-2.18445678,1.6078113124912898,1.3549481337819622
-2.18418552,1.6078113124912898,1.3556122795840615
-2.18391426,1.6078113124912896,1.355612279584062
-2.183643,1.6074811900791541,1.3559443524851111
-2.18337174,1.607151067667019,1.3556122795840617
-2.1831004800000002,1.6068209452548838,1.3552802066830123
-2.1828292200000003,1.6064908228427486,1.3549481337819624
-2.18255796,1.6058305780184774,1.355280206683012
-2.1822867,1.6055004556063424,1.355280206683012
-2.18201544,1.605500455606342,1.3552802066830116
-2.18174418,1.6051703331942075,1.354948133781963
-2.18147292,1.6058305780184783,1.355944352485112
-2.18120166,1.607151067667019,1.35760471699036
-2.1809304000000003,1.60847155731556,1.359265081495608
-2.1806591400000004,1.6091318021398306,1.3612575189019052
-2.18038788,1.6094619245519666,1.362585810506106
-2.18011662,1.6094619245519666,1.3629178834071554
-2.17984536,1.609131802139831,1.3622537376050552
-2.1795741,1.6088016797276956,1.3612575189019065
-2.17930284,1.608141434903425,1.3602613001987578
-2.17903158,1.6071510676670195,1.3599292272977082
-2.1787603200000003,1.6061607004306135,1.3592650814956089
-2.1784890600000004,1.6051703331942078,1.3566084982872133
-2.1782178,1.6051703331942069,1.3546160608809126
-2.17794654,1.603849843545666,1.3552802066830119
-2.17767528,1.6035197211335301,1.3546160608809126
-2.17740402,1.6035197211335304,1.3546160608809126
-2.17713276,1.6041799659578009,1.3546160608809126
-2.1768615000000002,1.6041799659578009,1.3522915505735655
-2.1765902400000003,1.6038498435456656,1.3506311860683176
-2.1763189800000005,1.6025293538971257,1.3493028944641188
-2.17604772,1.6008787418364472,1.3486387486620177
-2.17577646,1.600548619424312,1.3483066757609687
-2.1755052,1.6005486194243121,1.3489708215630674
-2.17523394,1.6008787418364474,1.3489708215630676
-2.17496268,1.601538986660718,1.349302894464117
-2.1746914200000003,1.601538986660718,1.349302894464117
-2.1744201600000004,1.601538986660718,1.349302894464117
-2.1741489,1.6015389866607181,1.3499670402662167
-2.17387764,1.6018691090728532,1.3502991131672661
-2.17360638,1.601869109072853,1.350299113167266
-2.17333512,1.6015389866607173,1.3499670402662156
-2.17306386,1.6002184970121764,1.3479746028599182
-2.1727926,1.598898007363635,1.3463142383546696
-2.1725213400000003,1.5979076401272294,1.3446538738494218
-2.1722500800000004,1.5969172728908239,1.3433255822452232
-2.17197882,1.5965871504786875,1.3426614364431226
-2.17170756,1.5962570280665525,1.3426614364431226
-2.1714363,1.5965871504786884,1.343325582245223
-2.17116504,1.597577517715094,1.3443218009483715
-2.17089378,1.5985678849514997,1.3449859467504708
-2.17062252,1.5998883746000405,1.34565009255257
-2.1703512600000003,1.6012088642485816,1.3473104570578172
-2.1700800000000005,1.6021992314849873,1.348638748662016
-2.16980874,1.6035197211335301,1.3499670402662165
-2.16953748,1.6041799659578018,1.350963258969367
-2.16926622,1.6048402107820723,1.3519594776725155
-2.16899496,1.6055004556063426,1.3526236234746145
-2.1687237,1.6058305780184776,1.3532877692767136
-2.1684524400000003,1.6061607004306129,1.3539519150788129
-2.1681811800000004,1.6064908228427481,1.354616060880912
-2.16790992,1.6068209452548838,1.3552802066830123
-2.16763866,1.6074811900791544,1.3556122795840617
-2.1673674,1.607151067667019,1.3556122795840615
-2.16709614,1.607151067667019,1.3552802066830119
-2.16682488,1.6071510676670189,1.354948133781962
-2.16655362,1.6064908228427484,1.3546160608809126
-2.1662823600000003,1.6061607004306133,1.3546160608809126
-2.1660111000000004,1.6058305780184778,1.3546160608809126
-2.16573984,1.6055004556063424,1.353951915078813
-2.16546858,1.605170333194207,1.353951915078813
-2.16519732,1.6051703331942069,1.3536198421777637
-2.16492606,1.6051703331942075,1.3539519150788137
-2.1646548,1.6068209452548836,1.3556122795840617
-2.16438354,1.6081414349034244,1.3576047169903591
-2.1641122800000003,1.6097920469641005,1.3595971543966565
-2.1638410200000004,1.610452291788372,1.3609254460008553
-2.16356976,1.610782414200508,1.3615895918029566
-2.1632985000000002,1.610782414200508,1.3612575189019072
-2.16302724,1.6104522917883721,1.3609254460008564
-2.16275598,1.6097920469641018,1.3602613001987576
-2.16248472,1.6094619245519666,1.359929227297708
-2.1622134600000003,1.608471557315561,1.3589330085945592
-2.1619422000000004,1.6074811900791552,1.3569405711882623
-2.16167094,1.6061607004306124,1.355612279584061
-2.16139968,1.6048402107820716,1.354283987979863
-2.16112842,1.6041799659578,1.3529556963756633
-2.16085716,1.6031895987213944,1.352291550573564
-2.1605859,1.6028594763092592,1.351295331870415
-2.16031464,1.6021992314849887,1.3509632589693656
-2.1600433800000003,1.6018691090728534,1.3506311860683162
-2.1597721200000004,1.6012088642485833,1.3499670402662172
-2.15950086,1.6008787418364472,1.3496349673651669
-2.1592296,1.6005486194243121,1.3489708215630676
-2.15895834,1.6008787418364472,1.3489708215630676
-2.15868708,1.6008787418364472,1.349302894464117
-2.15841582,1.6008787418364472,1.349302894464117
-2.15814456,1.6012088642485824,1.3496349673651666
-2.1578733000000003,1.6008787418364474,1.3496349673651669
-2.1576020400000004,1.6012088642485822,1.349967040266216
-2.15733078,1.6012088642485827,1.3502991131672661
-2.1570595200000002,1.6015389866607177,1.3506311860683158
-2.15678826,1.6012088642485818,1.3502991131672646
-2.156517,1.6002184970121758,1.348638748662017
-2.15624574,1.598898007363635,1.346978384156769
-2.1559744800000002,1.5979076401272294,1.345318019651521
-2.1557032200000004,1.5969172728908239,1.3439897280473228
-2.15543196,1.5965871504786875,1.343325582245222
-2.1551607,1.5965871504786875,1.3429935093441725
-2.15488944,1.5969172728908236,1.3429935093441732
-2.15461818,1.5975775177150942,1.3436576551462727
-2.15434692,1.5982377625393644,1.3443218009483717
-2.15407566,1.598898007363635,1.3453180196515204
-2.1538044000000003,1.6002184970121758,1.3466463112557188
-2.1535331400000004,1.6015389866607168,1.3483066757609663
-2.15326188,1.602529353897124,1.3496349673651669
-2.15299062,1.6035197211335301,1.350631186068316
-2.15271936,1.604179965957801,1.351627404771466
-2.1524481,1.6045100883699364,1.3526236234746145
-2.15217684,1.6048402107820716,1.3532877692767136
-2.15190558,1.6051703331942067,1.3536198421777632
-2.1516343200000003,1.6055004556063421,1.3546160608809117
-2.1513630600000004,1.6058305780184772,1.3552802066830112
-2.1510918,1.606160700430613,1.355280206683012
-2.1508205400000002,1.6064908228427481,1.3556122795840615
-2.15054928,1.6061607004306129,1.3556122795840617
-2.15027802,1.6058305780184774,1.3556122795840617
-2.15000676,1.6055004556063424,1.3556122795840617
-2.1497355000000002,1.6055004556063424,1.3552802066830123
-2.1494642400000004,1.605170333194207,1.3549481337819624
-2.14919298,1.6048402107820716,1.3546160608809124
-2.14892172,1.6048402107820716,1.353951915078813
-2.14865046,1.6048402107820712,1.353619842177763
-2.1483792,1.6045100883699372,1.3532877692767147
-2.14810794,1.6058305780184783,1.3546160608809135
-2.14783668,1.607151067667019,1.3566084982872109
-2.1475654200000003,1.6081414349034246,1.3582688627924588
-2.1472941600000004,1.6091318021398304,1.3595971543966572
-2.1470229,1.6094619245519666,1.359929227297708
-2.14675164,1.6094619245519666,1.3602613001987578
-2.14648038,1.6091318021398306,1.3602613001987576
-2.14620912,1.6084715573155604,1.3599292272977077
-2.14593786,1.608141434903425,1.3595971543966583
-2.1456666,1.6071510676670195,1.3586009356935096
-2.1453953400000003,1.606160700430614,1.3579367898914103
-2.1451240800000004,1.6051703331942078,1.3569405711882614
-2.14485282,1.6045100883699361,1.3559443524851114
-2.14458156,1.6038498435456656,1.3542839879798636
-2.1443103,1.6028594763092587,1.3526236234746134
-2.14403904,1.6021992314849884,1.351627404771465
-2.14376778,1.601538986660718,1.3509632589693656
-2.1434965200000002,1.6012088642485829,1.349967040266217
-2.1432252600000004,1.6005486194243126,1.3489708215630682
-2.142954,1.6002184970121762,1.3483066757609676
-2.14268274,1.5998883746000412,1.3479746028599182
-2.14241148,1.5995582521879057,1.3479746028599182
-2.14214022,1.599558252187906,1.3479746028599189
-2.14186896,1.5998883746000414,1.348638748662018
-2.1415977,1.600548619424312,1.3489708215630674
-2.1413264400000003,1.600878741836447,1.3496349673651666
-2.1410551800000004,1.6012088642485824,1.3499670402662163
-2.14078392,1.6015389866607181,1.3499670402662165
-2.14051266,1.6018691090728532,1.3499670402662165
-2.1402414,1.602199231484988,1.3499670402662163
-2.13997014,1.6015389866607173,1.349634967365166
-2.13969888,1.6002184970121764,1.3476425299588686
-2.13942762,1.599228129775771,1.3463142383546702
-2.1391563600000003,1.5979076401272296,1.3466463112557192
-2.1388851000000004,1.5969172728908239,1.3466463112557194
-2.13861384,1.596917272890823,1.3456500925525703
-2.13834258,1.596917272890823,1.3456500925525703
-2.13807132,1.597247395302959,1.3459821654536206
-2.13780006,1.5979076401272294,1.3466463112557197
-2.1375288,1.598898007363635,1.3473104570578187
-2.1372575400000002,1.5998883746000407,1.3483066757609674
-2.1369862800000003,1.6012088642485816,1.3496349673651657
-2.13671502,1.6018691090728536,1.3509632589693659
-2.13644376,1.6028594763092594,1.3516274047714651
-2.1361725,1.603519721133531,1.3522915505735653
-2.13590124,1.604179965957801,1.3529556963756646
-2.13562998,1.6045100883699364,1.3536198421777637
-2.13535872,1.6048402107820716,1.353951915078813
-2.1350874600000003,1.6055004556063421,1.3542839879798627
-2.1348162000000004,1.6061607004306124,1.3549481337819616
-2.13454494,1.6064908228427486,1.3552802066830125
-2.13427368,1.607151067667019,1.3562764253861612
-2.13400242,1.607151067667019,1.3562764253861612
-2.13373116,1.6071510676670189,1.356276425386161
-2.1334599,1.6068209452548836,1.3559443524851114
-2.13318864,1.6064908228427486,1.3559443524851114
-2.1329173800000003,1.6061607004306133,1.3552802066830123
-2.1326461200000004,1.6058305780184778,1.3546160608809132
-2.13237486,1.6051703331942069,1.354283987979863
-2.1321036,1.6048402107820718,1.3536198421777637
-2.13183234,1.6045100883699364,1.3536198421777637
-2.13156108,1.6048402107820723,1.3539519150788137
-2.13128982,1.606160700430613,1.3556122795840617
-2.1310185600000002,1.6074811900791537,1.3576047169903591
-2.1307473000000003,1.6081414349034244,1.359265081495607
-2.1304760400000005,1.6094619245519648,1.3605933730998057
-2.13020478,1.6101221693762373,1.361257518901907
-2.12993352,1.6101221693762364,1.3609254460008557
-2.12966226,1.6094619245519657,1.3599292272977068
-2.129391,1.6084715573155604,1.3586009356935087
-2.12911974,1.608141434903425,1.35760471699036
-2.1288484800000003,1.6074811900791546,1.3572726440893106
-2.1285772200000004,1.6064908228427492,1.356276425386162
-2.12830596,1.605500455606342,1.3549481337819616
-2.1280347,1.6045100883699361,1.3536198421777634
-2.12776344,1.6038498435456652,1.3522915505735642
-2.12749218,1.60351972113353,1.3519594776725146
-2.12722092,1.6028594763092594,1.3512953318704153
-2.12694966,1.6018691090728532,1.3502991131672661
-2.1266784000000003,1.6008787418364476,1.349634967365167
-2.1264071400000004,1.6005486194243121,1.3493028944641172
-2.12613588,1.6002184970121764,1.3486387486620177
-2.12586462,1.5998883746000414,1.348306675760968
-2.12559336,1.6005486194243121,1.3483066757609679
-2.1253221,1.6008787418364474,1.3483066757609676
-2.12505084,1.601538986660718,1.3479746028599182
-2.1247795800000002,1.601538986660718,1.3479746028599182
-2.1245083200000003,1.602199231484988,1.3483066757609676
-2.1242370600000005,1.6025293538971235,1.3489708215630665
-2.1239658,1.602529353897124,1.3499670402662165
-2.12369454,1.602859476309259,1.349967040266217
-2.12342328,1.6025293538971228,1.3502991131672644
-2.12315202,1.601208864248582,1.3483066757609672
-2.12288076,1.5995582521879057,1.3466463112557194
-2.1226095000000003,1.5979076401272296,1.3456500925525707
-2.1223382400000004,1.5969172728908239,1.3443218009483724
-2.12206698,1.5962570280665522,1.343325582245222
-2.12179572,1.5962570280665522,1.3429935093441725
-2.12152446,1.5965871504786882,1.3429935093441732
-2.1212532,1.5972473953029585,1.3436576551462724
-2.12098194,1.597907640127229,1.3446538738494211
-2.12071068,1.5985678849514997,1.3456500925525703
-2.1204394200000003,1.6002184970121758,1.347310457057818
-2.1201681600000004,1.6015389866607168,1.3489708215630658
-2.1198969,1.6028594763092594,1.3502991131672661
-2.11962564,1.603849843545665,1.3512953318704148
-2.11935438,1.6045100883699361,1.352291550573565
-2.11908312,1.6045100883699364,1.3529556963756642
-2.11881186,1.6048402107820716,1.3532877692767136
-2.1185406,1.6051703331942067,1.3542839879798625
-2.1182693400000003,1.6055004556063421,1.3546160608809124
-2.1179980800000004,1.6058305780184772,1.3552802066830112
-2.11772682,1.606160700430613,1.3556122795840617
-2.1174555600000002,1.606160700430613,1.3559443524851111
-2.1171843,1.6058305780184774,1.3559443524851111
-2.11691304,1.6055004556063421,1.3556122795840615
-2.11664178,1.6051703331942069,1.3549481337819622
-2.1163705200000003,1.6048402107820718,1.3542839879798632
-2.1160992600000004,1.6045100883699364,1.3539519150788133
-2.115828,1.6041799659578007,1.3532877692767136
-2.11555674,1.6038498435456654,1.3532877692767136
-2.11528548,1.6038498435456654,1.3532877692767133
-2.11501422,1.603849843545666,1.3529556963756646
-2.11474296,1.605500455606343,1.3546160608809132
-2.1144717,1.607151067667019,1.3562764253861612
-2.1142004400000003,1.60847155731556,1.357936789891409
-2.1139291800000004,1.609792046964101,1.358933008594558
-2.11365792,1.6101221693762373,1.3589330085945588
-2.11338666,1.6097920469641023,1.3589330085945588
-2.1131154,1.609461924551966,1.3579367898914088
-2.11284414,1.6088016797276956,1.3569405711882603
-2.11257288,1.608141434903425,1.3566084982872109
-2.11230162,1.6071510676670195,1.3559443524851116
-2.1120303600000003,1.606160700430614,1.354948133781963
-2.1117591000000004,1.6048402107820734,1.3536198421777652
-2.11148784,1.6038498435456654,1.3516274047714651
-2.1112165800000002,1.6035197211335304,1.3509632589693659
-2.11094532,1.603189598721394,1.350299113167266
-2.11067406,1.6025293538971237,1.3499670402662163
-2.1104028,1.6018691090728532,1.3496349673651669
-2.1101315400000002,1.6015389866607181,1.3486387486620182
-2.1098602800000004,1.6008787418364478,1.3479746028599189
-2.10958902,1.6005486194243117,1.3473104570578185
-2.10931776,1.5998883746000412,1.3466463112557194
-2.1090465,1.5998883746000414,1.346978384156769
-2.10877524,1.6002184970121767,1.3469783841567693
-2.10850398,1.6005486194243121,1.3473104570578187
-2.10823272,1.6008787418364472,1.3473104570578187
-2.1079614600000003,1.6012088642485824,1.347974602859918
-2.1076902000000004,1.6015389866607177,1.3483066757609676
-2.10741894,1.601538986660718,1.3486387486620177
-2.10714768,1.601869109072853,1.3486387486620177
-2.10687642,1.6018691090728532,1.3489708215630671
-2.10660516,1.6018691090728525,1.348638748662017
-2.1063339,1.600548619424312,1.3473104570578187
-2.10606264,1.5992281297757711,1.345650092552571
-2.1057913800000003,1.5982377625393651,1.3443218009483724
-2.1055201200000004,1.5975775177150944,1.3433255822452235
-2.10524886,1.5965871504786875,1.3433255822452221
-2.1049776000000002,1.5962570280665525,1.3433255822452221
-2.10470634,1.596917272890824,1.3436576551462727
-2.10443508,1.5982377625393644,1.3443218009483715
-2.10416382,1.5985678849514997,1.3449859467504708
-2.1038925600000002,1.5992281297757702,1.3459821654536195
-2.1036213000000004,1.6005486194243108,1.3469783841567682
-2.10335004,1.6018691090728538,1.3486387486620186
-2.10307878,1.6031895987213947,1.350631186068316
-2.10280752,1.603849843545666,1.3522915505735653
-2.10253626,1.6045100883699361,1.3532877692767142
-2.102265,1.6045100883699364,1.3539519150788133
-2.10199374,1.6048402107820716,1.354283987979863
-2.1017224800000003,1.6051703331942067,1.354948133781962
-2.1014512200000004,1.6061607004306122,1.355612279584061
-2.10117996,1.6068209452548836,1.3562764253861612
-2.1009087,1.6068209452548836,1.3569405711882605
-2.10063744,1.6068209452548834,1.3566084982872102
-2.10036618,1.6064908228427481,1.3559443524851111
-2.10009492,1.606160700430613,1.3556122795840617
-2.09982366,1.6055004556063426,1.3552802066830123
-2.0995524000000003,1.6055004556063424,1.3549481337819624
-2.0992811400000004,1.605170333194207,1.3549481337819622
-2.09900988,1.6045100883699361,1.3546160608809126
-2.09873862,1.6048402107820714,1.354948133781962
-2.09846736,1.6045100883699361,1.3549481337819622
-2.0981961,1.6045100883699368,1.3549481337819629
-2.09792484,1.606160700430613,1.3566084982872109
-2.0976535800000002,1.6074811900791537,1.3582688627924588
-2.0973823200000004,1.6088016797276947,1.3599292272977064
-2.09711106,1.6094619245519668,1.3599292272977077
-2.0968398,1.6101221693762373,1.3595971543966583
-2.09656854,1.6101221693762369,1.358933008594558
-2.09629728,1.6097920469641018,1.3582688627924593
-2.09602602,1.609461924551966,1.3579367898914094
-2.09575476,1.608141434903425,1.35760471699036
-2.0954835000000003,1.6068209452548843,1.3562764253861619
-2.0952122400000004,1.6061607004306138,1.3546160608809141
-2.09494098,1.6051703331942067,1.3532877692767133
-2.09466972,1.6048402107820716,1.3526236234746143
-2.09439846,1.6041799659578007,1.3532877692767138
-2.0941272,1.6038498435456652,1.353619842177763
