data_analysis/experimental_data_3_17/Oscilloscope/acq0063.csv

#Digilent WaveForms Oscilloscope Acquisition
#Device Name: Discovery2
#Serial Number: SN:210321B02866
#Date Time: 2021-03-17 15:54:07.174
#Sample rate: 80000Hz
#Samples: 8192
#Trigger: None
#Channel 1: Range: 50 mV/div Offset: -535 mV Attenuation: 1 X
#Channel 2: Range: 50 mV/div Offset: 6 mV Attenuation: 1 X
#Power Supplies: ON
#Positive Supply: ON
#Voltage: 3.3 V
#Negative Supply: OFF
#Voltage: -1 V

Time (s),Channel 1 (V),Channel 2 (V)
5.1588,0.4609168221284423,0.03596674695237879
5.1588125,0.4609168221284423,0.03596674695237879
5.158825,0.4609168221284423,0.03596674695237879
5.1588375,0.4609168221284423,0.03596674695237879
5.15885,0.4609168221284423,0.03563467405132907
5.1588625,0.4609168221284423,0.03563467405132907
5.158875,0.46058669971630695,0.03596674695237879
5.1588875,0.46058669971630695,0.03596674695237879
5.1589,0.46058669971630695,0.03563467405132907
5.1589125,0.46058669971630695,0.03563467405132907
5.158925,0.4605866997163074,0.03563467405132907
5.1589375,0.4609168221284309,0.035634674051317594
5.15895,0.460586699716308,0.03530260115028041
5.1589625,0.46058669971629707,0.03563467405132907
5.158975,0.46025657730417413,0.03563467405132907
5.1589875,0.46058669971629856,0.03563467405132061
5.159,0.4602565773041758,0.03530260115028358
5.1590125,0.4602565773041647,0.0353026011502863
5.159025,0.4599264548920419,0.03563467405132333
5.1590375,0.4599264548920415,0.035302601150279354
5.15905,0.46025657730416436,0.035302601150279354
5.1590625,0.4602565773041678,0.035302601150279354
5.159075,0.4599264548920449,0.035302601150279354
5.1590875,0.4602565773041693,0.035302601150279354
5.1591,0.4599264548920464,0.035302601150279354
5.1591125,0.4599264548920362,0.03497052824922964
5.159125,0.4599264548920362,0.03497052824924141
5.1591375,0.4599264548920362,0.035302601150278445
5.15915,0.45992645489202616,0.03497052824922964
5.1591625,0.4595963324799032,0.03497052824922964
5.159175,0.45959633247990084,0.03463845534817992
5.1591875,0.45959633247990084,0.03463845534817992
5.1592,0.45959633247990084,0.03463845534817282
5.1592125,0.45959633247990084,0.03430638244713564
5.159225,0.45926621006776547,0.03430638244713564
5.1592375,0.45926621006776547,0.03463845534817282
5.15925,0.4592662100677616,0.03430638244712628
5.1592625,0.45893608765563865,0.03397430954608909
5.159275,0.45926621006776547,0.03430638244712779
5.1592875,0.45926621006776547,0.033974309546090604
5.1593,0.4589360876556301,0.033974309546081397
5.1593124999999995,0.4589360876556301,0.03430638244711843
5.159325,0.4589360876556301,0.03397430954608109
5.1593375,0.4589360876556199,0.03397430954608049
5.15935,0.45860596524349706,0.03397430954608049
5.1593625,0.4586059652434948,0.03397430954607173
5.159375,0.4586059652434948,0.03364223664503455
5.1593875,0.4586059652434948,0.03364223664503078
5.1594,0.4586059652434948,0.03364223664503078
5.1594125,0.45827584283136513,0.03364223664503078
5.159425,0.4586059652434879,0.03364223664503078
5.1594375,0.45827584283136363,0.03364223664503078
5.15945,0.4586059652434864,0.03364223664503078
5.1594625,0.4586059652434948,0.03331016374398106
5.159475,0.4586059652434948,0.03331016374398106
5.1594875,0.4582758428313594,0.03364223664502972
5.1594999999999995,0.4582758428313594,0.03331016374399254
5.1595125,0.4579457204192245,0.03331016374398106
5.159525,0.4582758428313594,0.03297809084294191
5.1595375,0.4582758428313594,0.033310163743978945
5.15955,0.45794572041922404,0.03297809084294041
5.1595625,0.45794572041922404,0.03331016374397744
5.159575,0.45827584283135203,0.03297809084293874
5.1595875,0.45794572041922915,0.033310163743975926
5.1596,0.45794572041922404,0.03264601794188752
5.1596125,0.45794572041922404,0.0329780908429247
5.159625,0.4576155980070887,0.03264601794188163
5.1596375,0.4576155980070887,0.03264601794188163
5.15965,0.4576155980070887,0.032978090842928624
5.1596625,0.4576155980070887,0.032646017941891446
5.159675,0.4572854755949557,0.03264601794188163
5.1596874999999995,0.4579457204192015,0.03264601794188163
5.1597,0.45761559800708895,0.03264601794188163
5.1597125,0.45728547559496396,0.03231394504085335
5.159725,0.4576155980070869,0.03297809084292772
5.1597375,0.4572854755949533,0.032313945040841126
5.15975,0.4572854755949533,0.032646017941878304
5.1597625,0.4576155980070812,0.03264601794188163
5.159775,0.45728547559495825,0.03264601794188163
5.1597875,0.4572854755949533,0.03264601794188163
5.1598,0.4572854755949533,0.03264601794188163
5.1598125,0.4572854755949533,0.03231394504083191
5.159825,0.4572854755949533,0.03231394504083191
5.1598375,0.4572854755949533,0.03231394504082889
5.15985,0.4572854755949533,0.03198187213979186
5.1598625,0.4572854755949518,0.03264601794187861
5.1598749999999995,0.4569553531828291,0.031981872139804544
5.1598875,0.456955353182818,0.031981872139782194
5.1599,0.45695535318280717,0.031981872139782194
5.1599125,0.4566252307706843,0.031981872139782194
5.159925,0.45695535318280867,0.031981872139782194
5.1599375,0.4566252307706858,0.031981872139782194
5.15995,0.45662523077069045,0.031981872139782194
5.1599625,0.45695535318281316,0.031981872139782194
5.159975,0.456955353182818,0.03198187213977585
5.1599875,0.456955353182818,0.03164979923873882
5.16,0.4566252307706826,0.031981872139782194
5.1600125,0.4566252307706826,0.031981872139782194
5.160025,0.4566252307706826,0.031981872139782194
5.1600375,0.4566252307706826,0.031981872139782194
5.16005,0.45629510835854725,0.031981872139780536
5.1600624999999996,0.45629510835854725,0.03164979923874335
5.160075,0.45629510835854725,0.031981872139782194
5.1600875,0.45629510835854725,0.03164979923873248
5.1601,0.45629510835854725,0.03164979923873248
5.1601125,0.45629510835854725,0.03164979923873248
5.160125,0.45629510835854725,0.03164979923873248
5.1601375,0.4566252307706747,0.03164979923873248
5.16015,0.45629510835855175,0.03164979923873248
5.1601625,0.45629510835854725,0.03164979923873248
5.160175,0.45629510835854725,0.03164979923873248
5.1601875,0.45629510835854725,0.031981872139777365
5.1602,0.45629510835854725,0.03164979923874018
5.1602125,0.45662523077067935,0.03164979923873248
5.160225,0.4562951083585564,0.03164979923873248
5.1602375,0.45629510835854725,0.03164979923873248
5.16025,0.45629510835854725,0.03164979923873248
5.1602625,0.45662523077068234,0.03164979923873248
5.160275,0.45629510835854725,0.03164979923873248
5.1602875,0.45629510835854725,0.03164979923873248
5.1603,0.45629510835854725,0.03164979923873248
5.1603125,0.45629510835854725,0.03164979923873248
5.160325,0.45629510835854725,0.03164979923873248
5.1603375,0.45629510835854725,0.03164979923873248
5.16035,0.45629510835854725,0.03164979923873248
5.1603625,0.45629510835854725,0.03164979923873248
5.160375,0.45629510835854725,0.03164979923873248
5.1603875,0.45629510835854725,0.03164979923873248
5.1604,0.45629510835854725,0.03164979923873248
5.1604125,0.45629510835854725,0.03164979923873248
5.160425,0.4559649859464138,0.03164979923873444
5.1604375,0.45629510835853676,0.031981872139771626
5.16045,0.45629510835854725,0.031981872139782194
5.1604625,0.45629510835854725,0.03198187213977072
5.160475,0.45629510835854725,0.03164979923873353
5.1604875,0.45596498594642176,0.03198187213977223
5.1605,0.45629510835854453,0.0316497992387352
5.1605125,0.45629510835854725,0.031649799238740936
5.160525,0.45629510835854725,0.03198187213977797
5.1605375,0.45629510835854725,0.0319818721397754
5.16055,0.45629510835854725,0.031649799238738216
5.1605625,0.45629510835854725,0.03164979923873248
5.160575,0.45629510835854725,0.03164979923873248
5.1605875,0.45629510835854725,0.03164979923873248
5.1606,0.45629510835854725,0.03164979923873248
5.1606125,0.45629510835854725,0.03164979923873248
5.160625,0.45629510835854725,0.03164979923873248
5.1606375,0.45629510835854725,0.031981872139782194
5.16065,0.45629510835854725,0.031981872139770565
5.1606625,0.45629510835854725,0.031649799238733387
5.160675,0.45629510835854725,0.03164979923873248
5.1606875,0.45629510835854725,0.03164979923873248
5.1607,0.45629510835854725,0.03164979923873248
5.1607125,0.45629510835854725,0.03164979923873248
5.160725,0.45629510835854725,0.03198187213977525
5.1607375,0.45629510835854725,0.03164979923873806
5.16075,0.45662523077067724,0.03164979923873791
5.1607625,0.4562951083585543,0.031981872139775096
5.160775,0.45629510835854725,0.031649799238736405
5.1607875,0.45629510835854725,0.03198187213977359
5.1608,0.4566252307706826,0.03164979923873489
5.1608125,0.4566252307706826,0.031981872139771925
5.160825,0.45629510835854725,0.031981872139781285
5.1608374999999995,0.45629510835854725,0.03164979923874425
5.16085,0.45662523077068184,0.03198187213978144
5.1608625,0.45629510835854725,0.03164979923874275
5.160875,0.45629510835854725,0.03198187213977993
5.1608875,0.45629510835854725,0.031981872139782194
5.1609,0.45629510835854725,0.031981872139782194
5.1609125,0.45629510835854004,0.03198187213977494
5.160925,0.45596498594641727,0.03164979923873791
5.1609375,0.45629510835854725,0.031981872139782194
5.16095,0.45629510835854725,0.031981872139782194
5.1609625,0.45629510835854725,0.031981872139782194
5.160975,0.45629510835854725,0.031981872139782194
5.1609875,0.45629510835854725,0.03198187213977963
5.161,0.45629510835854725,0.03164979923874244
5.1610125,0.45629510835854725,0.03198187213978114
5.1610249999999995,0.45629510835854725,0.031649799238743954
5.1610375,0.45629510835854725,0.03198187213978159
5.16105,0.45629510835854725,0.031981872139782194
5.1610625,0.45629510835854725,0.031981872139782194
5.161075,0.45629510835854725,0.031981872139791104
5.1610875,0.45629510835854725,0.03231394504082829
5.1611,0.45629510835853987,0.031981872139782194
5.1611125,0.455964985946417,0.031981872139782194
5.161125,0.45629510835854725,0.031981872139782194
5.1611375,0.45629510835854725,0.031981872139782194
5.16115,0.4566252307706784,0.031981872139782194
5.1611625,0.4562951083585555,0.031981872139782194
5.161175,0.4566252307706799,0.031981872139782194
5.1611875,0.456295108358557,0.031981872139782194
5.1612,0.45629510835854725,0.0319818721397834
5.1612124999999995,0.45629510835854725,0.03231394504082059
5.161225,0.45629510835854725,0.0319818721397825
5.1612375,0.4562951083585579,0.031981872139782194
5.16125,0.45662523077068085,0.031981872139782194
5.1612625,0.4566252307706826,0.031981872139782194
5.161275,0.4566252307706826,0.031981872139782194
5.1612875,0.45629510835854725,0.031981872139782194
5.1613,0.45629510835854725,0.031981872139782194
5.1613125,0.45629510835855325,0.03231394504083191
5.161325,0.4566252307706762,0.03231394504083191
5.1613375,0.4559649859464164,0.031981872139786725
5.16135,0.45629510835853915,0.03231394504082376
5.1613625,0.45629510835854725,0.031981872139782194
5.161375,0.45629510835854725,0.031981872139782194
5.1613875,0.4559649859464146,0.031981872139783554
5.1613999999999995,0.4566252307706604,0.03231394504082074
5.1614125,0.4562951083585474,0.03198187213978235
5.161425,0.4566252307706826,0.031981872139782194
5.1614375,0.4566252307706826,0.031981872139782194
5.16145,0.4566252307706826,0.03231394504082255
5.1614625,0.4566252307706826,0.03198187213978552
5.161475,0.4566252307706826,0.03198187213979005
5.1614875,0.4566252307706826,0.03231394504082708
5.1615,0.4566252307706826,0.031981872139788384
5.1615125,0.4566252307706826,0.03231394504082557
5.161525,0.4566252307706826,0.03198187213978688
5.1615375,0.4566252307706826,0.032313945040824056
5.16155,0.4562951083585504,0.031981872139782194
5.1615625,0.4566252307706733,0.031981872139782194
5.161575,0.45629510835854875,0.03231394504083191
5.1615874999999996,0.4566252307706717,0.03231394504083191
5.1616,0.4566252307706826,0.03231394504083191
5.1616125,0.4566252307706826,0.03198187213979322
5.161625,0.4566252307706826,0.0323139450408304
5.1616375,0.4566252307706826,0.03231394504083191
5.16165,0.4566252307706826,0.03231394504083191
5.1616625,0.4566252307706826,0.03231394504083991
5.161675,0.4566252307706826,0.0326460179418771
5.1616875,0.4566252307706826,0.03231394504083191
5.1617,0.4566252307706826,0.03231394504083191
5.1617125,0.4566252307706826,0.03231394504083191
5.161725,0.4566252307706826,0.03231394504083191
5.1617375,0.4566252307706826,0.032646017941878304
5.16175,0.4566252307706826,0.032313945040841126
5.1617625,0.4566252307706826,0.031981872139784005
5.161775,0.4566252307706826,0.03231394504082104
5.1617875,0.45662523077068234,0.0319818721397828
5.1618,0.45629510835855835,0.03264601794185928
5.1618125,0.4566252307706813,0.031981872139784914
5.161825,0.4566252307706826,0.03231394504083191
5.1618375,0.4566252307706826,0.03231394504083191
5.16185,0.4566252307706826,0.032313945040840064
5.1618625,0.4566252307706826,0.03264601794187725
5.161875,0.4566252307706826,0.03231394504083191
5.1618875,0.4566252307706826,0.03231394504083191
5.1619,0.4566252307706826,0.03231394504083191
5.1619125,0.4566252307706826,0.03231394504083191
5.161925,0.4566252307706826,0.03231394504083191
5.1619375,0.4566252307706826,0.03231394504083191
5.16195,0.4566252307706826,0.03231394504083191
5.1619625,0.4566252307706826,0.03231394504083191
5.161975,0.4566252307706826,0.03264601794188118
5.1619875,0.4566252307706712,0.03231394504083191
5.162,0.4562951083585485,0.03231394504083191
5.1620125,0.45629510835855713,0.03231394504083191
5.162025,0.4566252307706799,0.03231394504083191
5.1620375,0.4566252307706826,0.03231394504083191
5.16205,0.4566252307706826,0.03231394504083191
5.1620625,0.4566252307706826,0.03264601794188163
5.162075,0.4566252307706826,0.03264601794188163
5.1620875,0.4566252307706826,0.03231394504083191
5.1621,0.4566252307706826,0.03231394504083191
5.1621125,0.45662523077068623,0.032646017941878006
5.162125,0.4569553531828091,0.03231394504084082
5.1621375,0.4566252307706826,0.03231394504083403
5.16215,0.4566252307706826,0.032646017941871205
5.1621625,0.4566252307706826,0.03264601794188163
5.162175,0.4566252307706826,0.03264601794188163
5.1621875,0.4566252307706826,0.03264601794188163
5.1622,0.45695535318280794,0.03264601794187151
5.1622125,0.456625230770685,0.032313945040834326
5.162225,0.456625230770691,0.03264601794187317
5.1622375,0.45695535318281394,0.03231394504083599
5.16225,0.45662523077067574,0.03264601794188163
5.1622625,0.4562951083585528,0.03264601794188163
5.162275,0.4566252307706826,0.03231394504083191
5.1622875,0.4566252307706826,0.03231394504083191
5.1623,0.4566252307706826,0.03231394504083191
5.1623125,0.4566252307706826,0.03231394504083191
5.162325,0.45629510835854964,0.03231394504083191
5.1623375,0.4566252307706724,0.03231394504083191
5.16235,0.4566252307706826,0.03264601794188087
5.1623625,0.4566252307706826,0.03231394504083191
5.162375,0.4566252307706826,0.03231394504083191
5.1623875,0.4569553531828078,0.03231394504084218
5.1624,0.4566252307706849,0.032646017941879366
5.1624125,0.4566252307706826,0.03231394504083191
5.162425,0.4566252307706826,0.03231394504083191
5.1624375,0.4566252307706826,0.03231394504083191
5.16245,0.4566252307706826,0.03231394504083191
5.1624625,0.4566252307706826,0.03264601794188163
5.162475,0.4566252307706826,0.03264601794188163
5.1624875,0.4566252307706826,0.03231394504083191
5.1625,0.4566252307706826,0.03231394504083191
5.1625125,0.4566252307706826,0.03231394504083191
5.162525,0.4566252307706826,0.03231394504083191
5.1625375,0.4569553531828171,0.03231394504083191
5.1625499999999995,0.45662523077069417,0.03231394504083191
5.1625625,0.4569553531828174,0.03231394504083191
5.162575,0.4566252307706826,0.03231394504083191
5.1625875,0.4566252307706826,0.03231394504083191
5.1626,0.4566252307706826,0.03264601794187272
5.1626125,0.4566252307706826,0.03231394504083553
5.162625,0.4569553531828106,0.03264601794188163
5.1626375,0.45662523077068773,0.03264601794188163
5.16265,0.4566252307706826,0.03264601794187589
5.1626625,0.4566252307706826,0.032313945040838704
5.162675,0.45629510835855147,0.03231394504083191
5.1626875,0.45662523077067435,0.03231394504083191
5.1627,0.45629510835854725,0.031981872139782194
5.1627125,0.45629510835854725,0.031981872139782194
5.162725,0.4559649859464119,0.03131772633768397
5.1627374999999995,0.4559649859464119,0.031649799238721
5.16275,0.4556348635342768,0.031317726337683066
5.1627625,0.45596498594639084,0.03131772633767219
5.162775,0.45530474112214503,0.030985653436635008
5.1627875,0.4556348635342675,0.030985653436623982
5.1628,0.4553047411221446,0.0306535805355868
5.1628125,0.45530474112213365,0.030653580535575778
5.162825,0.4549746187100107,0.030321507634538593
5.1628375,0.4549746187099998,0.030653580535577287
5.16285,0.454644496297877,0.030321507634540255
5.1628625,0.4546444962978704,0.03032150763452908
5.162875,0.4546444962978704,0.029989434733492047
5.1628875,0.4546444962978676,0.029989434733483894
5.1629,0.45431437388574464,0.029989434733483894
5.1629125,0.45464449629786907,0.029989434733482534
5.1629249999999995,0.45431437388574614,0.029657361832445352
5.1629375,0.45431437388573503,0.029657361832434177
5.16295,0.4539842514735997,0.029657361832434177
5.1629625,0.4539842514735997,0.029657361832434177
5.162975,0.4536541290614737,0.028993216030334744
5.1629875,0.45398425147359645,0.028993216030334744
5.163,0.45365412906146435,0.02899321603032704
5.1630125,0.45365412906146435,0.028661143129289867
5.163025,0.45365412906146435,0.028661143129285034
5.1630375,0.45365412906146435,0.028661143129285034
5.16305,0.453324006649329,0.028661143129280354
5.1630625,0.453324006649329,0.02832907022824317
5.163075,0.453324006649326,0.028329070228232296
5.1630875,0.45299388423720305,0.027996997327195114
5.1631,0.4529938842371936,0.02799699732718409
5.1631124999999995,0.4529938842371936,0.027664924426146906
5.163125,0.45266376182505824,0.0279969973271856
5.1631375,0.45266376182505824,0.027664924426146906
5.16315,0.45266376182505824,0.02799699732718409
5.1631625,0.4523336394129229,0.027664924426135884
5.163175,0.4523336394129229,0.027664924426135884
5.1631875,0.4523336394129229,0.027332851525086167
5.1632,0.4523336394129229,0.027332851525086167
5.1632125,0.45200351700078756,0.027332851525086167
5.163225,0.45200351700078756,0.027332851525086167
5.1632375,0.4520035170007924,0.027332851525081334
5.16325,0.45233363941291527,0.027000778624044153
5.1632625,0.45167339458865546,0.02700077862403645
5.163275,0.45200351700077823,0.02700077862403645
5.1632875,0.4516733945886522,0.026668705722988545
5.1633,0.4516733945886522,0.027000778624025577
5.1633125,0.4516733945886522,0.027000778624036298
5.163325,0.4516733945886411,0.026668705722986734
5.1633375,0.45134327217651815,0.026668705722986734
5.16335,0.4513432721765168,0.026336632821937017
5.1633625,0.4513432721765168,0.026336632821937017
5.163375,0.45101314976438145,0.025672487019853894
5.1633875,0.45101314976438145,0.026336632821927955
5.1634,0.45101314976437484,0.025672487019837584
5.1634125,0.4506830273522521,0.025672487019837584
5.163425,0.4506830273522461,0.025672487019837584
5.1634375,0.4506830273522461,0.025672487019837584
5.16345,0.45068302735224264,0.025672487019837584
5.1634625,0.4503529049401197,0.025672487019837584
5.163475,0.45035290494010877,0.025340414118787867
5.1634875,0.45002278252798583,0.025340414118787867
5.1635,0.45002278252797534,0.025008341217738452
5.1635125,0.45002278252797534,0.02534041411877639
5.163525,0.45002278252797534,0.025008341217739358
5.1635375,0.45002278252796557,0.025008341217728335
5.16355,0.44969266011584275,0.02467626831669115
5.1635625,0.44969266011584,0.025008341217729844
5.163575,0.44969266011584,0.024676268316692663
5.1635875,0.44969266011584,0.024344195415645517
5.1636,0.44969266011584,0.024676268316682695
5.1636125,0.44936253770370466,0.02434419541563872
5.163625,0.44936253770370466,0.02434419541563872
5.1636375,0.44936253770370466,0.02434419541563872
5.16365,0.44936253770370466,0.02434419541563872
5.1636625,0.44936253770370255,0.024012122514591117
5.163675,0.44903241529157967,0.0243441954156283
5.1636875,0.4490324152915687,0.024012122514589004
5.1637,0.44870229287944546,0.024012122514589004
5.1637125,0.4490324152915684,0.024012122514589004
5.163725,0.4487022928794339,0.02401212251456907
5.1637375,0.4487022928794339,0.023347976712494705
5.16375,0.4487022928794339,0.02401212251457209
