data_analysis/experimental_data_3_17/Oscilloscope/acq0002.csv

#Digilent WaveForms Oscilloscope Acquisition
#Device Name: Discovery2
#Serial Number: SN:210321B02866
#Date Time: 2021-03-17 14:54:18.712
#Sample rate: 16000Hz
#Samples: 8192
#Trigger: Source: Channel 1 Type: Edge Condition: Rising Level: 0 V Hyst.: Auto HoldOff: 0 s
#Channel 1: Range: 500 mV/div Offset: -1.8 V Attenuation: 1 X
#Channel 2: Range: 500 mV/div Offset: -1.25 V Attenuation: 1 X
#Power Supplies: ON
#Positive Supply: ON
#Voltage: 3.3 V
#Negative Supply: OFF
#Voltage: -1 V

Time (s),Channel 1 (V),Channel 2 (V)
0.28500000000000003,0.4486750743959904,0.03948233413401425
0.28506250000000005,0.4480148295717194,0.03981440703506389
0.285125,0.4473545847474492,0.03981440703506389
0.28518750000000004,0.4470244623353137,0.03981440703506389
0.28525000000000006,0.4466943399231779,0.03981440703506389
0.2853125,0.44603409509890746,0.03981440703506389
0.28537500000000005,0.4453738502746367,0.040146479936113755
0.2854375,0.4450437278625016,0.039814407035064045
0.28550000000000003,0.444713605450366,0.040146479936113755
0.28556250000000005,0.44438348303823044,0.040146479936113755
0.285625,0.44372323821396026,0.040146479936113755
0.28568750000000004,0.4433931158018247,0.040146479936113755
0.28575000000000006,0.4430629933896891,0.040146479936113755
0.2858125,0.442732870977554,0.040146479936113755
0.28587500000000005,0.44207262615328324,0.040146479936113755
0.2859375,0.44207262615328324,0.04047855283716324
0.28600000000000003,0.4414123813290125,0.040478552837163395
0.28606250000000005,0.4414123813290122,0.04047855283716324
0.286125,0.44075213650474204,0.04014647993611391
0.28618750000000004,0.4404220140926063,0.040146479936113755
0.28625000000000006,0.44009189168047086,0.04014647993611391
0.2863125,0.43976176926833555,0.040478552837163395
0.28637500000000005,0.4394316468562003,0.040146479936113755
0.2864375,0.4394316468562003,0.04047855283716324
0.28650000000000003,0.43910152444406503,0.040478552837163395
0.28656250000000005,0.43877140203192927,0.04047855283716309
0.286625,0.4381111572076591,0.0398144070350642
0.28668750000000004,0.43646054514698207,0.03881818833191475
0.28675000000000006,0.43381956584989806,0.0378219696287653
0.2868125,0.43150870896495164,0.037157823826666325
0.28687500000000005,0.4288677296678687,0.03616160512351718
0.2869375,0.42622675037078694,0.035497459321417985
0.28700000000000003,0.42292552624943225,0.034833313519318176
0.28706250000000005,0.41962430212807705,0.034169167717218445
0.287125,0.4163230780067266,0.033172949014070204
0.28718750000000004,0.4130218538853714,0.03284087611301989
0.28725000000000006,0.4097206297640162,0.032176730310920304
0.2873125,0.4064194056426642,0.031512584508821107
0.28737500000000005,0.4024579366970398,0.030516365805671963
0.2874375,0.39849646775141734,0.030184292904622476
0.28750000000000003,0.39420487639365587,0.02952014710252282
0.28756250000000005,0.39024340744802966,0.028856001300423016
0.287625,0.3862819385024088,0.02819185549832434
0.28768750000000004,0.3819903471446473,0.027859782597274174
0.28775000000000006,0.37835900061115685,0.02752770969622438
0.2878125,0.3750577764898049,0.027195636795174893
0.28787500000000005,0.3714264299563159,0.02686356389412503
0.2879375,0.36779508342282863,0.02686356389412503
0.28800000000000003,0.3641637368893378,0.02653149099307539
0.28806250000000005,0.3608625127679828,0.026531490993075238
0.288125,0.3575612886466321,0.02619941809202568
0.28818750000000004,0.3545901869374124,0.026199418092025528
0.28825000000000006,0.35161908522819296,0.026199418092025528
0.2883125,0.3489781059311112,0.026199418092025528
0.28837500000000005,0.3463371266340285,0.025867345190975888
0.2884375,0.34402626974908185,0.026199418092025376
0.28850000000000003,0.3420455352762686,0.026199418092025528
0.28856250000000006,0.34039492321559106,0.02653149099307539
0.288625,0.3387443111549159,0.02653149099307539
0.28868750000000004,0.3374238215063736,0.02653149099307539
0.28875000000000006,0.3357732094456961,0.026531490993075543
0.2888125,0.3341225973850199,0.02686356389412503
0.28887500000000005,0.33280210773647867,0.02686356389412503
0.2889375,0.3311514956758025,0.02686356389412503
0.28900000000000003,0.32983100602726023,0.02686356389412503
0.28906250000000006,0.32851051637871836,0.02686356389412503
0.289125,0.3271900267301781,0.02686356389412503
0.28918750000000004,0.3261996594937713,0.02686356389412503
0.28925000000000006,0.325209292257365,0.027195636795175046
0.28931250000000003,0.32454904743309454,0.027527709696224534
0.28937500000000005,0.32454904743309454,0.027859782597274174
0.2894375,0.32454904743309454,0.028191855498323884
0.28950000000000004,0.32454904743309454,0.028856001300423317
0.28956250000000006,0.3248791698452301,0.02885600130042362
0.289625,0.32553941466950026,0.02952014710252252
0.28968750000000004,0.325869537081636,0.02985222000357246
0.28975000000000006,0.3265297819059072,0.030184292904622476
0.28981250000000003,0.32752014914231276,0.030516365805671963
0.28987500000000005,0.3281803939665835,0.030848438706721604
0.2899375,0.32950088361512436,0.0315125845088208
0.29000000000000004,0.33049125085153097,0.03184465740987075
0.29006250000000006,0.33148161808793747,0.03217673031092061
0.290125,0.33214186291220765,0.03217673031092061
0.29018750000000004,0.3334623525607492,0.03284087611301989
0.29025000000000006,0.33445271979715585,0.03284087611302004
0.29031250000000003,0.3354430870335614,0.03317294901406975
0.29037500000000005,0.3367635766821029,0.03350502191511939
0.2904375,0.33808406633064375,0.03350502191511939
0.29050000000000004,0.33940455597918584,0.03383709481616903
0.29056250000000006,0.34039492321559245,0.034169167717218896
0.290625,0.3417154128641333,0.034169167717218896
0.29068750000000004,0.3430359025126748,0.034501240618268536
0.29075000000000006,0.3440262697490814,0.034833313519318176
0.29081250000000003,0.34534675939762227,0.034833313519318176
0.29087500000000005,0.3463371266340285,0.034833313519318176
0.2909375,0.34765761628256914,0.035165386420367886
0.29100000000000004,0.34864798351897597,0.03516538642036804
0.2910625,0.34996847316751684,0.03516538642036804
0.291125,0.35095884040392344,0.03549745932141768
0.29118750000000004,0.3522793300524649,0.03549745932141768
0.29125,0.3539299421131409,0.03582953222246717
0.29131250000000003,0.35525043176168314,0.03582953222246732
0.29137500000000005,0.3565709214102246,0.03616160512351718
0.2914375,0.3582215334709006,0.03649367802456667
0.29150000000000004,0.36020226794371357,0.03682575092561646
0.29156250000000006,0.3618528800043912,0.036825750925616615
0.291625,0.3638336144772025,0.037157823826666325
0.29168750000000004,0.36548422653787926,0.037489896727715966
0.29175000000000006,0.36746496101069237,0.037489896727715966
0.29181250000000003,0.3694456954835037,0.037489896727715966
0.291875,0.37109630754417966,0.03782196962876545
0.29193750000000007,0.37307704201699354,0.03782196962876576
0.29200000000000004,0.3750577764898049,0.03815404252981547
0.2920625,0.37670838855048083,0.038486115430864956
0.292125,0.3790192454354291,0.03848611543086511
0.29218750000000004,0.3809999799082413,0.03881818833191475
0.29225,0.38298071438105263,0.03881818833191475
0.29231250000000003,0.38496144885386574,0.03915026123296461
0.29237500000000005,0.38661206091454325,0.03915026123296461
0.2924375,0.38826267297521844,0.03915026123296461
0.29250000000000004,0.3895831626237607,0.03881818833191475
0.29256250000000006,0.39123377468443804,0.03915026123296446
0.292625,0.3925542643329789,0.03881818833191475
0.29268750000000004,0.3938747539815204,0.03881818833191475
0.29275000000000007,0.3951952436300623,0.038818188331914597
0.29281250000000003,0.39618561086646786,0.03848611543086511
0.292875,0.39750610051500873,0.03848611543086511
0.2929375000000001,0.398496467751416,0.03848611543086511
0.29300000000000004,0.39948683498782156,0.03848611543086511
0.2930625,0.4004772022242271,0.03815404252981562
0.293125,0.40179769187276904,0.03815404252981547
0.29318750000000005,0.4024579366970398,0.03815404252981547
0.29325,0.40344830393344555,0.03815404252981547
0.29331250000000003,0.404438671169852,0.037821969628765606
0.29337500000000005,0.4050989159941232,0.037821969628765606
0.2934375,0.4060892832305283,0.037821969628765606
0.29350000000000004,0.40674952805479947,0.037489896727715966
0.29356250000000006,0.40773989529120597,0.037157823826666325
0.293625,0.4084001401154762,0.037157823826666325
0.29368750000000005,0.40906038493974695,0.037157823826666325
0.29375000000000007,0.40972062976401796,0.03682575092561646
0.29381250000000003,0.4103808745882884,0.03682575092561646
0.293875,0.4110411194125589,0.03682575092561646
0.2939375000000001,0.4117013642368302,0.03682575092561646
0.29400000000000004,0.41236160906110064,0.03682575092561646
0.2940625,0.4130218538853711,0.03682575092561646
0.294125,0.4136820987096421,0.03649367802456682
0.29418750000000005,0.41434234353391286,0.03649367802456682
0.29425,0.4150025883581833,0.03649367802456682
0.29431250000000003,0.41533271077031886,0.03616160512351718
0.29437500000000005,0.4159929555945899,0.03616160512351718
0.2944375,0.41665320041886006,0.03616160512351718
0.29450000000000004,0.4173134452431311,0.03616160512351718
0.29456250000000006,0.4176435676552666,0.03616160512351703
0.294625,0.4183038124795371,0.03582953222246732
0.29468750000000005,0.4189640573038078,0.03582953222246732
0.29475000000000007,0.41929417971594357,0.03582953222246732
0.29481250000000003,0.41995442454021403,0.03582953222246732
0.294875,0.4202845469523491,0.03582953222246732
0.2949375000000001,0.4209447917766203,0.03582953222246732
0.29500000000000004,0.42160503660089077,0.03582953222246732
0.2950625,0.42325564866156673,0.03649367802456652
0.295125,0.4262267503707857,0.037489896727715966
0.29518750000000005,0.42919785208000416,0.03815404252981547
0.29525,0.43216895378922104,0.038818188331914444
0.29531250000000003,0.43547017791057585,0.03948233413401425
0.29537500000000005,0.43943164685620195,0.0404785528371637
0.2954375,0.4430629933896876,0.04114269863926259
0.29550000000000004,0.4470244623353137,0.0418068444413624
0.29556250000000006,0.4506558088688044,0.042138917342412346
0.295625,0.45461727781442685,0.042803063144511544
0.29568750000000005,0.45890886917218654,0.043467208946610825
0.29575000000000007,0.46353058294208366,0.04413135474871063
0.29581250000000003,0.4678221742998414,0.04479550055080983
0.295875,0.47277401048186957,0.045459646352908806
0.2959375000000001,0.4770656018396335,0.046123792155008767
0.29600000000000004,0.48135719319739123,0.046455865056058254
0.2960625,0.485648784555149,0.046787937957107964
0.296125,0.4892801310886399,0.04678793795710812
0.29618750000000005,0.4932416000342641,0.04712001085815776
0.29625,0.4968729465677514,0.047784156660256955
0.29631250000000003,0.5005042931012422,0.0481162295613069
0.29637500000000006,0.503805517222597,0.04811622956130705
0.2964375,0.5067766189318126,0.04844830246235639
0.29650000000000004,0.5097477206410324,0.04844830246235654
0.29656250000000006,0.512058577525981,0.04811622956130705
0.296625,0.5146995568230626,0.04844830246235654
0.29668750000000005,0.5166802912958748,0.04844830246235654
0.29675000000000007,0.518991148180823,0.04878037536340625
0.29681250000000003,0.5206417602414992,0.04844830246235654
0.296875,0.5219622498900401,0.04844830246235654
0.2969375000000001,0.5229526171264471,0.04844830246235639
0.29700000000000004,0.5239429843628527,0.0481162295613069
0.2970625,0.5246032291871231,0.0481162295613069
0.29712500000000003,0.5255935964235297,0.0481162295613069
0.29718750000000005,0.5262538412478004,0.0481162295613069
0.29725,0.527244208484206,0.0481162295613069
0.29731250000000004,0.5279044533084771,0.04844830246235654
0.29737500000000006,0.5285646981327482,0.04844830246235654
0.2974375,0.5292249429570183,0.04844830246235654
0.29750000000000004,0.5295550653691539,0.04844830246235654
0.29756250000000006,0.5295550653691538,0.0481162295613069
0.29762500000000003,0.5292249429570186,0.0481162295613069
0.29768750000000005,0.5285646981327479,0.04778415666025726
0.29775000000000007,0.528234575720612,0.047452083759207245
0.29781250000000004,0.5275743308963416,0.04712001085815776
0.297875,0.5265839636599361,0.04712001085815776
0.2979375000000001,0.5259237188356645,0.04678793795710812
0.29800000000000004,0.5249333515992589,0.04678793795710812
0.2980625,0.5239429843628531,0.04645586505605841
0.29812500000000003,0.5229526171264467,0.046455865056058254
0.29818750000000005,0.5216321274779052,0.046123792155008614
0.29825,0.5206417602414997,0.046123792155008614
0.29831250000000004,0.5193212705929577,0.046123792155008614
0.29837500000000006,0.5183309033565512,0.04579171925395897
0.2984375,0.5170104137080103,0.04579171925395897
0.29850000000000004,0.5156899240594688,0.04545964635290911
0.29856250000000006,0.5143694344109268,0.04512757345185947
0.29862500000000003,0.5130489447623858,0.04512757345185947
0.29868750000000005,0.5117284551138443,0.04512757345185947
0.29875000000000007,0.5100778430531671,0.04479550055080983
0.29881250000000004,0.5087573534046261,0.04479550055080983
0.298875,0.5074368637560852,0.04446342764976012
0.2989375,0.5057862516954079,0.04446342764975997
0.29900000000000004,0.5044657620468664,0.04446342764975997
0.2990625,0.5031452723983255,0.04413135474871048
0.29912500000000003,0.5014946603376482,0.04413135474871033
0.29918750000000005,0.4998440482769715,0.04379928184766069
0.29925,0.4985235586284306,0.04379928184766069
0.29931250000000004,0.49720306897988853,0.043467208946610825
0.29937500000000006,0.4958825793313463,0.043467208946610825
0.2994375,0.4942319672706703,0.043467208946610825
0.29950000000000004,0.49291147762212884,0.043467208946610825
0.29956250000000006,0.4912608655614513,0.043135136045561184
0.29962500000000003,0.48961025350077514,0.043135136045561184
0.2996875,0.4879596414400992,0.0428030631445117
0.29975000000000007,0.4859789069672854,0.04247099024346153
0.29981250000000004,0.48432829490660945,0.04213891734241204
0.299875,0.4823475604337981,0.04180684444136255
0.2999375,0.480366825960985,0.0418068444413624
0.30000000000000004,0.478386091488173,0.04147477154031254
0.3000625,0.4764053570153617,0.04147477154031254
0.30012500000000003,0.4744246225425486,0.0411426986392629
0.30018750000000005,0.4724438880697356,0.04081062573821326
0.30025,0.4707932760090604,0.04081062573821326
0.30031250000000004,0.4688125415362474,0.040478552837163395
0.30037500000000006,0.4668318070634344,0.04047855283716324
0.3004375,0.46518119500275845,0.040146479936113755
0.30050000000000004,0.46320046052994623,0.040146479936113755
0.30056250000000007,0.46121972605713335,0.03981440703506389
0.30062500000000003,0.459238991584322,0.03981440703506389
0.3006875,0.45791850193578115,0.03981440703506389
0.3007500000000001,0.4562678898751032,0.03981440703506389
0.30081250000000004,0.4549474002265623,0.03981440703506389
0.300875,0.45395703299015655,0.03981440703506389
0.3009375,0.45263654334161463,0.03948233413401425
0.30100000000000005,0.45131605369307337,0.03981440703506389
0.3010625,0.4503256864566676,0.03981440703506389
0.30112500000000003,0.44933531922026115,0.03981440703506389
0.30118750000000005,0.4483449519838545,0.03981440703506389
0.30125,0.4473545847474494,0.03981440703506389
0.30131250000000004,0.4466943399231782,0.040146479936113755
0.30137500000000006,0.4457039726867719,0.040146479936113755
0.3014375,0.44504372786250146,0.040146479936113755
0.30150000000000005,0.4443834830382307,0.040146479936113755
0.30156250000000007,0.44339311580182444,0.040146479936113755
0.30162500000000003,0.442732870977554,0.040146479936113755
0.3016875,0.44240274856541867,0.04047855283716324
0.3017500000000001,0.4417425037411475,0.040478552837163395
0.30181250000000004,0.441082258916877,0.040478552837163395
0.301875,0.44075213650474193,0.040478552837163395
0.3019375,0.440091891680471,0.040478552837163395
0.30200000000000005,0.43976176926833555,0.040478552837163395
0.3020625,0.43943164685620045,0.040810625738213105
0.30212500000000003,0.43877140203192955,0.040478552837163395
0.30218750000000005,0.4384412796197941,0.040810625738213105
0.30225,0.438111157207659,0.04047855283716355
0.30231250000000004,0.43745091238338807,0.040478552837163395
0.30237500000000006,0.43712078997125264,0.04047855283716355
0.3024375,0.43679066755911733,0.04081062573821326
0.30250000000000005,0.43679066755911733,0.04081062573821326
0.30256250000000007,0.4361304227348466,0.04081062573821326
0.30262500000000003,0.4361304227348466,0.04081062573821326
0.3026875,0.4358003003227115,0.04047855283716355
0.3027500000000001,0.4354701779105757,0.04081062573821326
0.30281250000000004,0.4351400554984406,0.04081062573821326
0.302875,0.4348099330863053,0.04081062573821326
0.3029375,0.43447981067416985,0.04081062573821326
0.30300000000000005,0.4341496882620346,0.04081062573821326
0.3030625,0.4341496882620346,0.04081062573821326
0.30312500000000003,0.4338195658498991,0.040478552837163395
0.30318750000000005,0.4334894434377636,0.040478552837163395
0.30325,0.4328291986134934,0.040478552837163395
0.30331250000000004,0.43117858655281616,0.03948233413401425
0.30337500000000006,0.4285376072557319,0.03848611543086466
0.3034375,0.4252363831343797,0.037489896727715966
0.30350000000000005,0.4222652814251615,0.03682575092561646
0.30356250000000007,0.4189640573038063,0.03616160512351673
0.30362500000000003,0.41566283318245434,0.03516538642036804
0.3036875,0.4117013642368317,0.03416916771721935
0.3037500000000001,0.407739895291204,0.03350502191511924
0.30381250000000004,0.4041085487577165,0.03317294901406975
0.303875,0.4004772022242292,0.032508803211970555
0.3039375,0.3968458556907386,0.03217673031092061
0.30400000000000005,0.3928843867451144,0.031512584508821107
0.3040625,0.3882626729752213,0.030848438706721906
0.30412500000000003,0.38364095920532426,0.02985222000357246
0.30418750000000006,0.37901924543542714,0.029188074201473027
0.30425,0.37472765407767133,0.02885600130042347
0.30431250000000004,0.37010594030777444,0.028191855498324037
0.30437500000000006,0.36614447136214834,0.028191855498323884
0.3044375,0.36251312482866105,0.027859782597274174
0.30450000000000005,0.35855165588303683,0.027527709696224534
0.30456250000000007,0.35459018693741073,0.02719563679517474
0.30462500000000003,0.35095884040392344,0.02686356389412503
0.3046875,0.34732749387043615,0.026531490993075543
0.3047500000000001,0.3443563921612148,0.02653149099307539
0.30481250000000004,0.3410551680398626,0.02653149099307539
0.304875,0.3380840663306457,0.02619941809202568
0.30493750000000003,0.33511296462142615,0.02653149099307539
0.30500000000000005,0.3324719853243432,0.026199418092025528
0.3050625,0.33016112843939677,0.026199418092025528
0.30512500000000004,0.32785027155444824,0.026199418092025528
0.30518750000000006,0.32586953708163524,0.02619941809202568
0.30525,0.32421892502096006,0.026531490993075238
0.30531250000000004,0.3228984353724178,0.02653149099307539
0.30537500000000006,0.32157794572387555,0.02653149099307539
0.30543750000000003,0.31992733366319936,0.02653149099307539
0.30550000000000005,0.3186068440146581,0.02653149099307539
0.30556250000000007,0.31695623195398054,0.02653149099307539
0.30562500000000004,0.31563574230543967,0.02653149099307539
0.3056875,0.314315252656899,0.02653149099307539
0.3057500000000001,0.3129947630083565,0.026531490993075543
0.30581250000000004,0.3120043957719507,0.02686356389412503
0.305875,0.3116742733598156,0.02719563679517474
0.30593750000000003,0.31167427335981546,0.027527709696224534
0.30600000000000005,0.31167427335981546,0.027859782597274174
0.3060625,0.31200439577195055,0.028191855498323884
0.30612500000000004,0.31266464059622145,0.028856001300423317
0.30618750000000006,0.31332488542049264,0.029188074201473332
0.30625,0.3143152526568984,0.02952014710252282
0.30631250000000004,0.3153056198933044,0.02985222000357246
0.30637500000000006,0.31629598712971085,0.030184292904622476
0.30643750000000003,0.31728635436611663,0.030516365805671963
0.30650000000000005,0.3182767216025226,0.031180511607771466
0.30656250000000007,0.3199273336631998,0.031180511607771768
0.30662500000000004,0.3209177008996056,0.03184465740987075
