data_analysis/experimental_data_3_17/Oscilloscope/acq0009.csv

#Digilent WaveForms Oscilloscope Acquisition
#Device Name: Discovery2
#Serial Number: SN:210321B02866
#Date Time: 2021-03-17 15:05:32.929
#Sample rate: 20153.2Hz
#Samples: 8192
#Trigger: Source: Channel 1 Type: Edge Condition: Rising Level: 0 V Hyst.: Auto HoldOff: 0 s
#Channel 1: Range: 50 mV/div Offset: -500 mV Attenuation: 1 X
#Channel 2: Range: 50 mV/div Offset: 55 mV Attenuation: 1 X
#Power Supplies: ON
#Positive Supply: ON
#Voltage: 3.3 V
#Negative Supply: OFF
#Voltage: -1 V

Time (s),Channel 1 (V),Channel 2 (V)
-0.40172352,0.4452752303229676,0.02418093907570422
-0.40167390000000003,0.44560535273510266,0.02418093907570422
-0.40162428,0.44560535273510293,0.024513011976753776
-0.40157465999999997,0.4456053527351031,0.02451301197675408
-0.40152504,0.4459354751472383,0.024845084877803653
-0.40147542,0.4462655975593734,0.02517715777885306
-0.4014258,0.4462655975593737,0.025177157778853362
-0.40137617999999997,0.44659571997150904,0.025509230679903086
-0.40132656,0.44659571997150904,0.025509230679903086
-0.40127694,0.44692584238364413,0.025841303580952494
-0.40122732,0.4469258423836444,0.025841303580952796
-0.40117769999999997,0.4469258423836446,0.02584130358095295
-0.40112808,0.4472559647957798,0.02617337648200252
-0.40107846,0.4472559647957798,0.02617337648200252
-0.40102884,0.44758608720791515,0.02617337648200252
-0.40097921999999997,0.4475860872079153,0.02650544938305223
-0.4009296,0.4479162096200505,0.02650544938305223
-0.40087998,0.4479162096200505,0.02683752228410165
-0.40083036,0.4479162096200505,0.026837522284101953
-0.40078073999999997,0.448246332032186,0.026837522284101953
-0.40073112,0.4485764544443212,0.026837522284101953
-0.4006815,0.4485764544443212,0.02716959518515136
-0.40063188,0.4485764544443212,0.027169595185151663
-0.40058225999999997,0.4485764544443212,0.027501668086201386
-0.40053264,0.4485764544443212,0.027501668086201386
-0.40048302,0.4489065768564563,0.027501668086201386
-0.4004334,0.44923669926859194,0.027833740987251096
-0.40038377999999997,0.4492366992685921,0.02816581388830082
-0.40033416,0.4495668216807273,0.02816581388830082
-0.40028454,0.4495668216807273,0.028497886789350377
-0.40023492,0.4498969440928626,0.02849788678935053
-0.40018529999999997,0.4498969440928628,0.028829959690400253
-0.40013568,0.450227066504998,0.028829959690400253
-0.40008606,0.450227066504998,0.02916203259144981
-0.40003644,0.45055718891713337,0.029494105492499686
-0.39998681999999997,0.45055718891713353,0.029494105492499686
-0.3999372,0.45088731132926874,0.029494105492499686
-0.39988758,0.45088731132926874,0.029494105492499686
-0.39983796,0.45088731132926874,0.029494105492499686
-0.39978833999999996,0.4512174337414041,0.02982617839354955
-0.39973872,0.4512174337414041,0.030158251294599106
-0.3996891,0.4515475561535393,0.030158251294599106
-0.39963948,0.4515475561535395,0.03049032419564883
-0.39958985999999996,0.45187767856567485,0.03049032419564883
-0.39954024,0.45187767856567485,0.03049032419564883
-0.39949062,0.45187767856567485,0.03049032419564883
-0.399441,0.45187767856567485,0.03082239709669854
-0.39939137999999996,0.45187767856567485,0.03082239709669854
-0.39934176,0.45187767856567485,0.03082239709669854
-0.39929214,0.45187767856567485,0.03082239709669854
-0.39924252,0.45187767856567485,0.03082239709669854
-0.39919289999999996,0.45187767856567485,0.03082239709669854
-0.39914328,0.45187767856567485,0.03082239709669854
-0.39909366,0.45187767856567485,0.030490324195648982
-0.39904404,0.45187767856567485,0.03082239709669854
-0.39899441999999996,0.4522078009778102,0.03049032419564883
-0.3989448,0.4522078009778102,0.03049032419564883
-0.39889518,0.4522078009778102,0.03049032419564883
-0.39884556,0.4522078009778102,0.03049032419564883
-0.39879593999999996,0.4522078009778102,0.03049032419564883
-0.39874632,0.4522078009778102,0.03049032419564883
-0.3986967,0.4522078009778102,0.03049032419564883
-0.39864708,0.4522078009778102,0.03049032419564883
-0.39859745999999996,0.4522078009778102,0.03049032419564883
-0.39854784,0.4522078009778102,0.03049032419564883
-0.39849822,0.4522078009778102,0.03049032419564883
-0.3984486,0.45187767856567485,0.03049032419564883
-0.39839897999999996,0.45187767856567485,0.030490324195648677
-0.39834936,0.45187767856567485,0.030158251294599106
-0.39829974,0.45187767856567485,0.030158251294599106
-0.39825012,0.45187767856567485,0.030158251294599106
-0.39820049999999996,0.45220780097781005,0.030158251294599106
-0.39815088,0.45187767856567485,0.030158251294599106
-0.39810126,0.45187767856567485,0.030158251294599106
-0.39805164,0.45187767856567485,0.030158251294599106
-0.39800201999999996,0.45220780097781005,0.030158251294599106
-0.3979524,0.45187767856567485,0.030158251294599106
-0.39790278,0.45187767856567485,0.030158251294599106
-0.39785316,0.45187767856567485,0.030158251294599106
-0.39780353999999996,0.45187767856567485,0.030158251294599106
-0.39775392,0.45187767856567485,0.030158251294599106
-0.3977043,0.45187767856567485,0.030158251294599106
-0.39765468,0.45187767856567485,0.030158251294599106
-0.39760505999999995,0.45187767856567485,0.029826178393549698
-0.39755544,0.45187767856567485,0.030158251294599106
-0.39750582,0.45187767856567485,0.02982617839354955
-0.3974562,0.45187767856567485,0.030158251294599106
-0.39740657999999995,0.45187767856567485,0.030158251294599106
-0.39735696,0.45187767856567485,0.030158251294599106
-0.39730734,0.45187767856567485,0.030158251294599106
-0.39725772,0.45187767856567485,0.030158251294599106
-0.39720809999999995,0.45187767856567485,0.030158251294599106
-0.39715848,0.45187767856567485,0.030158251294599106
-0.39710886,0.45187767856567485,0.030158251294599106
-0.39705924,0.45187767856567485,0.030158251294599106
-0.39700961999999995,0.45187767856567485,0.029826178393549698
-0.39696,0.45187767856567485,0.030158251294599106
-0.39691038,0.45187767856567485,0.030158251294599106
-0.39686076,0.4522078009778102,0.03049032419564883
-0.39681113999999995,0.4528680458020812,0.031154469997748565
-0.39676152,0.45319816821421627,0.03148654289879797
-0.3967119,0.45352829062635147,0.0321506887008971
-0.39666228,0.453858413038487,0.03248276160194713
-0.39661265999999995,0.454188535450623,0.03281483450299744
-0.39656304,0.45484878027489306,0.03347898030509627
-0.39651342,0.45517890268702826,0.033811053206145844
-0.3964638,0.45550902509916397,0.03447519900824543
-0.39641417999999995,0.45583914751129945,0.034475199008246034
-0.39636456,0.4561692699234347,0.035139344810345016
-0.39631494,0.45649939233556974,0.03547141771139442
-0.39626532,0.4564993923355702,0.035803490612444436
-0.39621569999999995,0.45715963715984087,0.03613556351349461
-0.39616608,0.45748975957197613,0.03679970931559359
-0.39611646,0.45781988198411117,0.037131782216643
-0.39606684,0.45848012680838207,0.037463855117693026
-0.39601721999999995,0.45848012680838235,0.03779592801874289
-0.3959676,0.45881024922051755,0.03812800091979246
-0.39591798,0.4591403716326526,0.038460073820841864
-0.39586836000000003,0.45947049404478785,0.038792146721891435
-0.39581874,0.45980061645692333,0.0391242196229413
-0.39576912,0.4598006164569235,0.03912421962294145
-0.3957195,0.4598006164569235,0.03912421962294145
-0.39566988000000003,0.4601307388690586,0.03945629252399087
-0.39562026,0.46046086128119407,0.039456292523991174
-0.39557064,0.4604608612811944,0.039788365425040884
-0.39552102,0.46079098369332944,0.039788365425040884
-0.39547140000000003,0.4607909836933296,0.0401204383260903
-0.39542178,0.4607909836933296,0.04012043832609061
-0.39537216,0.4607909836933296,0.04012043832609061
-0.39532254,0.4607909836933296,0.04012043832609061
-0.39527292,0.4607909836933296,0.04012043832609061
-0.3952233,0.461121106105465,0.04012043832609061
-0.39517367999999997,0.461121106105465,0.04012043832609061
-0.39512406,0.461121106105465,0.04012043832609061
-0.39507444,0.461121106105465,0.04012043832609061
-0.39502482,0.461121106105465,0.04012043832609061
-0.39497519999999997,0.4607909836933296,0.039788365425040884
-0.39492558,0.4607909836933296,0.039788365425040884
-0.39487596,0.4607909836933296,0.039788365425040884
-0.39482634,0.46046086128119423,0.039788365425040884
-0.39477671999999997,0.46046086128119423,0.039456292523991174
-0.3947271,0.46046086128119423,0.039456292523991174
-0.39467748,0.46046086128119423,0.039124219622941755
-0.39462786,0.46046086128119423,0.03912421962294145
-0.39457823999999997,0.46046086128119423,0.03912421962294145
-0.39452862,0.46046086128119423,0.03912421962294145
-0.394479,0.46013073886905914,0.03912421962294145
-0.39442938,0.46046086128119423,0.03879214672189174
-0.39437975999999997,0.46013073886905886,0.03879214672189174
-0.39433014,0.46013073886905886,0.03879214672189174
-0.39428052,0.45980061645692377,0.03846007382084232
-0.3942309,0.4598006164569235,0.03846007382084202
-0.39418127999999997,0.4594704940447881,0.038128000919792154
-0.39413166,0.4594704940447881,0.03779592801874258
-0.39408204,0.4591403716326529,0.03779592801874258
-0.39403242,0.45914037163265276,0.037463855117692874
-0.39398279999999997,0.4588102492205172,0.03746385511769272
-0.39393318,0.45848012680838207,0.03713178221664315
-0.39388356,0.45815000439624687,0.03679970931559359
-0.39383394,0.4581500043962467,0.036467636414543717
-0.39378431999999997,0.45815000439624654,0.036467636414543564
-0.3937347,0.45781988198411133,0.03613556351349401
-0.39368508,0.45748975957197613,0.03613556351349401
-0.39363546,0.45748975957197596,0.03580349061244428
-0.39358583999999996,0.4571596371598406,0.03547141771139457
-0.39353622,0.4571596371598406,0.03547141771139457
-0.3934866,0.4568295147477054,0.035139344810345016
-0.39343698,0.4568295147477052,0.035139344810344864
-0.39338735999999996,0.4564993923355699,0.03480727190929499
-0.39333774,0.4564993923355699,0.03447519900824543
-0.39328812,0.4561692699234347,0.03447519900824543
-0.3932385,0.45583914751129917,0.034143126107195707
-0.39318887999999996,0.45583914751129917,0.033811053206145844
-0.39313926,0.45583914751129917,0.03347898030509627
-0.39308964,0.4551789026870287,0.03347898030509627
-0.39304002,0.45517890268702843,0.03347898030509627
-0.39299039999999996,0.45517890268702826,0.03314690740404641
-0.39294078,0.45484878027489306,0.03281483450299684
-0.39289116,0.45484878027489306,0.03281483450299684
-0.39284154,0.4545186578627577,0.03281483450299684
-0.39279191999999996,0.4545186578627575,0.03248276160194698
-0.3927423,0.4541885354506224,0.032150688700897406
-0.39269268,0.4541885354506224,0.032150688700897406
-0.39264306,0.453858413038487,0.032150688700897406
-0.39259343999999996,0.45385841303848684,0.031818615799847697
-0.39254382,0.45352829062635164,0.031818615799847697
-0.3924942,0.45352829062635164,0.031486542898798126
-0.39244458,0.45319816821421627,0.03148654289879797
-0.39239495999999996,0.45319816821421627,0.031154469997748263
-0.39234534,0.45319816821421627,0.031154469997748263
-0.39229572,0.45319816821421627,0.030822397096698692
-0.3922461,0.4528680458020809,0.03082239709669854
-0.39219647999999996,0.45253792338994553,0.030822397096698387
-0.39214686,0.45253792338994553,0.03049032419564883
-0.39209724,0.4522078009778104,0.03015825129459926
-0.39204762,0.45187767856567485,0.029826178393549396
-0.39199799999999996,0.45187767856567485,0.029826178393549244
-0.39194838,0.45187767856567485,0.029494105492499686
-0.39189876,0.45154755615353964,0.029494105492499686
-0.39184914,0.4512174337414041,0.029162032591449963
-0.39179951999999996,0.45121743374140394,0.028829959690400253
-0.3917499,0.45088731132926874,0.028829959690400253
-0.39170028,0.45055718891713353,0.028497886789350682
-0.39165066,0.45055718891713337,0.02849788678935053
-0.39160103999999996,0.450227066504998,0.028497886789350377
-0.39155142,0.450227066504998,0.02816581388830082
-0.3915018,0.450227066504998,0.02816581388830082
-0.39145218,0.450227066504998,0.027833740987251096
-0.39140255999999995,0.44989694409286235,0.027833740987250794
-0.39135294,0.4495668216807273,0.027501668086201386
-0.39130332,0.4495668216807273,0.027169595185151815
-0.3912537,0.4495668216807273,0.027501668086201386
-0.39120407999999995,0.44923669926859194,0.027169595185151663
-0.39115446,0.44923669926859194,0.027169595185151663
-0.39110484,0.44923669926859194,0.027169595185151663
-0.39105522,0.44923669926859194,0.027169595185151663
-0.39100559999999995,0.44923669926859167,0.027169595185151663
-0.39095598,0.4489065768564566,0.027169595185151663
-0.39090636,0.4492366992685918,0.026837522284102105
-0.39085674,0.44923669926859194,0.027169595185151663
-0.39080711999999995,0.4489065768564566,0.027169595185151663
-0.3907575,0.4489065768564566,0.027169595185151663
-0.39070788,0.4489065768564566,0.027169595185151663
-0.39065826,0.4489065768564566,0.027169595185151663
-0.39060863999999995,0.4489065768564566,0.027169595185151663
-0.39055902,0.4489065768564566,0.027169595185151663
-0.3905094,0.4489065768564566,0.027169595185151663
-0.39045978,0.4489065768564566,0.027169595185151663
-0.39041015999999995,0.44923669926859194,0.027169595185151964
-0.39036054,0.44923669926859194,0.027501668086201386
-0.39031092,0.44923669926859194,0.027501668086201386
-0.3902613,0.44923669926859194,0.027501668086201386
-0.39021167999999995,0.44923669926859194,0.027501668086201386
-0.39016206,0.44923669926859194,0.02750166808620154
-0.39011244,0.44923669926859194,0.027833740987250943
-0.39006282,0.44890657685645674,0.027833740987251096
-0.39001319999999995,0.44923669926859194,0.027833740987250794
-0.38996358,0.44923669926859194,0.027501668086201386
-0.38991396,0.44923669926859194,0.027501668086201386
-0.38986434,0.44923669926859194,0.027833740987250943
-0.38981471999999995,0.44923669926859194,0.027501668086201386
-0.3897651,0.44923669926859194,0.02750166808620154
-0.38971548,0.44923669926859194,0.027833740987250943
-0.38966586000000003,0.44923669926859194,0.027501668086201688
-0.38961624,0.44923669926859194,0.027833740987250943
-0.38956662,0.44923669926859194,0.027833740987251096
-0.389517,0.44923669926859194,0.027833740987251096
-0.38946738000000003,0.44923669926859194,0.027833740987251096
-0.38941776,0.44923669926859194,0.027833740987251096
-0.38936814,0.44923669926859194,0.027833740987251096
-0.38931852,0.44923669926859194,0.027833740987251096
-0.38926890000000003,0.44923669926859194,0.027833740987251096
-0.38921928,0.44923669926859194,0.027833740987251096
-0.38916966,0.44923669926859194,0.027833740987251096
-0.38912004,0.44923669926859194,0.027833740987251096
-0.38907042000000003,0.44923669926859194,0.027833740987251096
-0.3890208,0.44923669926859194,0.027833740987251096
-0.38897117999999997,0.4492366992685918,0.027833740987250943
-0.38892156,0.4489065768564566,0.027501668086201386
-0.38887194,0.44923669926859167,0.027501668086201386
-0.38882232,0.44923669926859194,0.027833740987251096
-0.38877269999999997,0.44923669926859194,0.027833740987251096
-0.38872308,0.44923669926859194,0.027833740987251096
-0.38867346,0.44923669926859194,0.027833740987251096
-0.38862384,0.4489065768564566,0.027501668086201386
-0.38857421999999997,0.4485764544443209,0.02683752228410165
-0.3885246,0.4479162096200505,0.02617337648200252
-0.38847498,0.4472559647957804,0.02550923067990369
-0.38842536,0.4469258423836444,0.025177157778853362
-0.38837573999999997,0.4465957199715089,0.024513011976753776
-0.38832612,0.4462655975593737,0.02418093907570422
-0.3882765,0.4459354751472386,0.02384886617465481
-0.38822688,0.4452752303229676,0.023184720372555076
-0.38817725999999997,0.4449451079108321,0.0228526474715052
-0.38812764,0.4446149854986969,0.022520574570455643
-0.38807802,0.4446149854986969,0.02218850166940622
-0.3880284,0.4442848630865615,0.02185642876835621
-0.38797877999999997,0.443954740674426,0.021524355867306333
-0.38792916,0.44362461826229077,0.021192282966256776
-0.38787954,0.4432944958501556,0.020860210065207205
-0.38782992,0.4426342510258847,0.02019606426310762
-0.38778029999999997,0.4423041286137492,0.019863991362057756
-0.38773068,0.441974006201614,0.019531918461008185
-0.38768106,0.441974006201614,0.019199845559958628
-0.38763144,0.44131376137734324,0.018867772658908766
-0.38758181999999997,0.44131376137734324,0.018535699757859042
-0.3875322,0.44131376137734324,0.018535699757859042
-0.38748258,0.4409836389652081,0.018535699757859042
-0.38743296,0.44065351655307256,0.018203626856809332
-0.38738333999999996,0.44065351655307256,0.01820362685680918
-0.38733372,0.44065351655307256,0.01787155395575961
-0.3872841,0.44032339414093735,0.01753948105471005
-0.38723448,0.4399932717288018,0.0175394810547099
-0.38718485999999996,0.43999327172880165,0.0175394810547099
-0.38713524,0.43966314931666645,0.0175394810547099
-0.38708562,0.43966314931666645,0.017207408153660328
-0.387036,0.43966314931666645,0.017207408153660175
-0.38698637999999996,0.43966314931666645,0.017207408153660175
-0.38693676,0.43966314931666645,0.017207408153660175
-0.38688714,0.43933302690453124,0.017207408153660175
-0.38683752,0.4393330269045311,0.017207408153660175
-0.38678789999999996,0.43933302690453124,0.017207408153660328
-0.38673828,0.43966314931666645,0.0175394810547099
-0.38668866,0.43966314931666645,0.0175394810547099
-0.38663904,0.43966314931666645,0.0175394810547099
-0.38658941999999996,0.4399932717288018,0.01753948105471005
-0.3865398,0.4399932717288018,0.01787155395575961
-0.38649018,0.4399932717288018,0.01787155395575961
-0.38644056,0.4399932717288018,0.01787155395575961
-0.38639093999999996,0.4399932717288018,0.01787155395575976
-0.38634132,0.4399932717288018,0.018203626856809332
-0.3862917,0.4399932717288018,0.018203626856809332
-0.38624208,0.4399932717288018,0.018203626856809332
-0.38619245999999996,0.4403233941409372,0.018203626856809485
-0.38614284,0.4403233941409372,0.018535699757859042
-0.38609322,0.4406535165530724,0.018535699757859042
-0.3860436,0.4409836389652079,0.018867772658908766
-0.38599397999999996,0.4409836389652081,0.019199845559958628
-0.38594436,0.44131376137734324,0.019531918461008185
-0.38589474,0.44164388378947844,0.019863991362057756
-0.38584512,0.4416438837894786,0.01986399136205791
-0.38579549999999996,0.44197400620161414,0.02019606426310792
-0.38574588,0.44230412861374935,0.020860210065207052
-0.38569626,0.44263425102588455,0.020860210065207052
-0.38564664,0.4426342510258847,0.021192282966256776
-0.38559701999999996,0.44296437343802025,0.021524355867306638
-0.3855474,0.44329449585015546,0.02185642876835621
-0.38549778,0.4436246182622906,0.022188501669405766
-0.38544816,0.44362461826229077,0.022520574570455643
-0.38539853999999996,0.4439547406744263,0.022852647471505352
-0.38534892,0.4442848630865615,0.022852647471505352
-0.3852993,0.4446149854986967,0.023184720372554923
-0.38524968,0.44494510791083225,0.023516793273604786
-0.38520005999999996,0.44494510791083225,0.02384886617465451
-0.38515044,0.44494510791083225,0.02384886617465451
-0.38510082,0.44527523032296745,0.024180939075704067
-0.3850512,0.4452752303229676,0.02418093907570422
-0.38500157999999995,0.4456053527351032,0.02451301197675423
-0.38495196,0.4459354751472383,0.024845084877803653
-0.38490234,0.4459354751472383,0.024845084877803653
-0.38485272,0.4462655975593737,0.025177157778853362
-0.38480309999999995,0.44626559755937395,0.025177157778853664
-0.38475348,0.44659571997150904,0.025509230679903086
-0.38470386,0.44692584238364425,0.025509230679903086
-0.38465424,0.4469258423836444,0.025841303580952796
-0.38460461999999995,0.4469258423836447,0.025841303580952796
-0.384555,0.4472559647957798,0.025841303580952796
-0.38450538,0.4472559647957798,0.026173376482002367
-0.38445576,0.4472559647957798,0.02617337648200252
-0.38440613999999995,0.44758608720791515,0.02650544938305223
-0.38435652,0.44758608720791515,0.02650544938305223
-0.3843069,0.44791620962005035,0.02650544938305223
-0.38425728,0.4479162096200505,0.026837522284101953
-0.38420765999999995,0.44824633203218583,0.026837522284102255
-0.38415804,0.44824633203218583,0.027169595185151663
-0.38410842,0.44824633203218583,0.027169595185151663
-0.3840588,0.4485764544443212,0.027169595185151663
-0.38400917999999995,0.4485764544443212,0.027169595185151964
-0.38395956,0.44857645444432137,0.027501668086201386
