data_analysis/experimental_data_3_17/acq0070.csv

#Digilent WaveForms Oscilloscope Acquisition
#Device Name: Discovery2
#Serial Number: SN:210321B02866
#Date Time: 2021-03-17 16:14:09.237
#Sample rate: 16000Hz
#Samples: 8192
#Trigger: None
#Channel 1: Range: 1 V/div Offset: -400 mV Attenuation: 1 X
#Channel 2: Range: 2 V/div Offset: -100 mV Attenuation: 1 X
#Power Supplies: ON
#Positive Supply: ON
#Voltage: 3.3 V
#Negative Supply: OFF
#Voltage: -1 V

Time (s),Channel 1 (V),Channel 2 (V)
0.16125,1.578053362282631,1.401533390383198
0.16131250000000003,1.578053362282631,1.401533390383198
0.161375,1.578053362282631,1.401533390383198
0.1614375,1.578053362282631,1.401533390383198
0.16150000000000003,1.5780533622826325,1.397885054282161
0.1615625,1.581681778386306,1.3942367181811275
0.16162500000000002,1.581681778386306,1.3832917098780217
0.16168749999999998,1.5853101944899795,1.3759950376759547
0.16175,1.588938610593656,1.3650500293728456
0.16181250000000003,1.5889386105936576,1.354105021069735
0.161875,1.5925670266973295,1.343160012766639
0.1619375,1.592567026697331,1.3358633405645637
0.16200000000000003,1.592567026697331,1.3285666683624897
0.1620625,1.592567026697331,1.3212699961604226
0.16212500000000002,1.588938610593656,1.3176216600593873
0.16218749999999998,1.588938610593656,1.3139733239583538
0.16225,1.588938610593656,1.3139733239583522
0.16231250000000003,1.592567026697331,1.3139733239583538
0.162375,1.592567026697331,1.3176216600593857
0.1624375,1.5961954428010061,1.3212699961604226
0.16250000000000003,1.5961954428010061,1.3285666683624964
0.1625625,1.5961954428010061,1.3358633405645637
0.16262500000000002,1.5998238589046814,1.3468083488676692
0.16268749999999998,1.5998238589046814,1.3541050210697365
0.16275,1.5998238589046814,1.3650500293728456
0.16281250000000003,1.5998238589046814,1.3723467015749193
0.162875,1.5998238589046814,1.379643373776983
0.1629375,1.6034522750083564,1.386940045979057
0.16300000000000003,1.6034522750083564,1.3905883820800922
0.1630625,1.6034522750083564,1.3905883820800922
0.16312500000000002,1.6070806911120314,1.3905883820800922
0.16318749999999999,1.6070806911120314,1.3869400459790586
0.16325,1.6107091072157065,1.3832917098780217
0.16331250000000003,1.6143375233193815,1.379643373776983
0.163375,1.6143375233193815,1.3723467015749193
0.1634375,1.6143375233193815,1.3650500293728456
0.16350000000000003,1.61433752331938,1.3541050210697365
0.1635625,1.6107091072157065,1.3468083488676692
0.16362500000000002,1.6107091072157065,1.3358633405645637
0.16368749999999999,1.6107091072157065,1.3285666683624964
0.16375,1.6107091072157065,1.3212699961604226
0.16381250000000003,1.6143375233193815,1.3176216600593857
0.163875,1.6143375233193815,1.3139733239583538
0.1639375,1.6179659394230566,1.3139733239583522
0.16400000000000003,1.6215943555267316,1.3139733239583538
0.1640625,1.6215943555267316,1.3176216600593873
0.16412500000000002,1.6215943555267316,1.324918332261458
0.1641875,1.6215943555267316,1.332215004463525
0.16425,1.6215943555267316,1.3395116766655988
0.16431250000000003,1.62159435552673,1.3541050210697447
0.164375,1.617965939423058,1.3650500293728407
0.16443750000000001,1.6143375233193815,1.3759950376759513
0.16450000000000004,1.61433752331938,1.390588382080097
0.1645625,1.6107091072157065,1.401533390383198
0.16462500000000002,1.6070806911120314,1.4088300625852683
0.1646875,1.603452275008358,1.4161267347873356
0.16475,1.6034522750083564,1.4234234069894094
0.16481250000000003,1.5998238589046798,1.4270717430904463
0.164875,1.5961954428010077,1.4307200791914783
0.16493750000000001,1.592567026697331,1.4270717430904447
0.16500000000000004,1.5889386105936545,1.4270717430904432
0.1650625,1.585310194489981,1.4234234069894094
0.16512500000000002,1.581681778386306,1.416126734787339
0.1651875,1.5780533622826325,1.4051817264842381
0.16525,1.578053362282631,1.3942367181811275
0.16531250000000003,1.574424946178956,1.3796433737769798
0.165375,1.574424946178956,1.3650500293728522
0.16543750000000002,1.578053362282631,1.3541050210697398
0.16550000000000004,1.5780533622826325,1.3431600127666292
0.1655625,1.581681778386306,1.3322150044635284
0.16562500000000002,1.581681778386306,1.324918332261458
0.1656875,1.5853101944899795,1.3176216600593906
0.16575,1.585310194489981,1.3103249878573169
0.16581250000000003,1.5853101944899826,1.3103249878573153
0.165875,1.5889386105936545,1.3066766517562831
0.16593750000000002,1.588938610593656,1.3103249878573169
0.16600000000000004,1.5889386105936576,1.3139733239583555
0.1660625,1.592567026697331,1.3212699961604226
0.16612500000000002,1.5961954428010061,1.328566668362493
0.1661875,1.5998238589046798,1.3358633405645604
0.16625,1.5998238589046814,1.3468083488676692
0.16631250000000003,1.603452275008358,1.3577533571707783
0.166375,1.60708069111203,1.3650500293728423
0.16643750000000002,1.6070806911120314,1.372346701574916
0.16650000000000004,1.6107091072157065,1.3759950376759547
0.1665625,1.6107091072157065,1.3832917098780217
0.16662500000000002,1.6107091072157065,1.3832917098780217
0.1666875,1.6107091072157065,1.3832917098780217
0.16675,1.6107091072157065,1.3796433737769864
0.16681250000000003,1.6107091072157065,1.375995037675948
0.166875,1.6107091072157065,1.3686983654738807
0.16693750000000002,1.6107091072157065,1.3614016932718103
0.16700000000000004,1.610709107215708,1.354105021069735
0.1670625,1.6143375233193815,1.343160012766634
0.16712500000000002,1.6143375233193815,1.3358633405645637
0.1671875,1.6143375233193815,1.3285666683624964
0.16725,1.6179659394230566,1.324918332261458
0.1673125,1.6179659394230566,1.3176216600593873
0.167375,1.6179659394230566,1.3176216600593873
0.16743750000000002,1.6179659394230566,1.3176216600593873
0.1675,1.6143375233193815,1.3176216600593873
0.1675625,1.6107091072157065,1.3212699961604226
0.167625,1.6107091072157065,1.324918332261458
0.16768750000000002,1.6107091072157065,1.3358633405645637
0.16775,1.6107091072157065,1.343160012766634
0.1678125,1.6070806911120314,1.3541050210697398
0.167875,1.6070806911120314,1.3650500293728456
0.16793750000000002,1.6070806911120314,1.3759950376759513
0.168,1.6034522750083564,1.386940045979057
0.1680625,1.6034522750083564,1.3942367181811275
0.168125,1.5998238589046814,1.401533390383198
0.16818750000000002,1.5961954428010061,1.4051817264842332
0.16825,1.5961954428010061,1.4088300625852683
0.1683125,1.5961954428010061,1.4088300625852683
0.168375,1.5961954428010061,1.4088300625852683
0.16843750000000002,1.5961954428010061,1.4051817264842332
0.1685,1.5961954428010061,1.401533390383198
0.1685625,1.5961954428010061,1.3978850542821626
0.168625,1.5961954428010061,1.3905883820800922
0.16868750000000002,1.5998238589046814,1.3796433737769864
0.16875,1.5998238589046814,1.372346701574916
0.1688125,1.5998238589046814,1.3614016932718103
0.168875,1.5998238589046814,1.3541050210697398
0.16893750000000002,1.5998238589046814,1.343160012766634
0.169,1.5998238589046814,1.3358633405645637
0.1690625,1.5998238589046814,1.3322150044635284
0.169125,1.5998238589046814,1.328566668362493
0.16918750000000002,1.5998238589046814,1.324918332261458
0.16925,1.5998238589046814,1.324918332261458
0.1693125,1.5998238589046814,1.328566668362493
0.169375,1.5961954428010061,1.328566668362493
0.16943750000000002,1.5998238589046814,1.3358633405645637
0.1695,1.5998238589046814,1.3395116766655988
0.1695625,1.5998238589046814,1.3468083488676692
0.169625,1.5998238589046814,1.3541050210697398
0.16968750000000002,1.5998238589046814,1.3614016932718103
0.16975,1.6034522750083564,1.3686983654738807
0.1698125,1.5998238589046814,1.372346701574916
0.169875,1.6034522750083564,1.3796433737769864
0.16993750000000002,1.6034522750083564,1.3832917098780217
0.17,1.6034522750083564,1.3832917098780217
0.1700625,1.6034522750083564,1.3832917098780217
0.170125,1.6070806911120314,1.3832917098780217
0.17018750000000002,1.6070806911120314,1.3796433737769864
0.17025,1.6070806911120314,1.3796433737769864
0.1703125,1.6070806911120314,1.3759950376759513
0.170375,1.6070806911120314,1.3686983654738807
0.17043750000000002,1.6070806911120314,1.3650500293728456
0.1705,1.6070806911120314,1.357753357170775
0.1705625,1.6034522750083564,1.3504566849687045
0.170625,1.6034522750083564,1.343160012766634
0.17068750000000002,1.6034522750083564,1.3358633405645637
0.17075,1.5998238589046814,1.3322150044635284
0.1708125,1.5998238589046814,1.328566668362493
0.170875,1.5998238589046814,1.324918332261458
0.17093750000000002,1.5998238589046814,1.324918332261458
0.171,1.5998238589046814,1.324918332261458
0.1710625,1.5998238589046814,1.324918332261458
0.171125,1.5998238589046814,1.328566668362493
0.17118750000000002,1.5998238589046814,1.3322150044635284
0.17125,1.5998238589046814,1.3358633405645637
0.1713125,1.5961954428010061,1.343160012766634
0.171375,1.5961954428010061,1.3468083488676692
0.17143750000000002,1.5961954428010061,1.3541050210697398
0.1715,1.5961954428010061,1.3614016932718103
0.1715625,1.5961954428010061,1.3650500293728456
0.171625,1.5961954428010061,1.372346701574916
0.17168750000000002,1.5961954428010061,1.372346701574916
0.17175,1.5961954428010061,1.3759950376759513
0.1718125,1.5961954428010061,1.3796433737769864
0.171875,1.5961954428010061,1.3796433737769864
0.17193750000000002,1.5961954428010061,1.3759950376759513
0.17200000000000001,1.592567026697331,1.372346701574916
0.1720625,1.592567026697331,1.3686983654738807
0.172125,1.592567026697331,1.3614016932718103
0.17218750000000002,1.588938610593656,1.357753357170775
0.17225000000000001,1.588938610593656,1.3504566849687045
0.1723125,1.588938610593656,1.343160012766634
0.172375,1.592567026697331,1.3395116766655988
0.17243750000000002,1.592567026697331,1.3322150044635284
0.17250000000000001,1.592567026697331,1.328566668362493
0.1725625,1.592567026697331,1.324918332261458
0.172625,1.592567026697331,1.3212699961604226
0.17268750000000002,1.592567026697331,1.3176216600593873
0.17275000000000001,1.592567026697331,1.3176216600593873
0.1728125,1.592567026697331,1.3212699961604226
0.172875,1.592567026697331,1.324918332261458
0.17293750000000002,1.592567026697331,1.324918332261458
0.17300000000000001,1.592567026697331,1.3322150044635284
0.1730625,1.592567026697331,1.3358633405645637
0.173125,1.592567026697331,1.343160012766634
0.17318750000000002,1.5961954428010061,1.3504566849687045
0.17325000000000002,1.5961954428010061,1.3541050210697398
0.1733125,1.5961954428010061,1.357753357170775
0.173375,1.5961954428010061,1.3650500293728456
0.17343750000000002,1.5961954428010061,1.3650500293728456
0.17350000000000002,1.5961954428010061,1.3686983654738807
0.1735625,1.5961954428010061,1.3686983654738807
0.173625,1.5961954428010061,1.3686983654738807
0.17368750000000002,1.5961954428010061,1.3686983654738807
0.17375000000000002,1.5961954428010061,1.3650500293728456
0.1738125,1.5961954428010061,1.3614016932718103
0.173875,1.5961954428010061,1.357753357170775
0.17393750000000002,1.5961954428010061,1.3541050210697398
0.17400000000000002,1.5998238589046814,1.3468083488676692
0.1740625,1.5998238589046814,1.343160012766634
0.174125,1.5998238589046814,1.3395116766655988
0.17418750000000002,1.5998238589046814,1.3358633405645637
0.17425000000000002,1.5998238589046814,1.3322150044635284
0.1743125,1.5998238589046814,1.328566668362493
0.174375,1.5998238589046814,1.3322150044635284
0.17443750000000002,1.5998238589046814,1.3322150044635284
0.17450000000000002,1.5998238589046814,1.3322150044635284
0.1745625,1.5998238589046814,1.3358633405645637
0.174625,1.5998238589046814,1.3395116766655988
0.17468750000000002,1.5998238589046814,1.343160012766634
0.17475000000000002,1.5998238589046814,1.3504566849687045
0.1748125,1.5998238589046814,1.3541050210697398
0.174875,1.6034522750083564,1.3614016932718103
0.17493750000000002,1.5998238589046814,1.3650500293728456
0.17500000000000002,1.5998238589046814,1.3686983654738807
0.1750625,1.5998238589046814,1.372346701574916
0.175125,1.5998238589046814,1.3759950376759513
0.1751875,1.5998238589046814,1.3759950376759513
0.17525000000000002,1.5998238589046814,1.3796433737769864
0.1753125,1.5998238589046814,1.3759950376759513
0.175375,1.5961954428010061,1.372346701574916
0.1754375,1.5961954428010061,1.3686983654738807
0.17550000000000002,1.5961954428010061,1.3650500293728456
0.1755625,1.592567026697331,1.357753357170775
0.175625,1.5961954428010061,1.3541050210697398
0.1756875,1.592567026697331,1.3504566849687045
0.17575000000000002,1.592567026697331,1.343160012766634
0.1758125,1.592567026697331,1.3395116766655988
0.175875,1.592567026697331,1.3322150044635284
0.1759375,1.592567026697331,1.328566668362493
0.17600000000000002,1.592567026697331,1.328566668362493
0.1760625,1.592567026697331,1.324918332261458
0.176125,1.592567026697331,1.324918332261458
0.1761875,1.592567026697331,1.324918332261458
0.17625000000000002,1.592567026697331,1.324918332261458
0.1763125,1.592567026697331,1.328566668362493
0.176375,1.592567026697331,1.3322150044635284
0.1764375,1.592567026697331,1.3358633405645637
0.17650000000000002,1.592567026697331,1.3395116766655988
0.1765625,1.588938610593656,1.3468083488676692
0.176625,1.588938610593656,1.3504566849687045
0.1766875,1.588938610593656,1.3541050210697398
0.17675000000000002,1.588938610593656,1.357753357170775
0.1768125,1.588938610593656,1.3614016932718103
0.176875,1.588938610593656,1.3650500293728456
0.1769375,1.588938610593656,1.3686983654738807
0.17700000000000002,1.592567026697331,1.3650500293728456
0.1770625,1.588938610593656,1.3650500293728456
0.177125,1.588938610593656,1.3650500293728456
0.1771875,1.588938610593656,1.3614016932718103
0.17725000000000002,1.588938610593656,1.357753357170775
0.1773125,1.588938610593656,1.3541050210697398
0.177375,1.592567026697331,1.3504566849687045
0.1774375,1.592567026697331,1.3468083488676692
0.17750000000000002,1.592567026697331,1.3468083488676692
0.1775625,1.592567026697331,1.343160012766634
0.177625,1.5961954428010061,1.3358633405645637
0.1776875,1.5961954428010061,1.3358633405645637
0.17775000000000002,1.5961954428010061,1.3322150044635284
0.1778125,1.5961954428010061,1.328566668362493
0.177875,1.5961954428010061,1.3322150044635284
0.1779375,1.5998238589046814,1.3322150044635284
0.17800000000000002,1.5998238589046814,1.3322150044635284
0.1780625,1.5998238589046814,1.3358633405645637
0.178125,1.5961954428010061,1.3395116766655988
0.1781875,1.5998238589046814,1.3468083488676692
0.17825000000000002,1.5961954428010061,1.3504566849687045
0.1783125,1.5998238589046814,1.357753357170775
0.178375,1.5998238589046814,1.3614016932718103
0.1784375,1.5998238589046814,1.3650500293728456
0.17850000000000002,1.5998238589046814,1.3686983654738807
0.1785625,1.5998238589046814,1.372346701574916
0.178625,1.5998238589046814,1.372346701574916
0.1786875,1.5998238589046814,1.3759950376759513
0.17875000000000002,1.5998238589046814,1.372346701574916
0.1788125,1.5998238589046814,1.372346701574916
0.178875,1.5998238589046814,1.372346701574916
0.1789375,1.5998238589046814,1.3686983654738807
0.17900000000000002,1.5998238589046814,1.3686983654738807
0.1790625,1.6034522750083564,1.3614016932718103
0.179125,1.5998238589046814,1.357753357170775
0.1791875,1.5998238589046814,1.3541050210697398
0.17925000000000002,1.6034522750083564,1.3541050210697398
0.1793125,1.6034522750083564,1.3504566849687045
0.179375,1.6034522750083564,1.3468083488676692
0.1794375,1.6034522750083564,1.3468083488676692
0.17950000000000002,1.6034522750083564,1.343160012766634
0.1795625,1.6034522750083564,1.343160012766634
0.179625,1.5998238589046814,1.343160012766634
0.1796875,1.5998238589046814,1.3468083488676692
0.17975000000000002,1.5998238589046814,1.3468083488676692
0.17981250000000001,1.5998238589046814,1.3504566849687045
0.179875,1.5998238589046814,1.3541050210697398
0.1799375,1.5998238589046814,1.357753357170775
0.18000000000000002,1.5998238589046814,1.3614016932718103
0.18006250000000001,1.5998238589046814,1.3650500293728456
0.180125,1.6034522750083564,1.3686983654738807
0.1801875,1.5998238589046814,1.372346701574916
0.18025000000000002,1.5998238589046814,1.372346701574916
0.18031250000000001,1.6034522750083564,1.3759950376759513
0.180375,1.6034522750083564,1.3796433737769864
0.1804375,1.6034522750083564,1.3759950376759513
0.18050000000000002,1.6034522750083564,1.3759950376759513
0.18056250000000001,1.6034522750083564,1.3759950376759513
0.180625,1.6034522750083564,1.372346701574916
0.1806875,1.6034522750083564,1.3686983654738807
0.18075000000000002,1.6034522750083564,1.3650500293728456
0.18081250000000001,1.6034522750083564,1.3614016932718103
0.180875,1.6034522750083564,1.3614016932718103
0.1809375,1.6034522750083564,1.357753357170775
0.18100000000000002,1.6034522750083564,1.3541050210697398
0.18106250000000002,1.6034522750083564,1.3504566849687045
0.181125,1.6034522750083564,1.3504566849687045
0.1811875,1.6034522750083564,1.3468083488676692
0.18125000000000002,1.6034522750083564,1.3504566849687045
0.18131250000000002,1.6034522750083564,1.3468083488676692
0.181375,1.6034522750083564,1.3468083488676692
0.1814375,1.6034522750083564,1.3504566849687045
0.18150000000000002,1.6034522750083564,1.3504566849687045
0.18156250000000002,1.6034522750083564,1.3541050210697398
0.181625,1.6034522750083564,1.357753357170775
0.1816875,1.6034522750083564,1.3614016932718103
0.18175000000000002,1.6034522750083564,1.3650500293728456
0.18181250000000002,1.6034522750083564,1.3686983654738807
0.181875,1.6070806911120314,1.3686983654738807
0.1819375,1.6070806911120314,1.372346701574916
0.18200000000000002,1.6070806911120314,1.3759950376759513
0.18206250000000002,1.6070806911120314,1.3759950376759513
0.182125,1.6034522750083564,1.3759950376759513
0.1821875,1.6070806911120314,1.3759950376759513
0.18225000000000002,1.6070806911120314,1.3759950376759513
0.18231250000000002,1.6070806911120314,1.372346701574916
0.182375,1.6070806911120314,1.372346701574916
0.1824375,1.6070806911120314,1.3686983654738807
0.18250000000000002,1.6070806911120314,1.3650500293728456
0.18256250000000002,1.6034522750083564,1.3614016932718103
0.182625,1.6070806911120314,1.357753357170775
0.1826875,1.6034522750083564,1.357753357170775
0.18275000000000002,1.6034522750083564,1.3541050210697398
0.18281250000000002,1.6034522750083564,1.3504566849687045
0.182875,1.6034522750083564,1.3504566849687045
0.1829375,1.6034522750083564,1.3468083488676692
0.183,1.6034522750083564,1.3468083488676692
0.18306250000000002,1.6034522750083564,1.3468083488676692
0.183125,1.6034522750083564,1.3504566849687045
0.1831875,1.6034522750083564,1.3504566849687045
0.18325,1.6034522750083564,1.3541050210697398
0.18331250000000002,1.6034522750083564,1.357753357170775
0.183375,1.6034522750083564,1.357753357170775
0.1834375,1.6034522750083564,1.3650500293728456
0.1835,1.6034522750083564,1.3650500293728456
0.18356250000000002,1.6034522750083564,1.3686983654738807
0.183625,1.6034522750083564,1.3686983654738807
0.1836875,1.6034522750083564,1.372346701574916
0.18375,1.6034522750083564,1.372346701574916
0.18381250000000002,1.6034522750083564,1.3759950376759513
0.183875,1.6070806911120314,1.3796433737769864
0.1839375,1.6034522750083564,1.3796433737769864
0.184,1.6034522750083564,1.3759950376759513
0.18406250000000002,1.6034522750083564,1.3759950376759513
0.184125,1.6070806911120314,1.372346701574916
0.1841875,1.6070806911120314,1.372346701574916
0.18425,1.6070806911120314,1.3686983654738807
0.18431250000000002,1.6070806911120314,1.3650500293728456
0.184375,1.6070806911120314,1.3650500293728456
0.1844375,1.6070806911120314,1.3614016932718103
0.1845,1.6070806911120314,1.3614016932718103
0.18456250000000002,1.6070806911120314,1.3614016932718103
0.184625,1.6070806911120314,1.3614016932718103
0.1846875,1.6070806911120314,1.357753357170775
0.18475,1.6107091072157065,1.3614016932718103
0.18481250000000002,1.6107091072157065,1.3614016932718103
0.184875,1.6107091072157065,1.3650500293728456
0.1849375,1.6107091072157065,1.3650500293728456
0.185,1.6107091072157065,1.3686983654738807
0.18506250000000002,1.6143375233193815,1.372346701574916
0.185125,1.6107091072157065,1.3759950376759513
0.1851875,1.6143375233193815,1.3759950376759513
0.18525,1.6143375233193815,1.3759950376759513
