data_analysis/experimental_data_3_17/acq0056.csv

#Digilent WaveForms Oscilloscope Acquisition
#Device Name: Discovery2
#Serial Number: SN:210321B02866
#Date Time: 2021-03-17 15:42:03.685
#Sample rate: 1600Hz
#Samples: 8192
#Trigger: None
#Channel 1: Range: 20 mV/div Offset: -1.615 V Attenuation: 1 X
#Channel 2: Range: 20 mV/div Offset: -1.314 V Attenuation: 1 X
#Power Supplies: ON
#Positive Supply: ON
#Voltage: 3.3 V
#Negative Supply: OFF
#Voltage: -1 V

Time (s),Channel 1 (V),Channel 2 (V)
-2.31375,1.6045100883699361,1.3548327454301443
-2.3131250000000003,1.6045100883699361,1.3545006725290947
-2.3125,1.6074811900791544,1.3574893286385419
-2.311875,1.6091318021398313,1.3608100576490392
-2.3112500000000002,1.6088016797276958,1.363134567956387
-2.310625,1.608141434903424,1.3608100576490378
-2.31,1.6058305780184776,1.3578214015395917
-2.309375,1.6038498435456654,1.355164818331194
-2.3087500000000003,1.6021992314849893,1.3525082351227973
-2.308125,1.6012088642485822,1.3508478706175466
-2.3075,1.6002184970121764,1.3485233603101996
-2.3068750000000002,1.5998883746000412,1.34819128740915
-2.3062500000000004,1.6005486194243117,1.349519579013348
-2.305625,1.600548619424312,1.3495195790133487
-2.305,1.600548619424312,1.3495195790133487
-2.3043750000000003,1.5985678849514997,1.3468629958049512
-2.30375,1.596257028066552,1.3435422667944537
-2.303125,1.5959269056544167,1.3428781209923544
-2.3025,1.5975775177150935,1.3442064125965534
-2.3018750000000003,1.6005486194243106,1.3465309229039002
-2.30125,1.6035197211335301,1.3498516519143986
-2.300625,1.6051703331942069,1.3521761622217465
-2.3000000000000003,1.6064908228427484,1.3538365267269952
-2.299375,1.6074811900791546,1.3561610370343435
-2.29875,1.6078113124912898,1.3571572557374922
-2.298125,1.6068209452548836,1.3568251828364426
-2.2975000000000003,1.6061607004306133,1.356493109935393
-2.296875,1.6058305780184776,1.3554968912322436
-2.29625,1.6068209452548836,1.3554968912322436
-2.2956250000000002,1.6091318021398313,1.3581534744406414
-2.295,1.6104522917883726,1.3598138389458894
-2.294375,1.6101221693762373,1.358485547341691
-2.29375,1.6088016797276958,1.3564931099353927
-2.2931250000000003,1.6064908228427495,1.3535044538259466
-2.2925,1.6041799659578002,1.3511799435185967
-2.291875,1.602529353897124,1.3498516519143986
-2.2912500000000002,1.6008787418364472,1.3488554332112495
-2.2906250000000004,1.6002184970121767,1.3475271416070511
-2.29,1.600548619424312,1.3475271416070504
-2.289375,1.6012088642485827,1.3488554332112495
-2.2887500000000003,1.601538986660718,1.3498516519143986
-2.288125,1.601208864248581,1.3495195790133467
-2.2875,1.597907640127229,1.3452026312997025
-2.286875,1.5959269056544167,1.3432101938934042
-2.2862500000000003,1.5965871504786873,1.3432101938934042
-2.285625,1.597907640127229,1.344538485497603
-2.285,1.6008787418364472,1.3478592145081003
-2.2843750000000003,1.6035197211335301,1.3501837248154482
-2.28375,1.6051703331942073,1.3518440893206976
-2.283125,1.606160700430613,1.3531723809248957
-2.2825,1.607151067667019,1.3541685996280448
-2.2818750000000003,1.607151067667019,1.3545006725290942
-2.28125,1.6068209452548836,1.3541685996280448
-2.280625,1.606160700430613,1.3538365267269952
-2.2800000000000002,1.6051703331942069,1.352840308023846
-2.279375,1.6074811900791555,1.3545006725290962
-2.27875,1.609792046964102,1.358485547341691
-2.278125,1.6104522917883728,1.3594817660448402
-2.2775000000000003,1.609131802139832,1.3571572557374934
-2.276875,1.6071510676670184,1.3551648183311928
-2.27625,1.6055004556063424,1.352840308023846
-2.2756250000000002,1.6035197211335301,1.3511799435185974
-2.2750000000000004,1.6018691090728538,1.3491875061123
-2.274375,1.600548619424312,1.3475271416070504
-2.27375,1.5998883746000412,1.3468629958049512
-2.2731250000000003,1.6002184970121764,1.3471950687060008
-2.2725,1.6008787418364474,1.347195068706001
-2.271875,1.601538986660718,1.3478592145081003
-2.27125,1.6002184970121764,1.3468629958049512
-2.2706250000000003,1.59790764012723,1.3435422667944554
-2.27,1.5965871504786875,1.3415498293881556
-2.269375,1.5972473953029582,1.3428781209923544
-2.2687500000000003,1.5992281297757704,1.3452026312997025
-2.268125,1.6021992314849898,1.3491875061123002
-2.2675,1.6045100883699361,1.351512016419647
-2.266875,1.6051703331942069,1.3538365267269952
-2.2662500000000003,1.6061607004306127,1.3558289641332926
-2.265625,1.607151067667019,1.3568251828364426
-2.265,1.6064908228427484,1.3558289641332935
-2.2643750000000002,1.606160700430613,1.3541685996280448
-2.26375,1.6058305780184774,1.353504453825945
-2.263125,1.6055004556063424,1.352840308023846
-2.2625,1.6078113124912898,1.3558289641332935
-2.2618750000000003,1.6097920469641012,1.3588176202427396
-2.26125,1.6104522917883721,1.3588176202427402
-2.260625,1.6088016797276958,1.3571572557374922
-2.2600000000000002,1.6068209452548836,1.3541685996280448
-2.2593750000000004,1.6048402107820725,1.351844089320698
-2.25875,1.6031895987213947,1.3501837248154482
-2.258125,1.601538986660718,1.34819128740915
-2.2575000000000003,1.6002184970121764,1.3471950687060008
-2.256875,1.600548619424312,1.3468629958049514
-2.25625,1.600548619424312,1.3471950687060008
-2.255625,1.6008787418364472,1.3475271416070504
-2.2550000000000003,1.6012088642485824,1.3475271416070504
-2.254375,1.5985678849514997,1.344538485497603
-2.25375,1.5962570280665522,1.3418819022892052
-2.2531250000000003,1.5962570280665522,1.341217756487106
-2.2525,1.5972473953029596,1.3425460480913063
-2.251875,1.6002184970121764,1.3458667771018018
-2.25125,1.6028594763092594,1.3495195790133487
-2.2506250000000003,1.6048402107820707,1.3515120164196461
-2.25,1.6058305780184776,1.3531723809248957
-2.249375,1.607151067667019,1.3545006725290945
-2.2487500000000002,1.6074811900791544,1.356161037034343
-2.248125,1.6078113124912896,1.3551648183311935
-2.2475,1.6074811900791544,1.3541685996280448
-2.246875,1.606160700430613,1.356161037034343
-2.2462500000000003,1.6074811900791537,1.3538365267269963
-2.245625,1.6094619245519668,1.3588176202427429
-2.245,1.6101221693762373,1.363134567956387
-2.2443750000000002,1.611772781436914,1.3564931099353927
-2.2437500000000004,1.6084715573155621,1.3591496931437894
-2.243125,1.6058305780184776,1.356161037034343
-2.2425,1.6051703331942069,1.3498516519143986
-2.2418750000000003,1.602529353897124,1.3554968912322436
-2.24125,1.6031895987213935,1.34819128740915
-2.240625,1.600548619424312,1.34819128740915
-2.24,1.6008787418364472,1.349187506112299
-2.2393750000000003,1.6025293538971233,1.3455347042007537
-2.23875,1.6018691090728532,1.3511799435185974
-2.238125,1.602529353897124,1.3468629958049512
-2.2375000000000003,1.598898007363635,1.3438743396955035
-2.236875,1.596257028066553,1.3442064125965505
-2.23625,1.597907640127229,1.3378970274766087
-2.235625,1.5992281297757704,1.3428781209923544
-2.2350000000000003,1.6021992314849873,1.3452026312997014
-2.234375,1.6041799659578009,1.3471950687060008
-2.23375,1.6051703331942069,1.3488554332112495
-2.2331250000000002,1.6064908228427484,1.3461988500028517
-2.2325,1.607151067667019,1.350847870617548
-2.231875,1.607151067667019,1.3511799435185974
-2.23125,1.6064908228427484,1.3501837248154482
-2.2306250000000003,1.6061607004306133,1.3535044538259438
-2.23,1.6058305780184796,1.3538365267269945
-2.229375,1.6101221693762373,1.3525082351227962
-2.2287500000000002,1.6091318021398313,1.3624704221542878
-2.2281250000000004,1.6097920469641018,1.359149693143792
-2.2275,1.609792046964102,1.3558289641332935
-2.226875,1.6074811900791544,1.3608100576490392
-2.2262500000000003,1.6055004556063424,1.3501837248154482
-2.225625,1.6068209452548807,1.3511799435185998
-2.225,1.600548619424312,1.3564931099353927
-2.224375,1.6012088642485827,1.3442064125965534
-2.2237500000000003,1.598898007363636,1.352840308023842
-2.223125,1.598898007363635,1.3511799435185974
-2.2225,1.5998883746000412,1.3428781209923544
-2.2218750000000003,1.6002184970121764,1.3548327454301443
-2.22125,1.600218497012176,1.3458667771018002
-2.220625,1.5992281297757704,1.3425460480913047
-2.22,1.5972473953029582,1.3468629958049512
-2.2193750000000003,1.5992281297757696,1.3388932461797614
-2.21875,1.6018691090728532,1.3402215377839568
-2.218125,1.6002184970121764,1.3505157977164979
-2.2175000000000002,1.601538986660718,1.3471950687060008
-2.216875,1.6051703331942069,1.351512016419651
-2.21625,1.6051703331942069,1.3604779847479893
-2.215625,1.608141434903425,1.3548327454301443
-2.2150000000000003,1.6071510676670195,1.361142130550086
-2.214375,1.6038498435456645,1.3637987137584833
-2.21375,1.6018691090728532,1.3564931099353927
-2.2131250000000002,1.6045100883699361,1.3558289641332935
-2.2125000000000004,1.5972473953029616,1.3641307866595325
-2.211875,1.6055004556063424,1.3541685996280448
-2.21125,1.608141434903425,1.3548327454301443
-2.2106250000000003,1.600548619424312,1.3717684633836797
-2.21,1.61441376073399,1.3402215377839657
-2.209375,1.598898007363635,1.35981383894589
-2.20875,1.5998883746000412,1.3614742034511387
-2.2081250000000003,1.605830578018475,1.3239499656325378
-2.2075,1.5856931108782206,1.3744250465920775
-2.206875,1.606160700430613,1.3322517881587634
-2.2062500000000003,1.5893244574117096,1.3461988500028517
-2.205625,1.5979076401272323,1.3697760259773593
-2.205,1.6051703331942069,1.3209613095230732
-2.204375,1.5899847022359803,1.3813985775141215
-2.2037500000000003,1.6111125366126338,1.332915933960885
-2.203125,1.588003967763168,1.3435422667944539
-2.2025,1.6021992314849887,1.3724326091857793
-2.2018750000000002,1.6031895987213947,1.3183047263146754
-2.20125,1.592955803945209,1.3867117439308965
-2.200625,1.6157342503825385,1.3418819022892052
-2.2,1.5955967832422815,1.3518440893206969
-2.1993750000000003,1.6101221693762306,1.3820627233162073
-2.19875,1.607481190079149,1.3262744759398957
-2.198125,1.5959269056544167,1.3860475981288176
-2.1975000000000002,1.615404127970403,1.3418819022892052
-2.1968750000000004,1.5913051918845327,1.3515120164196426
-2.19625,1.610782414200508,1.3730967549878788
-2.195625,1.6035197211335301,1.3309234965545647
-2.1950000000000003,1.602529353897124,1.3850513794256685
-2.194375,1.6183752296796101,1.3425460480913127
-2.19375,1.5936160487694693,1.3601459118469397
-2.193125,1.613423393497591,1.3651270053626854
-2.1925000000000003,1.5985678849515064,1.3305914236535308
-2.191875,1.596917272890823,1.378409921404674
-2.19125,1.6091318021398313,1.3302593507524652
-2.1906250000000003,1.5883340901753036,1.3604779847479893
-2.19,1.6107824142005003,1.3584855473416806
-2.189375,1.5936160487694693,1.3355725171692607
-2.18875,1.6002184970121764,1.377413702701525
-2.1881250000000003,1.607151067667016,1.3302593507524867
-2.1875,1.588994334999574,1.363466640857437
-2.186875,1.6078113124912898,1.3461988500028517
-2.1862500000000002,1.5866834781146266,1.3345762984661116
-2.185625,1.5982377625393662,1.3697760259773615
-2.185,1.6028594763092594,1.325942403038819
-2.184375,1.5919654367087925,1.3730967549878788
-2.1837500000000003,1.6160643727946629,1.3468629958049632
-2.183125,1.5932859263573405,1.3488554332112621
-2.1825,1.6078113124912898,1.3767495568994255
-2.1818750000000002,1.6058305780184776,1.3319197152577138
-2.1812500000000004,1.5932859263573396,1.3827268691182972
-2.180625,1.6140836383218617,1.3442064125965534
-2.18,1.5903148246481156,1.3548327454301443
-2.1793750000000003,1.609792046964102,1.3760854110973262
-2.17875,1.6088016797276927,1.3369008087734844
-2.178125,1.6018691090728532,1.391360764545613
-2.1775,1.6193655969160274,1.3485233603101996
-2.1768750000000003,1.5955967832422924,1.3644628595605788
-2.17625,1.611772781436914,1.3711043175815802
-2.175625,1.6002184970121764,1.3319197152577138
-2.1750000000000003,1.5965871504786875,1.3794061401078233
-2.174375,1.6097920469640925,1.3329159339608747
-2.17375,1.588994334999574,1.3588176202427409
-2.173125,1.610782414200508,1.3581534744406414
-2.1725000000000003,1.5949365384180179,1.333248006861924
-2.171875,1.5995582521879057,1.378409921404674
-2.17125,1.6068209452548836,1.3289310591482664
-2.1706250000000002,1.5843726212296791,1.3624704221542878
-2.17,1.604840210782063,1.3481912874091428
-2.169375,1.5856931108782206,1.3325838610598133
-2.16875,1.5965871504786875,1.374092973691028
-2.1681250000000003,1.6041799659577973,1.3262744759398903
-2.1675,1.590644947060262,1.3714363904826203
-2.166875,1.6147438831461325,1.3498516519143986
-2.1662500000000002,1.5932859263573338,1.3448705583986527
-2.1656250000000004,1.6071510676670129,1.3784099214046588
-2.165,1.607151067667019,1.3295952049503659
-2.164375,1.5939461711816045,1.375089192394177
-2.1637500000000003,1.6140836383218617,1.3442064125965534
-2.163125,1.5919654367088012,1.3481912874091622
-2.1625,1.6111125366126433,1.375089192394177
-2.161875,1.610782414200508,1.3359045900703104
-2.1612500000000003,1.6018691090728572,1.3847193065245964
-2.160625,1.6196957193281627,1.3448705583986527
-2.16,1.5946064160058753,1.358485547341691
-2.1593750000000003,1.6114426590247788,1.3674515156700335
-2.15875,1.6015389866607153,1.329263132049338
-2.158125,1.5955967832422815,1.377413702701525
-2.1575,1.6111125366126433,1.3295952049503659
-2.1568750000000003,1.5893244574117196,1.3564931099353805
-2.15625,1.6104522917883728,1.3601459118469397
-2.155625,1.5975775177150935,1.330591423653515
-2.1550000000000002,1.5982377625393642,1.378409921404674
-2.154375,1.6068209452548736,1.3262744759398823
-2.15375,1.5847027436418144,1.3564931099353927
-2.153125,1.6041799659578009,1.34819128740915
-2.1525000000000003,1.5922955591209331,1.3315876423566717
-2.151875,1.5982377625393571,1.3697760259773633
-2.15125,1.582391886756867,1.3295952049503659
-2.1506250000000002,1.5721580919806708,1.3760854110973262
-2.1500000000000004,1.6048402107820567,1.3422139751902704
-2.149375,1.5856931108782206,1.3495195790133487
-2.14875,1.598898007363635,1.3817306504151712
-2.1481250000000003,1.6048402107820716,1.3169764347104767
-2.1475,1.5863533557024994,1.3813985775141104
-2.146875,1.6038498435456654,1.3568251828364426
-2.14625,1.598898007363635,1.3325838610598133
-2.1456250000000003,1.6031895987213927,1.3910286916445367
-2.145,1.6101221693762373,1.340885683586056
-2.144375,1.6055004556063424,1.3628024950553375
-2.1437500000000003,1.6084715573155606,1.3744250465920775
-2.143125,1.604840210782071,1.3402215377839688
-2.1425,1.6031895987213947,1.366787369867934
-2.141875,1.5995582521879057,1.3458667771018018
-2.1412500000000003,1.5995582521879057,1.3475271416070498
-2.140625,1.6012088642485827,1.35981383894589
-2.14,1.6002184970121764,1.3425460480913047
-2.1393750000000002,1.6012088642485827,1.3614742034511387
-2.13875,1.6028594763092587,1.3491875061122987
-2.138125,1.6012088642485827,1.34819128740915
-2.1375,1.5992281297757704,1.355164818331194
-2.1368750000000003,1.596917272890824,1.336236662971369
-2.13625,1.5965871504786886,1.3495195790133476
-2.135625,1.598898007363635,1.3471950687060008
-2.1350000000000002,1.601538986660718,1.3442064125965534
-2.1343750000000004,1.6028594763092587,1.3601459118469323
-2.13375,1.6051703331942069,1.3505157977164979
-2.133125,1.606160700430613,1.355164818331194
-2.1325000000000003,1.607151067667019,1.3601459118469397
-2.131875,1.6071510676670189,1.3511799435186
-2.13125,1.6064908228427484,1.3571572557374922
-2.130625,1.6051703331942069,1.3531723809248957
-2.1300000000000003,1.6048402107820718,1.3518440893206976
-2.129375,1.6064908228427484,1.3591496931437905
-2.12875,1.6091318021398313,1.3578214015395917
-2.1281250000000003,1.610782414200508,1.3611421305500888
-2.1275,1.608801679727695,1.3598138389458883
-2.126875,1.6068209452548836,1.3558289641332935
-2.12625,1.6045100883699361,1.356161037034343
-2.1256250000000003,1.6025293538971248,1.3518440893206989
-2.125,1.6012088642485827,1.3498516519143986
-2.124375,1.6002184970121764,1.349187506112299
-2.1237500000000002,1.5998883746000412,1.3461988500028517
-2.123125,1.6005486194243121,1.3481912874091502
-2.1225,1.6008787418364472,1.3485233603101996
-2.121875,1.6012088642485827,1.3471950687060008
-2.1212500000000003,1.5998883746000419,1.3478592145081
-2.120625,1.5965871504786868,1.3432101938934036
-2.12,1.595266660830146,1.3418819022892052
-2.1193750000000002,1.5962570280665522,1.3428781209923544
-2.1187500000000004,1.5979076401272283,1.343874339695503
-2.118125,1.600548619424312,1.3495195790133487
-2.1175,1.6021992314849887,1.3525082351227962
-2.1168750000000003,1.6048402107820716,1.352840308023846
-2.11625,1.6064908228427486,1.3561610370343429
-2.115625,1.607151067667019,1.3558289641332935
-2.115,1.6064908228427484,1.356161037034343
-2.1143750000000003,1.6058305780184778,1.3558289641332937
-2.11375,1.6051703331942069,1.3541685996280448
-2.113125,1.6051703331942069,1.3548327454301443
-2.1125000000000003,1.608141434903425,1.3578214015395917
-2.111875,1.6107824142005083,1.3604779847479895
-2.11125,1.6111125366126433,1.3611421305500888
-2.110625,1.609792046964102,1.358485547341691
-2.1100000000000003,1.606820945254885,1.3561610370343442
-2.109375,1.6048402107820716,1.352840308023846
-2.10875,1.6028594763092594,1.3501837248154482
-2.1081250000000002,1.6012088642485827,1.3488554332112495
-2.1075,1.5995582521879057,1.3475271416070507
-2.106875,1.5995582521879057,1.3478592145081003
-2.10625,1.6002184970121764,1.3488554332112495
-2.1056250000000003,1.6005486194243117,1.3491875061122989
-2.105,1.601208864248582,1.3495195790133474
-2.104375,1.5995582521879057,1.3465309229039013
-2.1037500000000002,1.5965871504786875,1.3432101938934042
-2.1031250000000004,1.595926905654417,1.3428781209923546
-2.1025,1.5972473953029582,1.3435422667944539
-2.101875,1.598898007363635,1.3458667771018018
-2.1012500000000003,1.6018691090728532,1.349187506112299
-2.100625,1.603849843545666,1.351844089320698
-2.1,1.6051703331942069,1.3545006725290945
-2.099375,1.607151067667019,1.356161037034343
-2.0987500000000003,1.607151067667019,1.3571572557374918
-2.098125,1.606160700430613,1.356161037034343
-2.0975,1.6055004556063424,1.3548327454301443
-2.0968750000000003,1.6048402107820716,1.3541685996280448
-2.09625,1.605500455606344,1.3548327454301459
-2.095625,1.6088016797276958,1.3581534744406414
-2.095,1.6104522917883728,1.3604779847479893
-2.0943750000000003,1.6101221693762375,1.3588176202427416
-2.09375,1.6088016797276958,1.3568251828364426
-2.093125,1.6064908228427484,1.3538365267269952
-2.0925000000000002,1.6041799659578009,1.3508478706175477
-2.091875,1.6025293538971233,1.3491875061122984
-2.09125,1.6008787418364472,1.3478592145081003
-2.090625,1.5998883746000412,1.3475271416070504
-2.0900000000000003,1.6002184970121762,1.3481912874091497
-2.089375,1.6008787418364474,1.3485233603101998
-2.08875,1.601538986660718,1.349187506112299
-2.0881250000000002,1.601538986660718,1.349187506112299
-2.0875000000000004,1.5982377625393658,1.3455347042007537
-2.086875,1.5955967832422815,1.342213975190255
-2.08625,1.5965871504786875,1.341217756487106
-2.0856250000000003,1.5982377625393642,1.3428781209923544
-2.085,1.6002184970121773,1.3471950687060026
-2.084375,1.6021992314849887,1.3511799435185974
-2.08375,1.6041799659578009,1.3535044538259453
-2.0831250000000003,1.6061607004306122,1.3548327454301436
-2.0825,1.6074811900791544,1.356161037034343
-2.081875,1.6078113124912898,1.3564931099353927
-2.0812500000000003,1.6068209452548836,1.3558289641332935
-2.080625,1.6058305780184774,1.3551648183311937
-2.08,1.6055004556063424,1.3545006725290945
-2.079375,1.607151067667019,1.3558289641332935
-2.0787500000000003,1.609792046964101,1.3588176202427396
-2.078125,1.6104522917883728,1.3608100576490392
-2.0775,1.609792046964102,1.3588176202427409
-2.0768750000000002,1.6078113124912898,1.3564931099353927
-2.07625,1.6055004556063417,1.3538365267269943
-2.075625,1.6038498435456654,1.3518440893206969
-2.075,1.602529353897124,1.3495195790133487
-2.0743750000000003,1.6012088642485833,1.347195068706002
-2.07375,1.6005486194243121,1.3468629958049512
-2.073125,1.6012088642485827,1.3468629958049512
-2.0725000000000002,1.6021992314849887,1.3471950687060008
-2.0718750000000004,1.6025293538971237,1.3475271416070502
-2.07125,1.601538986660718,1.3465309229039013
-2.070625,1.5985678849514997,1.3435422667944539
