data_analysis/experimental_data_3_17/acq0024.csv

#Digilent WaveForms Oscilloscope Acquisition
#Device Name: Discovery2
#Serial Number: SN:210321B02866
#Date Time: 2021-03-17 15:32:39.475
#Sample rate: 8000Hz
#Samples: 8192
#Trigger: None
#Channel 1: Range: 20 mV/div Offset: -1.615 V Attenuation: 1 X
#Channel 2: Range: 20 mV/div Offset: -1.314 V Attenuation: 1 X
#Power Supplies: ON
#Positive Supply: ON
#Voltage: 3.3 V
#Negative Supply: OFF
#Voltage: -1 V

Time (s),Channel 1 (V),Channel 2 (V)
-0.403,1.6008787418364472,1.34819128740915
-0.402875,1.6008787418364474,1.3485233603101996
-0.40275000000000005,1.6012088642485824,1.3485233603101996
-0.402625,1.6012088642485827,1.3485233603101996
-0.40249999999999997,1.6012088642485827,1.3485233603101996
-0.40237500000000004,1.6012088642485827,1.3485233603101996
-0.40225,1.6012088642485827,1.3485233603101996
-0.40212500000000007,1.6015389866607177,1.3485233603101996
-0.402,1.601538986660718,1.34819128740915
-0.401875,1.6015389866607181,1.34819128740915
-0.40175000000000005,1.601869109072853,1.34819128740915
-0.401625,1.6018691090728532,1.3485233603101996
-0.40149999999999997,1.6018691090728532,1.3485233603101996
-0.40137500000000004,1.6018691090728532,1.3485233603101996
-0.40125,1.6018691090728532,1.3488554332112495
-0.40112500000000006,1.6018691090728532,1.3491875061122989
-0.401,1.601538986660718,1.349187506112299
-0.400875,1.6015389866607177,1.349187506112299
-0.40075000000000005,1.6012088642485829,1.349187506112299
-0.400625,1.6008787418364472,1.3485233603101996
-0.40049999999999997,1.600218497012176,1.34752714160705
-0.40037500000000004,1.5992281297757704,1.3465309229039013
-0.40025,1.598898007363635,1.3455347042007522
-0.40012500000000006,1.5985678849515,1.3448705583986529
-0.4,1.597907640127229,1.344538485497603
-0.399875,1.597247395302958,1.3442064125965532
-0.39975000000000005,1.5969172728908232,1.3438743396955037
-0.399625,1.5962570280665522,1.3432101938934042
-0.39949999999999997,1.596257028066552,1.3435422667944537
-0.39937500000000004,1.5959269056544167,1.3432101938934042
-0.39925,1.5959269056544167,1.3432101938934042
-0.39912500000000006,1.5959269056544167,1.3428781209923546
-0.399,1.5959269056544167,1.3432101938934042
-0.398875,1.595926905654417,1.343542266794454
-0.39875000000000005,1.596257028066552,1.3438743396955033
-0.398625,1.5965871504786875,1.3442064125965534
-0.39849999999999997,1.5972473953029585,1.344538485497603
-0.39837500000000003,1.5975775177150935,1.344538485497603
-0.39825,1.597907640127229,1.344538485497603
-0.39812500000000006,1.5985678849514995,1.3448705583986524
-0.398,1.5992281297757704,1.3458667771018018
-0.397875,1.5998883746000414,1.3468629958049514
-0.39775000000000005,1.6005486194243117,1.3475271416070502
-0.397625,1.6012088642485827,1.34819128740915
-0.39749999999999996,1.6018691090728534,1.3488554332112497
-0.39737500000000003,1.602529353897124,1.349187506112299
-0.39725,1.6031895987213947,1.3498516519143986
-0.39712500000000006,1.60351972113353,1.3505157977164977
-0.397,1.6038498435456654,1.3511799435185974
-0.396875,1.604179965957801,1.351844089320697
-0.39675000000000005,1.604510088369936,1.3521761622217463
-0.396625,1.6048402107820716,1.3525082351227962
-0.39649999999999996,1.6051703331942069,1.3525082351227962
-0.39637500000000003,1.6051703331942069,1.3525082351227962
-0.39625,1.6055004556063424,1.352840308023846
-0.39612500000000006,1.6055004556063424,1.3531723809248954
-0.396,1.6058305780184776,1.3531723809248957
-0.395875,1.606160700430613,1.353172380924896
-0.39575000000000005,1.606160700430613,1.353504453825945
-0.395625,1.6064908228427484,1.3538365267269952
-0.39549999999999996,1.6068209452548838,1.3541685996280448
-0.39537500000000003,1.607151067667019,1.3541685996280448
-0.39525,1.607151067667019,1.3548327454301443
-0.39512500000000006,1.607151067667019,1.3551648183311937
-0.395,1.6074811900791544,1.355164818331194
-0.394875,1.6074811900791541,1.3554968912322436
-0.39475000000000005,1.6071510676670193,1.3554968912322436
-0.394625,1.607151067667019,1.3554968912322436
-0.39449999999999996,1.6071510676670189,1.3554968912322434
-0.39437500000000003,1.6068209452548836,1.355164818331194
-0.39425,1.6068209452548836,1.355164818331194
-0.39412500000000006,1.6064908228427486,1.3548327454301445
-0.394,1.6064908228427484,1.3545006725290945
-0.393875,1.606160700430613,1.3545006725290945
-0.39375000000000004,1.606160700430613,1.3545006725290945
-0.393625,1.606160700430613,1.3545006725290945
-0.39349999999999996,1.6058305780184776,1.3541685996280446
-0.39337500000000003,1.6058305780184776,1.3538365267269952
-0.39325,1.6055004556063424,1.3538365267269952
-0.39312500000000006,1.6055004556063424,1.3535044538259455
-0.393,1.6055004556063424,1.3535044538259453
-0.392875,1.6055004556063421,1.3535044538259453
-0.39275000000000004,1.605170333194207,1.3535044538259453
-0.392625,1.6048402107820716,1.3531723809248957
-0.39249999999999996,1.6045100883699361,1.3528403080238458
-0.39237500000000003,1.6045100883699361,1.3525082351227962
-0.39225,1.6048402107820716,1.3525082351227962
-0.39212500000000006,1.6055004556063421,1.3531723809248954
-0.392,1.606160700430613,1.3538365267269952
-0.391875,1.6068209452548838,1.3548327454301448
-0.39175000000000004,1.6074811900791544,1.3558289641332935
-0.391625,1.608141434903425,1.3564931099353927
-0.39149999999999996,1.608801679727696,1.3571572557374925
-0.39137500000000003,1.6094619245519666,1.3578214015395917
-0.39125,1.609792046964102,1.358485547341691
-0.39112500000000006,1.610122169376237,1.358485547341691
-0.391,1.6101221693762373,1.3588176202427409
-0.39087500000000003,1.6104522917883728,1.3588176202427409
-0.39075000000000004,1.6104522917883728,1.3588176202427409
-0.390625,1.6101221693762373,1.358485547341691
-0.3905,1.6101221693762373,1.3581534744406414
-0.390375,1.6101221693762373,1.3574893286385419
-0.39025000000000004,1.609792046964102,1.3571572557374922
-0.390125,1.6094619245519666,1.3564931099353927
-0.39,1.6091318021398313,1.356161037034343
-0.389875,1.6088016797276958,1.3558289641332935
-0.38975000000000004,1.6088016797276958,1.3558289641332935
-0.389625,1.608141434903425,1.3554968912322436
-0.3895,1.608141434903425,1.355164818331194
-0.389375,1.6078113124912898,1.3548327454301443
-0.38925000000000004,1.607151067667019,1.3541685996280448
-0.389125,1.6064908228427484,1.3535044538259453
-0.389,1.6058305780184776,1.3531723809248957
-0.388875,1.6051703331942069,1.352840308023846
-0.38875000000000004,1.6045100883699361,1.3525082351227962
-0.388625,1.6041799659578009,1.3521761622217465
-0.3885,1.6041799659578009,1.3518440893206969
-0.388375,1.6038498435456654,1.351512016419647
-0.38825000000000004,1.6035197211335301,1.3511799435185974
-0.388125,1.6031895987213947,1.3511799435185974
-0.388,1.6028594763092594,1.3508478706175477
-0.387875,1.602529353897124,1.3505157977164979
-0.38775000000000004,1.6021992314849887,1.3501837248154482
-0.387625,1.6018691090728532,1.3498516519143986
-0.3875,1.601538986660718,1.3495195790133487
-0.387375,1.6012088642485827,1.349187506112299
-0.38725000000000004,1.6008787418364472,1.3488554332112495
-0.387125,1.6008787418364472,1.3485233603101996
-0.387,1.600548619424312,1.34819128740915
-0.386875,1.6008787418364472,1.3475271416070504
-0.38675000000000004,1.600548619424312,1.3475271416070504
-0.386625,1.600548619424312,1.3468629958049512
-0.3865,1.6002184970121764,1.3468629958049512
-0.386375,1.6002184970121764,1.3465309229039013
-0.38625000000000004,1.6002184970121764,1.3468629958049512
-0.386125,1.6002184970121764,1.3468629958049512
-0.386,1.600548619424312,1.3471950687060008
-0.385875,1.600548619424312,1.3471950687060008
-0.38575000000000004,1.600548619424312,1.3471950687060008
-0.385625,1.6008787418364472,1.3475271416070504
-0.3855,1.6008787418364472,1.3475271416070504
-0.385375,1.6008787418364472,1.3478592145081003
-0.38525000000000004,1.6012088642485827,1.3478592145081003
-0.385125,1.6012088642485827,1.34819128740915
-0.385,1.6012088642485827,1.3485233603101996
-0.384875,1.601538986660718,1.3488554332112495
-0.38475000000000004,1.601538986660718,1.349187506112299
-0.384625,1.601538986660718,1.349187506112299
-0.3845,1.6012088642485827,1.349187506112299
-0.384375,1.601538986660718,1.349187506112299
-0.38425000000000004,1.601538986660718,1.349187506112299
-0.384125,1.601538986660718,1.349187506112299
-0.384,1.6012088642485827,1.3488554332112495
-0.383875,1.600548619424312,1.3478592145081003
-0.38375000000000004,1.5995582521879057,1.3468629958049512
-0.383625,1.5992281297757704,1.3461988500028517
-0.3835,1.598898007363635,1.3455347042007522
-0.383375,1.5985678849514997,1.3448705583986527
-0.38325000000000004,1.597907640127229,1.3442064125965534
-0.383125,1.5972473953029582,1.3432101938934042
-0.383,1.596917272890823,1.3428781209923544
-0.382875,1.596917272890823,1.3428781209923544
-0.38275000000000003,1.5965871504786875,1.3428781209923544
-0.382625,1.5962570280665522,1.3428781209923544
-0.3825,1.5959269056544167,1.3428781209923544
-0.382375,1.5962570280665522,1.3432101938934042
-0.38225000000000003,1.5962570280665522,1.3435422667944539
-0.382125,1.5962570280665522,1.3435422667944539
-0.382,1.5965871504786875,1.3438743396955035
-0.381875,1.596917272890823,1.344538485497603
-0.38175000000000003,1.5972473953029582,1.3448705583986527
-0.381625,1.5975775177150935,1.3455347042007522
-0.3815,1.597907640127229,1.3461988500028517
-0.381375,1.5985678849514997,1.3468629958049512
-0.38125000000000003,1.5992281297757704,1.3475271416070504
-0.381125,1.5998883746000412,1.34819128740915
-0.381,1.600548619424312,1.3488554332112495
-0.380875,1.6012088642485827,1.3495195790133487
-0.38075000000000003,1.601538986660718,1.3498516519143986
-0.380625,1.6018691090728532,1.3505157977164979
-0.3805,1.6021992314849887,1.3508478706175477
-0.380375,1.6028594763092594,1.351512016419647
-0.38025000000000003,1.6031895987213947,1.3518440893206969
-0.380125,1.6035197211335301,1.3525082351227962
-0.38,1.6038498435456654,1.352840308023846
-0.379875,1.6041799659578009,1.352840308023846
-0.37975000000000003,1.6041799659578009,1.3531723809248957
-0.379625,1.6041799659578009,1.3535044538259453
-0.3795,1.6045100883699361,1.3538365267269952
-0.379375,1.6048402107820716,1.3538365267269952
-0.37925000000000003,1.6048402107820716,1.3541685996280448
-0.379125,1.6051703331942069,1.3545006725290945
-0.379,1.6055004556063424,1.3548327454301443
-0.378875,1.6055004556063424,1.355164818331194
-0.37875000000000003,1.6058305780184776,1.355164818331194
-0.378625,1.606160700430613,1.355164818331194
-0.3785,1.606160700430613,1.3554968912322436
-0.378375,1.6064908228427484,1.3554968912322436
-0.37825000000000003,1.6068209452548836,1.3554968912322436
-0.378125,1.6068209452548836,1.3554968912322436
-0.378,1.6064908228427484,1.3554968912322436
-0.377875,1.6064908228427484,1.355164818331194
-0.37775000000000003,1.6064908228427484,1.355164818331194
-0.377625,1.606160700430613,1.3548327454301443
-0.3775,1.6058305780184776,1.3541685996280448
-0.377375,1.6058305780184776,1.3541685996280448
-0.37725000000000003,1.6055004556063424,1.3538365267269952
-0.377125,1.6055004556063424,1.3535044538259453
-0.377,1.6055004556063424,1.3531723809248957
-0.376875,1.6055004556063424,1.3531723809248957
-0.37675000000000003,1.6051703331942069,1.3531723809248957
-0.376625,1.6051703331942069,1.3531723809248957
-0.3765,1.6051703331942069,1.3531723809248957
-0.376375,1.6048402107820716,1.3531723809248957
-0.37625000000000003,1.6048402107820716,1.3531723809248957
-0.376125,1.6048402107820716,1.3531723809248957
-0.376,1.6048402107820716,1.3531723809248957
-0.375875,1.6048402107820716,1.3531723809248957
-0.37575000000000003,1.6048402107820716,1.3535044538259453
-0.375625,1.6045100883699361,1.3535044538259453
-0.3755,1.6051703331942069,1.3541685996280448
-0.375375,1.6058305780184776,1.355164818331194
-0.37525000000000003,1.6068209452548836,1.356161037034343
-0.37512500000000004,1.607151067667019,1.3568251828364426
-0.375,1.6078113124912898,1.3574893286385419
-0.374875,1.6084715573155606,1.3581534744406414
-0.37475,1.6091318021398313,1.3591496931437905
-0.37462500000000004,1.609792046964102,1.35981383894589
-0.3745,1.609792046964102,1.3601459118469397
-0.374375,1.6101221693762373,1.3601459118469397
-0.37425,1.6101221693762373,1.3601459118469397
-0.37412500000000004,1.6101221693762373,1.3601459118469397
-0.374,1.6101221693762373,1.3601459118469397
-0.373875,1.6101221693762373,1.35981383894589
-0.37375,1.609792046964102,1.3591496931437905
-0.37362500000000004,1.609792046964102,1.3588176202427409
-0.3735,1.6094619245519666,1.3581534744406414
-0.373375,1.6091318021398313,1.3578214015395917
-0.37325,1.6091318021398313,1.3574893286385419
-0.37312500000000004,1.6084715573155606,1.3574893286385419
-0.373,1.608141434903425,1.3568251828364426
-0.372875,1.6074811900791544,1.356161037034343
-0.37275,1.607151067667019,1.3558289641332935
-0.37262500000000004,1.6064908228427484,1.355164818331194
-0.3725,1.6064908228427484,1.3545006725290945
-0.372375,1.6058305780184776,1.3538365267269952
-0.37225,1.6055004556063424,1.3531723809248957
-0.37212500000000004,1.6051703331942069,1.3525082351227962
-0.372,1.6048402107820716,1.3521761622217465
-0.371875,1.6041799659578009,1.3518440893206969
-0.37175,1.6038498435456654,1.3511799435185974
-0.37162500000000004,1.6035197211335301,1.3508478706175477
-0.3715,1.6031895987213947,1.3508478706175477
-0.371375,1.6028594763092594,1.3501837248154482
-0.37125,1.6028594763092594,1.3498516519143986
-0.37112500000000004,1.602529353897124,1.349187506112299
-0.371,1.6021992314849887,1.3488554332112495
-0.370875,1.6018691090728532,1.3485233603101996
-0.37075,1.601538986660718,1.34819128740915
-0.37062500000000004,1.6012088642485827,1.34819128740915
-0.3705,1.6008787418364472,1.3478592145081003
-0.370375,1.600548619424312,1.3475271416070504
-0.37025,1.6002184970121764,1.3471950687060008
-0.37012500000000004,1.6002184970121764,1.3471950687060008
-0.37,1.5998883746000412,1.3468629958049512
-0.369875,1.5998883746000412,1.3468629958049512
-0.36975,1.5998883746000412,1.3471950687060008
-0.36962500000000004,1.5998883746000412,1.3471950687060008
-0.3695,1.5998883746000412,1.3475271416070504
-0.369375,1.5995582521879057,1.3475271416070504
-0.36925,1.5995582521879057,1.3475271416070504
-0.36912500000000004,1.5998883746000412,1.3475271416070504
-0.369,1.6002184970121764,1.3478592145081003
-0.368875,1.600548619424312,1.3478592145081003
-0.36875,1.600548619424312,1.34819128740915
-0.36862500000000004,1.6008787418364472,1.3485233603101996
-0.3685,1.6008787418364472,1.3488554332112495
-0.368375,1.6008787418364472,1.3488554332112495
-0.36825,1.6008787418364472,1.3488554332112495
-0.36812500000000004,1.6008787418364472,1.3488554332112495
-0.368,1.6012088642485827,1.3488554332112495
-0.367875,1.6012088642485827,1.349187506112299
-0.36775,1.6012088642485827,1.349187506112299
-0.36762500000000004,1.6012088642485827,1.3488554332112495
-0.3675,1.601538986660718,1.349187506112299
-0.367375,1.6012088642485827,1.349187506112299
-0.36725,1.600548619424312,1.34819128740915
-0.36712500000000003,1.5995582521879057,1.3475271416070504
-0.367,1.598898007363635,1.3468629958049512
-0.366875,1.5982377625393642,1.3458667771018018
-0.36675,1.5975775177150935,1.3455347042007522
-0.36662500000000003,1.5972473953029582,1.3448705583986527
-0.3665,1.596917272890823,1.3442064125965534
-0.366375,1.5965871504786875,1.3435422667944539
-0.36625,1.5962570280665522,1.3428781209923544
-0.36612500000000003,1.5962570280665522,1.3425460480913047
-0.366,1.5959269056544167,1.3425460480913047
-0.365875,1.5959269056544167,1.342213975190255
-0.36575,1.5959269056544167,1.3425460480913047
-0.36562500000000003,1.5959269056544167,1.3428781209923544
-0.3655,1.5962570280665522,1.3428781209923544
-0.365375,1.5962570280665522,1.3428781209923544
-0.36525,1.5965871504786875,1.3428781209923544
-0.36512500000000003,1.596917272890823,1.3432101938934042
-0.365,1.5972473953029582,1.3432101938934042
-0.364875,1.5975775177150935,1.3442064125965534
-0.36475,1.597907640127229,1.3448705583986527
-0.36462500000000003,1.5985678849514997,1.3458667771018018
-0.3645,1.5992281297757704,1.3468629958049512
-0.364375,1.5998883746000412,1.3478592145081003
-0.36425,1.600548619424312,1.3488554332112495
-0.36412500000000003,1.6008787418364472,1.3495195790133487
-0.364,1.601538986660718,1.3498516519143986
-0.363875,1.6018691090728532,1.3501837248154482
-0.36375,1.6021992314849887,1.3505157977164979
-0.36362500000000003,1.602529353897124,1.3508478706175477
-0.3635,1.6028594763092594,1.351512016419647
-0.363375,1.6035197211335301,1.3521761622217465
-0.36325,1.6035197211335301,1.3525082351227962
-0.36312500000000003,1.6038498435456654,1.352840308023846
-0.363,1.6041799659578009,1.3531723809248957
-0.362875,1.6045100883699361,1.3531723809248957
-0.36275,1.6045100883699361,1.3535044538259453
-0.36262500000000003,1.6048402107820716,1.3538365267269952
-0.3625,1.6051703331942069,1.3545006725290945
-0.362375,1.6055004556063424,1.3548327454301443
-0.36225,1.606160700430613,1.3554968912322436
-0.36212500000000003,1.606160700430613,1.3558289641332935
-0.362,1.606160700430613,1.356161037034343
-0.361875,1.606160700430613,1.3564931099353927
-0.36175,1.6064908228427484,1.3564931099353927
-0.36162500000000003,1.6064908228427484,1.3564931099353927
-0.3615,1.6064908228427484,1.3564931099353927
-0.361375,1.6064908228427484,1.3564931099353927
-0.36125,1.6064908228427484,1.3564931099353927
-0.36112500000000003,1.606160700430613,1.356161037034343
-0.361,1.606160700430613,1.356161037034343
-0.360875,1.606160700430613,1.3558289641332935
-0.36075,1.606160700430613,1.3558289641332935
-0.36062500000000003,1.6058305780184776,1.3558289641332935
-0.3605,1.6055004556063424,1.3554968912322436
-0.360375,1.6055004556063424,1.355164818331194
-0.36025,1.6051703331942069,1.3548327454301443
-0.36012500000000003,1.6051703331942069,1.3548327454301443
-0.36,1.6048402107820716,1.3548327454301443
-0.359875,1.6048402107820716,1.3548327454301443
-0.35975,1.6048402107820716,1.3545006725290945
-0.35962500000000003,1.6045100883699361,1.3545006725290945
-0.35950000000000004,1.6045100883699361,1.3541685996280448
-0.359375,1.6045100883699361,1.3545006725290945
-0.35925,1.6045100883699361,1.3541685996280448
-0.359125,1.6045100883699361,1.3538365267269952
-0.35900000000000004,1.6045100883699361,1.3535044538259453
-0.358875,1.6051703331942069,1.3541685996280448
-0.35875,1.6058305780184776,1.355164818331194
-0.358625,1.6068209452548836,1.356161037034343
-0.35850000000000004,1.6074811900791544,1.3574893286385419
-0.358375,1.6078113124912898,1.3581534744406414
-0.35825,1.608141434903425,1.358485547341691
-0.358125,1.6088016797276958,1.3594817660448402
-0.35800000000000004,1.6094619245519666,1.35981383894589
-0.357875,1.609792046964102,1.3601459118469397
-0.35775,1.6101221693762373,1.3604779847479893
-0.357625,1.6101221693762373,1.3608100576490392
-0.35750000000000004,1.6104522917883728,1.3608100576490392
-0.357375,1.6104522917883728,1.3604779847479893
-0.35725,1.6101221693762373,1.3604779847479893
-0.357125,1.6104522917883728,1.3601459118469397
-0.35700000000000004,1.6101221693762373,1.35981383894589
-0.356875,1.6101221693762373,1.3594817660448402
-0.35675,1.609792046964102,1.3588176202427409
-0.356625,1.6091318021398313,1.3581534744406414
-0.35650000000000004,1.6091318021398313,1.3578214015395917
-0.356375,1.6088016797276958,1.3574893286385419
-0.35625,1.6084715573155606,1.3571572557374922
-0.356125,1.6078113124912898,1.3568251828364426
-0.35600000000000004,1.6074811900791544,1.356161037034343
-0.355875,1.6068209452548836,1.3554968912322436
-0.35575,1.606160700430613,1.355164818331194
-0.355625,1.6058305780184776,1.3545006725290945
-0.35550000000000004,1.6051703331942069,1.3538365267269952
-0.355375,1.6048402107820716,1.3531723809248957
-0.35525,1.6045100883699361,1.352840308023846
-0.355125,1.6038498435456654,1.3521761622217465
-0.35500000000000004,1.6038498435456654,1.3518440893206969
-0.354875,1.6031895987213947,1.3511799435185974
-0.35475,1.6028594763092594,1.3508478706175477
-0.354625,1.602529353897124,1.3505157977164979
