data_analysis/experimental_data_3_17/acq0082.csv

#Digilent WaveForms Oscilloscope Acquisition
#Device Name: Discovery2
#Serial Number: SN:210321B02866
#Date Time: 2021-03-17 16:15:49.777
#Sample rate: 16000Hz
#Samples: 8192
#Trigger: None
#Channel 1: Range: 100 mV/div Offset: -1.4 V Attenuation: 1 X
#Channel 2: Range: 100 mV/div Offset: -1.6 V Attenuation: 1 X
#Power Supplies: ON
#Positive Supply: ON
#Voltage: 3.3 V
#Negative Supply: OFF
#Voltage: -1 V

Time (s),Channel 1 (V),Channel 2 (V)
0.16125,1.603109945081436,1.3525917323516872
0.16131250000000003,1.6034400674935712,1.352923805252737
0.161375,1.6034400674935712,1.3532558781537865
0.1614375,1.6034400674935712,1.3532558781537867
0.16150000000000003,1.6034400674935712,1.353587951054836
0.1615625,1.6034400674935712,1.3532558781537867
0.16162500000000002,1.6037701899057066,1.3535879510548363
0.16168749999999998,1.6037701899057066,1.3535879510548363
0.16175,1.6037701899057066,1.3535879510548363
0.16181250000000003,1.6037701899057066,1.3535879510548363
0.161875,1.6037701899057066,1.3535879510548363
0.1619375,1.604100312317842,1.3542520968569358
0.16200000000000003,1.6041003123178421,1.3542520968569358
0.1620625,1.6044304347299774,1.3542520968569358
0.16212500000000002,1.6044304347299774,1.3545841697579855
0.16218749999999998,1.6044304347299774,1.354252096856936
0.16225,1.6044304347299774,1.3542520968569358
0.16231250000000003,1.6044304347299776,1.354252096856936
0.162375,1.6047605571421124,1.3545841697579852
0.1624375,1.6044304347299774,1.3545841697579855
0.16250000000000003,1.6047605571421126,1.3545841697579857
0.1625625,1.6047605571421126,1.354916242659035
0.16262500000000002,1.6047605571421126,1.354916242659035
0.16268749999999998,1.6047605571421126,1.354916242659035
0.16275,1.6047605571421126,1.354916242659035
0.16281250000000003,1.6044304347299774,1.354916242659035
0.162875,1.6044304347299774,1.354916242659035
0.1629375,1.6044304347299774,1.3545841697579855
0.16300000000000003,1.6044304347299774,1.3545841697579855
0.1630625,1.6044304347299774,1.3545841697579855
0.16312500000000002,1.604100312317842,1.3542520968569358
0.16318749999999999,1.604100312317842,1.3542520968569358
0.16325,1.604100312317842,1.3542520968569358
0.16331250000000003,1.604100312317842,1.3542520968569358
0.163375,1.604100312317842,1.3542520968569358
0.1634375,1.604100312317842,1.3542520968569358
0.16350000000000003,1.6041003123178417,1.3542520968569358
0.1635625,1.6037701899057066,1.3542520968569358
0.16362500000000002,1.6037701899057066,1.3542520968569358
0.16368749999999999,1.6037701899057066,1.3539200239558862
0.16375,1.6037701899057066,1.353920023955886
0.16381250000000003,1.6037701899057064,1.353587951054836
0.163875,1.6034400674935714,1.353255878153787
0.1639375,1.6034400674935712,1.3532558781537867
0.16400000000000003,1.6034400674935714,1.3532558781537867
0.1640625,1.6037701899057066,1.3532558781537867
0.16412500000000002,1.6037701899057066,1.3529238052527368
0.1641875,1.6034400674935714,1.3529238052527368
0.16425,1.6034400674935712,1.3529238052527368
0.16431250000000003,1.6034400674935712,1.3525917323516872
0.164375,1.6034400674935712,1.3525917323516872
0.16443750000000001,1.6034400674935712,1.3529238052527368
0.16450000000000004,1.603440067493571,1.3529238052527368
0.1645625,1.603109945081436,1.3529238052527368
0.16462500000000002,1.603109945081436,1.3529238052527368
0.1646875,1.603109945081436,1.3525917323516874
0.16475,1.603109945081436,1.3522596594506375
0.16481250000000003,1.6031099450814361,1.3522596594506378
0.164875,1.603440067493571,1.352591732351687
0.16493750000000001,1.6034400674935712,1.3522596594506375
0.16500000000000004,1.603109945081436,1.3519275865495877
0.1650625,1.603109945081436,1.3519275865495877
0.16512500000000002,1.603109945081436,1.351595513648538
0.1651875,1.6027798226693009,1.3519275865495874
0.16525,1.603109945081436,1.3519275865495877
0.16531250000000003,1.6034400674935714,1.3525917323516874
0.165375,1.6037701899057064,1.3529238052527366
0.16543750000000002,1.604100312317842,1.3532558781537867
0.16550000000000004,1.6044304347299776,1.3539200239558862
0.1655625,1.6047605571421126,1.3542520968569358
0.16562500000000002,1.6050906795542481,1.354916242659035
0.1656875,1.6054208019663831,1.3552483155600847
0.16575,1.6057509243785189,1.355248315560085
0.16581250000000003,1.605750924378519,1.3555803884611348
0.165875,1.6060810467906539,1.3559124613621842
0.16593750000000002,1.6064111692027896,1.356244534263234
0.16600000000000004,1.6067412916149248,1.356576607164284
0.1660625,1.6067412916149248,1.3569086800653336
0.16612500000000002,1.6074015364391956,1.3572407529663832
0.1661875,1.6074015364391956,1.3579048987684825
0.16625,1.607731658851331,1.3582369716695324
0.16631250000000003,1.608061781263466,1.3582369716695326
0.166375,1.6077316588513313,1.3585690445705818
0.16643750000000002,1.6080617812634663,1.358901117471632
0.16650000000000004,1.6080617812634665,1.3592331903726815
0.1665625,1.6083919036756016,1.3592331903726815
0.16662500000000002,1.6083919036756016,1.3595652632737312
0.1666875,1.6083919036756016,1.3595652632737312
0.16675,1.6083919036756016,1.3595652632737312
0.16681250000000003,1.6083919036756016,1.3595652632737312
0.166875,1.6083919036756016,1.3595652632737312
0.16693750000000002,1.6083919036756016,1.3595652632737312
0.16700000000000004,1.6083919036756016,1.3595652632737312
0.1670625,1.6083919036756016,1.3595652632737312
0.16712500000000002,1.6080617812634663,1.3592331903726815
0.1671875,1.6080617812634663,1.3589011174716321
0.16725,1.6080617812634663,1.358569044570582
0.1673125,1.607731658851331,1.358569044570582
0.167375,1.607731658851331,1.3582369716695324
0.16743750000000002,1.6074015364391956,1.3579048987684827
0.1675,1.6074015364391956,1.3579048987684827
0.1675625,1.60707141402706,1.3575728258674329
0.167625,1.60707141402706,1.3572407529663832
0.16768750000000002,1.6067412916149248,1.3572407529663832
0.16775,1.6067412916149248,1.3572407529663832
0.1678125,1.6064111692027896,1.3569086800653336
0.167875,1.6064111692027896,1.3565766071642837
0.16793750000000002,1.606081046790654,1.356244534263234
0.168,1.6057509243785189,1.3559124613621845
0.1680625,1.6057509243785189,1.355248315560085
0.168125,1.6054208019663834,1.355248315560085
0.16818750000000002,1.6054208019663834,1.354916242659035
0.16825,1.6050906795542481,1.3545841697579855
0.1683125,1.6047605571421126,1.353920023955886
0.168375,1.6044304347299774,1.353920023955886
0.16843750000000002,1.604100312317842,1.3532558781537867
0.1685,1.604100312317842,1.3532558781537867
0.1685625,1.6037701899057066,1.3525917323516872
0.168625,1.6034400674935712,1.3522596594506375
0.16868750000000002,1.6034400674935712,1.3522596594506375
0.16875,1.603109945081436,1.3519275865495877
0.1688125,1.6027798226693006,1.351595513648538
0.168875,1.6027798226693006,1.3512634407474884
0.16893750000000002,1.6024497002571652,1.3512634407474884
0.169,1.6024497002571652,1.3505992949453889
0.1690625,1.6024497002571652,1.3502672220443392
0.169125,1.60211957784503,1.3502672220443392
0.16918750000000002,1.60211957784503,1.3499351491432894
0.16925,1.6017894554328944,1.3499351491432894
0.1693125,1.6014593330207592,1.3499351491432894
0.169375,1.6014593330207592,1.3499351491432894
0.16943750000000002,1.6011292106086237,1.3492710033411899
0.1695,1.6011292106086237,1.3492710033411899
0.1695625,1.6007990881964884,1.3489389304401402
0.169625,1.600468965784353,1.3489389304401402
0.16968750000000002,1.600468965784353,1.3489389304401402
0.16975,1.600468965784353,1.3489389304401402
0.1698125,1.6001388433722177,1.3486068575390906
0.169875,1.6001388433722177,1.3486068575390906
0.16993750000000002,1.5998087209600822,1.3482747846380407
0.17,1.5998087209600822,1.347942711736991
0.1700625,1.599478598547947,1.3476106388359415
0.170125,1.599478598547947,1.3476106388359415
0.17018750000000002,1.599478598547947,1.3472785659348916
0.17025,1.599478598547947,1.346946493033842
0.1703125,1.599478598547947,1.346946493033842
0.170375,1.599478598547947,1.3466144201327923
0.17043750000000002,1.599478598547947,1.3466144201327923
0.1705,1.5998087209600822,1.3466144201327923
0.1705625,1.599478598547947,1.3466144201327923
0.170625,1.599478598547947,1.3466144201327923
0.17068750000000002,1.599478598547947,1.3466144201327923
0.17075,1.599478598547947,1.3466144201327923
0.1708125,1.5991484761358117,1.3462823472317424
0.170875,1.5991484761358117,1.3462823472317424
0.17093750000000002,1.5988183537236762,1.3462823472317424
0.171,1.5991484761358117,1.3462823472317424
0.1710625,1.5991484761358117,1.3459502743306928
0.171125,1.5991484761358117,1.3459502743306928
0.17118750000000002,1.599478598547947,1.3459502743306928
0.17125,1.5991484761358117,1.3459502743306928
0.1713125,1.5991484761358117,1.3459502743306928
0.171375,1.5991484761358117,1.3456182014296432
0.17143750000000002,1.599478598547947,1.3459502743306928
0.1715,1.599478598547947,1.3459502743306928
0.1715625,1.5998087209600822,1.3462823472317424
0.171625,1.5998087209600822,1.3462823472317424
0.17168750000000002,1.5998087209600822,1.3466144201327923
0.17175,1.5998087209600822,1.3466144201327923
0.1718125,1.5998087209600822,1.3466144201327923
0.171875,1.5998087209600822,1.346946493033842
0.17193750000000002,1.6001388433722177,1.346946493033842
0.17200000000000001,1.6001388433722177,1.3472785659348916
0.1720625,1.6001388433722177,1.3472785659348916
0.172125,1.600468965784353,1.3472785659348916
0.17218750000000002,1.6001388433722177,1.3472785659348916
0.17225000000000001,1.600468965784353,1.3472785659348916
0.1723125,1.600468965784353,1.346946493033842
0.172375,1.600468965784353,1.346946493033842
0.17243750000000002,1.600468965784353,1.346946493033842
0.17250000000000001,1.6007990881964884,1.346946493033842
0.1725625,1.6007990881964884,1.346946493033842
0.172625,1.6007990881964884,1.346946493033842
0.17268750000000002,1.6007990881964884,1.346946493033842
0.17275000000000001,1.6007990881964884,1.346946493033842
0.1728125,1.6007990881964884,1.346946493033842
0.172875,1.6007990881964884,1.346946493033842
0.17293750000000002,1.6007990881964884,1.346946493033842
0.17300000000000001,1.6011292106086237,1.346946493033842
0.1730625,1.6011292106086237,1.346946493033842
0.173125,1.6011292106086237,1.3472785659348916
0.17318750000000002,1.6011292106086237,1.3472785659348916
0.17325000000000002,1.6011292106086237,1.346946493033842
0.1733125,1.6011292106086237,1.346946493033842
0.173375,1.6007990881964884,1.346946493033842
0.17343750000000002,1.6011292106086237,1.346946493033842
0.17350000000000002,1.6011292106086237,1.3472785659348916
0.1735625,1.6011292106086237,1.3472785659348916
0.173625,1.6007990881964884,1.3466144201327923
0.17368750000000002,1.6001388433722177,1.3459502743306928
0.17375000000000002,1.5998087209600822,1.3456182014296432
0.1738125,1.599478598547947,1.3452861285285933
0.173875,1.5991484761358117,1.3449540556275437
0.17393750000000002,1.5988183537236762,1.344621982726494
0.17400000000000002,1.5984882313115407,1.3439578369243945
0.1740625,1.5981581088994055,1.3436257640233449
0.174125,1.5978279864872702,1.3436257640233449
0.17418750000000002,1.5974978640751347,1.343293691122295
0.17425000000000002,1.5974978640751347,1.3429616182212454
0.1743125,1.5971677416629995,1.3426295453201957
0.174375,1.596837619250864,1.3419653995180962
0.17443750000000002,1.5965074968387287,1.3416333266170466
0.17450000000000002,1.5961773744265932,1.3413012537159967
0.1745625,1.595847252014458,1.3406371079138975
0.174625,1.595847252014458,1.3406371079138975
0.17468750000000002,1.5955171296023225,1.3403050350128476
0.17475000000000002,1.5955171296023225,1.3393088163096984
0.1748125,1.5951870071901872,1.3389767434086488
0.174875,1.5951870071901872,1.3386446705075992
0.17493750000000002,1.5951870071901872,1.3383125976065493
0.17500000000000002,1.5948568847780518,1.3383125976065493
0.1750625,1.5951870071901872,1.3379805247054997
0.175125,1.5951870071901872,1.3379805247054997
0.1751875,1.5951870071901872,1.33764845180445
0.17525000000000002,1.5951870071901872,1.33764845180445
0.1753125,1.5951870071901872,1.33764845180445
0.175375,1.5955171296023225,1.33764845180445
0.1754375,1.5955171296023225,1.3383125976065493
0.17550000000000002,1.5955171296023225,1.3383125976065493
0.1755625,1.595847252014458,1.3386446705075992
0.175625,1.595847252014458,1.3386446705075992
0.1756875,1.595847252014458,1.3389767434086488
0.17575000000000002,1.5961773744265932,1.3393088163096984
0.1758125,1.5961773744265932,1.3396408892107483
0.175875,1.5965074968387287,1.3396408892107483
0.1759375,1.5965074968387287,1.3396408892107483
0.17600000000000002,1.5965074968387287,1.339972962111798
0.1760625,1.5965074968387287,1.3403050350128476
0.176125,1.596837619250864,1.3403050350128476
0.1761875,1.596837619250864,1.3406371079138975
0.17625000000000002,1.5971677416629995,1.3413012537159967
0.1763125,1.5974978640751347,1.3419653995180962
0.176375,1.5978279864872702,1.3422974724191459
0.1764375,1.5978279864872702,1.3426295453201957
0.17650000000000002,1.5984882313115407,1.3429616182212454
0.1765625,1.5984882313115407,1.3436257640233449
0.176625,1.5988183537236762,1.3442899098254442
0.1766875,1.599478598547947,1.3449540556275437
0.17675000000000002,1.5998087209600822,1.3452861285285933
0.1768125,1.5998087209600822,1.3456182014296432
0.176875,1.6001388433722177,1.3459502743306928
0.1769375,1.600468965784353,1.3462823472317424
0.17700000000000002,1.6007990881964884,1.3462823472317424
0.1770625,1.6011292106086237,1.346946493033842
0.177125,1.6014593330207592,1.3472785659348916
0.1771875,1.6014593330207592,1.3472785659348916
0.17725000000000002,1.6017894554328944,1.3476106388359415
0.1773125,1.6017894554328944,1.347942711736991
0.177375,1.6017894554328944,1.3482747846380407
0.1774375,1.6014593330207592,1.3489389304401402
0.17750000000000002,1.6014593330207592,1.3492710033411899
0.1775625,1.6014593330207592,1.3492710033411899
0.177625,1.6017894554328944,1.3492710033411899
0.1776875,1.6014593330207592,1.3499351491432894
0.17775000000000002,1.6014593330207592,1.3505992949453889
0.1778125,1.6011292106086237,1.3512634407474884
0.177875,1.6011292106086237,1.3512634407474884
0.1779375,1.6011292106086237,1.351595513648538
0.17800000000000002,1.6011292106086237,1.3519275865495877
0.1780625,1.6011292106086237,1.3519275865495877
0.178125,1.6011292106086237,1.3522596594506375
0.1781875,1.6011292106086237,1.3522596594506375
0.17825000000000002,1.6011292106086237,1.3522596594506375
0.1783125,1.6014593330207592,1.3525917323516872
0.178375,1.6014593330207592,1.3525917323516872
0.1784375,1.6017894554328944,1.3529238052527368
0.17850000000000002,1.6017894554328944,1.3529238052527368
0.1785625,1.60211957784503,1.3529238052527368
0.178625,1.6024497002571652,1.3532558781537867
0.1786875,1.6024497002571652,1.3532558781537867
0.17875000000000002,1.6027798226693006,1.3532558781537867
0.1788125,1.603109945081436,1.3532558781537867
0.178875,1.603109945081436,1.3532558781537867
0.1789375,1.6034400674935712,1.3535879510548363
0.17900000000000002,1.6034400674935712,1.3535879510548363
0.1790625,1.6034400674935712,1.3535879510548363
0.179125,1.6037701899057066,1.353920023955886
0.1791875,1.6037701899057066,1.3542520968569358
0.17925000000000002,1.6037701899057066,1.3542520968569358
0.1793125,1.6037701899057066,1.3542520968569358
0.179375,1.6037701899057066,1.3545841697579855
0.1794375,1.6037701899057066,1.3542520968569358
0.17950000000000002,1.6037701899057066,1.3542520968569358
0.1795625,1.6037701899057066,1.3542520968569358
0.179625,1.6037701899057066,1.3542520968569358
0.1796875,1.6037701899057066,1.353920023955886
0.17975000000000002,1.6037701899057066,1.353920023955886
0.17981250000000001,1.6034400674935712,1.353920023955886
0.179875,1.6034400674935712,1.353920023955886
0.1799375,1.6034400674935712,1.3535879510548363
0.18000000000000002,1.6037701899057066,1.3535879510548363
0.18006250000000001,1.6034400674935712,1.3535879510548363
0.180125,1.6034400674935712,1.3532558781537867
0.1801875,1.6037701899057066,1.3532558781537867
0.18025000000000002,1.6034400674935712,1.3532558781537867
0.18031250000000001,1.6034400674935712,1.3532558781537867
0.180375,1.6034400674935712,1.3532558781537867
0.1804375,1.6034400674935712,1.3532558781537867
0.18050000000000002,1.6034400674935712,1.3532558781537867
0.18056250000000001,1.603109945081436,1.3532558781537867
0.180625,1.603109945081436,1.3532558781537867
0.1806875,1.6027798226693006,1.3532558781537867
0.18075000000000002,1.6027798226693006,1.3529238052527368
0.18081250000000001,1.6027798226693006,1.3529238052527368
0.180875,1.6027798226693006,1.3529238052527368
0.1809375,1.6027798226693006,1.3525917323516872
0.18100000000000002,1.6024497002571652,1.3525917323516872
0.18106250000000002,1.6024497002571652,1.3525917323516872
0.181125,1.6024497002571652,1.3525917323516872
0.1811875,1.6024497002571652,1.3522596594506375
0.18125000000000002,1.6024497002571652,1.3522596594506375
0.18131250000000002,1.6024497002571652,1.3522596594506375
0.181375,1.60211957784503,1.3522596594506375
0.1814375,1.60211957784503,1.3522596594506375
0.18150000000000002,1.60211957784503,1.3522596594506375
0.18156250000000002,1.60211957784503,1.3522596594506375
0.181625,1.60211957784503,1.3522596594506375
0.1816875,1.6017894554328944,1.3522596594506375
0.18175000000000002,1.6017894554328944,1.3522596594506375
0.18181250000000002,1.6017894554328944,1.3525917323516872
0.181875,1.6017894554328944,1.3522596594506375
0.1819375,1.6017894554328944,1.3525917323516872
0.18200000000000002,1.60211957784503,1.3529238052527368
0.18206250000000002,1.6027798226693006,1.3535879510548363
0.182125,1.603109945081436,1.353920023955886
0.1821875,1.6034400674935712,1.3542520968569358
0.18225000000000002,1.6034400674935712,1.3545841697579855
0.18231250000000002,1.604100312317842,1.354916242659035
0.182375,1.6044304347299774,1.355248315560085
0.1824375,1.6047605571421126,1.3555803884611346
0.18250000000000002,1.6054208019663834,1.3559124613621845
0.18256250000000002,1.6057509243785189,1.356244534263234
0.182625,1.606081046790654,1.3569086800653336
0.1826875,1.6064111692027896,1.3572407529663832
0.18275000000000002,1.6067412916149248,1.3575728258674329
0.18281250000000002,1.60707141402706,1.3579048987684827
0.182875,1.60707141402706,1.358569044570582
0.1829375,1.6074015364391956,1.358901117471632
0.183,1.607731658851331,1.3592331903726815
0.18306250000000002,1.6080617812634663,1.3592331903726815
0.183125,1.6083919036756016,1.3592331903726815
0.1831875,1.6083919036756016,1.3592331903726815
0.18325,1.608722026087737,1.358901117471632
0.18331250000000002,1.6090521484998723,1.3592331903726815
0.183375,1.608722026087737,1.358901117471632
0.1834375,1.608722026087737,1.3592331903726815
0.1835,1.608722026087737,1.3592331903726815
0.18356250000000002,1.6083919036756016,1.3592331903726815
0.183625,1.6083919036756016,1.3592331903726815
0.1836875,1.6080617812634663,1.3592331903726815
0.18375,1.607731658851331,1.3592331903726815
0.18381250000000002,1.6074015364391956,1.358901117471632
0.183875,1.60707141402706,1.358569044570582
0.1839375,1.60707141402706,1.358569044570582
0.184,1.6067412916149248,1.358569044570582
0.18406250000000002,1.6067412916149248,1.358901117471632
0.184125,1.6064111692027896,1.3592331903726815
0.1841875,1.6064111692027896,1.3595652632737312
0.18425,1.606081046790654,1.3602294090758307
0.18431250000000002,1.6057509243785189,1.3602294090758307
0.184375,1.606081046790654,1.3602294090758307
0.1844375,1.6057509243785189,1.3602294090758307
0.1845,1.6057509243785189,1.3605614819768803
0.18456250000000002,1.6054208019663834,1.3605614819768803
0.184625,1.6050906795542481,1.3605614819768803
0.1846875,1.6047605571421126,1.3605614819768803
0.18475,1.604100312317842,1.359897336174781
0.18481250000000002,1.6037701899057066,1.3592331903726815
0.184875,1.6034400674935712,1.3582369716695324
0.1849375,1.603109945081436,1.3572407529663832
0.185,1.6027798226693006,1.3559124613621845
0.18506250000000002,1.6024497002571652,1.3545841697579855
0.185125,1.6024497002571652,1.3532558781537867
0.1851875,1.60211957784503,1.3522596594506375
0.18525,1.60211957784503,1.3512634407474884
