data_analysis/experimental_data_3_17/acq0001.csv

#Digilent WaveForms Oscilloscope Acquisition
#Device Name: Discovery2
#Serial Number: SN:210321B02866
#Date Time: 2021-03-17 14:54:17.102
#Sample rate: 16000Hz
#Samples: 8192
#Trigger: Source: Channel 1 Type: Edge Condition: Rising Level: 0 V Hyst.: Auto HoldOff: 0 s
#Channel 1: Range: 500 mV/div Offset: -1.8 V Attenuation: 1 X
#Channel 2: Range: 500 mV/div Offset: -1.25 V Attenuation: 1 X
#Power Supplies: ON
#Positive Supply: ON
#Voltage: 3.3 V
#Negative Supply: OFF
#Voltage: -1 V

Time (s),Channel 1 (V),Channel 2 (V)
0.28500000000000003,1.5786840911353324,1.3800606356717189
0.28506250000000005,1.5790142135474676,1.3807247814738184
0.285125,1.5790142135474676,1.3807247814738184
0.28518750000000004,1.579344335959603,1.381056854374868
0.28525000000000006,1.5796744583717384,1.3813889272759179
0.2853125,1.5796744583717384,1.3817210001769675
0.28537500000000005,1.5800045807838736,1.3817210001769675
0.2854375,1.5800045807838736,1.382053073078017
0.28550000000000003,1.580334703196009,1.3820530730780172
0.28556250000000005,1.5806648256081444,1.382385145979067
0.285625,1.5806648256081444,1.3827172188801164
0.28568750000000004,1.5809949480202798,1.3830492917811663
0.28575000000000006,1.58099494802028,1.3830492917811665
0.2858125,1.581325070432415,1.383381364682216
0.28587500000000005,1.581325070432415,1.3837134375832658
0.2859375,1.5816551928445504,1.3840455104843152
0.28600000000000003,1.5816551928445506,1.3840455104843155
0.28606250000000005,1.5816551928445506,1.384377583385365
0.286125,1.5816551928445506,1.384377583385365
0.28618750000000004,1.581325070432415,1.384377583385365
0.28625000000000006,1.581325070432415,1.3840455104843152
0.2863125,1.581325070432415,1.3837134375832658
0.28637500000000005,1.581325070432415,1.3837134375832658
0.2864375,1.581325070432415,1.3837134375832658
0.28650000000000003,1.581325070432415,1.383381364682216
0.28656250000000005,1.581325070432415,1.3833813646822157
0.286625,1.581325070432415,1.3830492917811665
0.28668750000000004,1.581325070432415,1.383381364682216
0.28675000000000006,1.5813250704324149,1.3830492917811663
0.2868125,1.5809949480202798,1.3830492917811663
0.28687500000000005,1.5809949480202798,1.3830492917811663
0.2869375,1.5809949480202798,1.382717218880117
0.28700000000000003,1.5806648256081444,1.3823851459790668
0.28706250000000005,1.5809949480202798,1.3823851459790668
0.287125,1.5809949480202798,1.3823851459790668
0.28718750000000004,1.5809949480202798,1.3820530730780172
0.28725000000000006,1.5809949480202796,1.3820530730780172
0.2873125,1.5806648256081444,1.3820530730780172
0.28737500000000005,1.5806648256081444,1.3817210001769675
0.2874375,1.5806648256081444,1.3817210001769675
0.28750000000000003,1.5806648256081444,1.3813889272759177
0.28756250000000005,1.580334703196009,1.3813889272759174
0.287625,1.580334703196009,1.3810568543748682
0.28768750000000004,1.580334703196009,1.381056854374868
0.28775000000000006,1.5803347031960093,1.3807247814738184
0.2878125,1.5806648256081444,1.3807247814738184
0.28787500000000005,1.580334703196009,1.3803927085727685
0.2879375,1.580334703196009,1.380060635671719
0.28800000000000003,1.580334703196009,1.3797285627706692
0.28806250000000005,1.5800045807838736,1.3797285627706692
0.288125,1.5800045807838736,1.3797285627706692
0.28818750000000004,1.5800045807838736,1.3797285627706692
0.28825000000000006,1.5796744583717384,1.3793964898696194
0.2883125,1.5796744583717384,1.3793964898696194
0.28837500000000005,1.5796744583717384,1.3793964898696194
0.2884375,1.5796744583717384,1.37906441696857
0.28850000000000003,1.5796744583717384,1.3790644169685697
0.28856250000000006,1.579344335959603,1.37873234406752
0.288625,1.579344335959603,1.37873234406752
0.28868750000000004,1.5796744583717384,1.37873234406752
0.28875000000000006,1.5806648256081446,1.3797285627706697
0.2888125,1.581325070432415,1.3807247814738184
0.28887500000000005,1.5819853152566858,1.3813889272759177
0.2889375,1.5826455600809564,1.382053073078017
0.28900000000000003,1.5833058049052273,1.3827172188801167
0.28906250000000006,1.5839660497294983,1.3837134375832663
0.289125,1.5846262945537686,1.3847096562864145
0.28918750000000004,1.584956416965904,1.3850417291874646
0.28925000000000006,1.585616661790175,1.386037947890614
0.28931250000000003,1.5859467842023103,1.3863700207916634
0.28937500000000005,1.586607029026581,1.3870341665937629
0.2894375,1.5872672738508515,1.3880303852969116
0.28950000000000004,1.587597396262987,1.3883624581979617
0.28956250000000006,1.588257641087258,1.389358676901111
0.289625,1.5885877634993928,1.3896907498021605
0.28968750000000004,1.5889178859115285,1.3900228227032103
0.28975000000000006,1.5892480083236638,1.3903548956042602
0.28981250000000003,1.5892480083236638,1.3903548956042602
0.28987500000000005,1.5895781307357992,1.3903548956042602
0.2899375,1.5895781307357992,1.3906869685053096
0.29000000000000004,1.5899082531479345,1.3906869685053098
0.29006250000000006,1.5895781307357995,1.3906869685053098
0.290125,1.5899082531479343,1.3906869685053098
0.29018750000000004,1.5899082531479345,1.3906869685053098
0.29025000000000006,1.5899082531479345,1.3903548956042602
0.29031250000000003,1.5899082531479345,1.3903548956042602
0.29037500000000005,1.5895781307357992,1.3900228227032103
0.2904375,1.5895781307357992,1.389690749802161
0.29050000000000004,1.5892480083236638,1.3893586769011108
0.29056250000000006,1.5889178859115285,1.3890266040000612
0.290625,1.5889178859115285,1.3890266040000612
0.29068750000000004,1.5882576410872578,1.3883624581979617
0.29075000000000006,1.5882576410872575,1.388030385296912
0.29081250000000003,1.5879275186751225,1.388030385296912
0.29087500000000005,1.587597396262987,1.3876983123958624
0.2909375,1.587597396262987,1.3873662394948127
0.29100000000000004,1.5872672738508518,1.3870341665937629
0.2910625,1.5869371514387165,1.3870341665937629
0.291125,1.586607029026581,1.3863700207916634
0.29118750000000004,1.5862769066144455,1.3863700207916634
0.29125,1.5859467842023105,1.386037947890614
0.29131250000000003,1.5856166617901748,1.3853738020885142
0.29137500000000005,1.5852865393780395,1.3850417291874646
0.2914375,1.5849564169659043,1.3843775833853653
0.29150000000000004,1.5846262945537688,1.3837134375832658
0.29156250000000006,1.584296172141633,1.3833813646822157
0.291625,1.583966049729498,1.3827172188801167
0.29168750000000004,1.5833058049052273,1.3823851459790668
0.29175000000000006,1.5829756824930918,1.3817210001769673
0.29181250000000003,1.5826455600809566,1.381056854374868
0.291875,1.5823154376688215,1.3807247814738186
0.29193750000000007,1.5819853152566856,1.379728562770669
0.29200000000000004,1.5816551928445506,1.3793964898696194
0.2920625,1.58099494802028,1.37906441696857
0.292125,1.5806648256081444,1.37873234406752
0.29218750000000004,1.580334703196009,1.3780681982654206
0.29225,1.5796744583717386,1.3774040524633213
0.29231250000000003,1.579344335959603,1.3770719795622715
0.29237500000000005,1.5790142135474674,1.3764078337601717
0.2924375,1.5786840911353326,1.3760757608591225
0.29250000000000004,1.5786840911353324,1.3754116150570228
0.29256250000000006,1.5780238463110614,1.375079542155973
0.292625,1.5776937238989261,1.3747474692549235
0.29268750000000004,1.577363601486791,1.374083323452824
0.29275000000000007,1.5773636014867907,1.3737512505517742
0.29281250000000003,1.5767033566625202,1.3730871047496749
0.292875,1.5767033566625202,1.3727550318486252
0.2929375000000001,1.5763732342503847,1.3724229589475752
0.29300000000000004,1.5763732342503847,1.3717588131454759
0.2930625,1.5760431118382496,1.3714267402444265
0.293125,1.575712989426114,1.3707625944423267
0.29318750000000005,1.5753828670139787,1.370430521541277
0.29325,1.5750527446018434,1.3700984486402277
0.29331250000000003,1.5750527446018432,1.3697663757391776
0.29337500000000005,1.5747226221897077,1.3694343028381277
0.2934375,1.574392499777573,1.3691022299370785
0.29350000000000004,1.5743924997775727,1.3687701570360284
0.29356250000000006,1.574062377365437,1.3684380841349786
0.293625,1.573732254953302,1.3677739383328793
0.29368750000000005,1.5734021325411665,1.3674418654318297
0.29375000000000007,1.5730720101290312,1.3671097925307798
0.29381250000000003,1.5730720101290312,1.3667777196297302
0.293875,1.572741887716896,1.3664456467286807
0.2939375000000001,1.5724117653047602,1.3661135738276307
0.29400000000000004,1.572081642892625,1.365781500926581
0.2940625,1.572081642892625,1.3654494280255316
0.294125,1.572081642892625,1.3654494280255314
0.29418750000000005,1.5717515204804897,1.3651173551244817
0.29425,1.5714213980683545,1.364785282223432
0.29431250000000003,1.5714213980683542,1.3644532093223822
0.29437500000000005,1.5714213980683542,1.3644532093223822
0.2944375,1.5714213980683542,1.3644532093223822
0.29450000000000004,1.5714213980683542,1.3641211364213326
0.29456250000000006,1.5714213980683542,1.3641211364213326
0.294625,1.5714213980683542,1.3641211364213326
0.29468750000000005,1.5714213980683542,1.3637890635202827
0.29475000000000007,1.5717515204804897,1.3637890635202827
0.29481250000000003,1.5717515204804897,1.3637890635202827
0.294875,1.5717515204804897,1.3641211364213324
0.2949375000000001,1.572081642892625,1.3641211364213326
0.29500000000000004,1.572081642892625,1.3641211364213326
0.2950625,1.5724117653047602,1.3641211364213326
0.295125,1.5724117653047605,1.3641211364213326
0.29518750000000005,1.5724117653047605,1.3637890635202827
0.29525,1.5727418877168955,1.3637890635202827
0.29531250000000003,1.5727418877168957,1.3641211364213326
0.29537500000000005,1.5730720101290312,1.3641211364213324
0.2954375,1.5730720101290312,1.363789063520283
0.29550000000000004,1.5730720101290312,1.3637890635202827
0.29556250000000006,1.5734021325411665,1.363789063520283
0.295625,1.5734021325411665,1.3641211364213326
0.29568750000000005,1.5734021325411665,1.3641211364213326
0.29575000000000007,1.5734021325411667,1.3644532093223825
0.29581250000000003,1.573732254953302,1.3647852822234319
0.295875,1.573732254953302,1.3647852822234319
0.2959375000000001,1.5740623773654372,1.3651173551244817
0.29600000000000004,1.5740623773654372,1.3651173551244817
0.2960625,1.5743924997775725,1.3651173551244817
0.296125,1.5743924997775727,1.3654494280255314
0.29618750000000005,1.574722622189708,1.3654494280255314
0.29625,1.574722622189708,1.3654494280255314
0.29631250000000003,1.5750527446018432,1.365781500926581
0.29637500000000006,1.5750527446018434,1.365781500926581
0.2964375,1.5753828670139784,1.365781500926581
0.29650000000000004,1.5753828670139787,1.365781500926581
0.29656250000000006,1.5753828670139787,1.365781500926581
0.296625,1.5753828670139787,1.365781500926581
0.29668750000000005,1.5753828670139787,1.365781500926581
0.29675000000000007,1.575382867013979,1.3661135738276307
0.29681250000000003,1.575712989426114,1.365781500926581
0.296875,1.575382867013979,1.365781500926581
0.2969375000000001,1.5753828670139782,1.365449428025531
0.29700000000000004,1.5743924997775727,1.3644532093223822
0.2970625,1.573402132541167,1.3634569906192335
0.29712500000000003,1.5724117653047605,1.362460771916084
0.29718750000000005,1.572081642892625,1.3617966261139844
0.29725,1.5714213980683545,1.361464553212935
0.29731250000000004,1.5707611532440837,1.3604683345097857
0.29737500000000006,1.570431030831948,1.3598041887076857
0.2974375,1.5697707860076777,1.3588079700045375
0.29750000000000004,1.5694406635955422,1.3581438242024375
0.29756250000000006,1.5691105411834065,1.3578117513013876
0.29762500000000003,1.568450296359136,1.3574796784003382
0.29768750000000005,1.5681201739470008,1.3568155325982387
0.29775000000000007,1.5674599291227298,1.3561513867961388
0.29781250000000004,1.5671298067105945,1.35515516809299
0.297875,1.566469561886324,1.3548230951919407
0.2979375000000001,1.5658093170620533,1.3541589493898407
0.29800000000000004,1.5658093170620533,1.3538268764887913
0.2980625,1.565479194649918,1.353162730686692
0.29812500000000003,1.5651490722377825,1.3531627306866918
0.29818750000000005,1.5651490722377825,1.3528306577856422
0.29825,1.5648189498256473,1.3528306577856422
0.29831250000000004,1.564818949825647,1.3524985848845925
0.29837500000000006,1.5648189498256468,1.3524985848845923
0.2984375,1.5644888274135118,1.3521665119835427
0.29850000000000004,1.564818949825647,1.3521665119835427
0.29856250000000006,1.564488827413512,1.3521665119835429
0.29862500000000003,1.564818949825647,1.3524985848845925
0.29868750000000005,1.564818949825647,1.3524985848845925
0.29875000000000007,1.5651490722377825,1.3528306577856424
0.29881250000000004,1.5651490722377825,1.3531627306866918
0.298875,1.5654791946499176,1.3531627306866918
0.2989375,1.5658093170620533,1.3534948035877417
0.29900000000000004,1.5661394394741885,1.3538268764887913
0.2990625,1.5661394394741885,1.3538268764887913
0.29912500000000003,1.5664695618863238,1.354158949389841
0.29918750000000005,1.5667996842984593,1.354158949389841
0.29925,1.5667996842984593,1.3544910222908906
0.29931250000000004,1.5671298067105945,1.3544910222908908
0.29937500000000006,1.5674599291227302,1.3548230951919407
0.2994375,1.5677900515348653,1.35515516809299
0.29950000000000004,1.568450296359136,1.35548724099404
0.29956250000000006,1.5687804187712717,1.3561513867961394
0.29962500000000003,1.5691105411834068,1.3568155325982387
0.2996875,1.5697707860076773,1.3571476054992881
0.29975000000000007,1.5704310308319485,1.357811751301388
0.29981250000000004,1.5707611532440837,1.3584758971034874
0.299875,1.571421398068354,1.3591400429055864
0.2999375,1.5717515204804897,1.3598041887076862
0.30000000000000004,1.5724117653047605,1.3601362616087358
0.3000625,1.5727418877168955,1.360800407410835
0.30012500000000003,1.5730720101290312,1.3614645532129348
0.30018750000000005,1.5737322549533022,1.3621286990150343
0.30025,1.574062377365437,1.3627928448171334
0.30031250000000004,1.574722622189708,1.363456990619233
0.30037500000000006,1.5750527446018434,1.3634569906192333
0.3004375,1.5753828670139787,1.3641211364213326
0.30050000000000004,1.5760431118382494,1.3647852822234319
0.30056250000000007,1.5767033566625204,1.365117355124482
0.30062500000000003,1.5770334790746554,1.3654494280255314
0.3006875,1.5773636014867907,1.3654494280255314
0.3007500000000001,1.5776937238989264,1.3661135738276309
0.30081250000000004,1.5780238463110616,1.3661135738276309
0.300875,1.5783539687231967,1.3664456467286803
0.3009375,1.5786840911353324,1.3664456467286805
0.30100000000000005,1.5790142135474676,1.3667777196297302
0.3010625,1.5793443359596029,1.3667777196297302
0.30112500000000003,1.5796744583717384,1.36710979253078
0.30118750000000005,1.5796744583717386,1.3674418654318299
0.30125,1.5800045807838734,1.367773938332879
0.30131250000000004,1.580334703196009,1.3677739383328793
0.30137500000000006,1.5803347031960093,1.3681060112339294
0.3014375,1.5806648256081444,1.3684380841349788
0.30150000000000005,1.5806648256081444,1.3687701570360284
0.30156250000000007,1.5809949480202798,1.3687701570360284
0.30162500000000003,1.5809949480202798,1.3687701570360284
0.3016875,1.5813250704324149,1.369102229937078
0.3017500000000001,1.5816551928445508,1.3694343028381282
0.30181250000000004,1.5819853152566858,1.3697663757391776
0.301875,1.5819853152566858,1.3700984486402272
0.3019375,1.5823154376688213,1.370430521541277
0.30200000000000005,1.5826455600809566,1.3707625944423267
0.3020625,1.5829756824930918,1.3710946673433764
0.30212500000000003,1.582975682493092,1.3710946673433766
0.30218750000000005,1.5833058049052273,1.3714267402444265
0.30225,1.5833058049052273,1.3717588131454757
0.30231250000000004,1.5836359273173626,1.3717588131454759
0.30237500000000006,1.5836359273173628,1.3720908860465257
0.3024375,1.583966049729498,1.3720908860465257
0.30250000000000005,1.5842961721416333,1.3720908860465257
0.30256250000000007,1.584626294553769,1.3724229589475756
0.30262500000000003,1.584956416965904,1.372755031848625
0.3026875,1.584956416965904,1.372755031848625
0.3027500000000001,1.584956416965904,1.372755031848625
0.30281250000000004,1.584956416965904,1.372755031848625
0.302875,1.584626294553769,1.372755031848625
0.3029375,1.5846262945537688,1.3724229589475754
0.30300000000000005,1.5846262945537688,1.3724229589475754
0.3030625,1.5846262945537688,1.3724229589475754
0.30312500000000003,1.5842961721416333,1.3724229589475754
0.30318750000000005,1.5842961721416333,1.3727550318486248
0.30325,1.5842961721416333,1.3724229589475756
0.30331250000000004,1.5842961721416333,1.3724229589475754
0.30337500000000006,1.583966049729498,1.3724229589475752
0.3034375,1.583966049729498,1.3720908860465257
0.30350000000000005,1.5836359273173626,1.3720908860465257
0.30356250000000007,1.5836359273173626,1.3717588131454759
0.30362500000000003,1.5836359273173626,1.3717588131454759
0.3036875,1.5833058049052275,1.3717588131454759
0.3037500000000001,1.5833058049052273,1.3717588131454757
0.30381250000000004,1.5833058049052273,1.3714267402444262
0.303875,1.5829756824930923,1.3714267402444262
0.3039375,1.582975682493092,1.3710946673433766
0.30400000000000005,1.582975682493092,1.3710946673433766
0.3040625,1.582975682493092,1.3710946673433766
0.30412500000000003,1.5826455600809566,1.3710946673433766
0.30418750000000006,1.5826455600809566,1.3710946673433764
0.30425,1.5826455600809566,1.370762594442327
0.30431250000000004,1.5823154376688213,1.3707625944423267
0.30437500000000006,1.582315437668821,1.370430521541277
0.3044375,1.5819853152566858,1.370430521541277
0.30450000000000005,1.5819853152566858,1.3700984486402275
0.30456250000000007,1.5819853152566858,1.3700984486402272
0.30462500000000003,1.5819853152566858,1.3697663757391776
0.3046875,1.5819853152566858,1.3697663757391776
0.3047500000000001,1.5816551928445506,1.3697663757391774
0.30481250000000004,1.5816551928445506,1.369434302838128
0.304875,1.5819853152566856,1.3697663757391774
0.30493750000000003,1.5819853152566858,1.3697663757391776
0.30500000000000005,1.5819853152566858,1.3697663757391776
0.3050625,1.5819853152566858,1.3694343028381282
0.30512500000000004,1.5816551928445506,1.369434302838128
0.30518750000000006,1.5816551928445506,1.3691022299370783
0.30525,1.5816551928445506,1.3691022299370783
0.30531250000000004,1.5816551928445506,1.3691022299370783
0.30537500000000006,1.5819853152566863,1.3694343028381284
0.30543750000000003,1.582975682493092,1.370430521541277
0.30550000000000005,1.5836359273173626,1.3710946673433766
0.30556250000000007,1.5839660497294983,1.371758813145476
0.30562500000000004,1.5846262945537688,1.3724229589475754
0.3056875,1.5852865393780393,1.373419177650724
0.3057500000000001,1.5862769066144458,1.3740833234528242
0.30581250000000004,1.5869371514387163,1.3747474692549235
0.305875,1.5872672738508515,1.3754116150570226
0.30593750000000003,1.5879275186751225,1.3757436879580727
0.30600000000000005,1.5882576410872578,1.376407833760172
0.3060625,1.5889178859115283,1.3770719795622712
0.30612500000000004,1.5892480083236638,1.377736125364371
0.30618750000000006,1.5899082531479347,1.3784002711664705
0.30625,1.59023837556007,1.3790644169685697
0.30631250000000004,1.5908986203843407,1.3797285627706692
0.30637500000000006,1.591228742796476,1.380060635671719
0.30643750000000003,1.591228742796476,1.3803927085727685
0.30650000000000005,1.5915588652086115,1.3803927085727685
0.30656250000000007,1.5918889876207467,1.3807247814738186
0.30662500000000004,1.5918889876207467,1.381056854374868
0.3066875,1.5922191100328817,1.381056854374868
0.30675,1.592219110032882,1.381056854374868
0.30681250000000004,1.592219110032882,1.381056854374868
0.306875,1.592219110032882,1.381056854374868
0.30693750000000003,1.592219110032882,1.381056854374868
0.30700000000000005,1.592219110032882,1.3807247814738184
0.3070625,1.591888987620747,1.3803927085727687
0.30712500000000004,1.5918889876207467,1.3800606356717189
0.30718750000000006,1.5912287427964757,1.379728562770669
0.30725,1.5908986203843407,1.3790644169685697
0.30731250000000004,1.5908986203843407,1.37873234406752
0.30737500000000006,1.59023837556007,1.37840027116647
0.30743750000000003,1.59023837556007,1.3780681982654206
0.3075,1.5899082531479347,1.3777361253643712
0.30756250000000007,1.5895781307357992,1.3774040524633209
