data_analysis/experimental_data_3_17/acq0067.csv

#Digilent WaveForms Oscilloscope Acquisition
#Device Name: Discovery2
#Serial Number: SN:210321B02866
#Date Time: 2021-03-17 16:05:48.236
#Sample rate: 4000Hz
#Samples: 8192
#Trigger: None
#Channel 1: Range: 50 mV/div Offset: -395 mV Attenuation: 1 X
#Channel 2: Range: 50 mV/div Offset: -105 mV Attenuation: 1 X
#Power Supplies: ON
#Positive Supply: ON
#Voltage: 3.3 V
#Negative Supply: OFF
#Voltage: -1 V

Time (s),Channel 1 (V),Channel 2 (V)
-1.018,1.9027107209341623,1.6148409392255172
-1.01775,1.9033709657584332,1.6151730121265668
-1.0175,1.9040312105827035,1.6151730121265668
-1.01725,1.9043613329948392,1.6155050850276165
-1.017,1.905351700231246,1.6168333766318161
-1.01675,1.9066721898797867,1.6181616682360143
-1.0165,1.9079926795283282,1.6191578869391634
-1.01625,1.9086529243525987,1.620154105642312
-1.016,1.9093131691768697,1.6211503243454617
-1.01575,1.9099734140011406,1.6211503243454615
-1.0155,1.9106336588254107,1.6208182514444123
-1.01525,1.9109637812375464,1.620818251444412
-1.015,1.9112939036496819,1.6218144701475614
-1.01475,1.9119541484739524,1.6221465430486108
-1.0145,1.9122842708860879,1.6224786159496607
-1.01425,1.9119541484739526,1.6228106888507101
-1.014,1.9119541484739524,1.6234748346528098
-1.01375,1.9116240260618171,1.6238069075538597
-1.0135,1.9116240260618171,1.624138980454909
-1.01325,1.9109637812375464,1.624471053355959
-1.013,1.910633658825411,1.6248031262570088
-1.01275,1.910633658825411,1.6251351991580583
-1.0125,1.9103035364132757,1.6254672720591081
-1.01225,1.9099734140011406,1.6254672720591081
-1.012,1.909643291589005,1.6254672720591081
-1.01175,1.9093131691768697,1.6254672720591081
-1.0115,1.9093131691768697,1.6254672720591081
-1.01125,1.9103035364132757,1.6274597094654064
-1.011,1.9112939036496819,1.6287880010696059
-1.01075,1.9119541484739524,1.6304483655748538
-1.0105,1.9126143932982231,1.6321087300801025
-1.01025,1.9132746381224937,1.6327728758822015
-1.01,1.9129445157103586,1.6327728758822018
-1.00975,1.9122842708860877,1.632440802981152
-1.0095,1.9119541484739526,1.6321087300801027
-1.00925,1.9109637812375464,1.6311125113769533
-1.009,1.9096432915890045,1.6304483655748534
-1.00875,1.908652924352599,1.6294521468717047
-1.0085,1.9073324347040574,1.6271276365643565
-1.00825,1.9060119450555166,1.6257993449601584
-1.008,1.9046914554069745,1.6238069075538595
-1.00775,1.9040312105827033,1.62314276175176
-1.0075,1.9030408433462982,1.62314276175176
-1.00725,1.902380598522027,1.6234748346528098
-1.007,1.902710720934162,1.62380690755386
-1.00675,1.9020504761098915,1.6248031262570086
-1.0065,1.9010601088734855,1.6241389804549091
-1.00625,1.900399864049215,1.6241389804549091
-1.006,1.899739619224944,1.624471053355959
-1.00575,1.8997396192249438,1.6248031262570088
-1.0055,1.899409496812809,1.625467272059108
-1.00525,1.8990793744006733,1.6264634907622573
-1.005,1.8990793744006733,1.6267955636633071
-1.00475,1.8990793744006733,1.6274597094654064
-1.0045,1.8994094968128088,1.627791782366456
-1.00425,1.8994094968128088,1.6281238552675055
-1.004,1.8994094968128088,1.6284559281685556
-1.00375,1.8994094968128086,1.6284559281685558
-1.0035,1.8990793744006735,1.628788001069605
-1.00325,1.898749251988538,1.6287880010696052
-1.003,1.8974287623399961,1.6277917823664554
-1.00275,1.8964383951035906,1.6261314178612074
-1.0025,1.8954480278671844,1.6254672720591081
-1.00225,1.8941275382186435,1.6248031262570088
-1.002,1.8931371709822369,1.6248031262570086
-1.00175,1.8928070485701014,1.6254672720591083
-1.0015,1.8928070485701014,1.6261314178612072
-1.00125,1.8931371709822369,1.6271276365643565
-1.001,1.8934672933943724,1.6281238552675061
-1.00075,1.8937974158065076,1.629120073970655
-1.0005,1.8947877830429136,1.6301162926738042
-1.00025,1.8954480278671841,1.631776657179052
-1,1.8964383951035906,1.6334370216843013
-0.9997499999999999,1.8970986399278615,1.6347653132885003
-0.9995,1.8977588847521316,1.6354294590905993
-0.99925,1.8984191295764026,1.6364256777937487
-0.9989999999999999,1.8990793744006735,1.6370898235958484
-0.99875,1.8994094968128088,1.6377539693979475
-0.9984999999999999,1.8994094968128088,1.638418115200047
-0.9982500000000001,1.8994094968128088,1.639746406804245
-0.998,1.8994094968128088,1.640742625507395
-0.9977499999999999,1.899409496812809,1.6414067713094946
-0.9975,1.8997396192249438,1.6417388442105438
-0.99725,1.899739619224944,1.642070917111594
-0.9969999999999999,1.8997396192249438,1.642070917111594
-0.99675,1.8994094968128088,1.642070917111594
-0.9964999999999999,1.898749251988538,1.642070917111594
-0.9962500000000001,1.8984191295764028,1.6424029900126433
-0.996,1.8980890071642673,1.641738844210544
-0.9957499999999999,1.8977588847521318,1.6414067713094946
-0.9955,1.8977588847521318,1.641738844210544
-0.99525,1.8970986399278613,1.641738844210544
-0.9949999999999999,1.8967685175157258,1.6414067713094946
-0.99475,1.8967685175157258,1.641738844210544
-0.9944999999999999,1.8980890071642673,1.6433992087157927
-0.9942500000000001,1.8990793744006729,1.64539164612209
-0.994,1.9000697416370795,1.6470520106273396
-0.99375,1.9010601088734855,1.6483803022315384
-0.9935,1.901390231285621,1.649044448033638
-0.99325,1.901390231285621,1.649044448033638
-0.993,1.9010601088734855,1.649044448033638
-0.99275,1.9003998640492148,1.6487123751325883
-0.9925,1.9000697416370795,1.6480482293304888
-0.99225,1.8994094968128088,1.6473840835283893
-0.992,1.8984191295764026,1.6470520106273396
-0.99175,1.8974287623399966,1.64671993772629
-0.9915,1.896108272691455,1.6460557919241905
-0.99125,1.895117905455049,1.6457237190231409
-0.991,1.8941275382186429,1.6450595732210413
-0.99075,1.8934672933943721,1.6447275003199917
-0.9905,1.8928070485701014,1.6443954274189418
-0.99025,1.8921468037458309,1.6440633545178922
-0.99,1.8918166813336954,1.6433992087157927
-0.98975,1.8914865589215601,1.6433992087157927
-0.9895,1.8911564365094247,1.643067135814743
-0.98925,1.8908263140972894,1.6427350629136934
-0.989,1.8908263140972894,1.6427350629136934
-0.98875,1.8908263140972894,1.643067135814743
-0.9885,1.8908263140972894,1.6433992087157927
-0.98825,1.8908263140972894,1.6437312816168426
-0.988,1.8911564365094247,1.6440633545178922
-0.98775,1.8914865589215601,1.6440633545178922
-0.9875,1.8914865589215601,1.6443954274189418
-0.98725,1.8918166813336954,1.6450595732210413
-0.987,1.8918166813336954,1.645391646122091
-0.98675,1.8918166813336954,1.6460557919241905
-0.9865,1.8914865589215601,1.6457237190231409
-0.98625,1.8901660692730187,1.6440633545178922
-0.986,1.8891757020366124,1.6427350629136934
-0.98575,1.8881853348002064,1.642070917111594
-0.9855,1.8875250899759357,1.640742625507395
-0.98525,1.8878552123880712,1.6397464068042458
-0.985,1.8881853348002064,1.6390822610021465
-0.98475,1.8885154572123417,1.6400784797052956
-0.9845,1.8891757020366124,1.6410746984084448
-0.98425,1.8898359468608832,1.642070917111594
-0.984,1.890496191685154,1.643067135814743
-0.98375,1.8914865589215601,1.6443954274189418
-0.9835,1.8928070485701014,1.6460557919241905
-0.98325,1.8937974158065076,1.6477161564294391
-0.983,1.8947877830429136,1.6487123751325883
-0.98275,1.8957781502793198,1.650040666736787
-0.9825,1.8964383951035906,1.6507048125388866
-0.98225,1.8967685175157258,1.6517010312420357
-0.982,1.8974287623399966,1.652365177044135
-0.98175,1.8977588847521318,1.652365177044135
-0.9815,1.8980890071642673,1.6530293228462345
-0.98125,1.898749251988538,1.653693468648334
-0.981,1.8990793744006733,1.6546896873514831
-0.98075,1.8994094968128088,1.6553538331535826
-0.9805,1.8990793744006733,1.6550217602525328
-0.98025,1.8990793744006733,1.6546896873514831
-0.98,1.898749251988538,1.6543576144504333
-0.97975,1.898749251988538,1.6543576144504333
-0.9795,1.8984191295764026,1.6543576144504333
-0.97925,1.8977588847521318,1.6540255415493836
-0.979,1.8974287623399966,1.653693468648334
-0.97875,1.8974287623399966,1.6533613957472841
-0.9785,1.8970986399278613,1.6526972499451849
-0.97825,1.8974287623399966,1.652365177044135
-0.978,1.8984191295764026,1.653693468648334
-0.97775,1.9003998640492148,1.6556859060546323
-0.9775,1.9020504761098915,1.657014197658831
-0.97725,1.9027107209341623,1.65834248926303
-0.977,1.9030408433462978,1.6596707808672289
-0.97675,1.903370965758433,1.6603349266693284
-0.9765,1.903370965758433,1.6603349266693284
-0.97625,1.9030408433462978,1.6600028537682785
-0.976,1.9017203536977563,1.6600028537682785
-0.97575,1.901390231285621,1.6596707808672289
-0.9755,1.9010601088734855,1.6586745621640797
-0.97525,1.9003998640492148,1.6576783434609306
-0.975,1.899739619224944,1.6566821247577814
-0.97475,1.8990793744006733,1.6556859060546323
-0.9745,1.8984191295764026,1.6546896873514831
-0.97425,1.8980890071642673,1.6543576144504333
-0.974,1.8980890071642673,1.6543576144504333
-0.97375,1.8974287623399966,1.6540255415493836
-0.9735,1.8970986399278613,1.6526972499451849
-0.97325,1.8967685175157258,1.652365177044135
-0.973,1.896108272691455,1.6517010312420357
-0.97275,1.896108272691455,1.6513689583409858
-0.9725,1.896108272691455,1.6513689583409858
-0.97225,1.8964383951035906,1.6517010312420357
-0.972,1.8964383951035906,1.6520331041430854
-0.97175,1.8970986399278613,1.652365177044135
-0.9715,1.8970986399278613,1.6530293228462345
-0.97125,1.8974287623399966,1.6530293228462345
-0.971,1.8977588847521318,1.6533613957472841
-0.97075,1.8980890071642673,1.653693468648334
-0.9705,1.8984191295764026,1.6540255415493836
-0.97025,1.898749251988538,1.6546896873514831
-0.97,1.8990793744006733,1.6546896873514831
-0.96975,1.8984191295764026,1.6546896873514831
-0.9695,1.8970986399278613,1.653693468648334
-0.96925,1.896108272691455,1.652365177044135
-0.969,1.895117905455049,1.6507048125388866
-0.96875,1.8941275382186429,1.6497085938357374
-0.9685,1.8937974158065076,1.649044448033638
-0.9682499999999999,1.8941275382186429,1.649044448033638
-0.968,1.8944576606307784,1.649044448033638
-0.96775,1.8947877830429136,1.6493765209346876
-0.9675,1.8954480278671844,1.650040666736787
-0.9672499999999999,1.8957781502793198,1.6503727396378367
-0.967,1.8964383951035906,1.6517010312420357
-0.96675,1.8977588847521318,1.6526972499451849
-0.9665,1.898749251988538,1.653693468648334
-0.9662499999999999,1.899739619224944,1.6550217602525328
-0.966,1.9007299864613503,1.6556859060546323
-0.96575,1.901390231285621,1.6566821247577814
-0.9655,1.9017203536977563,1.657346270559881
-0.9652499999999999,1.9020504761098915,1.6580104163619802
-0.965,1.9027107209341623,1.6586745621640797
-0.96475,1.903370965758433,1.6593387079661792
-0.9645,1.9040312105827037,1.6600028537682785
-0.9642499999999999,1.90502157781911,1.660666999570378
-0.964,1.90502157781911,1.6609990724714276
-0.96375,1.90502157781911,1.660666999570378
-0.9635,1.9046914554069745,1.6603349266693284
-0.9632499999999999,1.9046914554069745,1.6596707808672289
-0.963,1.9046914554069745,1.6590066350651294
-0.96275,1.9046914554069745,1.6586745621640797
-0.9625,1.9046914554069745,1.65834248926303
-0.96225,1.9043613329948392,1.6586745621640797
-0.962,1.9043613329948392,1.65834248926303
-0.96175,1.9043613329948392,1.65834248926303
-0.9615,1.9043613329948392,1.6586745621640797
-0.96125,1.9056818226433807,1.6600028537682785
-0.961,1.907002312291922,1.6619952911745768
-0.96075,1.9079926795283282,1.6633235827787758
-0.9605,1.9093131691768697,1.6649839472840242
-0.96025,1.9099734140011404,1.6656480930861237
-0.96,1.9103035364132757,1.6659801659871734
-0.95975,1.910633658825411,1.6659801659871734
-0.9595,1.9103035364132757,1.665316020185074
-0.95925,1.9099734140011404,1.664319801481925
-0.959,1.909643291589005,1.663987728580875
-0.95875,1.9089830467647342,1.662991509877726
-0.9585,1.9079926795283282,1.6619952911745768
-0.95825,1.9073324347040574,1.6603349266693284
-0.958,1.9063420674676512,1.6590066350651294
-0.95775,1.9056818226433807,1.6576783434609306
-0.9575,1.9053517002312452,1.657014197658831
-0.95725,1.9046914554069745,1.6566821247577814
-0.957,1.9046914554069745,1.6566821247577814
-0.95675,1.9043613329948392,1.6553538331535826
-0.9565,1.9037010881705685,1.6546896873514831
-0.95625,1.903370965758433,1.653693468648334
-0.956,1.903370965758433,1.6530293228462345
-0.95575,1.9030408433462978,1.6520331041430854
-0.9555,1.903370965758433,1.6520331041430854
-0.95525,1.9040312105827037,1.6520331041430854
-0.955,1.9043613329948392,1.6520331041430854
-0.95475,1.9046914554069745,1.652365177044135
-0.9545,1.90502157781911,1.652365177044135
-0.95425,1.90502157781911,1.652365177044135
-0.954,1.9053517002312452,1.6520331041430854
-0.95375,1.9056818226433807,1.6517010312420357
-0.9535,1.906011945055516,1.6513689583409858
-0.95325,1.906011945055516,1.6513689583409858
-0.953,1.90502157781911,1.6497085938357374
-0.95275,1.9040312105827037,1.6480482293304888
-0.9525,1.903370965758433,1.6460557919241905
-0.95225,1.9027107209341623,1.6447275003199917
-0.952,1.902380598522027,1.6440633545178922
-0.95175,1.9027107209341623,1.6433992087157927
-0.9515,1.902380598522027,1.6443954274189418
-0.95125,1.9027107209341623,1.645391646122091
-0.951,1.9040312105827037,1.6463878648252401
-0.95075,1.9043613329948392,1.64671993772629
-0.9505,1.9053517002312452,1.6477161564294391
-0.95025,1.9066721898797867,1.6487123751325883
-0.95,1.9079926795283282,1.6493765209346876
-0.94975,1.9089830467647342,1.650040666736787
-0.9495,1.910633658825411,1.650040666736787
-0.94925,1.9126143932982231,1.6507048125388866
-0.949,1.9136047605346294,1.6520331041430854
-0.94875,1.9139348829467646,1.6520331041430854
-0.9485,1.9145951277710354,1.652365177044135
-0.94825,1.9155854950074414,1.6530293228462345
-0.948,1.916245739831712,1.653693468648334
-0.94775,1.9169059846559828,1.6540255415493836
-0.9475,1.9175662294802536,1.6543576144504333
-0.94725,1.917896351892389,1.6543576144504333
-0.947,1.9182264743045243,1.6540255415493836
-0.94675,1.9185565967166598,1.6543576144504333
-0.9465,1.918886719128795,1.6543576144504333
-0.94625,1.918886719128795,1.6540255415493836
-0.946,1.9192168415409305,1.6533613957472841
-0.94575,1.9195469639530658,1.6530293228462345
-0.9455,1.9195469639530658,1.6526972499451849
-0.94525,1.9195469639530658,1.652365177044135
-0.945,1.919877086365201,1.6520331041430854
-0.94475,1.9205373311894718,1.6520331041430854
-0.9445,1.9218578208380133,1.653693468648334
-0.94425,1.9231783104865547,1.6553538331535826
-0.944,1.9244988001350962,1.6563500518567318
-0.94375,1.9258192897836377,1.657346270559881
-0.9435,1.9268096570200437,1.657014197658831
-0.94325,1.9274699018443144,1.657014197658831
-0.943,1.92780002425645,1.6563500518567318
-0.94275,1.9284602690807204,1.6563500518567318
-0.9425,1.9291205139049912,1.6563500518567318
-0.94225,1.929780758729262,1.6556859060546323
-0.942,1.929780758729262,1.6543576144504333
-0.94175,1.9291205139049912,1.6533613957472841
-0.9415,1.9281301466685852,1.6520331041430854
-0.94125,1.9274699018443144,1.6510368854399362
-0.941,1.9264795346079084,1.6503727396378367
-0.94075,1.9254891673715022,1.6497085938357374
-0.9405,1.9248289225472315,1.6487123751325883
-0.94025,1.9244988001350962,1.6480482293304888
-0.94,1.9241686777229607,1.6473840835283893
-0.93975,1.9235084328986902,1.6470520106273396
-0.9395,1.9231783104865547,1.6463878648252401
-0.93925,1.9228481880744195,1.6460557919241905
-0.939,1.9228481880744195,1.6457237190231409
-0.93875,1.9235084328986902,1.6457237190231409
-0.9385,1.9238385553108255,1.6457237190231409
-0.93825,1.9241686777229607,1.6457237190231409
-0.938,1.9241686777229607,1.6457237190231409
-0.93775,1.9244988001350962,1.6457237190231409
-0.9375,1.9248289225472315,1.6457237190231409
-0.93725,1.9254891673715022,1.6460557919241905
-0.9369999999999999,1.9258192897836377,1.6463878648252401
-0.93675,1.9264795346079084,1.64671993772629
-0.9365,1.926149412195773,1.6463878648252401
-0.93625,1.9248289225472315,1.6450595732210413
-0.9359999999999999,1.9241686777229607,1.6437312816168426
-0.93575,1.9238385553108255,1.6427350629136934
-0.9355,1.9228481880744195,1.6414067713094944
-0.93525,1.9228481880744195,1.6410746984084448
-0.9349999999999999,1.9228481880744195,1.640742625507395
-0.93475,1.9231783104865547,1.6410746984084448
-0.9345,1.9241686777229607,1.6414067713094944
-0.93425,1.9248289225472315,1.641738844210544
-0.9339999999999999,1.9254891673715022,1.642070917111594
-0.93375,1.9264795346079084,1.643067135814743
-0.9335,1.9281301466685852,1.6447275003199917
-0.93325,1.9294506363171267,1.6460557919241905
-0.9329999999999999,1.9307711259656681,1.6470520106273396
-0.93275,1.9317614932020741,1.6477161564294391
-0.9325,1.9327518604384801,1.6480482293304888
-0.93225,1.9334121052627509,1.6483803022315384
-0.9319999999999999,1.9337422276748863,1.6487123751325883
-0.93175,1.934402472499157,1.6493765209346876
-0.9315,1.9350627173234278,1.650040666736787
-0.93125,1.935392839735563,1.6503727396378367
-0.931,1.9357229621476986,1.6503727396378367
-0.93075,1.9360530845598338,1.6507048125388866
-0.9305,1.9363832069719693,1.6507048125388866
-0.93025,1.9363832069719693,1.6503727396378367
-0.93,1.9357229621476986,1.650040666736787
-0.92975,1.9357229621476986,1.6493765209346876
-0.9295,1.935392839735563,1.6487123751325883
-0.92925,1.935392839735563,1.6483803022315384
-0.929,1.935392839735563,1.6483803022315384
-0.92875,1.935392839735563,1.6477161564294391
-0.9285,1.935392839735563,1.6473840835283893
-0.92825,1.935392839735563,1.6473840835283893
-0.928,1.9363832069719693,1.6487123751325883
-0.92775,1.9377036966205106,1.6507048125388866
-0.9275,1.939024186269052,1.6520331041430854
-0.92725,1.9400145535054583,1.653693468648334
-0.927,1.9410049207418643,1.6550217602525328
-0.92675,1.9410049207418643,1.656017978955682
-0.9265,1.940674798329729,1.656017978955682
-0.92625,1.9403446759175935,1.656017978955682
-0.926,1.9396844310933228,1.6553538331535826
-0.92575,1.939024186269052,1.6550217602525328
-0.9255,1.9386940638569168,1.653693468648334
-0.92525,1.9377036966205106,1.6526972499451849
-0.925,1.9367133293841046,1.6510368854399362
-0.92475,1.9360530845598338,1.6497085938357374
-0.9245,1.935392839735563,1.6487123751325883
-0.92425,1.934402472499157,1.6487123751325883
-0.924,1.9337422276748863,1.6487123751325883
-0.92375,1.9337422276748863,1.6473840835283893
-0.9235,1.9337422276748863,1.6473840835283893
-0.92325,1.9330819828506156,1.6470520106273396
-0.923,1.9327518604384801,1.64671993772629
-0.92275,1.9324217380263449,1.6463878648252401
-0.9225,1.9320916156142096,1.6457237190231409
-0.92225,1.9320916156142096,1.645391646122091
-0.922,1.9320916156142096,1.6450595732210413
-0.92175,1.9324217380263449,1.6450595732210413
-0.9215,1.9324217380263449,1.645391646122091
-0.92125,1.9324217380263449,1.6460557919241905
-0.921,1.9324217380263449,1.6460557919241905
-0.92075,1.9324217380263449,1.6460557919241905
-0.9205,1.9320916156142096,1.6460557919241905
-0.92025,1.9324217380263449,1.6463878648252401
-0.92,1.9324217380263449,1.6460557919241905
-0.91975,1.9314313707899389,1.6447275003199917
-0.9195,1.9301108811413974,1.6427350629136934
-0.91925,1.928790391492856,1.6414067713094944
-0.919,1.9284602690807204,1.6400784797052956
-0.91875,1.92780002425645,1.6390822610021465
-0.9185,1.9274699018443144,1.6390822610021465
-0.91825,1.9274699018443144,1.6394143339031961
-0.918,1.92780002425645,1.6397464068042458
-0.91775,1.92780002425645,1.640742625507395
-0.9175,1.9284602690807204,1.641738844210544
-0.91725,1.928790391492856,1.643067135814743
-0.917,1.929780758729262,1.6443954274189418
-0.91675,1.9307711259656681,1.6460557919241905
-0.9165,1.9314313707899389,1.6473840835283893
-0.91625,1.9320916156142096,1.6487123751325883
-0.916,1.9327518604384801,1.6493765209346876
-0.91575,1.9330819828506156,1.650040666736787
-0.9155,1.9337422276748863,1.6503727396378367
-0.91525,1.9340723500870216,1.6507048125388866
-0.915,1.9340723500870216,1.6503727396378367
-0.91475,1.934402472499157,1.6510368854399362
-0.9145,1.934402472499157,1.6517010312420357
-0.91425,1.9347325949112923,1.6520331041430854
-0.914,1.9347325949112923,1.6520331041430854
-0.91375,1.9347325949112923,1.6520331041430854
-0.9135,1.934402472499157,1.6520331041430854
-0.91325,1.9337422276748863,1.6517010312420357
-0.913,1.9334121052627509,1.6513689583409858
