data_analysis/experimental_data_3_17/acq0026.csv

#Digilent WaveForms Oscilloscope Acquisition
#Device Name: Discovery2
#Serial Number: SN:210321B02866
#Date Time: 2021-03-17 15:34:16.915
#Sample rate: 1600Hz
#Samples: 8192
#Trigger: None
#Channel 1: Range: 20 mV/div Offset: -1.615 V Attenuation: 1 X
#Channel 2: Range: 20 mV/div Offset: -1.314 V Attenuation: 1 X
#Power Supplies: ON
#Positive Supply: ON
#Voltage: 3.3 V
#Negative Supply: OFF
#Voltage: -1 V

Time (s),Channel 1 (V),Channel 2 (V)
-2.31375,1.6094619245519666,1.3578214015395917
-2.3131250000000003,1.6107824142005074,1.3594817660448395
-2.3125,1.6101221693762373,1.3578214015395917
-2.311875,1.608141434903425,1.356161037034343
-2.3112500000000002,1.6058305780184776,1.3538365267269952
-2.310625,1.6035197211335295,1.3511799435185967
-2.31,1.6018691090728532,1.3498516519143986
-2.309375,1.6002184970121764,1.3478592145081003
-2.3087500000000003,1.5998883746000414,1.3468629958049516
-2.308125,1.6002184970121767,1.3475271416070507
-2.3075,1.600548619424312,1.34819128740915
-2.3068750000000002,1.6012088642485827,1.3485233603101996
-2.3062500000000004,1.6005486194243121,1.3478592145081005
-2.305625,1.5975775177150935,1.3448705583986527
-2.305,1.5959269056544167,1.342213975190255
-2.3043750000000003,1.5962570280665522,1.3425460480913047
-2.30375,1.5982377625393656,1.3442064125965547
-2.303125,1.6012088642485827,1.3471950687060008
-2.3025,1.6038498435456654,1.3505157977164979
-2.3018750000000003,1.6051703331942062,1.3521761622217459
-2.30125,1.606160700430613,1.3538365267269952
-2.300625,1.607151067667019,1.355164818331194
-2.3000000000000003,1.6068209452548836,1.3548327454301443
-2.299375,1.6061607004306129,1.3545006725290942
-2.29875,1.6055004556063424,1.3538365267269952
-2.298125,1.6055004556063424,1.3535044538259453
-2.2975000000000003,1.6078113124912887,1.3554968912322427
-2.296875,1.6101221693762373,1.3588176202427409
-2.29625,1.6111125366126433,1.35981383894589
-2.2956250000000002,1.610782414200508,1.355164818331194
-2.295,1.6091318021398318,1.3515120164196477
-2.294375,1.6101221693762373,1.3531723809248957
-2.29375,1.6078113124912898,1.3541685996280448
-2.2931250000000003,1.6084715573155604,1.3535044538259455
-2.2925,1.606820945254883,1.3501837248154478
-2.291875,1.6051703331942069,1.349187506112299
-2.2912500000000002,1.6045100883699361,1.349187506112299
-2.2906250000000004,1.604179965957801,1.3498516519143984
-2.29,1.6038498435456654,1.3501837248154482
-2.289375,1.6021992314849887,1.34819128740915
-2.2887500000000003,1.5985678849514997,1.3448705583986527
-2.288125,1.5969172728908232,1.3438743396955037
-2.2875,1.5975775177150935,1.3442064125965534
-2.286875,1.5995582521879057,1.3465309229039013
-2.2862500000000003,1.6008787418364465,1.3508478706175457
-2.285625,1.601538986660718,1.3535044538259453
-2.285,1.6038498435456654,1.3554968912322436
-2.2843750000000003,1.6055004556063424,1.3568251828364426
-2.28375,1.6064908228427481,1.3578214015395913
-2.283125,1.6058305780184776,1.3568251828364426
-2.2825,1.6051703331942069,1.356161037034343
-2.2818750000000003,1.6045100883699364,1.3554968912322438
-2.28125,1.6048402107820716,1.355164818331194
-2.280625,1.6078113124912898,1.3588176202427409
-2.2800000000000002,1.609792046964102,1.3604779847479893
-2.279375,1.609461924551966,1.3591496931437894
-2.27875,1.608141434903425,1.3568251828364426
-2.278125,1.606160700430613,1.3541685996280448
-2.2775000000000003,1.6038498435456665,1.3521761622217474
-2.276875,1.602199231484988,1.3511799435185967
-2.27625,1.6008787418364472,1.3498516519143986
-2.2756250000000002,1.5998883746000412,1.3485233603101996
-2.2750000000000004,1.6005486194243117,1.3491875061122989
-2.274375,1.601538986660718,1.3498516519143986
-2.27375,1.601538986660718,1.3505157977164979
-2.2731250000000003,1.6012088642485827,1.3501837248154482
-2.2725,1.597907640127228,1.3471950687059997
-2.271875,1.5959269056544167,1.344538485497603
-2.27125,1.5959269056544167,1.3448705583986527
-2.2706250000000003,1.597907640127228,1.3465309229039006
-2.27,1.5998883746000412,1.3498516519143986
-2.269375,1.6018691090728532,1.352840308023846
-2.2687500000000003,1.6035197211335301,1.3545006725290945
-2.268125,1.6048402107820723,1.3554968912322436
-2.2675,1.606160700430613,1.3554968912322436
-2.266875,1.6064908228427484,1.355164818331194
-2.2662500000000003,1.6058305780184778,1.3545006725290947
-2.265625,1.6051703331942069,1.3541685996280448
-2.265,1.6045100883699361,1.3531723809248957
-2.2643750000000002,1.606160700430613,1.3545006725290945
-2.26375,1.6091318021398313,1.3584855473416921
-2.263125,1.6091318021398313,1.3608100576490392
-2.2625,1.6088016797276958,1.35981383894589
-2.2618750000000003,1.6071510676670198,1.358153474440642
-2.26125,1.605170333194206,1.3548327454301432
-2.260625,1.6031895987213947,1.3521761622217465
-2.2600000000000002,1.6018691090728532,1.3505157977164979
-2.2593750000000004,1.6005486194243126,1.348191287409151
-2.25875,1.600548619424312,1.3475271416070504
-2.258125,1.600548619424312,1.3478592145081003
-2.2575000000000003,1.6008787418364472,1.3478592145081003
-2.256875,1.6012088642485824,1.3485233603101994
-2.25625,1.6008787418364472,1.3478592145081003
-2.255625,1.5975775177150935,1.3448705583986527
-2.2550000000000003,1.5955967832422824,1.343210193893405
-2.254375,1.5962570280665522,1.3432101938934042
-2.25375,1.5972473953029582,1.3455347042007522
-2.2531250000000003,1.6002184970121764,1.3498516519143986
-2.2525,1.6031895987213958,1.3521761622217472
-2.251875,1.6055004556063424,1.3535044538259453
-2.25125,1.6074811900791544,1.3541685996280448
-2.2506250000000003,1.6081414349034249,1.354832745430144
-2.25,1.6078113124912898,1.3548327454301443
-2.249375,1.6068209452548836,1.3545006725290945
-2.2487500000000002,1.6058305780184776,1.3535044538259453
-2.248125,1.605170333194208,1.3531723809248972
-2.2475,1.6074811900791544,1.3564931099353927
-2.246875,1.609792046964102,1.35981383894589
-2.2462500000000003,1.6084715573155612,1.360477984747989
-2.245625,1.607811312491289,1.359481766044839
-2.245,1.6058305780184776,1.3571572557374922
-2.2443750000000002,1.6038498435456654,1.3538365267269952
-2.2437500000000004,1.6021992314849893,1.350847870617549
-2.243125,1.6018691090728532,1.3498516519143986
-2.2425,1.6012088642485827,1.3488554332112495
-2.2418750000000003,1.600548619424312,1.34819128740915
-2.24125,1.6008787418364474,1.3491875061122995
-2.240625,1.601538986660718,1.3501837248154482
-2.24,1.6021992314849887,1.3501837248154482
-2.2393750000000003,1.6005486194243126,1.3478592145081014
-2.23875,1.597907640127229,1.344538485497603
-2.238125,1.596917272890823,1.3428781209923544
-2.2375000000000003,1.5982377625393642,1.3442064125965534
-2.236875,1.6002184970121776,1.347527141607052
-2.23625,1.6028594763092594,1.3511799435185974
-2.235625,1.6045100883699361,1.3531723809248957
-2.2350000000000003,1.605500455606342,1.3531723809248957
-2.234375,1.6064908228427484,1.3548327454301443
-2.23375,1.607151067667019,1.355164818331194
-2.2331250000000002,1.6068209452548836,1.3548327454301443
-2.2325,1.606490822842748,1.3541685996280446
-2.231875,1.6055004556063424,1.3538365267269952
-2.23125,1.6058305780184776,1.3541685996280448
-2.2306250000000003,1.6084715573155595,1.3574893286385403
-2.23,1.610122169376237,1.3591496931437903
-2.229375,1.609792046964102,1.358485547341691
-2.2287500000000002,1.6084715573155606,1.3554968912322436
-2.2281250000000004,1.6064908228427492,1.352176162221748
-2.2275,1.6045100883699361,1.3495195790133487
-2.226875,1.602529353897124,1.34819128740915
-2.2262500000000003,1.6012088642485827,1.3475271416070504
-2.225625,1.6005486194243121,1.347195068706001
-2.225,1.6008787418364472,1.3475271416070504
-2.224375,1.6012088642485827,1.3485233603101996
-2.2237500000000003,1.6015389866607177,1.3491875061122989
-2.223125,1.601538986660718,1.3488554332112495
-2.2225,1.5995582521879057,1.3458667771018018
-2.2218750000000003,1.5972473953029582,1.3432101938934042
-2.22125,1.597247395302959,1.344206412596554
-2.220625,1.5985678849514997,1.3458667771018018
-2.22,1.6008787418364472,1.3485233603101996
-2.2193750000000003,1.6031895987213935,1.3518440893206953
-2.21875,1.6051703331942069,1.3541685996280448
-2.218125,1.6064908228427484,1.3554968912322436
-2.2175000000000002,1.607151067667019,1.3564931099353927
-2.216875,1.6074811900791537,1.3564931099353925
-2.21625,1.606160700430613,1.3558289641332935
-2.215625,1.6048402107820716,1.3545006725290945
-2.2150000000000003,1.607151067667018,1.3508478706175493
-2.214375,1.6035197211335317,1.3578214015395926
-2.21375,1.607151067667019,1.35981383894589
-2.2131250000000002,1.6127631486733203,1.3571572557374922
-2.2125000000000004,1.6058305780184807,1.3721005362847225
-2.211875,1.6084715573155606,1.3568251828364426
-2.21125,1.6078113124912898,1.3498516519143986
-2.2106250000000003,1.5995582521879057,1.3628024950553375
-2.21,1.6021992314849876,1.3455347042007544
-2.209375,1.5995582521879057,1.3501837248154482
-2.20875,1.5972473953029582,1.3545006725290945
-2.2081250000000003,1.602859476309257,1.341217756487112
-2.2075,1.601538986660718,1.3501837248154482
-2.206875,1.6002184970121764,1.3535044538259453
-2.2062500000000003,1.6048402107820716,1.3468629958049512
-2.205625,1.5969172728908223,1.35483274543014
-2.205,1.595266660830146,1.3455347042007522
-2.204375,1.5998883746000412,1.3369008087734595
-2.2037500000000003,1.5972473953029593,1.3478592145080954
-2.203125,1.602529353897124,1.349187506112299
-2.2025,1.6045100883699361,1.3521761622217465
-2.2018750000000002,1.6074811900791544,1.3525082351227962
-2.20125,1.6055004556063421,1.3531723809248957
-2.200625,1.6051703331942069,1.3531723809248957
-2.2,1.6084715573155606,1.3498516519143986
-2.1993750000000003,1.6035197211335324,1.3604779847479844
-2.19875,1.6038498435456665,1.3531723809248923
-2.198125,1.606160700430613,1.3458667771018018
-2.1975000000000002,1.6045100883699361,1.3628024950553375
-2.1968750000000004,1.6051703331942067,1.3594817660448417
-2.19625,1.606160700430613,1.3591496931437905
-2.195625,1.6035197211335301,1.366787369867934
-2.1950000000000003,1.6051703331942069,1.356161037034343
-2.194375,1.6015389866607177,1.356493109935392
-2.19375,1.6008787418364472,1.3548327454301443
-2.193125,1.5992281297757704,1.3448705583986527
-2.1925000000000003,1.5959269056544183,1.3468629958049503
-2.191875,1.5998883746000412,1.3392253190808077
-2.19125,1.600548619424312,1.3478592145081003
-2.1906250000000003,1.601538986660718,1.3501837248154482
-2.19,1.6038498435456638,1.3398894648829118
-2.189375,1.600548619424312,1.3508478706175477
-2.18875,1.5955967832422815,1.3501837248154482
-2.1881250000000003,1.5959269056544165,1.3405536106850109
-2.1875,1.5972473953029582,1.3471950687060008
-2.186875,1.6002184970121764,1.3475271416070504
-2.1862500000000002,1.6038498435456654,1.3488554332112495
-2.185625,1.6041799659578013,1.3535044538259453
-2.185,1.6051703331942069,1.3535044538259453
-2.184375,1.6035197211335301,1.3608100576490392
-2.1837500000000003,1.6055004556063415,1.3528403080238496
-2.183125,1.6071510676670187,1.354500672529097
-2.1825,1.606160700430613,1.35981383894589
-2.1818750000000002,1.6055004556063424,1.3475271416070504
-2.1812500000000004,1.606820945254883,1.353172380924893
-2.180625,1.606160700430613,1.363466640857437
-2.18,1.610782414200508,1.3568251828364426
-2.1793750000000003,1.6121029038490495,1.3594817660448402
-2.17875,1.6101221693762366,1.3601459118469363
-2.178125,1.6088016797276958,1.352840308023846
-2.1775,1.6051703331942069,1.3521761622217465
-2.1768750000000003,1.6048402107820718,1.3475271416070527
-2.17625,1.6002184970121764,1.352840308023846
-2.175625,1.6002184970121764,1.3468629958049512
-2.1750000000000003,1.6018691090728532,1.3458667771018018
-2.174375,1.5998883746000427,1.355828964133287
-2.17375,1.6035197211335301,1.3415498293881556
-2.173125,1.5998883746000412,1.34819128740915
-2.1725000000000003,1.5959269056544185,1.3508478706175466
-2.171875,1.5955967832422815,1.3359045900703104
-2.17125,1.5932859263573338,1.3471950687060008
-2.1706250000000002,1.5975775177150935,1.3418819022892052
-2.17,1.6002184970121769,1.344206412596558
-2.169375,1.6012088642485827,1.3545006725290945
-2.16875,1.6021992314849887,1.349187506112299
-2.1681250000000003,1.6041799659578,1.3584855473416868
-2.1675,1.6041799659578015,1.3581534744406398
-2.166875,1.6055004556063424,1.3548327454301443
-2.1662500000000002,1.6064908228427484,1.3581534744406414
-2.1656250000000004,1.6058305780184778,1.3535044538259475
-2.165,1.6045100883699361,1.3568251828364426
-2.164375,1.6074811900791544,1.358485547341691
-2.1637500000000003,1.6094619245519666,1.3618062763521883
-2.163125,1.6104522917883726,1.3641307866595327
-2.1625,1.6101221693762373,1.3564931099353927
-2.161875,1.6074811900791544,1.3578214015395917
-2.1612500000000003,1.605170333194208,1.3558289641332943
-2.160625,1.6031895987213947,1.3488554332112495
-2.16,1.6008787418364472,1.3501837248154482
-2.1593750000000003,1.600548619424312,1.3458667771018018
-2.15875,1.5998883746000414,1.3448705583986547
-2.158125,1.6002184970121764,1.349187506112299
-2.1575,1.6002184970121764,1.3468629958049512
-2.1568750000000003,1.6002184970121764,1.3488554332112486
-2.15625,1.5992281297757704,1.3475271416070504
-2.155625,1.5965871504786875,1.341217756487106
-2.1550000000000002,1.5955967832422815,1.3432101938934042
-2.154375,1.596917272890824,1.3455347042007535
-2.15375,1.5995582521879057,1.3485233603101996
-2.153125,1.601538986660718,1.3505157977164979
-2.1525000000000003,1.603189598721394,1.3508478706175475
-2.151875,1.6045100883699368,1.353504453825946
-2.15125,1.6058305780184776,1.3548327454301443
-2.1506250000000002,1.607151067667019,1.3554968912322436
-2.1500000000000004,1.607151067667019,1.3558289641332932
-2.149375,1.6064908228427484,1.3535044538259453
-2.14875,1.6058305780184776,1.3538365267269952
-2.1481250000000003,1.6051703331942069,1.3545006725290945
-2.1475,1.6081414349034262,1.3568251828364442
-2.146875,1.6104522917883728,1.3604779847479893
-2.14625,1.6104522917883728,1.3604779847479893
-2.1456250000000003,1.6088016797276965,1.3581534744406425
-2.145,1.6064908228427484,1.3558289641332935
-2.144375,1.6038498435456654,1.3518440893206969
-2.1437500000000003,1.602529353897124,1.3501837248154482
-2.143125,1.6005486194243113,1.3495195790133478
-2.1425,1.598898007363635,1.3475271416070504
-2.141875,1.5992281297757704,1.3478592145081003
-2.1412500000000003,1.599888374600041,1.3478592145081003
-2.140625,1.600548619424312,1.3478592145081003
-2.14,1.6012088642485827,1.3485233603101996
-2.1393750000000002,1.5995582521879057,1.3448705583986527
-2.13875,1.598237762539364,1.3425460480913045
-2.138125,1.597907640127229,1.342213975190255
-2.1375,1.5982377625393642,1.3435422667944539
-2.1368750000000003,1.599558252187905,1.3468629958049496
-2.13625,1.6021992314849893,1.3505157977164988
-2.135625,1.6035197211335301,1.3525082351227962
-2.1350000000000002,1.6045100883699361,1.3538365267269952
-2.1343750000000004,1.605500455606342,1.3545006725290942
-2.13375,1.606160700430613,1.3545006725290945
-2.133125,1.6058305780184776,1.3538365267269952
-2.1325000000000003,1.6051703331942069,1.3541685996280448
-2.131875,1.604179965957801,1.3531723809248957
-2.13125,1.6048402107820716,1.3531723809248957
-2.130625,1.608141434903425,1.3568251828364426
-2.1300000000000003,1.6097920469641014,1.359481766044839
-2.129375,1.6084715573155606,1.3591496931437905
-2.12875,1.607151067667019,1.3571572557374922
-2.1281250000000003,1.6048402107820716,1.3538365267269952
-2.1275,1.6028594763092592,1.350847870617547
-2.126875,1.6021992314849887,1.349187506112299
-2.12625,1.6018691090728532,1.34819128740915
-2.1256250000000003,1.6008787418364476,1.3475271416070507
-2.125,1.6008787418364472,1.34819128740915
-2.124375,1.6018691090728532,1.3495195790133487
-2.1237500000000002,1.6018691090728532,1.3508478706175477
-2.123125,1.6015389866607168,1.3505157977164963
-2.1225,1.598898007363635,1.3468629958049512
-2.121875,1.596917272890823,1.344538485497603
-2.1212500000000003,1.596917272890823,1.3448705583986524
-2.120625,1.598898007363636,1.3465309229039033
-2.12,1.601538986660718,1.3508478706175477
-2.1193750000000002,1.6035197211335301,1.3538365267269952
-2.1187500000000004,1.604840210782071,1.3551648183311933
-2.118125,1.6058305780184776,1.3564931099353927
-2.1175,1.6064908228427484,1.3571572557374922
-2.1168750000000003,1.6064908228427484,1.3564931099353927
-2.11625,1.6058305780184774,1.3554968912322434
-2.115625,1.6051703331942069,1.355164818331194
-2.115,1.6048402107820716,1.3548327454301443
-2.1143750000000003,1.6061607004306124,1.3568251828364417
-2.11375,1.6094619245519666,1.3604779847479893
-2.113125,1.6101221693762373,1.3624704221542878
-2.1125000000000003,1.6091318021398313,1.3618062763521883
-2.111875,1.607151067667018,1.3598138389458885
-2.11125,1.6048402107820716,1.356161037034343
-2.110625,1.6031895987213947,1.3531723809248957
-2.1100000000000003,1.6015389866607186,1.3511799435185983
-2.109375,1.5998883746000412,1.3495195790133487
-2.10875,1.5992281297757704,1.3488554332112495
-2.1081250000000002,1.5998883746000412,1.3501837248154482
-2.1075,1.6005486194243124,1.3511799435185976
-2.106875,1.601538986660718,1.3518440893206969
-2.10625,1.6002184970121764,1.3501837248154482
-2.1056250000000003,1.5975775177150946,1.3461988500028534
-2.105,1.5965871504786877,1.3435422667944539
-2.104375,1.5972473953029582,1.3435422667944539
-2.1037500000000002,1.5992281297757704,1.3461988500028517
-2.1031250000000004,1.601869109072852,1.3521761622217439
-2.1025,1.6035197211335301,1.3545006725290945
-2.101875,1.6048402107820716,1.3564931099353927
-2.1012500000000003,1.6058305780184776,1.3568251828364426
-2.100625,1.6064908228427481,1.3568251828364424
-2.1,1.606160700430613,1.3564931099353927
-2.099375,1.6055004556063424,1.3554968912322436
-2.0987500000000003,1.6048402107820718,1.3548327454301445
-2.098125,1.6045100883699361,1.3545006725290945
-2.0975,1.607151067667019,1.3564931099353927
-2.0968750000000003,1.6094619245519666,1.3594817660448402
-2.09625,1.6104522917883726,1.3588176202427404
-2.095625,1.609792046964102,1.3578214015395917
-2.095,1.6084715573155606,1.3545006725290945
-2.0943750000000003,1.6068209452548843,1.3521761622217476
-2.09375,1.6048402107820716,1.3508478706175477
-2.093125,1.6028594763092594,1.3495195790133487
-2.0925000000000002,1.6018691090728532,1.3485233603101996
-2.091875,1.6018691090728534,1.3488554332112495
-2.09125,1.6021992314849887,1.3488554332112495
-2.090625,1.6028594763092594,1.3495195790133487
-2.0900000000000003,1.6028594763092594,1.3498516519143984
-2.089375,1.6012088642485816,1.3475271416070487
-2.08875,1.598898007363635,1.3435422667944539
-2.0881250000000002,1.598898007363635,1.339889464882907
-2.0875000000000004,1.5995582521879055,1.3388932461797582
-2.086875,1.6012088642485827,1.3392253190808077
-2.08625,1.6035197211335301,1.3442064125965534
-2.0856250000000003,1.6074811900791544,1.349187506112299
-2.085,1.6088016797276958,1.3508478706175493
-2.084375,1.6088016797276958,1.3541685996280448
-2.08375,1.6088016797276958,1.3554968912322436
-2.0831250000000003,1.6081414349034253,1.3548327454301445
-2.0825,1.607151067667019,1.3548327454301443
-2.081875,1.606160700430613,1.3541685996280448
-2.0812500000000003,1.6064908228427484,1.3545006725290945
-2.080625,1.609131802139832,1.3578214015395929
-2.08,1.6104522917883728,1.3601459118469397
-2.079375,1.609792046964102,1.3594817660448402
-2.0787500000000003,1.6084715573155612,1.3574893286385428
-2.078125,1.606160700430613,1.3545006725290945
-2.0775,1.6041799659578009,1.3518440893206969
-2.0768750000000002,1.6021992314849887,1.3495195790133487
-2.07625,1.6012088642485822,1.3481912874091497
-2.075625,1.6002184970121764,1.3475271416070504
-2.075,1.600548619424312,1.3475271416070504
-2.0743750000000003,1.600878741836447,1.3491875061122984
-2.07375,1.6012088642485824,1.3495195790133485
-2.073125,1.6008787418364472,1.3488554332112495
-2.0725000000000002,1.5975775177150935,1.3455347042007522
-2.0718750000000004,1.5959269056544174,1.342546048091306
-2.07125,1.5962570280665522,1.3428781209923544
-2.070625,1.597907640127229,1.3442064125965534
