DAQ/testing_demo_4_13/b10_r80_60Hz_001.csv

#Digilent WaveForms Oscilloscope Acquisition
#Device Name: Discovery2
#Serial Number: SN:210321B02866
#Date Time: 2021-04-13 18:33:15.587
#Sample rate: 40000Hz
#Samples: 8192
#Trigger: None
#Channel 1: Range: 500 mV/div Offset: -1.15 V Attenuation: 1 X
#Channel 2: Range: 500 mV/div Offset: -1.45 V Attenuation: 1 X
#Power Supplies: ON
#Positive Supply: ON
#Voltage: 3.3 V
#Negative Supply: OFF
#Voltage: -3.3 V

Time (s),Channel 1 (V),Channel 2 (V)
-0.10577500000000001,1.5959643162782982,2.4655691146562315
-0.10575,1.595964316278298,2.462580458546782
-0.105725,1.5953040714540276,2.458927656635237
-0.1057,1.5953040714540276,2.4556069276247396
-0.105675,1.5949739490418922,2.4522861986142424
-0.10565000000000001,1.594643826629757,2.4486333967026956
-0.105625,1.5946438266297567,2.4453126676921966
-0.1056,1.5939835818054862,2.4413277928796018
-0.105575,1.5939835818054862,2.4380070638691045
-0.10555,1.5936534593933507,2.434022189056508
-0.10552500000000001,1.5936534593933507,2.430369387144961
-0.1055,1.5933233369812152,2.426384512332363
-0.105475,1.5929932145690802,2.422399637519768
-0.10545,1.5929932145690802,2.4184147627071715
-0.105425,1.5923329697448092,2.4147619607956248
-0.10540000000000001,1.5923329697448092,2.4111091588840776
-0.105375,1.592002847332674,2.40679221117043
-0.10535,1.592002847332674,2.4031394092588845
-0.105325,1.5916727249205387,2.3988224615452385
-0.1053,1.5913426025084032,2.394837586732642
-0.10527500000000001,1.5913426025084032,2.390852711920045
-0.10525,1.5910124800962682,2.3868678371074465
-0.105225,1.5913426025084032,2.3825508893938023
-0.1052,1.5906823576841325,2.378233941680156
-0.105175,1.5906823576841325,2.3742490668675593
-0.10515000000000001,1.5903522352719972,2.369932119153913
-0.105125,1.590352235271997,2.3656151714402647
-0.1051,1.5900221128598617,2.36129822372662
-0.105075,1.5900221128598617,2.356649203111924
-0.10505,1.5896919904477265,2.352332255398278
-0.10502500000000001,1.589361868035591,2.347683234783582
-0.105,1.5896919904477262,2.343698359970983
-0.104975,1.589361868035591,2.3387172664552396
-0.10495,1.589361868035591,2.334400318741593
-0.104925,1.5890317456234557,2.3297512981268973
-0.10490000000000001,1.589361868035591,2.325434350413251
-0.10487500000000001,1.589031745623456,2.3207853297985572
-0.10485,1.5887016232113202,2.3158042362828093
-0.104825,1.5887016232113202,2.3118193614702127
-0.1048,1.5887016232113202,2.3068382679544666
-0.10477500000000001,1.5890317456234557,2.3021892473397707
-0.10475000000000001,1.5883715007991852,2.297208153824027
-0.104725,1.5887016232113202,2.2928912061103786
-0.1047,1.588371500799185,2.2875780396935834
-0.104675,1.588371500799185,2.283261091979937
-0.10465,1.588371500799185,2.2782799984641913
-0.10462500000000001,1.58804137838705,2.272966832047398
-0.1046,1.5880413783870497,2.2683178114327
-0.104575,1.5877112559749142,2.263336717916954
-0.10455,1.588371500799185,2.258687697302258
-0.104525,1.5877112559749142,2.2533745308854627
-0.10450000000000001,1.5880413783870495,2.249057583171818
-0.104475,1.5877112559749142,2.2437444167550207
-0.10445,1.5877112559749142,2.238763323239275
-0.104425,1.5877112559749142,2.2337822297235292
-0.1044,1.5877112559749142,2.2284690633067337
-0.10437500000000001,1.5877112559749142,2.22382004269204
-0.10435,1.5877112559749142,2.218838949176292
-0.104325,1.5880413783870497,2.2138578556605464
-0.1043,1.5877112559749142,2.208212616342701
-0.104275,1.5877112559749142,2.203563595728005
-0.10425000000000001,1.587381133562779,2.1979183564101623
-0.104225,1.5877112559749142,2.1929372628944144
-0.1042,1.5873811335627788,2.187292023576569
-0.104175,1.5873811335627788,2.182643002961873
-0.10415,1.5870510111506435,2.1773298365450775
-0.10412500000000001,1.5873811335627785,2.172016670128284
-0.1041,1.5873811335627788,2.166703503711487
-0.104075,1.5873811335627788,2.1617224101957406
-0.10405,1.5870510111506435,2.1564092437789455
-0.104025,1.5870510111506435,2.1514281502631993
-0.10400000000000001,1.5870510111506435,2.1461149838464064
-0.103975,1.5870510111506435,2.140469744528559
-0.10395,1.5873811335627788,2.135820723913863
-0.103925,1.5870510111506435,2.130175484596018
-0.1039,1.5873811335627788,2.1251943910802717
-0.10387500000000001,1.5870510111506437,2.1195491517624294
-0.10385,1.5873811335627788,2.114900131147731
-0.103825,1.5870510111506435,2.1092548918298855
-0.1038,1.5873811335627788,2.1042737983141397
-0.103775,1.5870510111506435,2.098960631897344
-0.10375000000000001,1.587711255974914,2.093979538381601
-0.103725,1.5877112559749142,2.0883342990637535
-0.1037,1.5877112559749142,2.083021132646958
-0.103675,1.5877112559749142,2.0777079662301627
-0.10365,1.5877112559749142,2.072394799813367
-0.10362500000000001,1.5880413783870495,2.0674137062976237
-0.1036,1.5880413783870497,2.0617684669797764
-0.103575,1.588371500799185,2.0567873734640303
-0.10355,1.588371500799185,2.051474207047235
-0.103525,1.5887016232113202,2.046493113531489
-0.10350000000000001,1.588371500799185,2.040515801312594
-0.103475,1.5887016232113202,2.035534707796849
-0.10345,1.588371500799185,2.0302215413800533
-0.103425,1.5887016232113202,2.0252404478643076
-0.1034,1.5887016232113202,2.019595208546462
-0.10337500000000001,1.5890317456234557,2.0146141150307164
-0.10335,1.5890317456234557,2.0093009486139213
-0.103325,1.5890317456234557,2.004319855098175
-0.1033,1.5890317456234557,1.9986746157803301
-0.103275,1.589361868035591,1.9936935222645844
-0.10325000000000001,1.589361868035591,1.9880482829467392
-0.103225,1.589361868035591,1.9830671894309935
-0.1032,1.5896919904477265,1.9774219501131483
-0.103175,1.5896919904477265,1.9721087836963527
-0.10315,1.5896919904477265,1.967127690180607
-0.10312500000000001,1.5896919904477265,1.961482450862762
-0.1031,1.5900221128598617,1.956169284445964
-0.103075,1.5900221128598617,1.950856118029171
-0.10305,1.5903522352719972,1.9458750245134253
-0.103025,1.5900221128598617,1.94022978519558
-0.10300000000000001,1.5903522352719972,1.9352486916798344
-0.102975,1.5903522352719974,1.929603452361987
-0.10295,1.5906823576841325,1.924954431747293
-0.102925,1.5903522352719972,1.9189771195283982
-0.1029,1.5906823576841325,1.9139960260126525
-0.10287500000000001,1.5903522352719972,1.9083507866948073
-0.10285,1.5906823576841325,1.9033696931790591
-0.102825,1.5906823576841325,1.8980565267622662
-0.1028,1.591012480096268,1.8927433603454706
-0.102775,1.5906823576841325,1.887430193928675
-0.10275000000000001,1.5906823576841325,1.8824491004129293
-0.102725,1.5906823576841325,1.877468006897181
-0.1027,1.5906823576841325,1.8718227675793386
-0.102675,1.5906823576841325,1.8668416740635927
-0.10265,1.5906823576841325,1.8615285076467973
-0.10262500000000001,1.591012480096268,1.8565474141310516
-0.1026,1.5906823576841327,1.8509021748132042
-0.102575,1.591012480096268,1.8462531541985103
-0.10255,1.5906823576841325,1.840607914880665
-0.102525,1.591012480096268,1.835958894265969
-0.10250000000000001,1.5906823576841325,1.830313654948124
-0.102475,1.5910124800962677,1.8253325614323759
-0.10245,1.5906823576841325,1.8200193950155827
-0.102425,1.591012480096268,1.8153703744008867
-0.1024,1.5906823576841325,1.8100572079840913
-0.10237500000000001,1.5906823576841325,1.8054081873693952
-0.10235,1.5906823576841325,1.8000950209525977
-0.102325,1.5906823576841325,1.7954460003379038
-0.1023,1.5903522352719972,1.7901328339211082
-0.102275,1.5906823576841325,1.7854838133064121
-0.10225000000000001,1.5906823576841325,1.7801706468896168
-0.102225,1.5906823576841322,1.7755216262749185
-0.1022,1.5903522352719972,1.770540532759175
-0.102175,1.5903522352719972,1.7658915121444791
-0.10215,1.5900221128598617,1.7609104186287332
-0.10212500000000001,1.5903522352719972,1.7562613980140371
-0.1021,1.590022112859862,1.7512803044982892
-0.102075,1.5903522352719972,1.7466312838835956
-0.10205,1.5900221128598617,1.7416501903678498
-0.102025,1.5900221128598617,1.7370011697531538
-0.10200000000000001,1.5900221128598617,1.7323521491384577
-0.101975,1.5900221128598617,1.7277031285237594
-0.10195,1.5900221128598617,1.7230541079090655
-0.101925,1.5900221128598617,1.7180730143933198
-0.1019,1.5900221128598617,1.7137560666796736
-0.10187500000000001,1.5900221128598617,1.7094391189660272
-0.10185,1.5900221128598617,1.7047900983513289
-0.101825,1.5900221128598617,1.7001410777366353
-0.1018,1.5900221128598617,1.6954920571219392
-0.101775,1.5900221128598617,1.691175109408293
-0.10175000000000001,1.5900221128598617,1.6868581616946465
-0.10172500000000001,1.5900221128598617,1.6822091410799527
-0.1017,1.5900221128598617,1.6778921933663042
-0.101675,1.5900221128598617,1.6732431727516082
-0.10165,1.5896919904477265,1.6692582979390116
-0.10162500000000001,1.5900221128598617,1.6649413502253654
-0.10160000000000001,1.5900221128598617,1.660624402511721
-0.101575,1.5900221128598617,1.6566395276991224
-0.10155,1.5900221128598617,1.6526546528865258
-0.101525,1.5900221128598617,1.6486697780739292
-0.1015,1.5896919904477265,1.6443528303602828
-0.10147500000000001,1.5900221128598615,1.640367955547688
-0.10145,1.5896919904477265,1.63605100783404
-0.101425,1.5896919904477265,1.6320661330214434
-0.1014,1.5896919904477265,1.6280812582088466
-0.101375,1.589361868035591,1.62409638339625
-0.10135000000000001,1.589361868035591,1.6197794356826059
-0.101325,1.589361868035591,1.616126633771057
-0.1013,1.589361868035591,1.6121417589584603
-0.101275,1.5890317456234557,1.6081568841458638
-0.10125,1.5890317456234557,1.6041720093332672
-0.10122500000000001,1.5887016232113205,1.6005192074217218
-0.1012,1.5887016232113202,1.5965343326091237
-0.101175,1.588371500799185,1.5928815306975768
-0.10115,1.588371500799185,1.58922872878603
-0.101125,1.5880413783870497,1.5855759268744831
-0.10110000000000001,1.5880413783870497,1.5815910520618883
-0.101075,1.5877112559749142,1.5779382501503396
-0.10105,1.5877112559749142,1.5742854482387927
-0.101025,1.5877112559749142,1.5709647192282956
-0.101,1.5877112559749142,1.5673119173167487
-0.10097500000000001,1.5877112559749142,1.5639911883062532
-0.10095,1.5870510111506435,1.5603383863947047
-0.100925,1.5870510111506435,1.5570176573842074
-0.1009,1.5870510111506435,1.55402900127476
-0.100875,1.5867208887385083,1.5503761993632132
-0.10085000000000001,1.586390766326373,1.5470554703527175
-0.100825,1.5863907663263728,1.5440668142432685
-0.1008,1.5860606439142375,1.5407460852327715
-0.100775,1.5860606439142375,1.537757429123324
-0.10075,1.5860606439142375,1.5347687730138766
-0.10072500000000001,1.5860606439142375,1.5314480440033809
-0.1007,1.585730521502102,1.5287914607949815
-0.100675,1.5860606439142375,1.525802804685534
-0.10065,1.585730521502102,1.5228141485760867
-0.100625,1.5854003990899668,1.5201575653676889
-0.10060000000000001,1.5854003990899668,1.5171689092582428
-0.100575,1.5854003990899668,1.5148443989508935
-0.10055,1.5850702766778313,1.511855742841446
-0.100525,1.5854003990899668,1.5095312325340982
-0.1005,1.584740154265696,1.5065425764246505
-0.10047500000000001,1.584740154265696,1.5042180661173037
-0.10045,1.5844100318535608,1.5015614829089048
-0.100425,1.5844100318535608,1.4992369726015569
-0.1004,1.5840799094414253,1.496912462294209
-0.100375,1.5840799094414253,1.4945879519868608
-0.10035000000000001,1.5840799094414253,1.491931368778463
-0.100325,1.5837497870292898,1.4899389313721647
-0.1003,1.5837497870292898,1.4876144210648168
-0.100275,1.5837497870292898,1.4856219836585185
-0.10025,1.5837497870292898,1.4832974733511706
-0.10022500000000001,1.5834196646171546,1.481305035944872
-0.1002,1.5834196646171546,1.4789805256375241
-0.100175,1.5830895422050193,1.4769880882312258
-0.10015,1.5830895422050193,1.4753277237259772
-0.100125,1.5830895422050193,1.473335286319679
-0.10010000000000001,1.5830895422050193,1.4713428489133806
-0.100075,1.5827594197928838,1.469682484408131
-0.10005,1.5827594197928838,1.4676900470018337
-0.100025,1.5824292973807483,1.4660296824965853
-0.1,1.5824292973807483,1.4643693179913366
-0.09997500000000001,1.582099174968613,1.4623768805850383
-0.09995,1.5820991749686129,1.461048588980839
-0.099925,1.5817690525564778,1.4597202973766406
-0.0999,1.5814389301443423,1.4577278599703423
-0.099875,1.5814389301443423,1.4567316412671931
-0.09985000000000001,1.5814389301443423,1.4547392038608948
-0.099825,1.5811088077322073,1.453742985157745
-0.0998,1.5814389301443423,1.452082620652497
-0.099775,1.581108807732207,1.451086401949348
-0.09975,1.5807786853200716,1.4497581103451491
-0.09972500000000001,1.5807786853200716,1.4480977458399005
-0.0997,1.5807786853200714,1.4471015271367507
-0.099675,1.5804485629079363,1.4457732355325525
-0.09965,1.5807786853200716,1.4447770168294034
-0.099625,1.5804485629079363,1.4434487252252046
-0.09960000000000001,1.5801184404958009,1.4421204336210056
-0.099575,1.5801184404958006,1.441124214917856
-0.09955,1.5797883180836656,1.4401279962147073
-0.099525,1.5794581956715303,1.4394638504126078
-0.0995,1.5794581956715303,1.4387997046105085
-0.09947500000000001,1.5794581956715303,1.4378034859073594
-0.09945,1.5794581956715303,1.4371393401052597
-0.099425,1.5794581956715303,1.4364751943031604
-0.0994,1.5791280732593949,1.4358110485010611
-0.099375,1.5791280732593949,1.4351469026989616
-0.09935000000000001,1.5787979508472594,1.434482756896862
-0.099325,1.5787979508472594,1.4341506839958122
-0.0993,1.5787979508472594,1.4338186110947628
-0.099275,1.5787979508472594,1.433486538193713
-0.09925,1.5787979508472594,1.4331544652926633
-0.09922500000000001,1.5787979508472594,1.4331544652926633
-0.0992,1.5784678284351241,1.4328223923916137
-0.099175,1.5784678284351241,1.4328223923916137
-0.09915,1.5784678284351241,1.4328223923916137
-0.099125,1.5784678284351241,1.4324903194905638
-0.09910000000000001,1.5781377060229889,1.4328223923916137
-0.099075,1.5778075836108534,1.4328223923916137
-0.09905,1.5778075836108534,1.4328223923916137
-0.099025,1.5778075836108534,1.4328223923916137
-0.099,1.5774774611987181,1.4331544652926633
-0.09897500000000001,1.5774774611987181,1.433486538193713
-0.09895,1.577477461198718,1.433818611094763
-0.098925,1.5771473387865826,1.4341506839958125
-0.0989,1.5771473387865826,1.434482756896862
-0.098875,1.5771473387865826,1.4351469026989616
-0.09885000000000001,1.5771473387865826,1.4358110485010611
-0.098825,1.5771473387865826,1.436143121402111
-0.0988,1.5771473387865826,1.4368072672042103
-0.098775,1.5771473387865826,1.4374714130063095
-0.09875,1.5768172163744474,1.438135558808409
-0.09872500000000001,1.5768172163744474,1.4391317775115582
-0.0987,1.5764870939623121,1.439795923313658
-0.098675,1.5768172163744474,1.440460069115757
-0.09865,1.576487093962312,1.4414562878189061
-0.098625,1.576487093962312,1.4424525065220553
-0.09860000000000001,1.5761569715501766,1.4434487252252046
-0.09857500000000001,1.5761569715501766,1.4447770168294027
-0.09855,1.5761569715501766,1.4457732355325525
-0.098525,1.5761569715501766,1.4467694542357017
-0.0985,1.5761569715501766,1.4480977458399005
-0.09847500000000001,1.5761569715501766,1.4494260374440995
-0.09845000000000001,1.5758268491380414,1.4507543290482976
-0.098425,1.5758268491380412,1.452082620652497
-0.0984,1.5758268491380412,1.4537429851577457
-0.098375,1.5758268491380412,1.4550712767619445
-0.09835,1.5758268491380412,1.4567316412671931
-0.09832500000000001,1.5758268491380412,1.4580599328713915
-0.0983,1.575496726725906,1.4597202973766406
-0.098275,1.5758268491380412,1.4610485889808396
-0.09825,1.5758268491380412,1.4630410263871378
-0.098225,1.5758268491380412,1.4647013908923863
-0.09820000000000001,1.5758268491380412,1.4663617553976342
-0.098175,1.575496726725906,1.4683541928039332
-0.09815,1.5758268491380412,1.4703466302102315
-0.098125,1.5758268491380412,1.4723390676165298
-0.0981,1.5761569715501766,1.474663577923878
-0.09807500000000001,1.5764870939623117,1.4769880882312247
-0.09805,1.576487093962312,1.4793125985385738
-0.098025,1.5768172163744474,1.481637108845922
-0.098,1.5768172163744474,1.4839616191532699
-0.097975,1.5771473387865826,1.4866182023616676
-0.09795000000000001,1.5771473387865826,1.488610639767965
-0.097925,1.5778075836108534,1.4915992958774134
-0.0979,1.5774774611987181,1.4939238061847613
-0.097875,1.5778075836108534,1.496580389393159
-0.09785,1.5778075836108534,1.4992369726015569
-0.09782500000000001,1.5781377060229886,1.5015614829089037
-0.0978,1.5781377060229889,1.5045501390183522
-0.097775,1.5781377060229889,1.5068746493257004
-0.09775,1.5781377060229889,1.5098633054351478
-0.097725,1.5784678284351241,1.5125198886435456
-0.09770000000000001,1.5784678284351241,1.515176471851942
-0.097675,1.5784678284351241,1.5181651279613906
-0.09765,1.5787979508472594,1.5208217111697884
-0.097625,1.5787979508472594,1.5238103672792358
-0.0976,1.5791280732593949,1.5264669504876336
-0.09757500000000001,1.5787979508472596,1.5294556065970797
-0.09755,1.5791280732593949,1.532776335607578
-0.097525,1.5791280732593949,1.5357649917170257
-0.0975,1.5791280732593949,1.5387536478264732
-0.097475,1.5791280732593949,1.5420743768369702
-0.09745000000000001,1.5791280732593949,1.5450630329464163
-0.097425,1.5791280732593949,1.5483837619569147
-0.0974,1.5791280732593949,1.551704490967412
-0.097375,1.5791280732593949,1.5546931470768595
-0.09735,1.5794581956715303,1.5583459489884064
-0.09732500000000001,1.579128073259395,1.561666677998902
-0.0973,1.5794581956715303,1.5653194799104504
-0.097275,1.5794581956715303,1.5686402089209475
-0.09725,1.5794581956715303,1.5719609379314448
-0.097225,1.5801184404958009,1.5759458127440413
-0.09720000000000001,1.5797883180836656,1.5792665417545384
-0.097175,1.5801184404958009,1.5829193436660853
-0.09715,1.5801184404958009,1.5865721455776323
-0.097125,1.5801184404958009,1.5898928745881293
-0.0971,1.5804485629079363,1.593877749400726
-0.09707500000000001,1.5801184404958009,1.5975305513122728
-0.09705,1.5801184404958009,1.6015154261248694
-0.097025,1.5804485629079363,1.6051682280364163
-0.097,1.5801184404958009,1.6088210299479633
-0.096975,1.5804485629079363,1.6128059047605598
-0.09695000000000001,1.5804485629079363,1.6164587066721068
-0.096925,1.5804485629079363,1.6204435814847051
-0.0969,1.5804485629079363,1.6244284562973
-0.096875,1.5804485629079363,1.6280812582088466
-0.09685,1.5807786853200716,1.6320661330214434
-0.09682500000000001,1.5807786853200716,1.6363830807350896
-0.0968,1.5807786853200718,1.6403679555476882
-0.096775,1.581108807732207,1.6446849032613327
-0.09675,1.581108807732207,1.6486697780739292
-0.096725,1.5814389301443423,1.6529867257875754
-0.09670000000000001,1.5814389301443423,1.656971600600172
-0.096675,1.5814389301443423,1.6612885483138204
-0.09665,1.5814389301443423,1.6656054960274647
-0.096625,1.5814389301443423,1.6695903708400612
-0.0966,1.5814389301443423,1.6739073185537077
-0.09657500000000001,1.5814389301443423,1.6782242662673539
-0.09655,1.5814389301443426,1.6825412139810025
-0.096525,1.5817690525564778,1.6871902345956962
-0.0965,1.5814389301443423,1.691175109408293
-0.096475,1.5817690525564778,1.6958241300229888
-0.09645000000000001,1.5817690525564778,1.7001410777366353
-0.096425,1.581769052556478,1.7044580254502837
-0.0964,1.582099174968613,1.7094391189660272
-0.096375,1.582099174968613,1.7137560666796736
-0.09635,1.582099174968613,1.7184050872943697
-0.09632500000000001,1.5824292973807483,1.722722035008016
-0.0963,1.5824292973807483,1.7273710556227142
-0.096275,1.5824292973807483,1.7323521491384577
-0.09625,1.5824292973807483,1.736669096852104
-0.096225,1.5824292973807483,1.7413181174668
-0.09620000000000001,1.5824292973807483,1.745967138081496
-0.096175,1.5827594197928838,1.7506161586961944
-0.09615,1.5827594197928838,1.755265179310888
-0.096125,1.5824292973807483,1.7595821270245344
-0.0961,1.5827594197928838,1.7645632205402801
-0.09607500000000001,1.5827594197928838,1.7688801682539266
-0.09605,1.582759419792884,1.7738612617696745
-0.096025,1.5830895422050193,1.778842355285418
-0.096,1.5827594197928838,1.7834913759001139
-0.095975,1.5830895422050193,1.7888045423169094
-0.09595000000000001,1.5830895422050193,1.7934535629316055
-0.095925,1.5830895422050193,1.798102583546304
-0.0959,1.5830895422050193,1.803415749963097
