DAQ/testing_demo_4_13/b10_r80_30Hz_001.csv

#Digilent WaveForms Oscilloscope Acquisition
#Device Name: Discovery2
#Serial Number: SN:210321B02866
#Date Time: 2021-04-13 18:33:41.437
#Sample rate: 40000Hz
#Samples: 8192
#Trigger: None
#Channel 1: Range: 500 mV/div Offset: -1.15 V Attenuation: 1 X
#Channel 2: Range: 500 mV/div Offset: -1.45 V Attenuation: 1 X
#Power Supplies: ON
#Positive Supply: ON
#Voltage: 3.3 V
#Negative Supply: OFF
#Voltage: -3.3 V

Time (s),Channel 1 (V),Channel 2 (V)
-0.10577500000000001,1.549086933755077,2.6093566808107584
-0.10575,1.5490869337550772,2.613009482722307
-0.105725,1.5494170561672123,2.6166622846338523
-0.1057,1.549086933755077,2.620647159446449
-0.105675,1.549086933755077,2.6242999613579956
-0.10565000000000001,1.549086933755077,2.6276206903684924
-0.105625,1.549086933755077,2.6312734922800414
-0.1056,1.549086933755077,2.6349262941915867
-0.105575,1.549086933755077,2.6382470232020836
-0.10555,1.5494170561672123,2.6418998251136303
-0.10552500000000001,1.549086933755077,2.6452205541241276
-0.1055,1.549086933755077,2.648873356035676
-0.105475,1.549086933755077,2.6521940850461716
-0.10545,1.549086933755077,2.655514814056669
-0.105425,1.549086933755077,2.659167615968216
-0.10540000000000001,1.549086933755077,2.662156272077663
-0.105375,1.549417056167212,2.6658090739892115
-0.10535,1.549086933755077,2.6691298029997075
-0.105325,1.549086933755077,2.6724505320102043
-0.1053,1.5494170561672123,2.6757712610207016
-0.10527500000000001,1.549086933755077,2.678759917130149
-0.10525,1.549086933755077,2.682412719041697
-0.105225,1.549086933755077,2.6854013751511436
-0.1052,1.549086933755077,2.6887221041616405
-0.105175,1.549086933755077,2.6913786873700385
-0.10515000000000001,1.549086933755077,2.6946994163805353
-0.105125,1.549086933755077,2.697688072489984
-0.1051,1.549086933755077,2.70067672859943
-0.105075,1.549086933755077,2.7039974576099275
-0.10505,1.549086933755077,2.706654040818325
-0.10502500000000001,1.549086933755077,2.7099747698288223
-0.105,1.549086933755077,2.712963425938271
-0.104975,1.549086933755077,2.715620009146668
-0.10495,1.549086933755077,2.7189407381571646
-0.104925,1.549086933755077,2.7215973213655626
-0.10490000000000001,1.549086933755077,2.7245859774750096
-0.10487500000000001,1.549086933755077,2.727574633584456
-0.10485,1.549086933755077,2.7305632896939045
-0.104825,1.5494170561672123,2.7332198729023025
-0.1048,1.549086933755077,2.7358764561107005
-0.10477500000000001,1.5487568113429417,2.7388651122201475
-0.10475000000000001,1.5484266889308065,2.7411896225274948
-0.104725,1.5484266889308063,2.7438462057358937
-0.1047,1.5484266889308063,2.7461707160432414
-0.104675,1.5477664441065355,2.7484952263505895
-0.10465,1.5477664441065355,2.751151809558987
-0.10462500000000001,1.5474363216944005,2.7534763198663343
-0.1046,1.5471061992822648,2.7561329030747332
-0.104575,1.5471061992822648,2.758457413382081
-0.10455,1.5467760768701295,2.7607819236894287
-0.104525,1.5467760768701295,2.7637705797988765
-0.10450000000000001,1.5467760768701295,2.766095090106224
-0.104475,1.546445954457994,2.7684196004135724
-0.10445,1.5467760768701295,2.77107618362197
-0.104425,1.5461158320458588,2.7730686210282682
-0.1044,1.546445954457994,2.776057277137716
-0.10437500000000001,1.546115832045859,2.7777176416429636
-0.10435,1.5461158320458588,2.7803742248513625
-0.104325,1.5457857096337233,2.7826987351587102
-0.1043,1.5457857096337233,2.785023245466058
-0.104275,1.5457857096337233,2.787679828674456
-0.10425000000000001,1.5457857096337233,2.7900043389818032
-0.104225,1.5457857096337233,2.7923288492891523
-0.1042,1.545455587221588,2.7946533595965
-0.104175,1.5457857096337233,2.796977869903848
-0.10415,1.5457857096337233,2.799302380211196
-0.10412500000000001,1.5454555872215883,2.801294817617493
-0.1041,1.545455587221588,2.803951400825892
-0.104075,1.545455587221588,2.8059438382321904
-0.10405,1.545455587221588,2.8082683485395386
-0.104025,1.545455587221588,2.8105928588468867
-0.10400000000000001,1.545455587221588,2.8129173691542335
-0.103975,1.545455587221588,2.815241879461582
-0.10395,1.545455587221588,2.817234316867881
-0.103925,1.545455587221588,2.8195588271752285
-0.1039,1.5451254648094526,2.821551264581527
-0.10387500000000001,1.5454555872215878,2.823875774888874
-0.10385,1.5451254648094526,2.8258682122951733
-0.103825,1.5451254648094526,2.8281927226025214
-0.1038,1.5447953423973173,2.82985308710777
-0.103775,1.5451254648094526,2.832177597415118
-0.10375000000000001,1.5451254648094526,2.8341700348214154
-0.103725,1.5447953423973173,2.8361624722277146
-0.1037,1.5447953423973173,2.8384869825350627
-0.103675,1.5447953423973173,2.840147347040311
-0.10365,1.5447953423973173,2.8424718573476593
-0.10362500000000001,1.544465219985182,2.844132221852907
-0.1036,1.5447953423973173,2.846124659259206
-0.103575,1.5444652199851818,2.8481170966655043
-0.10355,1.5444652199851818,2.8504416069728524
-0.103525,1.5441350975730466,2.852101971478101
-0.10350000000000001,1.5444652199851818,2.854426481785449
-0.103475,1.5441350975730466,2.8560868462906974
-0.10345,1.5441350975730466,2.8580792836969957
-0.103425,1.5441350975730466,2.860071721103294
-0.1034,1.5441350975730466,2.8617320856085424
-0.10337500000000001,1.5441350975730466,2.8637245230148407
-0.10335,1.5441350975730466,2.8653848875200896
-0.103325,1.5441350975730466,2.8677093978274373
-0.1033,1.5438049751609113,2.869369762332686
-0.103275,1.5441350975730466,2.8716942726400343
-0.10325000000000001,1.5438049751609113,2.8730225642442333
-0.103225,1.5441350975730466,2.875347074551581
-0.1032,1.5441350975730466,2.87700743905683
-0.103175,1.5441350975730466,2.8793319493641776
-0.10315,1.5438049751609113,2.8806602409683766
-0.10312500000000001,1.5444652199851818,2.882652678374675
-0.1031,1.5438049751609115,2.8839809699788743
-0.103075,1.5441350975730466,2.8856413344841223
-0.10305,1.5438049751609113,2.887301698989371
-0.103025,1.5441350975730466,2.8892941363956695
-0.10300000000000001,1.5438049751609113,2.890622427999868
-0.102975,1.5441350975730466,2.892614865406167
-0.10295,1.5441350975730466,2.8942752299114147
-0.102925,1.5438049751609113,2.8959355944166636
-0.1029,1.5438049751609113,2.897928031822962
-0.10287500000000001,1.5438049751609113,2.899256323427161
-0.10285,1.5441350975730463,2.9012487608334596
-0.102825,1.5438049751609113,2.9025770524376577
-0.1028,1.5441350975730466,2.904569489843956
-0.102775,1.5438049751609113,2.905897781448155
-0.10275000000000001,1.5444652199851818,2.9078902188544533
-0.102725,1.5438049751609115,2.909550583359703
-0.1027,1.5444652199851818,2.9115430207660005
-0.102675,1.5444652199851818,2.912871312370199
-0.10265,1.5447953423973173,2.9148637497764973
-0.10262500000000001,1.5444652199851818,2.916192041380696
-0.1026,1.5447953423973173,2.9181844787869946
-0.102575,1.5447953423973173,2.9195127703911936
-0.10255,1.5447953423973173,2.921173134896442
-0.102525,1.5447953423973173,2.9228334994016905
-0.10250000000000001,1.5447953423973173,2.924493863906939
-0.102475,1.5447953423973175,2.9258221555111388
-0.10245,1.5451254648094526,2.9274825200163868
-0.102425,1.5447953423973173,2.9284787387195355
-0.1024,1.5451254648094526,2.9301391032247843
-0.10237500000000001,1.5447953423973173,2.9314673948289833
-0.10235,1.5447953423973175,2.933127759334232
-0.102325,1.5451254648094526,2.9344560509384303
-0.1023,1.5451254648094526,2.936116415443679
-0.102275,1.5451254648094526,2.937444707047878
-0.10225000000000001,1.5451254648094526,2.9391050715531266
-0.102225,1.5451254648094526,2.9404333631573256
-0.1022,1.5451254648094526,2.9417616547615246
-0.102175,1.545455587221588,2.943422019266773
-0.10215,1.545455587221588,2.9447503108709716
-0.10212500000000001,1.545455587221588,2.9460786024751706
-0.1021,1.5454555872215883,2.9474068940793705
-0.102075,1.5457857096337233,2.949067258584618
-0.10205,1.5457857096337233,2.950395550188817
-0.102025,1.5457857096337233,2.9520559146940655
-0.10200000000000001,1.5461158320458588,2.9533842062982645
-0.101975,1.546445954457994,2.9550445708035133
-0.10195,1.546445954457994,2.956372862407712
-0.101925,1.546445954457994,2.957701154011911
-0.1019,1.5467760768701295,2.9590294456161095
-0.10187500000000001,1.5467760768701295,2.960689810121358
-0.10185,1.5467760768701297,2.962350174626607
-0.101825,1.5471061992822648,2.9636784662308058
-0.1018,1.5471061992822648,2.9650067578350043
-0.101775,1.5471061992822648,2.9666671223402528
-0.10175000000000001,1.5474363216944003,2.9676633410434023
-0.10172500000000001,1.5474363216944003,2.9689916326476005
-0.1017,1.5474363216944003,2.9703199242518
-0.101675,1.5477664441065355,2.971648215855999
-0.10165,1.5477664441065355,2.9733085803612473
-0.10162500000000001,1.5480965665186708,2.9746368719654463
-0.10160000000000001,1.5480965665186708,2.975633090668595
-0.101575,1.5484266889308063,2.977293455173844
-0.10155,1.5480965665186708,2.978289673876993
-0.101525,1.5484266889308063,2.979617965481192
-0.1015,1.5487568113429417,2.980614184184341
-0.10147500000000001,1.5487568113429417,2.9822745486895887
-0.10145,1.5487568113429417,2.9836028402937886
-0.101425,1.549086933755077,2.984599058996938
-0.1014,1.5494170561672123,2.985927350601137
-0.101375,1.5494170561672123,2.9872556422053353
-0.10135000000000001,1.5494170561672123,2.988583933809534
-0.101325,1.5497471785793477,2.9895801525126835
-0.1013,1.5497471785793477,2.990908444116882
-0.101275,1.5497471785793477,2.9919046628200316
-0.10125,1.5497471785793477,2.99323295442423
-0.10122500000000001,1.5497471785793477,2.9942291731273794
-0.1012,1.550077300991483,2.9955574647315784
-0.101175,1.550077300991483,2.9965536834347275
-0.10115,1.550077300991483,2.9975499021378766
-0.101125,1.550077300991483,2.998546120841026
-0.10110000000000001,1.5504074234036183,2.9998744124452243
-0.101075,1.5504074234036185,3.000870631148374
-0.10105,1.5507375458157537,3.001866849851523
-0.101025,1.5507375458157537,3.002863068554672
-0.101,1.5507375458157537,3.0038592872578214
-0.10097500000000001,1.5507375458157537,3.00485550596097
-0.10095,1.5510676682278892,3.0058517246641197
-0.100925,1.5507375458157537,3.006515870466219
-0.1009,1.5507375458157537,3.007512089169368
-0.100875,1.5507375458157537,3.007844162070418
-0.10085000000000001,1.551067668227889,3.0085083078725168
-0.100825,1.5510676682278892,3.008840380773567
-0.1008,1.5510676682278892,3.0095045265756664
-0.100775,1.5507375458157537,3.0098365994767162
-0.10075,1.5510676682278892,3.010168672377766
-0.10072500000000001,1.5510676682278892,3.010832818179865
-0.1007,1.5513977906400245,3.0114969639819646
-0.100675,1.5510676682278892,3.0114969639819646
-0.10065,1.5513977906400245,3.0118290368830145
-0.100625,1.5510676682278892,3.0121611097840644
-0.10060000000000001,1.5513977906400243,3.012493182685114
-0.100575,1.5513977906400245,3.012493182685114
-0.10055,1.5517279130521597,3.0128252555861637
-0.100525,1.5510676682278892,3.012493182685114
-0.1005,1.5517279130521597,3.013157328487213
-0.10047500000000001,1.5513977906400247,3.0128252555861637
-0.10045,1.5517279130521597,3.013157328487213
-0.100425,1.5513977906400245,3.012493182685114
-0.1004,1.5517279130521597,3.0128252555861637
-0.100375,1.5513977906400245,3.0121611097840644
-0.10035000000000001,1.5517279130521597,3.012493182685114
-0.100325,1.5513977906400245,3.0121611097840644
-0.1003,1.5517279130521597,3.0118290368830145
-0.100275,1.5513977906400245,3.0114969639819646
-0.10025,1.5517279130521597,3.011164891080915
-0.10022500000000001,1.5517279130521597,3.0108328181798654
-0.1002,1.5517279130521597,3.0105007452788155
-0.100175,1.5517279130521597,3.010168672377766
-0.10015,1.5517279130521597,3.0098365994767162
-0.100125,1.5517279130521597,3.0095045265756664
-0.10010000000000001,1.5517279130521597,3.0091724536746165
-0.100075,1.5520580354642952,3.008508307872517
-0.10005,1.5520580354642952,3.008176234971468
-0.100025,1.5523881578764307,3.007844162070418
-0.1,1.5520580354642952,3.007180016268318
-0.09997500000000001,1.5523881578764307,3.006847943367269
-0.09995,1.5520580354642954,3.005851724664119
-0.099925,1.552718280288566,3.00518757886202
-0.0999,1.5523881578764307,3.0041913601588712
-0.099875,1.552718280288566,3.0041913601588712
-0.09985000000000001,1.552718280288566,3.0031951414557216
-0.099825,1.553048402700701,3.002530995653622
-0.0998,1.552718280288566,3.001534776950473
-0.099775,1.552718280288566,3.000870631148374
-0.09975,1.552718280288566,2.999874412445225
-0.09972500000000001,1.552718280288566,2.999210266643125
-0.0997,1.552718280288566,2.998214047939976
-0.099675,1.552718280288566,2.997217829236827
-0.09965,1.552718280288566,2.996221610533678
-0.099625,1.552718280288566,2.9952253918305285
-0.09960000000000001,1.552718280288566,2.99422917312738
-0.099575,1.552718280288566,2.9932329544242298
-0.09955,1.552718280288566,2.9922367357210815
-0.099525,1.552718280288566,2.990908444116882
-0.0995,1.552718280288566,2.9895801525126835
-0.09947500000000001,1.552718280288566,2.9885839338095344
-0.09945,1.552718280288566,2.9875877151063848
-0.099425,1.552718280288566,2.986259423502186
-0.0994,1.552718280288566,2.985263204799037
-0.099375,1.552718280288566,2.9839349131948385
-0.09935000000000001,1.552718280288566,2.9826066215906395
-0.099325,1.5527182802885662,2.98127832998644
-0.0993,1.5530484027007012,2.979950038382242
-0.099275,1.552718280288566,2.978621746778043
-0.09925,1.552718280288566,2.977293455173844
-0.09922500000000001,1.552718280288566,2.9759651635696454
-0.0992,1.552718280288566,2.974304799064396
-0.099175,1.552718280288566,2.9729765074601975
-0.09915,1.5530484027007012,2.971316142954949
-0.099125,1.5530484027007012,2.9699878513507505
-0.09910000000000001,1.552718280288566,2.968659559746551
-0.099075,1.5530484027007012,2.9669991952413017
-0.09905,1.5530484027007012,2.965338830736054
-0.099025,1.5530484027007012,2.9636784662308058
-0.099,1.5530484027007012,2.9620181017255574
-0.09897500000000001,1.5533785251128367,2.9603577372203085
-0.09895,1.5530484027007014,2.9590294456161086
-0.098925,1.5533785251128367,2.957037008209811
-0.0989,1.5533785251128367,2.9557087166056126
-0.098875,1.5533785251128367,2.9537162791993143
-0.09885000000000001,1.5533785251128367,2.9520559146940655
-0.098825,1.5537086475249717,2.950395550188816
-0.0988,1.5533785251128367,2.948735185683568
-0.098775,1.553708647524972,2.9470748211783198
-0.09875,1.553708647524972,2.9454144566730713
-0.09872500000000001,1.553708647524972,2.943754092167823
-0.0987,1.553708647524972,2.9417616547615237
-0.098675,1.553708647524972,2.9401012902562758
-0.09865,1.5540387699371074,2.938440925751027
-0.098625,1.5540387699371074,2.9367805612457785
-0.09860000000000001,1.5540387699371074,2.93512019674053
-0.09857500000000001,1.5540387699371074,2.9331277593342326
-0.09855,1.5540387699371074,2.9314673948289833
-0.098525,1.5540387699371074,2.9298070303237345
-0.0985,1.5540387699371074,2.927814592917436
-0.09847500000000001,1.5540387699371074,2.926486301313237
-0.09845000000000001,1.5540387699371074,2.9248259368079896
-0.098425,1.5543688923492427,2.9228334994016905
-0.0984,1.5543688923492427,2.921173134896442
-0.098375,1.5543688923492427,2.9191806974901437
-0.09835,1.5543688923492427,2.9175203329848953
-0.09832500000000001,1.5543688923492427,2.915527895578598
-0.0983,1.5546990147613782,2.9135354581722988
-0.098275,1.5546990147613782,2.9115430207660005
-0.09825,1.5546990147613782,2.909550583359702
-0.098225,1.5546990147613782,2.907226073052354
-0.09820000000000001,1.5546990147613782,2.9049015627450068
-0.098175,1.5546990147613782,2.9029091253387076
-0.09815,1.5546990147613782,2.9005846150313594
-0.098125,1.5546990147613782,2.8982601047240113
-0.0981,1.5546990147613782,2.8952714486145643
-0.09807500000000001,1.5546990147613782,2.892946938307217
-0.09805,1.5546990147613782,2.890290355098818
-0.098025,1.5550291371735134,2.88796584479147
-0.098,1.5550291371735134,2.885309261583073
-0.097975,1.5550291371735134,2.882320605473625
-0.09795000000000001,1.5553592595856487,2.8796640222652288
-0.097925,1.555359259585649,2.8773395119578793
-0.0979,1.555359259585649,2.874350855848432
-0.097875,1.555359259585649,2.8716942726400343
-0.09785,1.555359259585649,2.868705616530587
-0.09782500000000001,1.555689381997784,2.86604903332219
-0.0978,1.5556893819977842,2.863060377212742
-0.097775,1.5556893819977842,2.860071721103294
-0.09775,1.5556893819977842,2.8574151378948964
-0.097725,1.5560195044099197,2.854758554686499
-0.09770000000000001,1.5560195044099197,2.8517698985770523
-0.097675,1.5560195044099197,2.848781242467604
-0.09765,1.5560195044099197,2.845792586358156
-0.097625,1.5560195044099197,2.842803930248709
-0.0976,1.556349626822055,2.8398152741392613
-0.09757500000000001,1.5560195044099199,2.8368266180298156
-0.09755,1.556349626822055,2.8338379619203664
-0.097525,1.556349626822055,2.8305172329098696
-0.0975,1.5566797492341902,2.8275285768004217
-0.097475,1.5566797492341902,2.824871993592024
-0.09745000000000001,1.5566797492341902,2.821551264581528
-0.097425,1.5570098716463256,2.81856260847208
-0.0974,1.5566797492341902,2.815241879461582
-0.097375,1.5570098716463256,2.8119211504510853
-0.09735,1.5570098716463256,2.808932494341638
-0.09732500000000001,1.5570098716463256,2.8059438382321917
-0.0973,1.5573399940584611,2.8022910363206437
-0.097275,1.5573399940584611,2.7989703073101464
-0.09725,1.5576701164705964,2.795981651200699
-0.097225,1.5576701164705964,2.7926609221902017
-0.09720000000000001,1.5576701164705964,2.7890081202786545
-0.097175,1.5576701164705964,2.7860194641692075
-0.09715,1.5576701164705964,2.7826987351587102
-0.097125,1.5580002388827316,2.779378006148213
-0.0971,1.5576701164705964,2.776057277137716
-0.09707500000000001,1.5580002388827316,2.772736548127219
-0.09705,1.5580002388827316,2.7690837462156717
-0.097025,1.5580002388827316,2.765763017205175
-0.097,1.5583303612948671,2.762110215293628
-0.096975,1.5583303612948671,2.758457413382081
-0.09695000000000001,1.5583303612948671,2.7551366843715837
-0.096925,1.5583303612948671,2.751815955361085
-0.0969,1.5583303612948671,2.7481631534495397
-0.096875,1.5583303612948671,2.744510351537993
-0.09685,1.5583303612948671,2.740857549626446
-0.09682500000000001,1.5586604837070024,2.737204747714899
-0.0968,1.5586604837070024,2.7338840187044005
-0.096775,1.5586604837070024,2.730231216792855
-0.09675,1.5589906061191379,2.726578414881308
-0.096725,1.5589906061191379,2.722925612969761
-0.09670000000000001,1.5589906061191379,2.7192728110582145
-0.096675,1.558990606119138,2.715620009146666
-0.09665,1.5593207285312731,2.7119672072351206
-0.096625,1.5596508509434086,2.7086464782246233
-0.0966,1.5593207285312731,2.7049936763130766
-0.09657500000000001,1.5596508509434086,2.70100880150048
-0.09655,1.5596508509434088,2.6973559995889316
-0.096525,1.5599809733555439,2.693371124776337
-0.0965,1.5603110957676791,2.6900503957658395
-0.096475,1.5603110957676791,2.686065520953243
-0.09645000000000001,1.5606412181798146,2.682080646140646
-0.096425,1.5603110957676791,2.6784278442290974
-0.0964,1.5603110957676791,2.6744429694165026
-0.096375,1.5603110957676791,2.670790167504956
-0.09635,1.5599809733555439,2.667137365593409
-0.09632500000000001,1.5603110957676791,2.663484563681862
-0.0963,1.5606412181798148,2.6598317617703136
-0.096275,1.56097134059195,2.656178959858768
-0.09625,1.561961707828356,2.6525261579472215
-0.096225,1.5622918302404916,2.6488733560356748
-0.09620000000000001,1.562952075064762,2.6452205541241276
-0.096175,1.563612319889033,2.641567752212579
-0.09615,1.5639424423011683,2.6379149503010337
-0.096125,1.5642725647133036,2.634262148389487
-0.0961,1.5642725647133036,2.6302772735768905
-0.09607500000000001,1.564602687125439,2.6269565445663936
-0.09605,1.564602687125439,2.6226395968527454
-0.096025,1.564602687125439,2.6189867949412
-0.096,1.5649328095375743,2.6150019201286034
-0.095975,1.5649328095375743,2.6106849724149574
-0.09595000000000001,1.5652629319497096,2.60736424340446
-0.095925,1.5652629319497098,2.6033793685918614
-0.0959,1.565593054361845,2.5993944937792666
-0.095875,1.5662532991861158,2.59540961896667
-0.09585,1.5662532991861158,2.591092671253024
-0.09582500000000001,1.5669135440103865,2.5877719422425267
