DAQ/testing_demo_4_13/b10_r80_45Hz_001.csv

#Digilent WaveForms Oscilloscope Acquisition
#Device Name: Discovery2
#Serial Number: SN:210321B02866
#Date Time: 2021-04-13 18:33:28.208
#Sample rate: 40000Hz
#Samples: 8192
#Trigger: None
#Channel 1: Range: 500 mV/div Offset: -1.15 V Attenuation: 1 X
#Channel 2: Range: 500 mV/div Offset: -1.45 V Attenuation: 1 X
#Power Supplies: ON
#Positive Supply: ON
#Voltage: 3.3 V
#Negative Supply: OFF
#Voltage: -3.3 V

Time (s),Channel 1 (V),Channel 2 (V)
-0.10577500000000001,1.5474363216944003,1.894735797751769
-0.10575,1.5477664441065353,1.8900867771370704
-0.105725,1.5474363216944003,1.8847736107202775
-0.1057,1.5477664441065355,1.8797925172045318
-0.105675,1.5477664441065355,1.8744793507877362
-0.10565000000000001,1.5477664441065355,1.87016240307409
-0.105625,1.5477664441065357,1.8648492366572922
-0.1056,1.5480965665186708,1.8602002160425983
-0.105575,1.5480965665186708,1.854887049625803
-0.10555,1.5480965665186708,1.850238029011107
-0.10552500000000001,1.5480965665186708,1.8449248625943115
-0.1055,1.5480965665186708,1.8402758419796132
-0.105475,1.5480965665186708,1.8352947484638698
-0.10545,1.5480965665186708,1.8299815820470742
-0.105425,1.5480965665186708,1.8253325614323783
-0.10540000000000001,1.5480965665186708,1.8200193950155827
-0.105375,1.548426688930806,1.815702447301934
-0.10535,1.5480965665186708,1.810389280885141
-0.105325,1.5487568113429417,1.8057402602704449
-0.1053,1.5487568113429417,1.8004270938536495
-0.10527500000000001,1.549086933755077,1.7961101461400033
-0.10525,1.5487568113429417,1.7911290526242551
-0.105225,1.5487568113429417,1.7861479591085117
-0.1052,1.549086933755077,1.7814989384938156
-0.105175,1.549086933755077,1.7765178449780699
-0.10515000000000001,1.549086933755077,1.771868824363374
-0.105125,1.548756811342942,1.7668877308476263
-0.1051,1.549086933755077,1.7625707831339819
-0.105075,1.5487568113429417,1.7569255438161366
-0.10505,1.549086933755077,1.75294066900354
-0.10502500000000001,1.549086933755077,1.7476275025867447
-0.105,1.549086933755077,1.7429784819720464
-0.104975,1.549086933755077,1.737997388456303
-0.10495,1.5494170561672123,1.7333483678416068
-0.104925,1.5494170561672123,1.7286993472269108
-0.10490000000000001,1.5494170561672123,1.7240503266122147
-0.10487500000000001,1.5497471785793475,1.719401305997521
-0.10485,1.5497471785793477,1.7144202124817731
-0.104825,1.5497471785793477,1.7104353376691763
-0.1048,1.5497471785793477,1.7054542441534306
-0.10477500000000001,1.550077300991483,1.7011372964397844
-0.10475000000000001,1.550077300991483,1.696156202924041
-0.104725,1.5504074234036185,1.6918392552103922
-0.1047,1.5507375458157537,1.687522307496746
-0.104675,1.5507375458157537,1.68287328688205
-0.10465,1.5510676682278892,1.6785563391684035
-0.10462500000000001,1.550737545815754,1.67357524565266
-0.1046,1.5513977906400245,1.669922443741111
-0.104575,1.5513977906400245,1.665273423126415
-0.10455,1.5517279130521597,1.6609564754127686
-0.104525,1.5513977906400245,1.6563074547980727
-0.10450000000000001,1.5517279130521595,1.6526546528865274
-0.104475,1.5517279130521597,1.6480056322718297
-0.10445,1.5517279130521597,1.6436886845581835
-0.104425,1.5520580354642952,1.639371736844537
-0.1044,1.5520580354642952,1.634722716229841
-0.10437500000000001,1.5527182802885657,1.6310699143182958
-0.10435,1.552718280288566,1.6264208937035982
-0.104325,1.5530484027007012,1.6224360188910016
-0.1043,1.5530484027007012,1.6181190711773552
-0.104275,1.5533785251128367,1.6141341963647586
-0.10425000000000001,1.5533785251128367,1.6098172486511144
-0.104225,1.553708647524972,1.605500300937466
-0.1042,1.5540387699371074,1.6015154261248694
-0.104175,1.553708647524972,1.5971984784112232
-0.10415,1.5540387699371074,1.5935456764996763
-0.10412500000000001,1.5537086475249722,1.5888966558849824
-0.1041,1.5540387699371074,1.5852438539734335
-0.104075,1.5540387699371074,1.580926906259787
-0.10405,1.5543688923492427,1.5769420314471905
-0.104025,1.5543688923492427,1.572957156634594
-0.10400000000000001,1.5543688923492427,1.5686402089209495
-0.103975,1.5546990147613782,1.5653194799104504
-0.10395,1.5546990147613782,1.5610025321968042
-0.103925,1.5550291371735134,1.5573497302852572
-0.1039,1.5550291371735134,1.5530327825716108
-0.10387500000000001,1.5550291371735134,1.5493799806600657
-0.10385,1.5550291371735134,1.5453951058474673
-0.103825,1.5550291371735134,1.5414102310348707
-0.1038,1.555359259585649,1.5380895020243737
-0.103775,1.555359259585649,1.5337725543107275
-0.10375000000000001,1.555689381997784,1.530119752399182
-0.103725,1.555359259585649,1.526134877586584
-0.1037,1.5556893819977842,1.5228141485760867
-0.103675,1.5556893819977842,1.51882927376349
-0.10365,1.555359259585649,1.5148443989508935
-0.10362500000000001,1.555689381997784,1.511523669940398
-0.1036,1.555359259585649,1.50720672222675
-0.103575,1.5560195044099197,1.503885993216253
-0.10355,1.5556893819977842,1.500233191304706
-0.103525,1.5560195044099197,1.496912462294209
-0.10350000000000001,1.5556893819977842,1.493259660382662
-0.103475,1.5560195044099197,1.4899389313721647
-0.10345,1.5560195044099197,1.486286129460618
-0.103425,1.5560195044099197,1.482633327549071
-0.1034,1.5560195044099197,1.4793125985385738
-0.10337500000000001,1.5560195044099197,1.475659796627027
-0.10335,1.556349626822055,1.4726711405175796
-0.103325,1.5560195044099197,1.4690183386060327
-0.1033,1.5560195044099197,1.4660296824965853
-0.103275,1.556349626822055,1.462708953486088
-0.10325000000000001,1.556349626822055,1.459388224475591
-0.103225,1.556349626822055,1.4563995683661435
-0.1032,1.5560195044099197,1.4530788393556462
-0.103175,1.5566797492341902,1.4500901832461988
-0.10315,1.556349626822055,1.446437381334652
-0.10312500000000001,1.556349626822055,1.4434487252252046
-0.1031,1.5566797492341902,1.4404600691157556
-0.103075,1.5566797492341902,1.4374714130063095
-0.10305,1.5566797492341902,1.434482756896862
-0.103025,1.556349626822055,1.431162027886365
-0.10300000000000001,1.5570098716463256,1.4285054446779673
-0.102975,1.5566797492341902,1.4251847156674688
-0.10295,1.5566797492341902,1.4221960595580228
-0.102925,1.5566797492341902,1.4192074034485753
-0.1029,1.5566797492341902,1.4165508202401775
-0.10287500000000001,1.5570098716463256,1.4138942370317797
-0.10285,1.5566797492341904,1.4105735080212816
-0.102825,1.5570098716463256,1.4079169248128849
-0.1028,1.5570098716463256,1.4049282687034375
-0.102775,1.5570098716463256,1.4022716854950397
-0.10275000000000001,1.5570098716463256,1.3992830293855922
-0.102725,1.5570098716463256,1.3962943732761437
-0.1027,1.5570098716463256,1.3939698629687969
-0.102675,1.5570098716463256,1.3909812068593492
-0.10265,1.5573399940584611,1.3886566965520013
-0.10262500000000001,1.5570098716463256,1.3860001133436035
-0.1026,1.5573399940584614,1.3836756030362545
-0.102575,1.5576701164705964,1.3810190198278578
-0.10255,1.5576701164705964,1.3786945095205099
-0.102525,1.5576701164705964,1.3763699992131617
-0.10250000000000001,1.5576701164705964,1.3737134160047642
-0.102475,1.5576701164705964,1.371388905697415
-0.10245,1.5576701164705964,1.3687323224890184
-0.102425,1.5576701164705964,1.3664078121816703
-0.1024,1.5573399940584611,1.3640833018743224
-0.10237500000000001,1.5573399940584611,1.3617587915669742
-0.10235,1.5576701164705964,1.3594342812596252
-0.102325,1.5576701164705964,1.3567776980512285
-0.1023,1.5573399940584611,1.3547852606449302
-0.102275,1.5573399940584611,1.352792823238632
-0.10225000000000001,1.5573399940584611,1.350468312931284
-0.102225,1.557339994058461,1.3484758755249846
-0.1022,1.5570098716463256,1.3461513652176376
-0.102175,1.5573399940584611,1.3441589278113393
-0.10215,1.5570098716463256,1.3418344175039914
-0.10212500000000001,1.5570098716463256,1.339841980097693
-0.1021,1.5570098716463256,1.337849542691394
-0.102075,1.5570098716463256,1.3358571052850965
-0.10205,1.5570098716463256,1.3338646678787982
-0.102025,1.5570098716463256,1.3318722304725
-0.10200000000000001,1.5570098716463256,1.3302118659672513
-0.101975,1.557339994058461,1.328219428560952
-0.10195,1.5570098716463256,1.3262269911546547
-0.101925,1.5570098716463256,1.324566626649406
-0.1019,1.5573399940584611,1.3229062621441574
-0.10187500000000001,1.5570098716463256,1.3209138247378591
-0.10185,1.5570098716463256,1.31925346023261
-0.101825,1.5570098716463256,1.317593095727362
-0.1018,1.5570098716463256,1.3162648041231633
-0.101775,1.5570098716463256,1.3146044396179146
-0.10175000000000001,1.5570098716463256,1.312944075112666
-0.10172500000000001,1.557339994058461,1.3116157835084679
-0.1017,1.5573399940584611,1.3099554190032185
-0.101675,1.5570098716463256,1.3086271273990198
-0.10165,1.5573399940584611,1.3069667628937711
-0.10162500000000001,1.5570098716463256,1.3056384712895723
-0.10160000000000001,1.5570098716463256,1.304310179685374
-0.101575,1.5570098716463256,1.3029818880811745
-0.10155,1.5573399940584611,1.3019856693780254
-0.101525,1.5573399940584611,1.3003253048727768
-0.1015,1.5570098716463256,1.2993290861696276
-0.10147500000000001,1.5570098716463256,1.2980007945654295
-0.10145,1.5573399940584611,1.2966725029612298
-0.101425,1.5570098716463256,1.2956762842580807
-0.1014,1.5573399940584611,1.294347992653882
-0.101375,1.5573399940584611,1.2933517739507328
-0.10135000000000001,1.5573399940584611,1.2920234823465346
-0.101325,1.5573399940584611,1.2910272636433848
-0.1013,1.5573399940584611,1.2903631178412853
-0.101275,1.5573399940584611,1.2893668991381362
-0.10125,1.5576701164705964,1.288370680434987
-0.10122500000000001,1.5576701164705964,1.2877065346328878
-0.1012,1.5576701164705964,1.2867103159297384
-0.101175,1.5576701164705964,1.2860461701276389
-0.10115,1.5580002388827316,1.2850499514244897
-0.101125,1.5576701164705964,1.2843858056223905
-0.10110000000000001,1.5576701164705964,1.2837216598202912
-0.101075,1.5576701164705964,1.2830575140181915
-0.10105,1.5580002388827316,1.2827254411171418
-0.101025,1.5580002388827316,1.2820612953150423
-0.101,1.5580002388827316,1.2817292224139927
-0.10097500000000001,1.5580002388827316,1.2810650766118934
-0.10095,1.5580002388827316,1.2807330037108435
-0.100925,1.5580002388827316,1.280400930809794
-0.1009,1.5580002388827316,1.2797367850076944
-0.100875,1.5580002388827316,1.2797367850076944
-0.10085000000000001,1.5580002388827316,1.2787405663045457
-0.100825,1.5583303612948671,1.2787405663045452
-0.1008,1.5583303612948671,1.2784084934034956
-0.100775,1.5583303612948671,1.2784084934034956
-0.10075,1.5583303612948671,1.2780764205024457
-0.10072500000000001,1.5583303612948671,1.2780764205024457
-0.1007,1.5586604837070024,1.2780764205024457
-0.100675,1.5586604837070024,1.2780764205024457
-0.10065,1.5586604837070024,1.2780764205024457
-0.100625,1.5589906061191379,1.2784084934034956
-0.10060000000000001,1.5589906061191379,1.278076420502446
-0.100575,1.5589906061191379,1.2784084934034956
-0.10055,1.5589906061191379,1.2784084934034956
-0.100525,1.5589906061191379,1.2787405663045452
-0.1005,1.5593207285312731,1.2790726392055949
-0.10047500000000001,1.5593207285312731,1.2790726392055949
-0.10045,1.5593207285312731,1.2794047121066447
-0.100425,1.5593207285312731,1.2797367850076944
-0.1004,1.5596508509434086,1.280068857908744
-0.100375,1.5596508509434086,1.280400930809794
-0.10035000000000001,1.5599809733555439,1.2810650766118932
-0.100325,1.5599809733555439,1.281397149512943
-0.1003,1.5603110957676791,1.2820612953150423
-0.100275,1.5603110957676791,1.2827254411171418
-0.10025,1.5603110957676791,1.2830575140181915
-0.10022500000000001,1.5606412181798146,1.283721659820291
-0.1002,1.56097134059195,1.2843858056223905
-0.100175,1.56097134059195,1.2850499514244897
-0.10015,1.56097134059195,1.2857140972265892
-0.100125,1.5613014630040853,1.2863782430286888
-0.10010000000000001,1.56097134059195,1.287374461731838
-0.100075,1.5613014630040856,1.2883706804349873
-0.10005,1.5616315854162206,1.2890348262370865
-0.100025,1.5616315854162206,1.2900310449402357
-0.1,1.5616315854162206,1.290695190742335
-0.09997500000000001,1.561961707828356,1.291691409445484
-0.09995,1.5619617078283563,1.2926876281486337
-0.099925,1.5622918302404916,1.2936838468517824
-0.0999,1.5622918302404916,1.2950121384559814
-0.099875,1.5622918302404916,1.2960083571591305
-0.09985000000000001,1.5626219526526268,1.2973366487633293
-0.099825,1.562952075064762,1.2983328674664791
-0.0998,1.562952075064762,1.2996611590706775
-0.099775,1.5632821974768976,1.3009894506748763
-0.09975,1.5632821974768976,1.302317742279075
-0.09972500000000001,1.5636123198890328,1.303646033883274
-0.0997,1.5639424423011683,1.3049743254874735
-0.099675,1.5639424423011683,1.3063026170916716
-0.09965,1.5642725647133036,1.3079629815969203
-0.099625,1.5642725647133036,1.309291273201119
-0.09960000000000001,1.564602687125439,1.3109516377063677
-0.099575,1.5646026871254393,1.3122799293105671
-0.09955,1.5649328095375743,1.3139402938158151
-0.099525,1.5649328095375743,1.3152685854200141
-0.0995,1.5652629319497096,1.3169289499252625
-0.09947500000000001,1.5652629319497096,1.3185893144305112
-0.09945,1.565593054361845,1.3202496789357607
-0.099425,1.565593054361845,1.3222421163420581
-0.0994,1.5659231767739805,1.3239024808473068
-0.099375,1.5659231767739805,1.3255628453525552
-0.09935000000000001,1.5662532991861158,1.3275552827588535
-0.099325,1.566253299186116,1.3292156472641028
-0.0993,1.566583421598251,1.3308760117693508
-0.099275,1.566583421598251,1.332868449175649
-0.09925,1.5669135440103865,1.3348608865819473
-0.09922500000000001,1.5672436664225218,1.3368533239882456
-0.0992,1.5675737888346573,1.3391778342955942
-0.099175,1.5675737888346573,1.3408381988008422
-0.09915,1.5679039112467925,1.3431627091081901
-0.099125,1.568234033658928,1.3451551465144884
-0.09910000000000001,1.5688942784831987,1.3478117297228862
-0.099075,1.5692244008953342,1.3498041671291856
-0.09905,1.5698846457196047,1.3524607503375823
-0.099025,1.57021476813174,1.3547852606449302
-0.099,1.5705448905438755,1.357441843853328
-0.09897500000000001,1.570875012956011,1.359766354160676
-0.09895,1.5715352577802815,1.3627550102701242
-0.098925,1.5715352577802815,1.3647474476764216
-0.0989,1.5721955026045522,1.3677361037858693
-0.098875,1.5721955026045522,1.3700606140932172
-0.09885000000000001,1.572855747428823,1.3730492702026647
-0.098825,1.5731858698409587,1.3753737805100137
-0.0988,1.5735159922530937,1.3780303637184104
-0.098775,1.573846114665229,1.3806869469268082
-0.09875,1.5745063594895,1.3836756030362556
-0.09872500000000001,1.5745063594895,1.3860001133436035
-0.0987,1.5751666043137706,1.388988769453052
-0.098675,1.575496726725906,1.3916453526614487
-0.09865,1.5758268491380412,1.3946340087708962
-0.098625,1.5758268491380412,1.3969585190782443
-0.09860000000000001,1.5761569715501766,1.3999471751876917
-0.09857500000000001,1.5761569715501766,1.4026037583960882
-0.09855,1.5768172163744474,1.405592414505537
-0.098525,1.5771473387865826,1.4085810706149844
-0.0985,1.5774774611987181,1.4119017996254815
-0.09847500000000001,1.5774774611987181,1.4145583828338792
-0.09845000000000001,1.5781377060229886,1.4175470389433253
-0.098425,1.5781377060229889,1.420535695052774
-0.0984,1.5784678284351241,1.4235243511622215
-0.098375,1.5787979508472594,1.4268450801727186
-0.09835,1.5791280732593949,1.430165809183216
-0.09832500000000001,1.5791280732593949,1.4334865381937114
-0.0983,1.5794581956715303,1.4364751943031604
-0.098275,1.5801184404958009,1.4397959233136577
-0.09825,1.5801184404958009,1.4427845794231051
-0.098225,1.5804485629079363,1.446437381334652
-0.09820000000000001,1.5807786853200714,1.4494260374440981
-0.098175,1.581108807732207,1.4530788393556462
-0.09815,1.581108807732207,1.4560674954650936
-0.098125,1.5817690525564778,1.4597202973766406
-0.0981,1.5817690525564778,1.4630410263871378
-0.09807500000000001,1.5820991749686129,1.466693828298683
-0.09805,1.5824292973807483,1.469682484408132
-0.098025,1.5830895422050193,1.4736673592207288
-0.098,1.5827594197928838,1.4766560153301762
-0.097975,1.5834196646171546,1.4806408901427728
-0.09795000000000001,1.5834196646171546,1.4836295462522189
-0.097925,1.5840799094414253,1.4872823481637671
-0.0979,1.5840799094414253,1.4909351500753139
-0.097875,1.584740154265696,1.4945879519868608
-0.09785,1.584740154265696,1.4982407538984077
-0.09782500000000001,1.585070276677831,1.5022256287110025
-0.0978,1.5850702766778313,1.5055463577215014
-0.097775,1.5860606439142375,1.5095312325340982
-0.09775,1.5860606439142375,1.5131840344456449
-0.097725,1.5867208887385083,1.5175009821592913
-0.09770000000000001,1.586390766326373,1.5208217111697868
-0.097675,1.5870510111506435,1.524806585982385
-0.09765,1.5870510111506435,1.5284593878939319
-0.097625,1.5877112559749142,1.532776335607578
-0.0976,1.5877112559749142,1.536429137519125
-0.09757500000000001,1.5880413783870495,1.5404140123317198
-0.09755,1.5880413783870497,1.5437347413422189
-0.097525,1.5887016232113202,1.5477196161548155
-0.0975,1.5887016232113202,1.551704490967412
-0.097475,1.589361868035591,1.5560214386810582
-0.09745000000000001,1.589361868035591,1.5596742405926036
-0.097425,1.5900221128598617,1.5639911883062516
-0.0974,1.5900221128598617,1.5679760631188482
-0.097375,1.5906823576841325,1.5722930108324944
-0.09735,1.5906823576841325,1.576277885645091
-0.09732500000000001,1.5910124800962677,1.5805948333587354
-0.0973,1.5913426025084032,1.584579708171334
-0.097275,1.5916727249205387,1.5885645829839306
-0.09725,1.592002847332674,1.5928815306975768
-0.097225,1.5923329697448092,1.5968664055101733
-0.09720000000000001,1.5926630921569447,1.6015154261248694
-0.097175,1.5926630921569447,1.6051682280364163
-0.09715,1.5929932145690802,1.6098172486511124
-0.097125,1.5929932145690802,1.613802123463709
-0.0971,1.5936534593933507,1.6181190711773552
-0.09707500000000001,1.5936534593933507,1.6217718730889021
-0.09705,1.5939835818054862,1.6264208937035982
-0.097025,1.5939835818054862,1.6307378414172444
-0.097,1.5943137042176214,1.6350547891308909
-0.096975,1.594643826629757,1.639371736844537
-0.09695000000000001,1.5949739490418922,1.6436886845581835
-0.096925,1.5949739490418924,1.6483377051728811
-0.0969,1.5953040714540276,1.652322579985476
-0.096875,1.595634193866163,1.656971600600172
-0.09685,1.595634193866163,1.6612885483138184
-0.09682500000000001,1.5966245611025691,1.6659375689285145
-0.0968,1.5962944386904339,1.670254516642163
-0.096775,1.5969546835147044,1.6749035372568568
-0.09675,1.5969546835147044,1.679220484970503
-0.096725,1.5972848059268396,1.683869505585199
-0.09670000000000001,1.5976149283389751,1.6885185261998952
-0.096675,1.5979450507511106,1.6928354739135436
-0.09665,1.5986052955753811,1.697816567429287
-0.096625,1.5986052955753811,1.7021335151429335
-0.0966,1.5989354179875166,1.7071146086586793
-0.09657500000000001,1.5986052955753811,1.7114315563723255
-0.09655,1.5992655403996519,1.7160805769870235
-0.096525,1.5992655403996519,1.720397524700668
-0.0965,1.5995956628117873,1.7253786182164137
-0.096475,1.5999257852239226,1.7303597117321594
-0.09645000000000001,1.5995956628117873,1.7346766594458056
-0.096425,1.600255907636058,1.7396577529615536
-0.0964,1.600255907636058,1.7439747006751978
-0.096375,1.6009161524603286,1.7489557941909435
-0.09635,1.6009161524603286,1.7532727419045897
-0.09632500000000001,1.601246274872464,1.7579217625192858
-0.0963,1.6015763972845998,1.762570783133984
-0.096275,1.6019065196967348,1.7675518766497276
-0.09625,1.6019065196967348,1.7725329701654733
-0.096225,1.6019065196967348,1.7768499178791197
-0.09620000000000001,1.6025667645210055,1.7818310113948654
-0.096175,1.602896886933141,1.7864800320095637
-0.09615,1.6032270093452763,1.7917931984263569
-0.096125,1.6032270093452763,1.796442219041053
-0.0961,1.6035571317574115,1.801091239655749
-0.09607500000000001,1.603887254169547,1.8060723331714947
-0.09605,1.6042173765816825,1.810721353786193
-0.096025,1.6045474989938175,1.8160345202029862
-0.096,1.6045474989938175,1.8206835408176822
-0.095975,1.6045474989938175,1.825664634333428
-0.09595000000000001,1.604877621405953,1.8306457278491737
-0.095925,1.6048776214059532,1.8356268213649216
-0.0959,1.6055378662302238,1.840607914880665
