DAQ/testing_demo_4_13/b5_r65_45Hz_002.csv

#Digilent WaveForms Oscilloscope Acquisition
#Device Name: Discovery2
#Serial Number: SN:210321B02866
#Date Time: 2021-04-13 18:26:02.197
#Sample rate: 40000Hz
#Samples: 8192
#Trigger: None
#Channel 1: Range: 500 mV/div Offset: -1.15 V Attenuation: 1 X
#Channel 2: Range: 500 mV/div Offset: -1.45 V Attenuation: 1 X
#Power Supplies: ON
#Positive Supply: ON
#Voltage: 3.3 V
#Negative Supply: OFF
#Voltage: -3.3 V

Time (s),Channel 1 (V),Channel 2 (V)
-0.10577500000000001,1.678825041724274,2.032546051687401
-0.10575,1.6784949193121386,2.027564958171653
-0.105725,1.6784949193121386,2.0229159375569594
-0.1057,1.6784949193121386,2.018266916942263
-0.105675,1.6781647969000033,2.013285823426518
-0.10565000000000001,1.6781647969000033,2.0086368028118216
-0.105625,1.678164796900003,2.0039877821971235
-0.1056,1.677834674487868,1.99900668868138
-0.105575,1.677834674487868,1.994025595165634
-0.10555,1.677834674487868,1.989376574550938
-0.10552500000000001,1.6775045520757326,1.9843954810351923
-0.1055,1.6775045520757326,1.9797464604204942
-0.105475,1.6775045520757326,1.9747653669047507
-0.10545,1.677174429663597,1.9701163462900544
-0.105425,1.6768443072514618,1.9654673256753585
-0.10540000000000001,1.6765141848393266,1.9604862321596128
-0.105375,1.6765141848393263,1.9555051386438649
-0.10535,1.676184062427191,1.950856118029171
-0.105325,1.676184062427191,1.946207097414475
-0.1053,1.6758539400150556,1.9415580767997789
-0.10527500000000001,1.6758539400150556,1.9365769832840332
-0.10525,1.6755238176029204,1.9315958897682852
-0.105225,1.6755238176029204,1.9269468691535914
-0.1052,1.6755238176029204,1.9222978485388955
-0.105175,1.6755238176029204,1.9173167550231496
-0.10515000000000001,1.675193695190785,1.9126677344084535
-0.105125,1.6748635727786496,1.9076866408927058
-0.1051,1.6748635727786496,1.9033696931790616
-0.105075,1.6745334503665141,1.8983885996633159
-0.10505,1.6745334503665141,1.8934075061475701
-0.10502500000000001,1.6742033279543789,1.888758485532874
-0.105,1.6742033279543787,1.8837773920171261
-0.104975,1.6738732055422436,1.8791283714024323
-0.10495,1.6735430831301081,1.8744793507877362
-0.104925,1.6735430831301081,1.8698303301730401
-0.10490000000000001,1.6735430831301081,1.865181309558344
-0.10487500000000001,1.673212960717973,1.8602002160426006
-0.10485,1.6732129607179729,1.8555511954279025
-0.104825,1.6728828383058376,1.8505701019121568
-0.1048,1.6728828383058376,1.8459210812974607
-0.10477500000000001,1.6725527158937021,1.8412720606827646
-0.10475000000000001,1.6725527158937021,1.8366230400680708
-0.104725,1.6722225934815667,1.8319740194533725
-0.1047,1.6718924710694314,1.8273249988386766
-0.104675,1.6718924710694314,1.8226759782239805
-0.10465,1.6715623486572961,1.8180269576092845
-0.10462500000000001,1.6712322262451609,1.8133779369945906
-0.1046,1.6712322262451607,1.8087289163798923
-0.104575,1.6709021038330252,1.8037478228641466
-0.10455,1.6709021038330252,1.7990988022494507
-0.104525,1.67057198142089,1.7944497816347547
-0.10450000000000001,1.67057198142089,1.7898007610200608
-0.104475,1.6702418590087547,1.7851517404053625
-0.10445,1.6702418590087547,1.7805027197906664
-0.104425,1.6699117365966192,1.7758536991759706
-0.1044,1.6695816141844837,1.7712046785612745
-0.10437500000000001,1.6695816141844837,1.7668877308476303
-0.10435,1.6692514917723487,1.7619066373318824
-0.104325,1.6689213693602132,1.7575896896182361
-0.1043,1.6689213693602132,1.75294066900354
-0.104275,1.6685912469480777,1.748291648388844
-0.10425000000000001,1.6682611245359427,1.7436426277741504
-0.104225,1.6679310021238072,1.738993607159452
-0.1042,1.6679310021238072,1.734344586544756
-0.104175,1.6676008797116717,1.72969556593006
-0.10415,1.6676008797116717,1.7250465453153638
-0.10412500000000001,1.6672707572995364,1.7207295976017196
-0.1041,1.6672707572995362,1.7160805769870215
-0.104075,1.666940634887401,1.7114315563723255
-0.10405,1.6666105124752657,1.7071146086586793
-0.104025,1.6662803900631302,1.7021335151429335
-0.10400000000000001,1.6662803900631302,1.697816567429289
-0.103975,1.6659502676509947,1.6931675468145913
-0.10395,1.6656201452388595,1.6888505991009448
-0.103925,1.6652900228267242,1.6842015784862487
-0.1039,1.6652900228267242,1.6798846307726025
-0.10387500000000001,1.6646297780024537,1.6752356101579087
-0.10385,1.6642996555903182,1.6709186624442602
-0.103825,1.6639695331781827,1.6659375689285145
-0.1038,1.6636394107660473,1.6609564754127686
-0.103775,1.663309288353912,1.6563074547980727
-0.10375000000000001,1.6626490435296415,1.6516584341833789
-0.103725,1.6623189211175058,1.6470094135686806
-0.1037,1.6616586762932353,1.6423603929539845
-0.103675,1.6613285538810998,1.6377113723392887
-0.10365,1.6609984314689643,1.6327302788235427
-0.10362500000000001,1.6606683090568295,1.628745404010948
-0.1036,1.6600080642325583,1.6237643104952004
-0.103575,1.659677941820423,1.6194473627815542
-0.10355,1.6590176969961523,1.6144662692658085
-0.103525,1.6586875745840168,1.610149321552162
-0.10350000000000001,1.6583574521718816,1.605500300937466
-0.103475,1.6580273297597463,1.60085128032277
-0.10345,1.6573670849354754,1.5965343326091237
-0.103425,1.65703696252334,1.5918853119944276
-0.1034,1.6567068401112048,1.5875683642807814
-0.10337500000000001,1.656046595286934,1.5829193436660853
-0.10335,1.656046595286934,1.5786023959524391
-0.103325,1.6553863504626634,1.573953375337743
-0.1033,1.6553863504626634,1.5696364276240966
-0.103275,1.6547261056383926,1.5653194799104504
-0.10325000000000001,1.6543959832262574,1.5613346050978538
-0.103225,1.6540658608141219,1.5566855844831577
-0.1032,1.6537357384019864,1.5523686367695115
-0.103175,1.6534056159898511,1.548051689055865
-0.10315,1.6530754935777159,1.5437347413422189
-0.10312500000000001,1.6530754935777159,1.5397498665296223
-0.1031,1.6527453711655802,1.5354329188159739
-0.103075,1.652415248753445,1.5311159711023297
-0.10305,1.6517550039291744,1.5267990233886832
-0.103025,1.651424881517039,1.5228141485760867
-0.10300000000000001,1.6510947591049037,1.5181651279613906
-0.102975,1.6507646366927682,1.514180253148792
-0.10295,1.6501043918684974,1.5098633054351478
-0.102925,1.6497742694563622,1.5058784306225512
-0.1029,1.649444147044227,1.5015614829089048
-0.10287500000000001,1.6491140246320914,1.4972445351952586
-0.10285,1.6487839022199557,1.49325966038266
-0.102825,1.6481236573956854,1.4889427126690156
-0.1028,1.64779353498355,1.4846257649553694
-0.102775,1.6474634125714147,1.4806408901427728
-0.10275000000000001,1.6471332901592792,1.4766560153301762
-0.102725,1.6468031677471437,1.472339067616528
-0.1027,1.6464730453350085,1.4683541928039332
-0.102675,1.6461429229228732,1.464037245090287
-0.10265,1.645812800510738,1.4600523702776904
-0.10262500000000001,1.6454826780986025,1.4560674954650936
-0.1026,1.6451525556864668,1.4520826206524953
-0.102575,1.6444923108621965,1.4480977458399005
-0.10255,1.644162188450061,1.4437807981262543
-0.102525,1.6438320660379258,1.4401279962147073
-0.10250000000000001,1.643171821213655,1.4361431214021108
-0.102475,1.6431718212136548,1.4321582465895124
-0.10245,1.6428416988015195,1.4281733717769176
-0.102425,1.6421814539772488,1.424188496964321
-0.1024,1.6418513315651135,1.4202036221517245
-0.10237500000000001,1.6411910867408428,1.4162187473391277
-0.10235,1.6411910867408426,1.4125659454275792
-0.102325,1.640530841916572,1.4085810706149844
-0.1023,1.640530841916572,1.4049282687034375
-0.102275,1.6398705970923013,1.4009433938908409
-0.10225000000000001,1.639540474680166,1.3969585190782443
-0.102225,1.6392103522680304,1.3933057171666956
-0.1022,1.6388802298558953,1.3893208423541008
-0.102175,1.6385501074437598,1.3860001133436035
-0.10215,1.6382199850316246,1.382015238531007
-0.10212500000000001,1.637889862619489,1.3783624366194602
-0.1021,1.6372296177952186,1.3747096347079117
-0.102075,1.6372296177952186,1.3710568327963664
-0.10205,1.6365693729709476,1.3670719579837698
-0.102025,1.6362392505588124,1.3634191560722229
-0.10200000000000001,1.6355790057345416,1.359766354160676
-0.101975,1.6352488833224061,1.3557814793480778
-0.10195,1.6349187609102709,1.3524607503375823
-0.101925,1.6342585160860001,1.3484758755249857
-0.1019,1.6339283936738649,1.3451551465144884
-0.10187500000000001,1.6335982712617294,1.3411702717018918
-0.10185,1.633268148849594,1.3381816155924424
-0.101825,1.6326079040253234,1.3338646678787982
-0.1018,1.6322777816131882,1.330543938868301
-0.101775,1.6322777816131882,1.3272232098578038
-0.10175000000000001,1.6316175367889172,1.323570407946257
-0.10172500000000001,1.6312874143767822,1.3202496789357614
-0.1017,1.6306271695525112,1.3162648041231633
-0.101675,1.6306271695525112,1.3132761480137156
-0.10165,1.6299669247282405,1.309623346102169
-0.10162500000000001,1.6299669247282405,1.3063026170916716
-0.10160000000000001,1.62930667990397,1.302981888081176
-0.101575,1.6289765574918345,1.2996611590706775
-0.10155,1.628646435079699,1.2956762842580807
-0.101525,1.6279861902554282,1.292023482346534
-0.1015,1.627656067843293,1.2890348262370865
-0.10147500000000001,1.6269958230190225,1.2853820243255412
-0.10145,1.6266657006068868,1.2823933682160922
-0.101425,1.6260054557826162,1.2787405663045452
-0.1014,1.6256753333704808,1.2754198372940482
-0.101375,1.6253452109583455,1.2717670353825012
-0.10135000000000001,1.624684966134075,1.2687783792730551
-0.101325,1.6243548437219393,1.2654576502625565
-0.1013,1.624024721309804,1.2621369212520595
-0.101275,1.6236945988976688,1.2588161922415622
-0.10125,1.6230343540733978,1.255495463231065
-0.10122500000000001,1.6227042316612628,1.252506807121619
-0.1012,1.6220439868369918,1.2491860781111206
-0.101175,1.6220439868369918,1.2465294949027228
-0.10115,1.621383742012721,1.2432087658922255
-0.101125,1.6210536196005858,1.240220109782778
-0.10110000000000001,1.6207234971884505,1.237231453673332
-0.101075,1.6200632523641796,1.2339107246628336
-0.10105,1.6197331299520443,1.2309220685533862
-0.101025,1.6194030075399088,1.2276013395428889
-0.101,1.6190728851277736,1.2249447563344913
-0.10097500000000001,1.6187427627156386,1.2216240273239956
-0.10095,1.6184126403035028,1.2189674441155964
-0.100925,1.6180825178913674,1.2156467151050991
-0.1009,1.617752395479232,1.2129901318967014
-0.100875,1.6170921506549614,1.2096694028862043
-0.10085000000000001,1.6170921506549614,1.2070128196778076
-0.100825,1.6164319058306906,1.204024163568359
-0.1008,1.6161017834185554,1.2013675803599613
-0.100775,1.61577166100642,1.1983789242505138
-0.10075,1.6154415385942846,1.1953902681410664
-0.10072500000000001,1.6151114161821496,1.19273368493267
-0.1007,1.614781293770014,1.1897450288232212
-0.100675,1.6144511713578784,1.1874205185158733
-0.10065,1.6141210489457432,1.1844318624064258
-0.100625,1.6141210489457432,1.1821073520990777
-0.10060000000000001,1.6134608041214726,1.1787866230885822
-0.100575,1.6131306817093372,1.1764621127812327
-0.10055,1.6124704368850664,1.1734734566717853
-0.100525,1.6124704368850664,1.1708168734633875
-0.1005,1.612140314472931,1.16782821735394
-0.10047500000000001,1.6114800696486604,1.1655037070465932
-0.10045,1.6114800696486602,1.1625150509371445
-0.100425,1.6108198248243895,1.1598584677287467
-0.1004,1.6104897024122542,1.1575339574213988
-0.100375,1.610159580000119,1.154877374213001
-0.10035000000000001,1.6098294575879835,1.1522207910046034
-0.100325,1.6091692127637127,1.1495642077962056
-0.1003,1.6088390903515775,1.1472396974888577
-0.100275,1.6081788455273067,1.1442510413794102
-0.10025,1.6081788455273067,1.141926531072062
-0.10022500000000001,1.607518600703036,1.1392699478636645
-0.1002,1.6068583558787652,1.1369454375563164
-0.100175,1.60652823346663,1.1342888543479186
-0.10015,1.6061981110544945,1.1319643440405707
-0.100125,1.605867988642359,1.1293077608321729
-0.10010000000000001,1.6052077438180885,1.126651177623775
-0.100075,1.6052077438180883,1.124326667316426
-0.10005,1.6045474989938175,1.1216700841080294
-0.100025,1.6042173765816823,1.119677646701731
-0.1,1.6032270093452763,1.1170210634933335
-0.09997500000000001,1.6032270093452763,1.1153606989880849
-0.09995,1.6025667645210053,1.1123720428786363
-0.099925,1.60223664210887,1.1100475325712893
-0.0999,1.6015763972845996,1.1073909493628915
-0.099875,1.601246274872464,1.105730584857643
-0.09985000000000001,1.6005860300481933,1.1027419287481957
-0.099825,1.6005860300481929,1.1007494913418965
-0.0998,1.5995956628117873,1.098757053935599
-0.099775,1.5992655403996519,1.0961004707272013
-0.09975,1.5986052955753811,1.094108033320903
-0.09972500000000001,1.5982751731632459,1.091783523013555
-0.0997,1.5979450507511102,1.0894590127062058
-0.099675,1.5972848059268396,1.087134502398859
-0.09965,1.5969546835147044,1.0851420649925607
-0.099625,1.5962944386904336,1.082485481784163
-0.09960000000000001,1.595634193866163,1.0808251172789143
-0.099575,1.594973949041892,1.0781685340705158
-0.09955,1.594643826629757,1.076508169565268
-0.099525,1.5939835818054862,1.07418365925792
-0.0995,1.5939835818054862,1.0721912218516216
-0.09947500000000001,1.5929932145690802,1.0698667115442737
-0.09945,1.59299321456908,1.068206347039024
-0.099425,1.5923329697448092,1.0658818367316771
-0.0994,1.592002847332674,1.0638893993253788
-0.099375,1.591012480096268,1.0618969619190806
-0.09935000000000001,1.5906823576841325,1.0599045245127823
-0.099325,1.590352235271997,1.0582441600075327
-0.0993,1.5900221128598617,1.0562517226012353
-0.099275,1.589361868035591,1.0545913580959867
-0.09925,1.5890317456234557,1.0525989206896884
-0.09922500000000001,1.588371500799185,1.0509385561844398
-0.0992,1.587711255974914,1.0489461187781408
-0.099175,1.5873811335627788,1.047285754272893
-0.09915,1.5870510111506435,1.0452933168665948
-0.099125,1.5863907663263728,1.0436329523613461
-0.09910000000000001,1.585730521502102,1.0416405149550478
-0.099075,1.5857305215021016,1.0399801504497983
-0.09905,1.584740154265696,1.037987713043501
-0.099025,1.584740154265696,1.0363273485382525
-0.099,1.5840799094414253,1.0343349111319542
-0.09897500000000001,1.5837497870292898,1.033338692428805
-0.09895,1.583089542205019,1.0313462550225059
-0.098925,1.5827594197928838,1.0300179634183078
-0.0989,1.5824292973807483,1.0280255260120095
-0.098875,1.582099174968613,1.0266972344078105
-0.09885000000000001,1.5814389301443423,1.0253689428036117
-0.098825,1.5811088077322069,1.0237085782983624
-0.0988,1.5804485629079363,1.0220482137931146
-0.098775,1.5801184404958009,1.020387849287866
-0.09875,1.5794581956715303,1.0190595576836672
-0.09872500000000001,1.5791280732593949,1.0173991931784185
-0.0987,1.578467828435124,1.0157388286731692
-0.098675,1.5778075836108534,1.014410537068971
-0.09865,1.5774774611987181,1.0127501725637225
-0.098625,1.5771473387865826,1.0114218809595237
-0.09860000000000001,1.576487093962312,1.0104256622563745
-0.09857500000000001,1.5758268491380414,1.0087652977511266
-0.09855,1.5751666043137704,1.007437006146927
-0.098525,1.5748364819016352,1.006108714542728
-0.0985,1.5745063594895,1.0047804229385293
-0.09847500000000001,1.573846114665229,1.0034521313343303
-0.09845000000000001,1.5731858698409587,1.0021238397301322
-0.098425,1.5725256250166877,1.0007955481259327
-0.0984,1.571865380192417,0.9994672565217338
-0.098375,1.5715352577802815,0.998138964917535
-0.09835,1.570875012956011,0.9971427462143858
-0.09832500000000001,1.5702147681317402,0.995482381709138
-0.0983,1.5698846457196047,0.9944861630059881
-0.098275,1.5688942784831987,0.9934899443028389
-0.09825,1.5685641560710633,0.9924937255996897
-0.098225,1.5679039112467925,0.991165433995491
-0.09820000000000001,1.567243666422522,0.9901692152923423
-0.098175,1.5669135440103865,0.9888409236881429
-0.09815,1.5662532991861158,0.9878447049849938
-0.098125,1.5659231767739805,0.9868484862818446
-0.0981,1.5652629319497096,0.9858522675786955
-0.09807500000000001,1.5646026871254393,0.9848560488755468
-0.09805,1.5639424423011683,0.9835277572713474
-0.098025,1.5636123198890328,0.982863611469248
-0.098,1.5632821974768976,0.9818673927660989
-0.097975,1.5626219526526268,0.9812032469639995
-0.09795000000000001,1.5619617078283563,0.9802070282608508
-0.097925,1.5616315854162206,0.9792108095577012
-0.0979,1.5606412181798146,0.9782145908545521
-0.097875,1.5603110957676791,0.9775504450524526
-0.09785,1.5596508509434086,0.9768862992503531
-0.09782500000000001,1.558990606119138,0.976222153448254
-0.0978,1.5586604837070024,0.9752259347451046
-0.097775,1.5583303612948671,0.9745617889430052
-0.09775,1.5576701164705964,0.9738976431409057
-0.097725,1.5570098716463256,0.9729014244377565
-0.09770000000000001,1.5566797492341904,0.972569351536707
-0.097675,1.5560195044099197,0.9719052057346074
-0.09765,1.555359259585649,0.971241059932508
-0.097625,1.5550291371735134,0.9705769141304086
-0.0976,1.5543688923492427,0.9699127683283091
-0.09757500000000001,1.5540387699371077,0.9695806954272596
-0.09755,1.5533785251128367,0.9689165496251599
-0.097525,1.552718280288566,0.9685844767241103
-0.0975,1.5523881578764307,0.9679203309220108
-0.097475,1.5517279130521597,0.9675882580209612
-0.09745000000000001,1.5510676682278894,0.9672561851199114
-0.097425,1.5507375458157537,0.9669241122188617
-0.0974,1.5504074234036185,0.9662599664167622
-0.097375,1.550077300991483,0.9662599664167622
-0.09735,1.549086933755077,0.9659278935157125
-0.09732500000000001,1.548756811342942,0.965595820614663
-0.0973,1.5480965665186708,0.965263747713613
-0.097275,1.5477664441065355,0.9649316748125634
-0.09725,1.5474363216944003,0.9645996019115137
-0.097225,1.5467760768701295,0.9642675290104639
-0.09720000000000001,1.546445954457994,0.9642675290104639
-0.097175,1.5457857096337233,0.9639354561094142
-0.09715,1.545455587221588,0.9639354561094142
-0.097125,1.5447953423973173,0.9636033832083645
-0.0971,1.5444652199851818,0.9632713103073147
-0.09707500000000001,1.5441350975730466,0.9632713103073147
-0.09705,1.5434748527487758,0.9632713103073147
-0.097025,1.5431447303366403,0.9632713103073147
-0.097,1.5424844855123698,0.9632713103073147
-0.096975,1.5421543631002343,0.9632713103073147
-0.09695000000000001,1.5414941182759636,0.9632713103073147
-0.096925,1.5411639958638281,0.9632713103073147
-0.0969,1.5408338734516929,0.9632713103073147
-0.096875,1.5398435062152869,0.9636033832083645
-0.09685,1.5398435062152869,0.9636033832083645
-0.09682500000000001,1.5391832613910161,0.9639354561094142
-0.0968,1.5388531389788807,0.9639354561094142
-0.096775,1.53819289415461,0.9639354561094142
-0.09675,1.5375326493303394,0.9642675290104639
-0.096725,1.537202526918204,0.9642675290104639
-0.09670000000000001,1.5368724045060687,0.9649316748125634
-0.096675,1.536542282093933,0.9649316748125634
-0.09665,1.5358820372696624,0.9649316748125634
-0.096625,1.5355519148575272,0.965263747713613
-0.0966,1.535221792445392,0.9655958206146629
-0.09657500000000001,1.5348916700332564,0.9662599664167622
-0.09655,1.5342314252089855,0.9662599664167625
-0.096525,1.5339013027968504,0.9669241122188617
-0.0965,1.533571180384715,0.9672561851199113
-0.096475,1.5332410579725797,0.9675882580209612
-0.09645000000000001,1.5329109355604442,0.9682524038230605
-0.096425,1.5325808131483087,0.9685844767241106
-0.0964,1.5322506907361735,0.9692486225262097
-0.096375,1.5315904459119027,0.9695806954272594
-0.09635,1.5312603234997675,0.9702448412293588
-0.09632500000000001,1.530930201087632,0.9709089870314582
-0.0963,1.5306000786754965,0.9715731328335581
-0.096275,1.5302699562633615,0.9722372786356571
-0.09625,1.5296097114390905,0.9729014244377565
-0.096225,1.5292795890269553,0.973565570239856
-0.09620000000000001,1.52894946661482,0.9742297160419554
-0.096175,1.52894946661482,0.9748938618440551
-0.09615,1.52894946661482,0.9755580076461543
-0.096125,1.5286193442026845,0.9762221534482537
-0.0961,1.5282892217905493,0.9768862992503531
-0.09607500000000001,1.5279590993784138,0.9778825179535022
-0.09605,1.5272988545541428,0.9788787366566517
-0.096025,1.5266386097298725,0.9795428824587509
-0.096,1.526308487317737,0.9805391011619
-0.095975,1.5256482424934663,0.9815353198650492
-0.09595000000000001,1.5256482424934663,0.9825315385681983
-0.095925,1.525648242493466,0.9835277572713479
-0.0959,1.525318120081331,0.9845239759744966
