DAQ/testing_demo_4_13/NR_45Hz_001.csv

#Digilent WaveForms Oscilloscope Acquisition
#Device Name: Discovery2
#Serial Number: SN:210321B02866
#Date Time: 2021-04-13 18:37:00.557
#Sample rate: 40000Hz
#Samples: 8192
#Trigger: None
#Channel 1: Range: 500 mV/div Offset: -1.15 V Attenuation: 1 X
#Channel 2: Range: 500 mV/div Offset: -1.45 V Attenuation: 1 X
#Power Supplies: ON
#Positive Supply: ON
#Voltage: 3.3 V
#Negative Supply: OFF
#Voltage: -3.3 V

Time (s),Channel 1 (V),Channel 2 (V)
-0.10577500000000001,1.5817690525564778,2.227140771702535
-0.10575,1.582099174968613,2.2314577194161833
-0.105725,1.582099174968613,2.2361067400308774
-0.1057,1.582099174968613,2.2407557606455732
-0.105675,1.582099174968613,2.2450727083592197
-0.10565000000000001,1.5824292973807483,2.249389656072866
-0.105625,1.5824292973807486,2.2537066037865143
-0.1056,1.5827594197928838,2.2583556244012084
-0.105575,1.5827594197928838,2.2626725721148544
-0.10555,1.5830895422050193,2.2673215927295507
-0.10552500000000001,1.5827594197928838,2.2713064675421473
-0.1055,1.5830895422050193,2.2762875610578948
-0.105475,1.5830895422050193,2.2802724358704896
-0.10545,1.5830895422050193,2.284589383584136
-0.105425,1.5830895422050193,2.2885742583967326
-0.10540000000000001,1.5834196646171546,2.2928912061103786
-0.105375,1.5834196646171546,2.2972081538240268
-0.10535,1.5834196646171546,2.3015251015376714
-0.105325,1.5837497870292898,2.305842049251318
-0.1053,1.5837497870292898,2.3098269240639144
-0.10527500000000001,1.5837497870292898,2.3141438717775604
-0.10525,1.58374978702929,2.318128746590159
-0.105225,1.5840799094414253,2.3224456943038034
-0.1052,1.5840799094414253,2.32676264201745
-0.105175,1.5844100318535608,2.331079589731096
-0.10515000000000001,1.5844100318535608,2.334732391642643
-0.105125,1.584410031853561,2.3387172664552414
-0.1051,1.584740154265696,2.343034214168886
-0.105075,1.5844100318535608,2.3470190889814826
-0.10505,1.584740154265696,2.351003963794079
-0.10502500000000001,1.5844100318535608,2.3549888386066757
-0.105,1.585070276677831,2.3593057863203235
-0.104975,1.584740154265696,2.362958588231869
-0.10495,1.5850702766778313,2.3672755359455153
-0.104925,1.5850702766778313,2.370928337857062
-0.10490000000000001,1.5850702766778313,2.374581139768609
-0.10487500000000001,1.5854003990899665,2.3788980874822534
-0.10485,1.5850702766778313,2.3828829622948517
-0.104825,1.5854003990899668,2.3868678371074483
-0.1048,1.5854003990899668,2.3905206390189955
-0.10477500000000001,1.585730521502102,2.394505513831592
-0.10475000000000001,1.585730521502102,2.3978262428420876
-0.104725,1.5860606439142375,2.4018111176546855
-0.1047,1.585730521502102,2.406128065368332
-0.104675,1.5860606439142375,2.409448794378829
-0.10465,1.5863907663263728,2.413765742092475
-0.10462500000000001,1.5860606439142377,2.417086471102971
-0.1046,1.5863907663263728,2.4210713459155695
-0.104575,1.5863907663263728,2.424724147827116
-0.10455,1.5863907663263728,2.4287090226397128
-0.104525,1.5867208887385083,2.4323618245512595
-0.10450000000000001,1.5867208887385083,2.4356825535617554
-0.104475,1.5870510111506435,2.4396674283743534
-0.10445,1.5867208887385083,2.4429881573848506
-0.104425,1.5873811335627788,2.446973032197447
-0.1044,1.5870510111506435,2.450293761207944
-0.10437500000000001,1.5873811335627785,2.4539465631194894
-0.10435,1.5873811335627788,2.457931437932088
-0.104325,1.5873811335627788,2.4609200940415352
-0.1043,1.5877112559749142,2.4652370417551817
-0.104275,1.5877112559749142,2.4682256978646286
-0.10425000000000001,1.5883715007991848,2.4722105726772234
-0.104225,1.5880413783870497,2.475531301687723
-0.1042,1.588371500799185,2.47885203069822
-0.104175,1.588371500799185,2.482172759708717
-0.10415,1.5887016232113202,2.4851614158181645
-0.10412500000000001,1.5890317456234555,2.4891462906307593
-0.1041,1.5887016232113202,2.4921349467402085
-0.104075,1.5890317456234557,2.4957877486517557
-0.10405,1.5890317456234557,2.4987764047612027
-0.104025,1.589361868035591,2.5017650608706505
-0.10400000000000001,1.5896919904477262,2.5057499356832453
-0.103975,1.5896919904477265,2.5084065188916447
-0.10395,1.5900221128598617,2.5120593208031914
-0.103925,1.5903522352719972,2.514715904011589
-0.1039,1.5903522352719972,2.5180366330220867
-0.10387500000000001,1.5906823576841322,2.521357362032582
-0.10385,1.5903522352719972,2.5240139452409815
-0.103825,1.591012480096268,2.5273346742514784
-0.1038,1.5906823576841325,2.530323330360926
-0.103775,1.5913426025084032,2.533644059371423
-0.10375000000000001,1.5913426025084032,2.536632715480869
-0.103725,1.5913426025084032,2.539621371590318
-0.1037,1.592002847332674,2.542942100600815
-0.103675,1.5916727249205387,2.545266610908163
-0.10365,1.5923329697448092,2.548255267017611
-0.10362500000000001,1.5920028473326742,2.5509118502260066
-0.1036,1.5923329697448092,2.553900506335456
-0.103575,1.5923329697448092,2.5568891624449033
-0.10355,1.5923329697448092,2.559545745653301
-0.103525,1.5926630921569447,2.562866474663798
-0.10350000000000001,1.5926630921569447,2.5648589120700964
-0.103475,1.5929932145690802,2.567847568179544
-0.10345,1.5929932145690802,2.570172078486892
-0.103425,1.5929932145690802,2.573160734596339
-0.1034,1.5933233369812154,2.575817317804737
-0.10337500000000001,1.5933233369812154,2.578141828112085
-0.10335,1.5936534593933507,2.5807984113204827
-0.103325,1.5936534593933507,2.5834549945288803
-0.1033,1.5936534593933507,2.5857795048362284
-0.103275,1.5939835818054862,2.5881040151435766
-0.10325000000000001,1.5939835818054862,2.590760598351974
-0.103225,1.5943137042176214,2.5930851086593223
-0.1032,1.5943137042176214,2.59540961896667
-0.103175,1.594643826629757,2.598066202175068
-0.10315,1.5949739490418922,2.6000586395813663
-0.10312500000000001,1.5949739490418922,2.6023831498887144
-0.1031,1.5953040714540279,2.6047076601960635
-0.103075,1.595634193866163,2.6070321705034103
-0.10305,1.5953040714540276,2.6093566808107584
-0.103025,1.595634193866163,2.6113491182170567
-0.10300000000000001,1.5959643162782982,2.6140057014254543
-0.102975,1.5959643162782984,2.615998138831754
-0.10295,1.5962944386904336,2.6186547220401506
-0.102925,1.5962944386904336,2.620315086545399
-0.1029,1.5966245611025691,2.622639596852747
-0.10287500000000001,1.5969546835147044,2.6246320342590455
-0.10285,1.5969546835147046,2.6266244716653446
-0.102825,1.5972848059268396,2.628616909071642
-0.1028,1.5976149283389751,2.6306093464779403
-0.102775,1.5976149283389751,2.6326017838842386
-0.10275000000000001,1.5982751731632459,2.634594221290537
-0.102725,1.598275173163246,2.636586658696836
-0.1027,1.5986052955753811,2.6385790961031335
-0.102675,1.5989354179875166,2.640239460608382
-0.10265,1.5992655403996519,2.64223189801468
-0.10262500000000001,1.5995956628117873,2.6438922625199286
-0.1026,1.5995956628117876,2.6458846999262278
-0.102575,1.5999257852239226,2.6475450644314757
-0.10255,1.5999257852239226,2.6488733560356748
-0.102525,1.600255907636058,2.650533720540923
-0.10250000000000001,1.600255907636058,2.6518620121451217
-0.102475,1.6005860300481936,2.6535223766503715
-0.10245,1.6009161524603286,2.6551827411556195
-0.102425,1.601246274872464,2.656511032759818
-0.1024,1.601246274872464,2.6581713972650665
-0.10237500000000001,1.6015763972845996,2.6594996888692655
-0.10235,1.6015763972845998,2.660827980473465
-0.102325,1.6019065196967348,2.662156272077663
-0.1023,1.60223664210887,2.663484563681862
-0.102275,1.60223664210887,2.664812855286061
-0.10225000000000001,1.6025667645210055,2.66580907398921
-0.102225,1.6028968869331408,2.667469438494459
-0.1022,1.6028968869331408,2.6684656571976078
-0.102175,1.6032270093452763,2.669461875900757
-0.10215,1.6032270093452763,2.670458094603906
-0.10212500000000001,1.6035571317574115,2.671786386208105
-0.1021,1.6035571317574118,2.6724505320102048
-0.102075,1.603887254169547,2.673446750713354
-0.10205,1.603887254169547,2.6747750423175525
-0.102025,1.603887254169547,2.675439188119652
-0.10200000000000001,1.6042173765816823,2.676435406822801
-0.101975,1.6045474989938175,2.677099552624901
-0.10195,1.6045474989938175,2.6780957713280493
-0.101925,1.6045474989938175,2.678759917130149
-0.1019,1.604877621405953,2.6794240629322488
-0.10187500000000001,1.604877621405953,2.6800882087343476
-0.10185,1.6052077438180885,2.680752354536448
-0.101825,1.6052077438180885,2.681416500338547
-0.1018,1.6052077438180885,2.682080646140646
-0.101775,1.6055378662302238,2.6824127190416958
-0.10175000000000001,1.6055378662302238,2.6830768648437955
-0.10172500000000001,1.6058679886423588,2.6837410106458943
-0.1017,1.605867988642359,2.684073083546944
-0.101675,1.605867988642359,2.684405156447994
-0.10165,1.6061981110544945,2.684737229349044
-0.10162500000000001,1.60652823346663,2.6854013751511436
-0.10160000000000001,1.60652823346663,2.685733448052193
-0.101575,1.60652823346663,2.685733448052193
-0.10155,1.6068583558787652,2.686065520953243
-0.101525,1.6071884782909005,2.6863975938542923
-0.1015,1.6071884782909005,2.6863975938542923
-0.10147500000000001,1.6071884782909005,2.686729666755342
-0.10145,1.607518600703036,2.687061739656392
-0.101425,1.607518600703036,2.687061739656392
-0.1014,1.6078487231151712,2.687061739656392
-0.101375,1.6078487231151712,2.687061739656392
-0.10135000000000001,1.6081788455273065,2.687061739656392
-0.101325,1.6081788455273067,2.686729666755342
-0.1013,1.608508967939442,2.686729666755342
-0.101275,1.608508967939442,2.686729666755342
-0.10125,1.608508967939442,2.6863975938542923
-0.10122500000000001,1.6091692127637125,2.6863975938542923
-0.1012,1.6091692127637127,2.686065520953243
-0.101175,1.6091692127637127,2.686065520953243
-0.10115,1.609499335175848,2.6854013751511436
-0.101125,1.609499335175848,2.6854013751511436
-0.10110000000000001,1.6098294575879832,2.6850693022500938
-0.101075,1.6098294575879835,2.684737229349044
-0.10105,1.610159580000119,2.684073083546944
-0.101025,1.610159580000119,2.6837410106458948
-0.101,1.6104897024122542,2.6830768648437955
-0.10097500000000001,1.6104897024122542,2.682412719041696
-0.10095,1.6108198248243895,2.682080646140646
-0.100925,1.6108198248243895,2.681416500338547
-0.1009,1.611149947236525,2.6807523545364473
-0.100875,1.611149947236525,2.6800882087343476
-0.10085000000000001,1.61148006964866,2.679424062932249
-0.100825,1.6114800696486602,2.678759917130149
-0.1008,1.6118101920607957,2.677763698427
-0.100775,1.6118101920607957,2.6770995526249006
-0.10075,1.6118101920607957,2.676435406822801
-0.10072500000000001,1.6118101920607957,2.6754391881196526
-0.1007,1.612140314472931,2.6744429694165026
-0.100675,1.612140314472931,2.6737788236144033
-0.10065,1.612140314472931,2.672782604911254
-0.100625,1.6128005592972017,2.671786386208105
-0.10060000000000001,1.6124704368850666,2.6707901675049563
-0.100575,1.6124704368850664,2.6697939488018068
-0.10055,1.6128005592972017,2.6687977300986576
-0.100525,1.6128005592972017,2.6674694384944586
-0.1005,1.6128005592972017,2.6664732197913095
-0.10047500000000001,1.613130681709337,2.6651449281871114
-0.10045,1.6134608041214724,2.663816636582912
-0.100425,1.6131306817093372,2.6628204178797628
-0.1004,1.6131306817093372,2.6614921262755638
-0.100375,1.6134608041214724,2.6601638346713647
-0.10035000000000001,1.6134608041214724,2.6585034701661163
-0.100325,1.613790926533608,2.657507251462967
-0.1003,1.613790926533608,2.6558468869577183
-0.100275,1.6134608041214724,2.6545185953535197
-0.10025,1.613790926533608,2.653190303749321
-0.10022500000000001,1.613790926533608,2.6515299392440723
-0.1002,1.6141210489457432,2.6498695747388235
-0.100175,1.613790926533608,2.648541283134625
-0.10015,1.6144511713578784,2.6472129915304263
-0.100125,1.6144511713578784,2.6455526270251775
-0.10010000000000001,1.614781293770014,2.6442243354209785
-0.100075,1.614781293770014,2.642563970915729
-0.10005,1.614781293770014,2.6409036064104816
-0.100025,1.614781293770014,2.6392432419052327
-0.1,1.6151114161821494,2.6379149503010337
-0.09997500000000001,1.614781293770014,2.6359225128947354
-0.09995,1.6147812937700137,2.634262148389486
-0.099925,1.6144511713578784,2.6322697109831887
-0.0999,1.6144511713578784,2.6306093464779403
-0.099875,1.6141210489457432,2.628616909071642
-0.09985000000000001,1.6141210489457432,2.6269565445663936
-0.099825,1.613790926533608,2.6246320342590446
-0.0998,1.613790926533608,2.622971669753797
-0.099775,1.6134608041214724,2.6209792323474987
-0.09975,1.6134608041214724,2.61931886784225
-0.09972500000000001,1.6131306817093372,2.6166622846338523
-0.0997,1.613130681709337,2.615001920128602
-0.099675,1.6128005592972017,2.612345336920206
-0.09965,1.6128005592972017,2.6100208266128577
-0.099625,1.6124704368850664,2.6080283892065594
-0.09960000000000001,1.6124704368850664,2.6057038788992113
-0.099575,1.612140314472931,2.6033793685918623
-0.09955,1.612140314472931,2.6010548582845154
-0.099525,1.612140314472931,2.598398275076118
-0.0995,1.612140314472931,2.59574169186772
-0.09947500000000001,1.612140314472931,2.5930851086593223
-0.09945,1.6121403144729307,2.590760598351973
-0.099425,1.6118101920607957,2.5881040151435766
-0.0994,1.6118101920607957,2.5854474319351786
-0.099375,1.6118101920607957,2.5824587758257316
-0.09935000000000001,1.6118101920607957,2.5798021926173336
-0.099325,1.6118101920607957,2.5771456094089342
-0.0993,1.6118101920607957,2.5744890262005384
-0.099275,1.6118101920607957,2.5715003700910906
-0.09925,1.6114800696486602,2.5681796410805937
-0.09922500000000001,1.6118101920607957,2.565190984971146
-0.0992,1.6118101920607955,2.562534401762747
-0.099175,1.6114800696486602,2.559545745653301
-0.09915,1.6114800696486602,2.556225016642804
-0.099125,1.6114800696486602,2.553236360533356
-0.09910000000000001,1.6114800696486602,2.550247704423909
-0.099075,1.6114800696486602,2.54692697541341
-0.09905,1.6114800696486602,2.5439383193039644
-0.099025,1.6114800696486602,2.540617590293467
-0.099,1.6114800696486602,2.5376289341840197
-0.09897500000000001,1.611149947236525,2.5343082051735224
-0.09895,1.611149947236525,2.5309874761630233
-0.098925,1.611149947236525,2.5273346742514784
-0.0989,1.611149947236525,2.524346018142031
-0.098875,1.611149947236525,2.5210252891315337
-0.09885000000000001,1.611149947236525,2.5180366330220867
-0.098825,1.611149947236525,2.5140517582094883
-0.0988,1.611149947236525,2.5110631021000422
-0.098775,1.6108198248243895,2.5070782272874457
-0.09875,1.611149947236525,2.5040895711779982
-0.09872500000000001,1.6108198248243895,2.500436769266451
-0.0987,1.6108198248243895,2.4971160402559525
-0.098675,1.6108198248243895,2.4931311654433577
-0.09865,1.6108198248243895,2.489810436432861
-0.098625,1.6104897024122542,2.485825561620264
-0.09860000000000001,1.6108198248243895,2.4828369055108164
-0.09857500000000001,1.6104897024122544,2.4788520306982216
-0.09855,1.6108198248243895,2.475199228786673
-0.098525,1.6104897024122542,2.4712143539740765
-0.0985,1.6108198248243895,2.46756155206253
-0.09847500000000001,1.6104897024122542,2.4635766772499332
-0.09845000000000001,1.6104897024122542,2.460255948239437
-0.098425,1.610159580000119,2.4559390005257895
-0.0984,1.610159580000119,2.452618271515292
-0.098375,1.610159580000119,2.4486333967026956
-0.09835,1.610159580000119,2.444980594791149
-0.09832500000000001,1.610159580000119,2.440995719978554
-0.0983,1.610159580000119,2.437342918067005
-0.098275,1.6104897024122542,2.4333580432544086
-0.09825,1.6104897024122542,2.429705241342862
-0.098225,1.6104897024122542,2.4257203665302653
-0.09820000000000001,1.6101595800001192,2.4214034188166207
-0.098175,1.6104897024122542,2.417750616905072
-0.09815,1.610159580000119,2.413765742092475
-0.098125,1.610159580000119,2.4097808672798786
-0.0981,1.6098294575879835,2.4054639195662326
-0.09807500000000001,1.6101595800001187,2.4018111176546872
-0.09805,1.610159580000119,2.3974941699410395
-0.098025,1.610159580000119,2.3938413680294923
-0.098,1.610159580000119,2.3895244203158463
-0.097975,1.610159580000119,2.386203691305349
-0.09795000000000001,1.610159580000119,2.381554670690655
-0.097925,1.610159580000119,2.377569795878056
-0.0979,1.610159580000119,2.37325284816441
-0.097875,1.610159580000119,2.3692679733518136
-0.09785,1.610159580000119,2.365283098539217
-0.09782500000000001,1.610159580000119,2.3609661508255724
-0.0978,1.610159580000119,2.356649203111924
-0.097775,1.6098294575879835,2.352332255398278
-0.09775,1.6104897024122542,2.348679453486731
-0.097725,1.610159580000119,2.3436983599709853
-0.09770000000000001,1.610489702412254,2.3400455580594404
-0.097675,1.610159580000119,2.3353965374447423
-0.09765,1.610159580000119,2.3314116626321457
-0.097625,1.610159580000119,2.3264305691164
-0.0976,1.610159580000119,2.3224456943038034
-0.09757500000000001,1.610159580000119,2.31779667368911
-0.09755,1.610159580000119,2.313479725975461
-0.097525,1.610159580000119,2.3091627782618147
-0.0975,1.610159580000119,2.3048458305481683
-0.097475,1.6104897024122542,2.3005288828345223
-0.09745000000000001,1.6101595800001192,2.2962119351208776
-0.097425,1.6104897024122542,2.29189498740723
-0.0974,1.610159580000119,2.2872459667925336
-0.097375,1.6104897024122542,2.282929019078887
-0.09735,1.610159580000119,2.2782799984641913
-0.09732500000000001,1.6108198248243892,2.2739630507505466
-0.0973,1.6104897024122542,2.269314030135849
-0.097275,1.6108198248243895,2.2653291553232524
-0.09725,1.6108198248243895,2.260680134708556
-0.097225,1.611149947236525,2.2563631869949097
-0.09720000000000001,1.611149947236525,2.251714166380214
-0.097175,1.611149947236525,2.247397218666568
-0.09715,1.6114800696486602,2.2430802709529214
-0.097125,1.6114800696486602,2.238431250338225
-0.0971,1.6118101920607957,2.234114302624579
-0.09707500000000001,1.6118101920607957,2.2291332091088334
-0.09705,1.612140314472931,2.225148334296237
-0.097025,1.6118101920607957,2.2201672407804907
-0.097,1.612140314472931,2.216182365967894
-0.096975,1.612140314472931,2.2112012724521484
-0.09695000000000001,1.6124704368850664,2.207216397639552
-0.096925,1.6124704368850664,2.2022353041238043
-0.0969,1.6124704368850664,2.1979183564101596
-0.096875,1.6124704368850664,2.1929372628944144
-0.09685,1.6128005592972017,2.188620315180768
-0.09682500000000001,1.6128005592972017,2.1836392216650222
-0.0968,1.612800559297202,2.1789902010503237
-0.096775,1.6134608041214724,2.17434118043563
-0.09675,1.6134608041214724,2.1700242327219836
-0.096725,1.6134608041214724,2.165375212107288
-0.09670000000000001,1.6134608041214724,2.160394118591542
-0.096675,1.6137909265336077,2.1560771708778934
-0.09665,1.6134608041214724,2.15109607736215
-0.096625,1.6141210489457432,2.1467791296485035
-0.0966,1.613790926533608,2.1417980361327578
-0.09657500000000001,1.6141210489457432,2.1374810884191113
-0.09655,1.6141210489457434,2.1321679220023144
-0.096525,1.6144511713578784,2.1278509742886698
-0.0965,1.6144511713578784,2.122869880772924
-0.096475,1.614781293770014,2.118220860158228
-0.09645000000000001,1.614781293770014,2.113571839543532
-0.096425,1.614781293770014,2.108590746027784
-0.0964,1.614781293770014,2.1039417254130903
-0.096375,1.614781293770014,2.098960631897344
-0.09635,1.6154415385942846,2.0943116112826483
-0.09632500000000001,1.6151114161821494,2.0893305177669026
-0.0963,1.6151114161821494,2.0846814971522045
-0.096275,1.6151114161821494,2.079700403636461
-0.09625,1.6154415385942846,2.0750513830217647
-0.096225,1.6154415385942846,2.070070289506019
-0.09620000000000001,1.6154415385942846,2.065421268891323
-0.096175,1.6154415385942846,2.0604401753755752
-0.09615,1.6154415385942846,2.0554590818598317
-0.096125,1.61577166100642,2.0511421341461853
-0.0961,1.61577166100642,2.0454968948283403
-0.09607500000000001,1.61577166100642,2.041179947114694
-0.09605,1.61577166100642,2.035534707796847
-0.096025,1.61577166100642,2.0312177600832024
-0.096,1.61577166100642,2.025904593666407
-0.095975,1.61577166100642,2.021255573051711
-0.09595000000000001,1.61577166100642,2.016274479535965
-0.095925,1.6157716610064201,2.0112933860202173
-0.0959,1.6161017834185554,2.0066443654055233
-0.095875,1.6161017834185554,2.0009991260876783
-0.09585,1.6161017834185554,1.9966821783740318
-0.09582500000000001,1.6161017834185554,1.9913690119572363
