DAQ/accel_badea_4_7/test_two_0228.csv

#Digilent WaveForms Oscilloscope Acquisition
#Device Name: Discovery2
#Serial Number: SN:210321B02866
#Date Time: 2021-04-07 15:18:49.077
#Sample rate: 8000Hz
#Samples: 8192
#Trigger: None
#Channel 1: Range: 50 mV/div Offset: -1.44 V Attenuation: 1 X
#Channel 2: Range: 20 mV/div Offset: -1.396 V Attenuation: 1 X
#Power Supplies: ON
#Positive Supply: ON
#Voltage: 3.3 V
#Negative Supply: OFF
#Voltage: -3.3 V

Time (s),Channel 1 (V),Channel 2 (V)
-0.02200000000000002,1.5936357523083422,1.3530083894828826
-0.021874999999999978,1.5952863643690185,1.3546687539881317
-0.021750000000000047,1.5942959971326132,1.35566497269128
-0.021625000000000005,1.5936357523083422,1.3563291184933797
-0.021499999999999964,1.592315262659801,1.3586536288007298
-0.021375000000000033,1.592645385071936,1.362970576514374
-0.02124999999999999,1.5923152626598007,1.36761959712907
-0.02112500000000006,1.5903345281869894,1.3709403261395656
-0.02100000000000002,1.5886839161263118,1.3722686177437662
-0.020874999999999977,1.586373059241364,1.3699441074364165
-0.020750000000000046,1.586373059241364,1.3662913055248729
-0.020625000000000004,1.5857128144170933,1.3636347223164735
-0.020499999999999963,1.585712814417094,1.360978139108075
-0.020375000000000032,1.5873634264777703,1.359317774602827
-0.02024999999999999,1.585382692004958,1.360646066207026
-0.02012500000000006,1.5867031816534989,1.3639667952175216
-0.020000000000000018,1.586373059241364,1.3656271597227718
-0.019874999999999976,1.5840622023564177,1.3689478887332693
-0.019750000000000045,1.5867031816534984,1.3699441074364176
-0.019625000000000004,1.5867031816534996,1.368947888733269
-0.019499999999999962,1.5860429368292295,1.3649630139206697
-0.01937500000000003,1.5873634264777703,1.3589857017017775
-0.01924999999999999,1.585382692004958,1.3533404623839322
-0.01912500000000006,1.5886839161263102,1.3506838791755358
-0.019000000000000017,1.5896742833627178,1.3506838791755347
-0.018874999999999975,1.5923152626598012,1.3513480249776346
-0.018750000000000044,1.5933056298962063,1.353008389482882
-0.018625000000000003,1.5949562419568837,1.352676316581833
-0.01849999999999996,1.5995779557267797,1.3503518062744826
-0.01837500000000003,1.6022189350238616,1.3457027856597887
-0.01824999999999999,1.603539424672403,1.3397254734408939
-0.018125000000000058,1.600238200551051,1.3334160883209523
-0.018000000000000016,1.5956164867811542,1.329099140607303
-0.017874999999999974,1.590334528186985,1.3277708490031048
-0.017750000000000044,1.5824115902957434,1.3294312135083521
-0.017625000000000002,1.5774597541137094,1.3330840154198995
-0.01749999999999996,1.5748187748166267,1.3380651089356475
-0.01737500000000003,1.5754790196408972,1.3423820566492917
-0.017249999999999988,1.5777898765258447,1.34437449405559
-0.017125000000000057,1.579440488586521,1.3433782753524413
-0.017000000000000015,1.5837320799442813,1.3393934005398442
-0.016874999999999973,1.5886839161263142,1.3344123070240965
-0.016750000000000043,1.5942959971326103,1.330095359310454
-0.016625,1.5975972212539664,1.3281029219041538
-0.01649999999999996,1.5982574660782367,1.3277708490031048
-0.01637500000000003,1.5972670988418312,1.329099140607303
-0.016249999999999987,1.5956164867811542,1.3324198696178002
-0.016125000000000056,1.5933056298962078,1.336404744430395
-0.016000000000000014,1.592645385071936,1.340721692144043
-0.015874999999999972,1.591985140247665,1.3413858379461416
-0.015750000000000042,1.5913248954233947,1.3393934005398451
-0.015625,1.5946261195447482,1.3347443799251482
-0.015499999999999958,1.5942959971326138,1.328434994805201
-0.015375000000000028,1.5969369764296957,1.3227897554873584
-0.015249999999999986,1.5959466091932897,1.3191369535758115
-0.015125000000000055,1.5956164867811544,1.319469026476861
-0.015000000000000013,1.5946261195447482,1.3237859741905076
-0.014874999999999972,1.5896742833627158,1.3304274322115042
-0.01475000000000004,1.5850525695928248,1.3350764528261956
-0.014624999999999999,1.5830718351200106,1.3427141295503413
-0.014499999999999957,1.5830718351200113,1.346366931461889
-0.014375000000000027,1.5847224471806873,1.347695223066087
-0.014249999999999985,1.5867031816534996,1.3450386398576895
-0.014125000000000054,1.5913248954233925,1.3440424211545408
-0.014000000000000012,1.5900044057748532,1.3413858379461425
-0.01387499999999997,1.5975972212539653,1.3407216921440428
-0.01375000000000004,1.59528636436902,1.3403896192429936
-0.013624999999999998,1.5942959971326127,1.3400575463419437
-0.013499999999999956,1.5933056298962043,1.3413858379461436
-0.013375000000000026,1.588023671302041,1.3437103482534904
-0.013249999999999984,1.5870333040656348,1.3470310772639877
-0.013125000000000053,1.5824115902957419,1.3516800978786816
-0.013000000000000012,1.5784501213501154,1.3566611913944295
-0.01287499999999997,1.5761392644651662,1.3596498475038772
-0.012750000000000039,1.5721777955195453,1.360313993305976
-0.012624999999999997,1.56887657139819,1.3573253371965288
-0.012499999999999956,1.564915102452565,1.3523442436807804
-0.012375000000000025,1.5632644903918889,1.3466990043629379
-0.012249999999999983,1.5589728990341292,1.3417179108471922
-0.012125000000000052,1.5543511852642362,1.3390613276387957
-0.01200000000000001,1.5520403283792865,1.3393934005398442
-0.011874999999999969,1.5510499611428819,1.3420499837482438
-0.011750000000000038,1.5540210628520974,1.3460348585608368
-0.011624999999999996,1.5563319197370462,1.3493555875713357
-0.011499999999999955,1.5622741231554855,1.351015952076584
-0.011375000000000024,1.5682163265739193,1.3506838791755347
-0.011249999999999982,1.5744886524044912,1.3500197333734352
-0.011125000000000052,1.578780243762249,1.349355587571336
-0.01100000000000001,1.5830718351200106,1.3496876604723855
-0.010874999999999968,1.5850525695928226,1.3516800978786854
-0.010750000000000037,1.5847224471806873,1.3550008268891809
-0.010624999999999996,1.5827417127078751,1.3586536288007278
-0.010499999999999954,1.576799509289436,1.3609781391080764
-0.010375000000000023,1.5708573058710023,1.3626385036133244
-0.010249999999999981,1.5649151024525656,1.364298868118573
-0.01012500000000005,1.5612837559190782,1.3662913055248704
-0.010000000000000009,1.5589728990341292,1.368947888733269
-0.009875000000000023,1.5589728990341292,1.3696120345353684
-0.009750000000000036,1.5626042455676181,1.369944107436418
-0.009624999999999995,1.5616138783312121,1.3692799616343188
-0.009500000000000008,1.566235592101107,1.3672875242280205
-0.009375000000000022,1.56887657139819,1.366623378425921
-0.009250000000000036,1.569866938634596,1.36761959712907
-0.009124999999999994,1.5741585299923557,1.3696120345353684
-0.009000000000000008,1.5741585299923557,1.3719365448427163
-0.008875000000000022,1.5738284075802205,1.3739289822490146
-0.008750000000000036,1.5721777955195435,1.3739289822490146
-0.008624999999999994,1.571517550695273,1.373596909347965
-0.008500000000000008,1.5711874282831375,1.3726006906448158
-0.008375000000000021,1.5731681627559497,1.3719365448427163
-0.008250000000000035,1.577129631701574,1.3726006906448158
-0.008124999999999993,1.579770610998657,1.3726006906448158
-0.008000000000000007,1.5857128144170933,1.3722686177437662
-0.007875000000000021,1.592645385071936,1.371272399040617
-0.007750000000000035,1.597927343666102,1.3682837429311696
-0.007624999999999993,1.599908078138914,1.3636347223164735
-0.007500000000000007,1.596276731605425,1.358321555899678
-0.00737500000000002,1.5919851402476652,1.3530083894828826
-0.007250000000000034,1.5850525695928228,1.3503518062744848
-0.0071249999999999925,1.577129631701574,1.3506838791755347
-0.007000000000000006,1.5711874282831375,1.3530083894828826
-0.00687500000000002,1.5685464489860546,1.35599704559233
-0.006750000000000034,1.5695368162224608,1.3576574100975787
-0.006624999999999992,1.573498285168085,1.3563291184933797
-0.006500000000000006,1.5810911006471984,1.3510159520765843
-0.0063750000000000195,1.5900044057748532,1.3430462024513912
-0.006250000000000033,1.6008984453753201,1.3334160883209494
-0.0061249999999999916,1.6094816280908395,1.324450119992607
-0.006000000000000005,1.6157539539214114,1.3178086619716127
-0.005875000000000019,1.6187250556306296,1.315152078763215
-0.005750000000000033,1.6193853004549004,1.3171445161695132
-0.005624999999999991,1.6187250556306296,1.323121828388408
-0.005500000000000005,1.6167443211578174,1.3307595051125516
-0.005375000000000019,1.6167443211578174,1.3377330360345956
-0.005250000000000032,1.6160840763335467,1.3413858379461425
-0.005124999999999991,1.616414198745682,1.340721692144043
-0.0050000000000000044,1.6187250556306296,1.3357405986282973
-0.004875000000000018,1.6193853004549004,1.3294312135083528
-0.004750000000000032,1.622026279751983,1.323121828388408
-0.00462499999999999,1.6207057901034418,1.318472807773712
-0.004500000000000004,1.6203756676913064,1.3181407348726624
-0.004375000000000018,1.616414198745682,1.323453901289458
-0.0042500000000000315,1.6094816280908395,1.3327519425188499
-0.00412499999999999,1.6041996694966736,1.34437449405559
-0.0040000000000000036,1.598917710902508,1.35599704559233
-0.0038750000000000173,1.5975972212539664,1.3646309410196227
-0.003750000000000031,1.5982574660782372,1.3682837429311696
-0.0036249999999999893,1.6008984453753201,1.3672875242280205
-0.003500000000000003,1.6041996694966736,1.3626385036133244
-0.003375000000000017,1.6084912608544333,1.3563291184933797
-0.0032500000000000306,1.6111322401515162,1.3493555875713357
-0.003124999999999989,1.611792484975787,1.3433782753524408
-0.0030000000000000027,1.6104719953272455,1.3403896192429934
-0.0028750000000000164,1.6058502815573505,1.3400575463419437
-0.00275000000000003,1.6008984453753201,1.3427141295503413
-0.0026249999999999885,1.5959466091932897,1.3470310772639877
-0.0025000000000000022,1.5909947730112592,1.3520121707797335
-0.002375000000000016,1.5886839161263118,1.3556649726912804
-0.0022500000000000298,1.586373059241364,1.3573253371965288
-0.002124999999999988,1.5867031816534996,1.3563291184933797
-0.0020000000000000018,1.586373059241364,1.3533404623839322
-0.0018750000000000155,1.585382692004958,1.3493555875713357
-0.0017500000000000293,1.584392324768552,1.3460348585608386
-0.0016249999999999876,1.5830718351200106,1.345370712758739
-0.0015000000000000013,1.5810911006471984,1.3470310772639877
-0.001375000000000015,1.578780243762251,1.3506838791755347
-0.0012500000000000289,1.5754790196408972,1.3553328997902305
-0.0011249999999999871,1.5721777955195435,1.359317774602827
-0.0010000000000000009,1.569866938634596,1.3613102120091254
-0.0008750000000000147,1.5685464489860546,1.3613102120091254
-0.0007500000000000284,1.567886204161784,1.3589857017017775
-0.0006249999999999867,1.5692066938103253,1.3553328997902305
-0.0005000000000000004,1.5695368162224608,1.351348024977634
-0.0003750000000000142,1.5695368162224608,1.3480272959671369
-0.000250000000000028,1.56887657139819,1.345370712758739
-0.00012499999999998623,1.5665657145132426,1.3440424211545403
0,1.5639247352161596,1.34437449405559
0.00012499999999998623,1.5616138783312121,1.3457027856597887
0.00024999999999997247,1.5589728990341292,1.3473631501650374
0.0003750000000000142,1.5576524093855877,1.3496876604723855
0.0005000000000000004,1.5573222869734524,1.351348024977634
0.0006249999999999867,1.5576524093855877,1.352344243680783
0.0007499999999999729,1.5589728990341292,1.352676316581833
0.0008750000000000147,1.5596331438584,1.352676316581833
0.0010000000000000009,1.560623511094806,1.352344243680783
0.0011249999999999871,1.5609536335069414,1.352344243680783
0.0012499999999999734,1.560623511094806,1.3530083894828826
0.001375000000000015,1.5609536335069414,1.3546687539881312
0.0015000000000000013,1.5609536335069414,1.3569932642954792
0.0016249999999999876,1.5612837559190766,1.3589857017017775
0.0017499999999999738,1.5629343679797536,1.360646066207026
0.0018750000000000155,1.5645849800404303,1.3609781391080757
0.0020000000000000018,1.5668958369253778,1.3599819204049266
0.002124999999999988,1.5692066938103253,1.3573253371965288
0.0022499999999999742,1.571517550695273,1.3543366810870814
0.002375000000000016,1.573498285168085,1.351348024977634
0.0025000000000000022,1.5748187748166265,1.3496876604723855
0.0026249999999999885,1.5754790196408972,1.3493555875713357
0.0027499999999999747,1.5758091420530327,1.3510159520765843
0.0028750000000000164,1.576139264465168,1.3533404623839322
0.0030000000000000027,1.576139264465168,1.3563291184933797
0.003124999999999989,1.577129631701574,1.359317774602827
0.003249999999999975,1.578780243762251,1.3609781391080757
0.003375000000000017,1.579770610998657,1.3603139933059762
0.003500000000000003,1.5814212230593339,1.3576574100975787
0.0036249999999999893,1.5824115902957399,1.3540046081860317
0.0037499999999999756,1.5837320799442813,1.3506838791755347
0.0038750000000000173,1.5847224471806873,1.347695223066087
0.0040000000000000036,1.5847224471806873,1.3457027856597887
0.00412499999999999,1.5850525695928228,1.3447065669566396
0.004249999999999976,1.5847224471806873,1.3450386398576895
0.004375000000000018,1.5850525695928228,1.3457027856597887
0.004500000000000004,1.5857128144170933,1.3457027856597887
0.00462499999999999,1.5873634264777703,1.3447065669566396
0.0047499999999999765,1.5893441609505825,1.3430462024513912
0.004875000000000018,1.5919851402476652,1.3400575463419437
0.0050000000000000044,1.5946261195447482,1.3367368173314464
0.005124999999999991,1.596276731605425,1.333748161221999
0.005249999999999977,1.5972670988418312,1.331423650914651
0.005375000000000019,1.5972670988418312,1.3307595051125516
0.005500000000000005,1.5972670988418312,1.3324198696178002
0.005624999999999991,1.5972670988418312,1.3354085257272477
0.005749999999999977,1.5972670988418312,1.3390613276387946
0.005874999999999964,1.597927343666102,1.3423820566492917
0.006000000000000005,1.598917710902508,1.3450386398576895
0.0061249999999999916,1.6005683229631846,1.3463669314618882
0.006249999999999978,1.6025490574359968,1.3473631501650374
0.006374999999999964,1.6041996694966736,1.3466990043629379
0.006500000000000006,1.6051900367330798,1.3460348585608386
0.006624999999999992,1.6058502815573505,1.3457027856597887
0.006749999999999978,1.6058502815573505,1.3460348585608386
0.0068749999999999645,1.6051900367330798,1.3473631501650374
0.007000000000000006,1.604529791908809,1.3500197333734352
0.0071249999999999925,1.603539424672403,1.3520121707797335
0.007249999999999979,1.602879179848132,1.353672535284982
0.007374999999999965,1.6022189350238616,1.353672535284982
0.007500000000000007,1.601888812611726,1.352676316581833
0.007624999999999993,1.6015586901995909,1.3510159520765843
0.007749999999999979,1.6008984453753201,1.3486914417692362
0.007874999999999965,1.599908078138914,1.3470310772639877
0.008000000000000007,1.5985875884903726,1.3457027856597887
0.008124999999999993,1.5966068540175604,1.3460348585608386
0.00824999999999998,1.5949562419568837,1.3473631501650374
0.008374999999999966,1.592645385071936,1.3486914417692362
0.008500000000000008,1.5903345281869885,1.3496876604723855
0.008624999999999994,1.589014038538447,1.3503518062744848
0.00874999999999998,1.588023671302041,1.3500197333734352
0.008874999999999966,1.5873634264777703,1.3483593688681865
0.009000000000000008,1.5870333040656348,1.3463669314618882
0.009124999999999994,1.5867031816534996,1.3437103482534904
0.00924999999999998,1.5860429368292288,1.342049983748242
0.009374999999999967,1.5850525695928228,1.340721692144043
0.009500000000000008,1.5837320799442813,1.3400575463419437
0.009624999999999995,1.5820814678836044,1.3403896192429934
0.009749999999999981,1.5804308558229276,1.3417179108471922
0.009874999999999967,1.5791103661743862,1.3427141295503413
0.010000000000000009,1.5781199989379802,1.3433782753524408
0.010124999999999995,1.577129631701574,1.3437103482534904
0.010249999999999981,1.576139264465168,1.3430462024513912
0.010374999999999968,1.5754790196408972,1.342049983748242
0.01050000000000001,1.5748187748166265,1.3410537650450929
0.010624999999999996,1.5741585299923557,1.340721692144043
0.010749999999999982,1.5731681627559497,1.340721692144043
0.010874999999999968,1.5721777955195435,1.3413858379461425
0.01100000000000001,1.5708573058710023,1.3423820566492917
0.011124999999999996,1.569866938634596,1.3437103482534904
0.011249999999999982,1.56887657139819,1.3450386398576895
0.011374999999999968,1.5685464489860546,1.3460348585608386
0.01150000000000001,1.56887657139819,1.3463669314618882
0.011624999999999996,1.5692066938103253,1.3460348585608386
0.011749999999999983,1.5701970610467315,1.3450386398576895
0.011874999999999969,1.571517550695273,1.3447065669566396
0.01200000000000001,1.5731681627559497,1.3447065669566396
0.012124999999999997,1.5744886524044912,1.3450386398576895
0.012249999999999983,1.575148897228762,1.3460348585608386
0.01237499999999997,1.5758091420530327,1.347695223066087
0.012500000000000011,1.576139264465168,1.3496876604723855
0.012624999999999997,1.5767995092894387,1.3516800978786838
0.012749999999999984,1.5777898765258447,1.353672535284982
0.01287499999999997,1.5791103661743862,1.3550008268891809
0.013000000000000012,1.5804308558229276,1.3553328997902305
0.013124999999999998,1.5814212230593339,1.3546687539881312
0.013249999999999984,1.5824115902957399,1.353672535284982
0.01337499999999997,1.5830718351200106,1.352676316581833
0.013500000000000012,1.5837320799442813,1.352344243680783
0.013624999999999998,1.584392324768552,1.3520121707797335
0.013749999999999984,1.5847224471806873,1.3530083894828826
0.01387499999999997,1.585382692004958,1.353672535284982
0.014000000000000012,1.5857128144170933,1.3543366810870814
0.014124999999999999,1.586373059241364,1.3550008268891809
0.014249999999999985,1.5876935488899055,1.3553328997902305
0.014374999999999971,1.589014038538447,1.3556649726912804
0.014500000000000013,1.5900044057748532,1.3550008268891809
0.014624999999999999,1.5909947730112592,1.3540046081860317
0.014749999999999985,1.5919851402476652,1.3530083894828826
0.014874999999999972,1.5923152626598007,1.352344243680783
0.015000000000000013,1.592645385071936,1.352344243680783
0.015125,1.592645385071936,1.3530083894828826
0.015249999999999986,1.5923152626598007,1.353672535284982
0.015374999999999972,1.5923152626598007,1.3543366810870814
0.015500000000000014,1.592645385071936,1.3550008268891809
0.015625,1.592645385071936,1.3550008268891809
0.015749999999999986,1.5929755074840715,1.3546687539881312
0.015874999999999972,1.5936357523083422,1.353672535284982
0.016000000000000014,1.5942959971326127,1.352676316581833
0.016125,1.5946261195447482,1.351348024977634
0.016249999999999987,1.5946261195447482,1.3506838791755347
0.016374999999999973,1.5946261195447482,1.3503518062744848
0.016500000000000015,1.5946261195447482,1.3503518062744848
0.016625,1.5942959971326127,1.3503518062744848
0.016749999999999987,1.5942959971326127,1.3506838791755347
0.016874999999999973,1.5942959971326127,1.3506838791755347
0.017000000000000015,1.5942959971326127,1.3500197333734352
0.017125,1.5946261195447482,1.3493555875713357
0.017249999999999988,1.5946261195447482,1.3486914417692362
0.017374999999999974,1.5946261195447482,1.3480272959671369
0.017500000000000016,1.5942959971326127,1.3473631501650374
0.017625000000000002,1.5939658747204775,1.3473631501650374
0.017749999999999988,1.5933056298962067,1.347695223066087
0.017874999999999974,1.5923152626598007,1.3480272959671369
0.018000000000000016,1.59165501783553,1.349023514670286
0.018125000000000002,1.5909947730112592,1.3496876604723855
0.01824999999999999,1.5903345281869885,1.3500197333734352
0.018374999999999975,1.5900044057748532,1.3503518062744848
0.018500000000000016,1.5893441609505825,1.3500197333734352
0.018625000000000003,1.589014038538447,1.3496876604723855
0.01874999999999999,1.5883537937141763,1.3496876604723855
0.018874999999999975,1.588023671302041,1.3493555875713357
0.019000000000000017,1.5873634264777703,1.3493555875713357
0.019125000000000003,1.5867031816534996,1.3493555875713357
0.01924999999999999,1.5860429368292288,1.3493555875713357
0.019374999999999976,1.585382692004958,1.3496876604723855
