DAQ/accel_badea_4_7/test_two_0034.csv

#Digilent WaveForms Oscilloscope Acquisition
#Device Name: Discovery2
#Serial Number: SN:210321B02866
#Date Time: 2021-04-07 15:00:28.817
#Sample rate: 8000Hz
#Samples: 8192
#Trigger: None
#Channel 1: Range: 50 mV/div Offset: -1.44 V Attenuation: 1 X
#Channel 2: Range: 50 mV/div Offset: -1.45 V Attenuation: 1 X
#Power Supplies: ON
#Positive Supply: ON
#Voltage: 3.3 V
#Negative Supply: OFF
#Voltage: -3.3 V

Time (s),Channel 1 (V),Channel 2 (V)
-0.36725,1.5731681627559497,1.3484758755249857
-0.367125,1.572177795519543,1.3481438026239356
-0.36700000000000005,1.571187428283138,1.3478117297228864
-0.366875,1.571517550695273,1.3474796568218366
-0.36674999999999996,1.5698669386345963,1.3471475839207865
-0.36662500000000003,1.5705271834588668,1.346815511019737
-0.3665,1.5701970610467315,1.3464834381186874
-0.36637500000000006,1.5685464489860552,1.3461513652176378
-0.36625,1.5692066938103253,1.3464834381186874
-0.366125,1.567225959337513,1.3468155110197373
-0.36600000000000005,1.5665657145132428,1.3471475839207865
-0.365875,1.5655753472768363,1.3478117297228862
-0.36574999999999996,1.5632644903918886,1.348475875524986
-0.36562500000000003,1.5629343679797536,1.3488079484260354
-0.3655,1.5609536335069414,1.3494720942281349
-0.36537500000000006,1.5599632662705356,1.3498041671291843
-0.36525,1.5596331438584,1.3494720942281349
-0.365125,1.5569921645613172,1.3488079484260354
-0.36500000000000005,1.5573222869734522,1.3488079484260354
-0.364875,1.556001797324911,1.3484758755249857
-0.36474999999999996,1.555011430088505,1.348475875524986
-0.36462500000000003,1.5556716749127755,1.3488079484260354
-0.3645,1.5543511852642342,1.349140021327085
-0.36437500000000006,1.5546813076763693,1.3494720942281346
-0.36425,1.5550114300885047,1.3498041671291845
-0.364125,1.55468130767637,1.3498041671291843
-0.36400000000000005,1.555671674912775,1.349472094228135
-0.363875,1.5550114300885047,1.349140021327085
-0.36374999999999996,1.555671674912776,1.3484758755249855
-0.36362500000000003,1.5566620421491817,1.3481438026239358
-0.3635,1.556001797324911,1.3474796568218366
-0.36337500000000006,1.5573222869734518,1.3468155110197373
-0.36325,1.5563319197370462,1.3464834381186874
-0.363125,1.556662042149182,1.3464834381186876
-0.36300000000000004,1.5569921645613167,1.3468155110197368
-0.362875,1.556001797324911,1.346815511019737
-0.36274999999999996,1.5566620421491815,1.3474796568218368
-0.36262500000000003,1.556001797324911,1.3478117297228862
-0.3625,1.5563319197370462,1.3481438026239358
-0.36237500000000006,1.5566620421491815,1.3474796568218368
-0.36225,1.5550114300885047,1.3461513652176376
-0.362125,1.555011430088504,1.3448230736134381
-0.36200000000000004,1.5536909404399641,1.3434947820092407
-0.361875,1.5527005732035573,1.342166490405041
-0.36174999999999996,1.5533608180278273,1.3411702717018916
-0.36162500000000003,1.5520403283792865,1.3408381988008422
-0.3615,1.552370450791422,1.3408381988008422
-0.36137500000000006,1.5520403283792867,1.340174052998743
-0.36125,1.5513800835550158,1.3395099071966432
-0.361125,1.552700573203557,1.3385136884934938
-0.36100000000000004,1.5520403283792867,1.337849542691395
-0.360875,1.5527005732035573,1.3368533239882456
-0.36074999999999996,1.5533608180278278,1.3365212510871955
-0.36062500000000003,1.5530306956156927,1.3358571052850965
-0.3605,1.5540210628520987,1.335192959482997
-0.36037500000000006,1.5536909404399637,1.335192959482997
-0.36025,1.5543511852642342,1.3358571052850965
-0.360125,1.5556716749127755,1.336853323988246
-0.36000000000000004,1.5556716749127755,1.3378495426913943
-0.359875,1.5573222869734524,1.339841980097693
-0.35974999999999996,1.5583126542098589,1.3411702717018923
-0.35962500000000003,1.5593030214462646,1.342166490405041
-0.3595,1.5612837559190766,1.34349478200924
-0.35937500000000006,1.5619440007433472,1.344158927811339
-0.35925,1.5639247352161596,1.3444910007123891
-0.35912499999999997,1.564915102452566,1.344823073613439
-0.35900000000000004,1.5659054696889714,1.345487219415538
-0.358875,1.567886204161784,1.3454872194155383
-0.35874999999999996,1.5678862041617847,1.3458192923165884
-0.358625,1.5692066938103253,1.346815511019737
-0.3585,1.5701970610467315,1.3471475839207867
-0.35837500000000005,1.5698669386345963,1.347811729722886
-0.35825,1.5711874282831375,1.3481438026239358
-0.35812499999999997,1.5708573058710025,1.3484758755249862
-0.35800000000000004,1.5715175506952728,1.3494720942281344
-0.357875,1.5718476731074082,1.3498041671291845
-0.35774999999999996,1.5715175506952732,1.3501362400302344
-0.357625,1.5721777955195435,1.350468312931284
-0.3575,1.571517550695273,1.3511324587333835
-0.35737500000000005,1.571517550695273,1.3521286774365322
-0.35725,1.5721777955195435,1.3531248961396818
-0.35712499999999997,1.5711874282831377,1.3534569690407314
-0.35700000000000004,1.571847673107408,1.3534569690407314
-0.356875,1.571517550695273,1.353789041941781
-0.35674999999999996,1.5715175506952732,1.354121114842831
-0.356625,1.5718476731074082,1.354121114842831
-0.3565,1.5708573058710023,1.354121114842831
-0.35637500000000005,1.5711874282831373,1.3537890419417813
-0.35625,1.5708573058710023,1.353789041941781
-0.35612499999999997,1.5701970610467313,1.3537890419417808
-0.35600000000000004,1.569866938634596,1.3534569690407314
-0.355875,1.5682163265739193,1.3534569690407314
-0.35574999999999996,1.5678862041617838,1.3534569690407314
-0.355625,1.5672259593375133,1.3534569690407314
-0.3555,1.5659054696889718,1.3531248961396818
-0.35537500000000005,1.5659054696889718,1.3531248961396818
-0.35525,1.5645849800404303,1.3534569690407314
-0.355125,1.5639247352161596,1.3534569690407314
-0.35500000000000004,1.5635946128040241,1.353789041941781
-0.354875,1.5622741231554829,1.353789041941781
-0.35475,1.5626042455676181,1.354121114842831
-0.354625,1.5616138783312121,1.354121114842831
-0.35450000000000004,1.5612837559190766,1.354121114842831
-0.354375,1.5612837559190766,1.3547852606449302
-0.35425,1.560623511094806,1.3547852606449302
-0.354125,1.5612837559190766,1.35511733354598
-0.35400000000000004,1.5612837559190766,1.3554494064470297
-0.353875,1.5619440007433474,1.3564456251501789
-0.35375,1.5639247352161596,1.3581059896554275
-0.353625,1.5645849800404303,1.3591022083585766
-0.35350000000000004,1.566235592101107,1.3604304999627754
-0.353375,1.5672259593375133,1.3614267186659246
-0.35325,1.567886204161784,1.3624229373690737
-0.353125,1.569866938634596,1.3634191560722229
-0.35300000000000004,1.5701970610467315,1.364415374775372
-0.352875,1.5711874282831375,1.3650795205774715
-0.35275,1.571517550695273,1.3650795205774715
-0.352625,1.5711874282831375,1.3650795205774715
-0.35250000000000004,1.5718476731074082,1.3650795205774715
-0.352375,1.571517550695273,1.3647474476764216
-0.35225,1.571517550695273,1.3640833018743224
-0.352125,1.5718476731074082,1.3637512289732725
-0.35200000000000004,1.5708573058710023,1.3634191560722229
-0.351875,1.5711874282831375,1.362090864468024
-0.35175,1.569866938634596,1.3604304999627754
-0.351625,1.5695368162224608,1.359766354160676
-0.35150000000000003,1.569866938634596,1.3591022083585766
-0.351375,1.56887657139819,1.3584380625564771
-0.35125,1.5692066938103253,1.3577739167543776
-0.351125,1.5685464489860546,1.3567776980512285
-0.35100000000000003,1.567886204161784,1.3557814793480794
-0.350875,1.5675560817496486,1.35511733354598
-0.35075,1.566235592101107,1.354121114842831
-0.350625,1.5659054696889718,1.3531248961396818
-0.35050000000000003,1.565245224864701,1.352792823238632
-0.350375,1.5642548576282949,1.3521286774365326
-0.35025,1.5642548576282949,1.3514645316344331
-0.350125,1.5629343679797536,1.3508003858323336
-0.35000000000000003,1.5626042455676181,1.350468312931284
-0.349875,1.5622741231554829,1.3501362400302341
-0.34975,1.5616138783312121,1.3494720942281349
-0.349625,1.5616138783312121,1.3488079484260354
-0.34950000000000003,1.5609536335069414,1.3481438026239358
-0.349375,1.5609536335069414,1.3478117297228862
-0.34925,1.5609536335069414,1.3471475839207867
-0.349125,1.560623511094806,1.346815511019737
-0.34900000000000003,1.5609536335069414,1.3461513652176376
-0.348875,1.560623511094806,1.3454872194155383
-0.34875,1.5609536335069414,1.3451551465144884
-0.348625,1.5612837559190766,1.3444910007123891
-0.34850000000000003,1.5609536335069414,1.3441589278113393
-0.348375,1.5616138783312121,1.3441589278113393
-0.34825,1.5616138783312121,1.3438268549102896
-0.348125,1.5616138783312121,1.3438268549102896
-0.34800000000000003,1.5626042455676181,1.34349478200924
-0.347875,1.5622741231554829,1.34349478200924
-0.34775,1.5629343679797536,1.3438268549102896
-0.347625,1.5629343679797536,1.3441589278113393
-0.34750000000000003,1.5626042455676181,1.3441589278113393
-0.347375,1.5632644903918889,1.3441589278113393
-0.34725,1.5629343679797536,1.3441589278113393
-0.347125,1.5632644903918889,1.3448230736134388
-0.34700000000000003,1.5629343679797536,1.3448230736134388
-0.346875,1.5626042455676181,1.3448230736134388
-0.34675,1.5626042455676181,1.3448230736134388
-0.346625,1.5622741231554829,1.3448230736134388
-0.34650000000000003,1.5622741231554829,1.3448230736134388
-0.346375,1.5622741231554829,1.3451551465144884
-0.34625,1.5616138783312121,1.3451551465144884
-0.346125,1.5619440007433474,1.3451551465144884
-0.34600000000000003,1.5616138783312121,1.3454872194155383
-0.345875,1.5612837559190766,1.3454872194155383
-0.34575,1.560623511094806,1.3448230736134388
-0.345625,1.5589728990341292,1.34349478200924
-0.34550000000000003,1.5576524093855877,1.342166490405041
-0.345375,1.556001797324911,1.3408381988008422
-0.34525,1.5543511852642342,1.3395099071966432
-0.345125,1.5536909404399635,1.338513688493494
-0.34500000000000003,1.5520403283792865,1.337517469790345
-0.344875,1.5513800835550158,1.3368533239882456
-0.34475,1.5503897163186098,1.3358571052850965
-0.344625,1.549729471494339,1.335192959482997
-0.34450000000000003,1.549729471494339,1.3345288136808975
-0.344375,1.5490692266700683,1.3345288136808975
-0.34425,1.549729471494339,1.3345288136808975
-0.344125,1.5500595939064743,1.3348608865819473
-0.34400000000000003,1.549729471494339,1.335192959482997
-0.343875,1.550719838730745,1.3355250323840466
-0.34375,1.5510499611428805,1.3358571052850965
-0.343625,1.5513800835550158,1.3365212510871958
-0.3435,1.5527005732035573,1.337517469790345
-0.343375,1.5536909404399635,1.338845761394544
-0.34325,1.5553415525006402,1.3405061258997926
-0.343125,1.556992164561317,1.342166490405041
-0.343,1.5583126542098584,1.3438268549102896
-0.342875,1.5602933886826706,1.3451551465144884
-0.34275,1.5612837559190766,1.3464834381186874
-0.342625,1.5626042455676181,1.3478117297228862
-0.3425,1.5635946128040241,1.3484758755249857
-0.342375,1.5639247352161596,1.3494720942281349
-0.34225,1.565245224864701,1.3501362400302341
-0.342125,1.5655753472768363,1.3508003858323336
-0.342,1.5659054696889718,1.3514645316344331
-0.341875,1.5668958369253778,1.3517966045354828
-0.34175,1.5668958369253778,1.3521286774365326
-0.341625,1.5672259593375133,1.3521286774365326
-0.3415,1.5672259593375133,1.3524607503375823
-0.341375,1.567886204161784,1.352792823238632
-0.34125,1.5682163265739193,1.3531248961396818
-0.341125,1.5682163265739193,1.3531248961396818
-0.341,1.5685464489860546,1.3534569690407314
-0.340875,1.5682163265739193,1.3534569690407314
-0.34075,1.5685464489860546,1.3534569690407314
-0.340625,1.5685464489860546,1.353789041941781
-0.3405,1.5685464489860546,1.353789041941781
-0.340375,1.56887657139819,1.354121114842831
-0.34025,1.56887657139819,1.354121114842831
-0.340125,1.56887657139819,1.354121114842831
-0.34,1.5692066938103253,1.354121114842831
-0.339875,1.56887657139819,1.354121114842831
-0.33975,1.56887657139819,1.353789041941781
-0.339625,1.56887657139819,1.353789041941781
-0.3395,1.5685464489860546,1.353789041941781
-0.33937500000000004,1.56887657139819,1.354121114842831
-0.33925,1.5682163265739193,1.354121114842831
-0.339125,1.5685464489860546,1.354121114842831
-0.339,1.5685464489860546,1.354121114842831
-0.33887500000000004,1.5682163265739193,1.354121114842831
-0.33875,1.5685464489860546,1.353789041941781
-0.338625,1.5682163265739193,1.3534569690407314
-0.3385,1.5682163265739193,1.3531248961396818
-0.33837500000000004,1.5682163265739193,1.3531248961396818
-0.33825,1.567886204161784,1.3531248961396818
-0.338125,1.5682163265739193,1.3531248961396818
-0.338,1.567886204161784,1.352792823238632
-0.33787500000000004,1.567886204161784,1.3524607503375823
-0.33775,1.567886204161784,1.352792823238632
-0.337625,1.5672259593375133,1.3524607503375823
-0.3375,1.5672259593375133,1.352792823238632
-0.33737500000000004,1.5672259593375133,1.352792823238632
-0.33725,1.567886204161784,1.3534569690407314
-0.337125,1.56887657139819,1.3547852606449302
-0.337,1.569866938634596,1.3564456251501789
-0.33687500000000004,1.5708573058710023,1.357441843853328
-0.33675,1.571517550695273,1.3584380625564771
-0.336625,1.5718476731074082,1.3594342812596263
-0.3365,1.572507917931679,1.360762572863825
-0.33637500000000004,1.572507917931679,1.3617587915669742
-0.33625,1.5731681627559497,1.3624229373690737
-0.336125,1.5731681627559497,1.3627550102701234
-0.336,1.5728380403438145,1.3627550102701234
-0.33587500000000003,1.5728380403438145,1.3630870831711732
-0.33575,1.5721777955195435,1.3627550102701234
-0.335625,1.571517550695273,1.3627550102701234
-0.3355,1.5711874282831375,1.3624229373690737
-0.33537500000000003,1.5705271834588668,1.3624229373690737
-0.33525,1.5695368162224608,1.3617587915669742
-0.335125,1.5685464489860546,1.360762572863825
-0.335,1.5675560817496486,1.3600984270617258
-0.33487500000000003,1.5672259593375133,1.3594342812596263
-0.33475,1.566235592101107,1.3587701354575268
-0.334625,1.5655753472768363,1.3581059896554275
-0.3345,1.5649151024525656,1.3567776980512285
-0.33437500000000003,1.5639247352161596,1.3557814793480794
-0.33425,1.5635946128040241,1.3544531877438806
-0.334125,1.5626042455676181,1.3534569690407314
-0.334,1.5626042455676181,1.3524607503375823
-0.33387500000000003,1.5622741231554829,1.3517966045354828
-0.33375,1.5612837559190766,1.3508003858323336
-0.333625,1.5612837559190766,1.3501362400302341
-0.3335,1.5609536335069414,1.3494720942281349
-0.33337500000000003,1.560623511094806,1.3488079484260354
-0.33325,1.5602933886826706,1.3478117297228862
-0.333125,1.5602933886826706,1.3474796568218366
-0.333,1.5602933886826706,1.346815511019737
-0.33287500000000003,1.5602933886826706,1.3461513652176376
-0.33275,1.5602933886826706,1.345819292316588
-0.332625,1.560623511094806,1.3454872194155383
-0.3325,1.5602933886826706,1.3451551465144884
-0.33237500000000003,1.5602933886826706,1.3451551465144884
-0.33225,1.5602933886826706,1.3448230736134388
-0.332125,1.5602933886826706,1.3444910007123891
-0.332,1.5602933886826706,1.3441589278113393
-0.33187500000000003,1.5602933886826706,1.3438268549102896
-0.33175,1.5602933886826706,1.34349478200924
-0.331625,1.5599632662705352,1.3431627091081901
-0.3315,1.5602933886826706,1.34349478200924
-0.33137500000000003,1.560623511094806,1.34349478200924
-0.33125,1.560623511094806,1.34349478200924
-0.331125,1.560623511094806,1.34349478200924
-0.331,1.5609536335069414,1.34349478200924
-0.33087500000000003,1.560623511094806,1.34349478200924
-0.33075,1.5609536335069414,1.3438268549102896
-0.330625,1.560623511094806,1.3441589278113393
-0.3305,1.560623511094806,1.3444910007123891
-0.33037500000000003,1.5602933886826706,1.3444910007123891
-0.33025,1.5599632662705352,1.3448230736134388
-0.330125,1.5602933886826706,1.3444910007123891
-0.33,1.5602933886826706,1.3448230736134388
-0.32987500000000003,1.5602933886826706,1.3444910007123891
-0.32975,1.560623511094806,1.3444910007123891
-0.329625,1.560623511094806,1.3444910007123891
-0.3295,1.560623511094806,1.3444910007123891
-0.32937500000000003,1.560623511094806,1.3448230736134388
-0.32925,1.560623511094806,1.3448230736134388
-0.329125,1.560623511094806,1.3441589278113393
-0.329,1.5593030214462646,1.3431627091081901
-0.32887500000000003,1.558642776621994,1.342166490405041
-0.32875,1.5576524093855877,1.3408381988008422
-0.328625,1.5563319197370462,1.339841980097693
-0.3285,1.5556716749127755,1.338845761394544
-0.32837500000000003,1.5550114300885047,1.3381816155924444
-0.32825,1.5546813076763695,1.3378495426913948
-0.328125,1.5540210628520987,1.3371853968892953
-0.328,1.5530306956156927,1.3368533239882456
-0.327875,1.5530306956156927,1.3365212510871958
-0.32775,1.5530306956156927,1.3365212510871958
-0.327625,1.5530306956156927,1.3365212510871958
-0.3275,1.5530306956156927,1.3365212510871958
-0.327375,1.553360818027828,1.3368533239882456
-0.32725,1.5536909404399635,1.3371853968892953
-0.327125,1.5536909404399635,1.337517469790345
-0.327,1.5540210628520987,1.3378495426913948
-0.326875,1.5550114300885047,1.338845761394544
-0.32675,1.556001797324911,1.339841980097693
-0.326625,1.5566620421491817,1.3411702717018918
-0.3265,1.5576524093855877,1.3424985633060909
-0.326375,1.5579825317977232,1.34349478200924
-0.32625,1.5589728990341292,1.3448230736134388
-0.326125,1.5596331438584,1.345819292316588
-0.326,1.5602933886826706,1.3471475839207867
-0.325875,1.5609536335069414,1.3484758755249857
-0.32575,1.5612837559190766,1.3494720942281349
-0.325625,1.5619440007433474,1.350468312931284
-0.3255,1.5622741231554829,1.3511324587333835
-0.325375,1.5626042455676181,1.3517966045354828
-0.32525,1.5629343679797536,1.3521286774365326
-0.325125,1.5629343679797536,1.352792823238632
-0.325,1.5635946128040241,1.3531248961396818
-0.324875,1.5639247352161596,1.3531248961396818
-0.32475,1.5642548576282949,1.3531248961396818
-0.324625,1.5649151024525656,1.3531248961396818
-0.3245,1.5649151024525656,1.3534569690407314
-0.324375,1.5655753472768363,1.3534569690407314
-0.32425,1.5655753472768363,1.3534569690407314
-0.324125,1.5655753472768363,1.353789041941781
-0.324,1.5665657145132426,1.353789041941781
-0.323875,1.5659054696889718,1.353789041941781
-0.32375000000000004,1.5665657145132426,1.353789041941781
-0.323625,1.5665657145132426,1.353789041941781
-0.3235,1.5665657145132426,1.353789041941781
-0.323375,1.5668958369253778,1.3534569690407314
-0.32325000000000004,1.5668958369253778,1.352792823238632
-0.323125,1.5672259593375133,1.3521286774365326
-0.323,1.5672259593375133,1.3517966045354828
-0.322875,1.5672259593375133,1.3511324587333835
-0.32275000000000004,1.5675560817496486,1.3508003858323336
-0.322625,1.5675560817496486,1.3508003858323336
-0.3225,1.5675560817496486,1.3508003858323336
-0.322375,1.5675560817496486,1.3514645316344331
-0.32225000000000004,1.5672259593375133,1.3517966045354828
-0.322125,1.5672259593375133,1.3524607503375823
-0.322,1.5668958369253778,1.352792823238632
-0.321875,1.5668958369253778,1.3534569690407314
-0.32175000000000004,1.5668958369253778,1.353789041941781
-0.321625,1.5668958369253778,1.353789041941781
-0.3215,1.5672259593375133,1.3534569690407314
-0.321375,1.5675560817496486,1.352792823238632
-0.32125000000000004,1.5675560817496486,1.3517966045354828
-0.321125,1.567886204161784,1.3511324587333835
-0.321,1.567886204161784,1.3501362400302341
-0.320875,1.5675560817496486,1.3498041671291845
-0.32075000000000004,1.567886204161784,1.3498041671291845
-0.320625,1.5675560817496486,1.350468312931284
-0.3205,1.5682163265739193,1.3517966045354828
-0.320375,1.56887657139819,1.353789041941781
-0.32025000000000003,1.5692066938103253,1.3554494064470297
-0.320125,1.5692066938103253,1.357441843853328
-0.32,1.5695368162224608,1.3587701354575268
-0.319875,1.5695368162224608,1.360762572863825
-0.31975000000000003,1.5701970610467315,1.3624229373690737
-0.319625,1.569866938634596,1.3637512289732725
-0.3195,1.5718476731074082,1.3650795205774715
-0.319375,1.5711874282831375,1.3654115934785211
-0.31925000000000003,1.5721777955195435,1.3657436663795708
-0.319125,1.5728380403438145,1.3654115934785211
-0.319,1.5718476731074082,1.364415374775372
-0.318875,1.5741585299923557,1.3637512289732725
-0.31875000000000003,1.5728380403438145,1.3630870831711732
-0.318625,1.5718476731074082,1.362090864468024
-0.3185,1.5718476731074082,1.3614267186659246
-0.318375,1.56887657139819,1.3614267186659246
