DAQ/accel_badea_4_7/test_two_0024.csv

#Digilent WaveForms Oscilloscope Acquisition
#Device Name: Discovery2
#Serial Number: SN:210321B02866
#Date Time: 2021-04-07 15:00:18.517
#Sample rate: 8000Hz
#Samples: 8192
#Trigger: None
#Channel 1: Range: 50 mV/div Offset: -1.44 V Attenuation: 1 X
#Channel 2: Range: 50 mV/div Offset: -1.45 V Attenuation: 1 X
#Power Supplies: ON
#Positive Supply: ON
#Voltage: 3.3 V
#Negative Supply: OFF
#Voltage: -3.3 V

Time (s),Channel 1 (V),Channel 2 (V)
-0.36725,1.5655753472768363,1.3517966045354828
-0.367125,1.5655753472768363,1.3511324587333833
-0.36700000000000005,1.5655753472768363,1.3508003858323339
-0.366875,1.5655753472768363,1.3508003858323336
-0.36674999999999996,1.566565714513243,1.3521286774365333
-0.36662500000000003,1.5675560817496486,1.3534569690407314
-0.3665,1.5685464489860546,1.3544531877438806
-0.36637500000000006,1.5695368162224603,1.3554494064470293
-0.36625,1.569866938634596,1.3564456251501789
-0.366125,1.570527183458867,1.3571097709522786
-0.36600000000000005,1.5711874282831373,1.3577739167543774
-0.365875,1.5718476731074082,1.3584380625564771
-0.36574999999999996,1.5718476731074085,1.3591022083585769
-0.36562500000000003,1.5721777955195435,1.3594342812596263
-0.3655,1.5721777955195435,1.359766354160676
-0.36537500000000006,1.5721777955195435,1.3600984270617256
-0.36525,1.5718476731074082,1.359766354160676
-0.365125,1.5715175506952728,1.3597663541606757
-0.36500000000000005,1.5711874282831377,1.3594342812596265
-0.364875,1.5705271834588668,1.3591022083585766
-0.36474999999999996,1.5698669386345958,1.3587701354575266
-0.36462500000000003,1.5695368162224608,1.3584380625564771
-0.3645,1.56887657139819,1.3577739167543776
-0.36437500000000006,1.5682163265739195,1.3571097709522786
-0.36425,1.567886204161784,1.3567776980512285
-0.364125,1.5675560817496483,1.355781479348079
-0.36400000000000005,1.566895836925378,1.3547852606449307
-0.363875,1.566235592101107,1.353789041941781
-0.36374999999999996,1.565575347276836,1.3524607503375818
-0.36362500000000003,1.5645849800404303,1.3514645316344331
-0.3635,1.5639247352161596,1.3501362400302341
-0.36337500000000006,1.5635946128040243,1.3491400213270854
-0.36325,1.5632644903918889,1.3488079484260354
-0.363125,1.562604245567618,1.3481438026239356
-0.36300000000000004,1.562274123155483,1.3478117297228864
-0.362875,1.5616138783312121,1.3474796568218366
-0.36274999999999996,1.5616138783312121,1.3471475839207867
-0.36262500000000003,1.5616138783312121,1.3471475839207867
-0.3625,1.5612837559190766,1.346815511019737
-0.36237500000000006,1.5612837559190766,1.3464834381186876
-0.36225,1.5609536335069414,1.345819292316588
-0.362125,1.5612837559190764,1.3451551465144882
-0.36200000000000004,1.5609536335069416,1.3444910007123894
-0.361875,1.5609536335069414,1.3441589278113393
-0.36174999999999996,1.5609536335069414,1.3438268549102894
-0.36162500000000003,1.5609536335069414,1.34349478200924
-0.3615,1.560623511094806,1.3428306362071405
-0.36137500000000006,1.560623511094806,1.3428306362071405
-0.36125,1.5602933886826706,1.3424985633060909
-0.361125,1.5606235110948057,1.3424985633060909
-0.36100000000000004,1.5602933886826709,1.3424985633060909
-0.360875,1.560623511094806,1.3424985633060909
-0.36074999999999996,1.5606235110948057,1.3424985633060906
-0.36062500000000003,1.5602933886826706,1.342166490405041
-0.3605,1.5602933886826706,1.342166490405041
-0.36037500000000006,1.5602933886826706,1.342166490405041
-0.36025,1.5602933886826706,1.3418344175039914
-0.360125,1.560623511094806,1.3418344175039914
-0.36000000000000004,1.560623511094806,1.3418344175039914
-0.359875,1.5609536335069414,1.3418344175039914
-0.35974999999999996,1.5609536335069414,1.3421664904050412
-0.35962500000000003,1.5609536335069414,1.3428306362071405
-0.3595,1.5609536335069414,1.34349478200924
-0.35937500000000006,1.5606235110948061,1.344158927811339
-0.35925,1.560623511094806,1.3448230736134388
-0.35912499999999997,1.560623511094806,1.3458192923165884
-0.35900000000000004,1.560623511094806,1.3468155110197366
-0.358875,1.5609536335069414,1.3474796568218366
-0.35874999999999996,1.5612837559190764,1.3474796568218361
-0.358625,1.5609536335069414,1.3464834381186874
-0.3585,1.560623511094806,1.3448230736134388
-0.35837500000000005,1.5599632662705354,1.3431627091081908
-0.35825,1.5593030214462646,1.3411702717018918
-0.35812499999999997,1.558972899034129,1.3388457613945433
-0.35800000000000004,1.5583126542098586,1.337185396889296
-0.357875,1.5583126542098584,1.3361891781861461
-0.35774999999999996,1.5576524093855875,1.3355250323840464
-0.357625,1.556992164561317,1.3348608865819473
-0.3575,1.5563319197370462,1.335192959482997
-0.35737500000000005,1.5556716749127757,1.3355250323840464
-0.35725,1.5550114300885047,1.3361891781861461
-0.35712499999999997,1.5550114300885045,1.3368533239882459
-0.35700000000000004,1.5546813076763697,1.3375174697903447
-0.356875,1.5543511852642342,1.3381816155924444
-0.35674999999999996,1.5546813076763697,1.3388457613945441
-0.356625,1.5550114300885047,1.3395099071966432
-0.3565,1.5556716749127755,1.3408381988008422
-0.35637500000000005,1.5569921645613163,1.3428306362071396
-0.35625,1.5579825317977232,1.3441589278113393
-0.35612499999999997,1.5596331438584004,1.3458192923165886
-0.35600000000000004,1.560623511094806,1.3471475839207867
-0.355875,1.5616138783312121,1.3484758755249857
-0.35574999999999996,1.5626042455676183,1.3501362400302348
-0.355625,1.5632644903918889,1.3517966045354828
-0.3555,1.5635946128040241,1.352792823238632
-0.35537500000000005,1.5639247352161594,1.3537890419417806
-0.35525,1.5632644903918889,1.3544531877438806
-0.355125,1.5639247352161596,1.35511733354598
-0.35500000000000004,1.5639247352161596,1.3554494064470297
-0.354875,1.5642548576282949,1.35511733354598
-0.35475,1.5649151024525656,1.3544531877438806
-0.354625,1.565245224864701,1.3534569690407314
-0.35450000000000004,1.5659054696889718,1.3521286774365326
-0.354375,1.566235592101107,1.3511324587333835
-0.35425,1.5665657145132426,1.350468312931284
-0.354125,1.5668958369253778,1.3501362400302341
-0.35400000000000004,1.5668958369253778,1.3501362400302341
-0.353875,1.5668958369253778,1.3508003858323336
-0.35375,1.5665657145132426,1.3514645316344331
-0.353625,1.566235592101107,1.3524607503375823
-0.35350000000000004,1.5655753472768363,1.3534569690407314
-0.353375,1.5655753472768363,1.354121114842831
-0.35325,1.565245224864701,1.35511733354598
-0.353125,1.5655753472768363,1.3554494064470297
-0.35300000000000004,1.565245224864701,1.35511733354598
-0.352875,1.5659054696889718,1.3547852606449302
-0.35275,1.566235592101107,1.3544531877438806
-0.352625,1.5668958369253778,1.354121114842831
-0.35250000000000004,1.5668958369253778,1.353789041941781
-0.352375,1.5672259593375133,1.3534569690407314
-0.35225,1.5672259593375133,1.3531248961396818
-0.352125,1.5675560817496486,1.3531248961396818
-0.35200000000000004,1.5668958369253778,1.3531248961396818
-0.351875,1.5675560817496486,1.353789041941781
-0.35175,1.566235592101107,1.354121114842831
-0.351625,1.567886204161784,1.3547852606449302
-0.35150000000000003,1.5675560817496486,1.35511733354598
-0.351375,1.5672259593375133,1.3547852606449302
-0.35125,1.56887657139819,1.3547852606449302
-0.351125,1.567886204161784,1.353789041941781
-0.35100000000000003,1.5682163265739193,1.352792823238632
-0.350875,1.5692066938103253,1.3524607503375823
-0.35075,1.5685464489860546,1.3517966045354828
-0.350625,1.5695368162224608,1.3514645316344331
-0.35050000000000003,1.5692066938103253,1.3517966045354828
-0.350375,1.5692066938103253,1.3521286774365326
-0.35025,1.56887657139819,1.352792823238632
-0.350125,1.5701970610467315,1.3544531877438806
-0.35000000000000003,1.5711874282831375,1.3557814793480794
-0.349875,1.572507917931679,1.3571097709522784
-0.34975,1.5731681627559497,1.3571097709522784
-0.349625,1.5741585299923557,1.3567776980512285
-0.34950000000000003,1.5744886524044912,1.3557814793480794
-0.349375,1.576139264465168,1.3547852606449302
-0.34925,1.576139264465168,1.3534569690407314
-0.349125,1.577129631701574,1.3521286774365326
-0.34900000000000003,1.5774597541137094,1.350468312931284
-0.348875,1.577129631701574,1.3494720942281349
-0.34875,1.5777898765258447,1.3494720942281349
-0.348625,1.5758091420530327,1.3494720942281349
-0.34850000000000003,1.5758091420530327,1.350468312931284
-0.348375,1.5738284075802205,1.3517966045354828
-0.34825,1.572507917931679,1.3534569690407314
-0.348125,1.571517550695273,1.3547852606449302
-0.34800000000000003,1.56887657139819,1.3561135522491292
-0.347875,1.567886204161784,1.3577739167543776
-0.34775,1.567886204161784,1.3594342812596263
-0.347625,1.566235592101107,1.3600984270617258
-0.34750000000000003,1.5672259593375133,1.3604304999627754
-0.347375,1.5659054696889718,1.359766354160676
-0.34725,1.5645849800404303,1.3584380625564771
-0.347125,1.5668958369253778,1.357441843853328
-0.34700000000000003,1.565245224864701,1.3567776980512285
-0.346875,1.5655753472768363,1.3554494064470297
-0.34675,1.5655753472768363,1.3547852606449302
-0.346625,1.5639247352161596,1.353789041941781
-0.34650000000000003,1.5639247352161596,1.3531248961396818
-0.346375,1.5626042455676181,1.352792823238632
-0.34625,1.5616138783312121,1.3524607503375823
-0.346125,1.5599632662705352,1.3521286774365326
-0.34600000000000003,1.558642776621994,1.3517966045354828
-0.345875,1.5579825317977232,1.3514645316344331
-0.34575,1.5576524093855877,1.3508003858323336
-0.345625,1.5573222869734524,1.3501362400302341
-0.34550000000000003,1.5579825317977232,1.3488079484260354
-0.345375,1.5573222869734524,1.3471475839207867
-0.34525,1.5593030214462646,1.3451551465144884
-0.345125,1.558642776621994,1.3424985633060909
-0.34500000000000003,1.5602933886826706,1.3401740529987427
-0.344875,1.5596331438584,1.337517469790345
-0.34475,1.5599632662705352,1.3358571052850965
-0.344625,1.560623511094806,1.335192959482997
-0.34450000000000003,1.5589728990341292,1.3355250323840466
-0.344375,1.5602933886826706,1.3368533239882456
-0.34425,1.5583126542098584,1.338513688493494
-0.344125,1.556992164561317,1.3405061258997926
-0.34400000000000003,1.5576524093855877,1.3424985633060909
-0.343875,1.5556716749127755,1.3444910007123891
-0.34375,1.5566620421491817,1.3464834381186874
-0.343625,1.5563319197370462,1.3478117297228862
-0.3435,1.556001797324911,1.349140021327085
-0.343375,1.556992164561317,1.3501362400302341
-0.34325,1.5576524093855877,1.3511324587333835
-0.343125,1.5579825317977232,1.3521286774365326
-0.343,1.5596331438584,1.352792823238632
-0.342875,1.5602933886826706,1.353789041941781
-0.34275,1.5616138783312121,1.354121114842831
-0.342625,1.5622741231554829,1.3547852606449302
-0.3425,1.5626042455676181,1.3544531877438806
-0.342375,1.5639247352161596,1.3547852606449302
-0.34225,1.5635946128040241,1.354121114842831
-0.342125,1.5642548576282949,1.3531248961396818
-0.342,1.5645849800404303,1.3517966045354828
-0.341875,1.5626042455676181,1.349140021327085
-0.34175,1.5616138783312121,1.3464834381186874
-0.341625,1.5599632662705352,1.34349478200924
-0.3415,1.5583126542098584,1.3408381988008422
-0.341375,1.5579825317977232,1.338845761394544
-0.34125,1.556001797324911,1.337517469790345
-0.341125,1.5566620421491817,1.3365212510871958
-0.341,1.5550114300885047,1.3361891781861461
-0.340875,1.5546813076763695,1.3358571052850965
-0.34075,1.5543511852642342,1.3361891781861461
-0.340625,1.5543511852642342,1.3361891781861461
-0.3405,1.5546813076763695,1.3358571052850965
-0.340375,1.5556716749127755,1.3358571052850965
-0.34025,1.5556716749127755,1.335192959482997
-0.340125,1.556992164561317,1.3348608865819473
-0.34,1.5563319197370462,1.3345288136808975
-0.339875,1.556992164561317,1.3345288136808975
-0.33975,1.556992164561317,1.335192959482997
-0.339625,1.5573222869734524,1.3368533239882456
-0.3395,1.5579825317977232,1.3395099071966432
-0.33937500000000004,1.5573222869734524,1.3424985633060909
-0.33925,1.5576524093855877,1.3451551465144884
-0.339125,1.5579825317977232,1.3484758755249857
-0.339,1.5579825317977232,1.350468312931284
-0.33887500000000004,1.5599632662705352,1.3524607503375823
-0.33875,1.5602933886826706,1.352792823238632
-0.338625,1.5619440007433474,1.352792823238632
-0.3385,1.5632644903918889,1.3521286774365326
-0.33837500000000004,1.5642548576282949,1.3514645316344331
-0.33825,1.5659054696889718,1.3508003858323336
-0.338125,1.5668958369253778,1.350468312931284
-0.338,1.5672259593375133,1.3501362400302341
-0.33787500000000004,1.5685464489860546,1.3498041671291845
-0.33775,1.567886204161784,1.3498041671291845
-0.337625,1.5695368162224608,1.3498041671291845
-0.3375,1.56887657139819,1.3494720942281349
-0.33737500000000004,1.5692066938103253,1.3484758755249857
-0.33725,1.5695368162224608,1.3478117297228862
-0.337125,1.56887657139819,1.346815511019737
-0.337,1.5692066938103253,1.3461513652176376
-0.33687500000000004,1.5682163265739193,1.345819292316588
-0.33675,1.5672259593375133,1.3454872194155383
-0.336625,1.5672259593375133,1.3461513652176376
-0.3365,1.565245224864701,1.3474796568218366
-0.33637500000000004,1.565245224864701,1.3494720942281349
-0.33625,1.5642548576282949,1.3517966045354828
-0.336125,1.5632644903918889,1.3531248961396818
-0.336,1.5635946128040241,1.354121114842831
-0.33587500000000003,1.5629343679797536,1.3547852606449302
-0.33575,1.5635946128040241,1.35511733354598
-0.335625,1.5639247352161596,1.35511733354598
-0.3355,1.5632644903918889,1.3544531877438806
-0.33537500000000003,1.5639247352161596,1.3544531877438806
-0.33525,1.5635946128040241,1.3544531877438806
-0.335125,1.5632644903918889,1.3547852606449302
-0.335,1.5629343679797536,1.3554494064470297
-0.33487500000000003,1.5612837559190766,1.3554494064470297
-0.33475,1.5612837559190766,1.35511733354598
-0.334625,1.560623511094806,1.3547852606449302
-0.3345,1.5599632662705352,1.3534569690407314
-0.33437500000000003,1.560623511094806,1.3524607503375823
-0.33425,1.5599632662705352,1.3511324587333835
-0.334125,1.560623511094806,1.3498041671291845
-0.334,1.5609536335069414,1.3488079484260354
-0.33387500000000003,1.5609536335069414,1.3478117297228862
-0.33375,1.5622741231554829,1.3471475839207867
-0.333625,1.5622741231554829,1.346815511019737
-0.3335,1.5642548576282949,1.3478117297228862
-0.33337500000000003,1.566235592101107,1.3494720942281349
-0.33325,1.567886204161784,1.3508003858323336
-0.333125,1.5701970610467315,1.3514645316344331
-0.333,1.5711874282831375,1.3521286774365326
-0.33287500000000003,1.5728380403438145,1.3524607503375823
-0.33275,1.5738284075802205,1.352792823238632
-0.332625,1.5741585299923557,1.3534569690407314
-0.3325,1.575148897228762,1.354121114842831
-0.33237500000000003,1.5748187748166265,1.35511733354598
-0.33225,1.5748187748166265,1.3564456251501789
-0.332125,1.5748187748166265,1.3581059896554275
-0.332,1.5741585299923557,1.3594342812596263
-0.33187500000000003,1.5744886524044912,1.3604304999627754
-0.33175,1.5738284075802205,1.360762572863825
-0.331625,1.5741585299923557,1.360762572863825
-0.3315,1.5741585299923557,1.3604304999627754
-0.33137500000000003,1.573498285168085,1.359766354160676
-0.33125,1.5738284075802205,1.3591022083585766
-0.331125,1.573498285168085,1.3584380625564771
-0.331,1.5731681627559497,1.3581059896554275
-0.33087500000000003,1.5731681627559497,1.3577739167543776
-0.33075,1.5718476731074082,1.3567776980512285
-0.330625,1.5718476731074082,1.3561135522491292
-0.3305,1.5708573058710023,1.3547852606449302
-0.33037500000000003,1.5701970610467315,1.3534569690407314
-0.33025,1.569866938634596,1.3517966045354828
-0.330125,1.56887657139819,1.350468312931284
-0.33,1.5682163265739193,1.349140021327085
-0.32987500000000003,1.5675560817496486,1.3478117297228862
-0.32975,1.566235592101107,1.3464834381186874
-0.329625,1.5655753472768363,1.3454872194155383
-0.3295,1.5642548576282949,1.3448230736134388
-0.32937500000000003,1.5632644903918889,1.3448230736134388
-0.32925,1.5622741231554829,1.3444910007123891
-0.329125,1.5609536335069414,1.3441589278113393
-0.329,1.560623511094806,1.3441589278113393
-0.32887500000000003,1.5599632662705352,1.3438268549102896
-0.32875,1.5593030214462646,1.34349478200924
-0.328625,1.5593030214462646,1.3431627091081901
-0.3285,1.558642776621994,1.3428306362071405
-0.32837500000000003,1.558642776621994,1.3431627091081901
-0.32825,1.5583126542098584,1.3431627091081901
-0.328125,1.5579825317977232,1.34349478200924
-0.328,1.5583126542098584,1.3441589278113393
-0.327875,1.5576524093855877,1.3444910007123891
-0.32775,1.5579825317977232,1.3454872194155383
-0.327625,1.5576524093855877,1.3461513652176376
-0.3275,1.5576524093855877,1.3471475839207867
-0.327375,1.5576524093855877,1.3478117297228862
-0.32725,1.5573222869734524,1.3484758755249857
-0.327125,1.5573222869734524,1.3494720942281349
-0.327,1.5573222869734524,1.3501362400302341
-0.326875,1.556992164561317,1.3508003858323336
-0.32675,1.5573222869734524,1.3511324587333835
-0.326625,1.556992164561317,1.3514645316344331
-0.3265,1.5573222869734524,1.3517966045354828
-0.326375,1.5579825317977232,1.3517966045354828
-0.32625,1.5579825317977232,1.3514645316344331
-0.326125,1.5589728990341292,1.3508003858323336
-0.326,1.5593030214462646,1.3501362400302341
-0.325875,1.5596331438584,1.3494720942281349
-0.32575,1.5602933886826706,1.3488079484260354
-0.325625,1.5602933886826706,1.3481438026239358
-0.3255,1.5609536335069414,1.3471475839207867
-0.325375,1.5602933886826706,1.3461513652176376
-0.32525,1.5593030214462646,1.3444910007123891
-0.325125,1.558642776621994,1.34349478200924
-0.325,1.5566620421491817,1.342166490405041
-0.324875,1.556001797324911,1.3408381988008422
-0.32475,1.5546813076763695,1.3395099071966432
-0.324625,1.5540210628520987,1.338513688493494
-0.3245,1.5536909404399635,1.337517469790345
-0.324375,1.5527005732035573,1.3365212510871958
-0.32425,1.552370450791422,1.3355250323840466
-0.324125,1.5520403283792865,1.3348608865819473
-0.324,1.5517102059671513,1.3348608865819473
-0.323875,1.552370450791422,1.3348608865819473
-0.32375000000000004,1.552370450791422,1.3348608865819473
-0.323625,1.5527005732035573,1.335192959482997
-0.3235,1.5536909404399635,1.3355250323840466
-0.323375,1.5540210628520987,1.3358571052850965
-0.32325000000000004,1.5553415525006402,1.3365212510871958
-0.323125,1.5563319197370462,1.337517469790345
-0.323,1.5576524093855877,1.3381816155924444
-0.322875,1.5593030214462646,1.339841980097693
-0.32275000000000004,1.560623511094806,1.3405061258997926
-0.322625,1.5619440007433474,1.3418344175039914
-0.3225,1.5632644903918889,1.34349478200924
-0.322375,1.5645849800404303,1.3448230736134388
-0.32225000000000004,1.5655753472768363,1.3461513652176376
-0.322125,1.5655753472768363,1.3471475839207867
-0.322,1.5665657145132426,1.3478117297228862
-0.321875,1.5668958369253778,1.3484758755249857
-0.32175000000000004,1.5668958369253778,1.3484758755249857
-0.321625,1.567886204161784,1.3484758755249857
-0.3215,1.5682163265739193,1.3488079484260354
-0.321375,1.56887657139819,1.349140021327085
-0.32125000000000004,1.5692066938103253,1.3494720942281349
-0.321125,1.5692066938103253,1.3494720942281349
-0.321,1.5695368162224608,1.3494720942281349
-0.320875,1.5692066938103253,1.3494720942281349
-0.32075000000000004,1.5692066938103253,1.3498041671291845
-0.320625,1.5692066938103253,1.350468312931284
-0.3205,1.56887657139819,1.350468312931284
-0.320375,1.5692066938103253,1.3508003858323336
-0.32025000000000003,1.56887657139819,1.3511324587333835
-0.320125,1.5685464489860546,1.3517966045354828
-0.32,1.5685464489860546,1.3517966045354828
-0.319875,1.5675560817496486,1.3521286774365326
-0.31975000000000003,1.5675560817496486,1.3524607503375823
-0.319625,1.5668958369253778,1.3524607503375823
-0.3195,1.566235592101107,1.352792823238632
-0.319375,1.5659054696889718,1.3531248961396818
-0.31925000000000003,1.565245224864701,1.353789041941781
-0.319125,1.5649151024525656,1.353789041941781
-0.319,1.5649151024525656,1.354121114842831
-0.318875,1.5645849800404303,1.354121114842831
-0.31875000000000003,1.5649151024525656,1.353789041941781
-0.318625,1.5649151024525656,1.353789041941781
-0.3185,1.5649151024525656,1.3534569690407314
-0.318375,1.565245224864701,1.3531248961396818
