DAQ/accel_badea_4_7/test_two_0253.csv

#Digilent WaveForms Oscilloscope Acquisition
#Device Name: Discovery2
#Serial Number: SN:210321B02866
#Date Time: 2021-04-07 15:34:57.596
#Sample rate: 8000Hz
#Samples: 8192
#Trigger: None
#Channel 1: Range: 50 mV/div Offset: -1.44 V Attenuation: 1 X
#Channel 2: Range: 20 mV/div Offset: -1.396 V Attenuation: 1 X
#Power Supplies: ON
#Positive Supply: ON
#Voltage: 3.3 V
#Negative Supply: OFF
#Voltage: -3.3 V

Time (s),Channel 1 (V),Channel 2 (V)
-0.02200000000000002,1.621035912515577,1.359649847503877
-0.021874999999999978,1.6213660349277126,1.3603139933059765
-0.021750000000000047,1.6216961573398476,1.3606460662070259
-0.021625000000000005,1.622026279751983,1.360646066207026
-0.021499999999999964,1.622026279751983,1.3609781391080757
-0.021375000000000033,1.622026279751983,1.3609781391080757
-0.02124999999999999,1.622026279751983,1.360646066207026
-0.02112500000000006,1.622026279751983,1.3599819204049268
-0.02100000000000002,1.6216961573398478,1.359317774602827
-0.020874999999999977,1.6213660349277121,1.3589857017017772
-0.020750000000000046,1.6210359125155773,1.3583215558996782
-0.020625000000000004,1.6203756676913064,1.3576574100975787
-0.020499999999999963,1.6203756676913061,1.3573253371965286
-0.020375000000000032,1.620045545279171,1.3566611913944295
-0.02024999999999999,1.6193853004549004,1.35599704559233
-0.02012500000000006,1.619055178042765,1.3550008268891813
-0.020000000000000018,1.6183949332184941,1.3540046081860317
-0.019874999999999976,1.6177346883942232,1.3530083894828822
-0.019750000000000045,1.6170744435699531,1.352012170779734
-0.019625000000000004,1.6167443211578174,1.3510159520765843
-0.019499999999999962,1.6164141987456817,1.350019733373435
-0.01937500000000003,1.6157539539214114,1.3493555875713357
-0.01924999999999999,1.6157539539214114,1.3486914417692362
-0.01912500000000006,1.6154238315092762,1.348027295967137
-0.019000000000000017,1.6147635866850052,1.347695223066087
-0.018874999999999975,1.614763586685005,1.3473631501650372
-0.018750000000000044,1.6141033418607347,1.347031077263988
-0.018625000000000003,1.6137732194485992,1.3460348585608386
-0.01849999999999996,1.613773219448599,1.3457027856597887
-0.01837500000000003,1.6134430970364637,1.3457027856597887
-0.01824999999999999,1.6134430970364637,1.3450386398576895
-0.018125000000000058,1.6127828522121932,1.3447065669566398
-0.018000000000000016,1.6124527298000577,1.34437449405559
-0.017874999999999974,1.6124527298000575,1.3440424211545403
-0.017750000000000044,1.6121226073879227,1.3440424211545403
-0.017625000000000002,1.6124527298000577,1.3440424211545403
-0.01749999999999996,1.6121226073879225,1.3437103482534902
-0.01737500000000003,1.6121226073879225,1.3433782753524408
-0.017249999999999988,1.611792484975787,1.3433782753524408
-0.017125000000000057,1.611792484975787,1.3430462024513914
-0.017000000000000015,1.6121226073879225,1.3433782753524408
-0.016874999999999973,1.6121226073879225,1.3437103482534907
-0.016750000000000043,1.6121226073879225,1.34404242115454
-0.016625,1.6124527298000577,1.34437449405559
-0.01649999999999996,1.612782852212193,1.3447065669566398
-0.01637500000000003,1.612782852212193,1.3450386398576895
-0.016249999999999987,1.612782852212193,1.3450386398576895
-0.016125000000000056,1.6131129746243282,1.3450386398576895
-0.016000000000000014,1.6131129746243285,1.3450386398576895
-0.015874999999999972,1.613443097036464,1.345370712758739
-0.015750000000000042,1.613773219448599,1.345370712758739
-0.015625,1.6137732194485992,1.3457027856597887
-0.015499999999999958,1.6141033418607345,1.3457027856597887
-0.015375000000000028,1.6141033418607345,1.3457027856597887
-0.015249999999999986,1.6141033418607345,1.3460348585608386
-0.015125000000000055,1.6141033418607345,1.346366931461888
-0.015000000000000013,1.6137732194485992,1.3463669314618882
-0.014874999999999972,1.6141033418607345,1.346699004362938
-0.01475000000000004,1.6141033418607345,1.3470310772639875
-0.014624999999999999,1.6134430970364637,1.3463669314618882
-0.014499999999999957,1.6127828522121925,1.3453707127587384
-0.014375000000000027,1.611792484975787,1.3440424211545403
-0.014249999999999985,1.610802117739381,1.3430462024513912
-0.014125000000000054,1.6101418729151105,1.3423820566492919
-0.014000000000000012,1.6094816280908395,1.3413858379461425
-0.01387499999999997,1.608491260854433,1.3407216921440426
-0.01375000000000004,1.6078310160301628,1.3397254734408943
-0.013624999999999998,1.607170771205892,1.3393934005398442
-0.013499999999999956,1.6068406487937563,1.3390613276387946
-0.013375000000000026,1.6065105263816213,1.3390613276387946
-0.013249999999999984,1.6061804039694858,1.3387292547377447
-0.013125000000000053,1.6058502815573508,1.3387292547377447
-0.013000000000000012,1.6058502815573505,1.3387292547377447
-0.01287499999999997,1.6058502815573505,1.3390613276387948
-0.012750000000000039,1.6058502815573505,1.339393400539844
-0.012624999999999997,1.6061804039694858,1.3397254734408939
-0.012499999999999956,1.6065105263816215,1.3400575463419442
-0.012375000000000025,1.607170771205892,1.3410537650450929
-0.012249999999999983,1.6075008936180273,1.3417179108471922
-0.012125000000000052,1.6081611384422978,1.3423820566492914
-0.01200000000000001,1.6084912608544333,1.3433782753524408
-0.011874999999999969,1.6091515056787047,1.3450386398576901
-0.011750000000000038,1.6104719953272448,1.3463669314618876
-0.011624999999999996,1.611792484975787,1.347695223066087
-0.011499999999999955,1.612452729800058,1.3486914417692364
-0.011375000000000024,1.6131129746243285,1.3493555875713357
-0.011249999999999982,1.6137732194485992,1.3503518062744848
-0.011125000000000052,1.6144334642728697,1.3506838791755345
-0.01100000000000001,1.6147635866850052,1.351348024977634
-0.010874999999999968,1.615093709097141,1.3520121707797337
-0.010750000000000037,1.615423831509276,1.352676316581833
-0.010624999999999996,1.6157539539214114,1.3530083894828826
-0.010499999999999954,1.6157539539214114,1.353340462383932
-0.010375000000000023,1.6157539539214114,1.3530083894828826
-0.010249999999999981,1.6157539539214114,1.3533404623839322
-0.01012500000000005,1.6160840763335464,1.3533404623839322
-0.010000000000000009,1.616414198745682,1.3533404623839322
-0.009875000000000023,1.6167443211578174,1.3540046081860317
-0.009750000000000036,1.6167443211578174,1.3540046081860317
-0.009624999999999995,1.6167443211578174,1.3543366810870814
-0.009500000000000008,1.6177346883942234,1.3550008268891809
-0.009375000000000022,1.6174045659820881,1.3543366810870814
-0.009250000000000036,1.6167443211578174,1.3543366810870814
-0.009124999999999994,1.6180648108063589,1.3540046081860317
-0.009000000000000008,1.6167443211578174,1.3546687539881312
-0.008875000000000022,1.6183949332184941,1.3546687539881312
-0.008750000000000036,1.6180648108063589,1.3546687539881312
-0.008624999999999994,1.6167443211578174,1.3543366810870814
-0.008500000000000008,1.6197154228670356,1.3553328997902305
-0.008375000000000021,1.6167443211578174,1.3553328997902305
-0.008250000000000035,1.6180648108063589,1.3550008268891809
-0.008124999999999993,1.6177346883942234,1.3546687539881312
-0.008000000000000007,1.616414198745682,1.3543366810870814
-0.007875000000000021,1.6180648108063589,1.3540046081860317
-0.007750000000000035,1.6167443211578174,1.353672535284982
-0.007624999999999993,1.616414198745682,1.3533404623839322
-0.007500000000000007,1.6174045659820881,1.352676316581833
-0.00737500000000002,1.6160840763335467,1.3520121707797335
-0.007250000000000034,1.6177346883942234,1.3516800978786838
-0.0071249999999999925,1.6167443211578174,1.351348024977634
-0.007000000000000006,1.6167443211578174,1.3510159520765843
-0.00687500000000002,1.6167443211578174,1.3506838791755347
-0.006750000000000034,1.6160840763335467,1.3506838791755347
-0.006624999999999992,1.6160840763335467,1.3510159520765843
-0.006500000000000006,1.6157539539214114,1.351348024977634
-0.0063750000000000195,1.6157539539214114,1.351348024977634
-0.006250000000000033,1.6167443211578174,1.351348024977634
-0.0061249999999999916,1.6177346883942234,1.3520121707797335
-0.006000000000000005,1.6207057901034418,1.3530083894828826
-0.005875000000000019,1.622026279751983,1.3533404623839322
-0.005750000000000033,1.62367689181266,1.3530083894828826
-0.005624999999999991,1.624667259049066,1.352676316581833
-0.005500000000000005,1.6249973814612013,1.3530083894828826
-0.005375000000000019,1.6256576262854723,1.3543366810870814
-0.005250000000000032,1.6256576262854723,1.3566611913944295
-0.005124999999999991,1.6256576262854723,1.3589857017017775
-0.0050000000000000044,1.6256576262854723,1.360646066207026
-0.004875000000000018,1.6249973814612013,1.3616422849101752
-0.004750000000000032,1.6249973814612013,1.361974357811225
-0.00462499999999999,1.6243371366369308,1.360646066207026
-0.004500000000000004,1.6243371366369308,1.359317774602827
-0.004375000000000018,1.6243371366369308,1.3573253371965288
-0.0042500000000000315,1.6233467694005246,1.3563291184933797
-0.00412499999999999,1.6233467694005246,1.3550008268891809
-0.0040000000000000036,1.6223564021641186,1.3546687539881312
-0.0038750000000000173,1.6213660349277124,1.3546687539881312
-0.003750000000000031,1.6203756676913064,1.3553328997902305
-0.0036249999999999893,1.6190551780427649,1.3556649726912804
-0.003500000000000003,1.6187250556306296,1.35599704559233
-0.003375000000000017,1.6177346883942234,1.35599704559233
-0.0032500000000000306,1.6174045659820881,1.3556649726912804
-0.003124999999999989,1.6174045659820881,1.3546687539881312
-0.0030000000000000027,1.6174045659820881,1.3533404623839322
-0.0028750000000000164,1.6174045659820881,1.3520121707797335
-0.00275000000000003,1.617074443569953,1.3506838791755347
-0.0026249999999999885,1.6167443211578174,1.3500197333734352
-0.0025000000000000022,1.6160840763335467,1.349023514670286
-0.002375000000000016,1.6147635866850052,1.3493555875713357
-0.0022500000000000298,1.6147635866850052,1.3496876604723855
-0.002124999999999988,1.6141033418607345,1.3503518062744848
-0.0020000000000000018,1.6141033418607345,1.3500197333734352
-0.0018750000000000155,1.61443346427287,1.3493555875713357
-0.0017500000000000293,1.6141033418607345,1.3480272959671369
-0.0016249999999999876,1.61443346427287,1.3466990043629379
-0.0015000000000000013,1.6137732194485992,1.3460348585608386
-0.001375000000000015,1.6131129746243285,1.345370712758739
-0.0012500000000000289,1.611792484975787,1.345370712758739
-0.0011249999999999871,1.6101418729151102,1.3460348585608386
-0.0010000000000000009,1.6088213832665688,1.3470310772639877
-0.0008750000000000147,1.6075008936180273,1.3486914417692362
-0.0007500000000000284,1.6061804039694858,1.3500197333734352
-0.0006249999999999867,1.605520159145215,1.3510159520765843
-0.0005000000000000004,1.605520159145215,1.351348024977634
-0.0003750000000000142,1.6058502815573505,1.3506838791755347
-0.000250000000000028,1.6065105263816213,1.3496876604723855
-0.00012499999999998623,1.6068406487937565,1.3480272959671369
0,1.608161138442298,1.3470310772639877
0.00012499999999998623,1.6078310160301625,1.3450386398576895
0.00024999999999997247,1.6075008936180273,1.3447065669566396
0.0003750000000000142,1.6088213832665688,1.345370712758739
0.0005000000000000004,1.6078310160301625,1.3466990043629379
0.0006249999999999867,1.6084912608544333,1.3473631501650374
0.0007499999999999729,1.6094816280908395,1.3483593688681865
0.0008750000000000147,1.6094816280908395,1.349023514670286
0.0010000000000000009,1.611792484975787,1.3493555875713357
0.0011249999999999871,1.6121226073879225,1.3486914417692362
0.0012499999999999734,1.6131129746243285,1.3473631501650374
0.001375000000000015,1.61443346427287,1.3460348585608386
0.0015000000000000013,1.6137732194485992,1.3447065669566396
0.0016249999999999876,1.6150937090971407,1.3447065669566396
0.0017499999999999738,1.6150937090971407,1.345370712758739
0.0018750000000000155,1.6137732194485992,1.3460348585608386
0.0020000000000000018,1.6141033418607345,1.3470310772639877
0.002124999999999988,1.6124527298000577,1.3473631501650374
0.0022499999999999742,1.6111322401515162,1.3470310772639877
0.002375000000000016,1.6101418729151102,1.3460348585608386
0.0025000000000000022,1.6084912608544333,1.34437449405559
0.0026249999999999885,1.6088213832665688,1.3423820566492917
0.0027499999999999747,1.6078310160301625,1.340721692144043
0.0028750000000000164,1.607170771205892,1.3393934005398442
0.0030000000000000027,1.6068406487937565,1.338397181836695
0.003124999999999989,1.6058502815573505,1.337400963133546
0.003249999999999975,1.6058502815573505,1.337400963133546
0.003375000000000017,1.6061804039694858,1.3387292547377447
0.003500000000000003,1.6068406487937565,1.3393934005398442
0.0036249999999999893,1.6075008936180273,1.3393934005398442
0.0037499999999999756,1.609151505678704,1.3387292547377447
0.0038750000000000173,1.6104719953272455,1.337400963133546
0.0040000000000000036,1.611792484975787,1.3357405986282973
0.00412499999999999,1.6134430970364637,1.3350764528261978
0.004249999999999976,1.6141033418607345,1.3350764528261978
0.004375000000000018,1.6150937090971407,1.3364047444303968
0.004500000000000004,1.615423831509276,1.3380651089356455
0.00462499999999999,1.615423831509276,1.3403896192429934
0.0047499999999999765,1.6157539539214114,1.3427141295503413
0.004875000000000018,1.6150937090971407,1.3440424211545403
0.0050000000000000044,1.6150937090971407,1.3460348585608386
0.005124999999999991,1.617074443569953,1.3473631501650374
0.005249999999999977,1.615423831509276,1.3470310772639877
0.005375000000000019,1.617074443569953,1.3470310772639877
0.005500000000000005,1.617074443569953,1.3463669314618882
0.005624999999999991,1.6177346883942234,1.3473631501650374
0.005749999999999977,1.6187250556306296,1.347695223066087
0.005874999999999964,1.616414198745682,1.3463669314618882
0.006000000000000005,1.616414198745682,1.3460348585608386
0.0061249999999999916,1.617074443569953,1.3483593688681865
0.006249999999999978,1.6174045659820881,1.3516800978786838
0.006374999999999964,1.6180648108063589,1.352344243680783
0.006500000000000006,1.6137732194485992,1.3496876604723855
0.006624999999999992,1.6167443211578174,1.3493555875713357
0.006749999999999978,1.6180648108063589,1.352676316581833
0.0068749999999999645,1.6216961573398478,1.35599704559233
0.007000000000000006,1.6183949332184941,1.3543366810870814
0.0071249999999999925,1.6180648108063589,1.3503518062744848
0.007249999999999979,1.6174045659820881,1.3496876604723855
0.007374999999999965,1.6223564021641186,1.3530083894828826
0.007500000000000007,1.622026279751983,1.3546687539881312
0.007624999999999993,1.6190551780427649,1.351348024977634
0.007749999999999979,1.6147635866850052,1.347695223066087
0.007874999999999965,1.617074443569953,1.349023514670286
0.008000000000000007,1.6207057901034418,1.3546687539881312
0.008124999999999993,1.6190551780427649,1.3566611913944295
0.00824999999999998,1.612782852212193,1.352676316581833
0.008374999999999966,1.6101418729151102,1.3496876604723855
0.008500000000000008,1.612782852212193,1.3520121707797335
0.008624999999999994,1.6167443211578174,1.3576574100975787
0.00874999999999998,1.6134430970364637,1.3586536288007278
0.008874999999999966,1.6058502815573505,1.3543366810870814
0.009000000000000008,1.6065105263816213,1.352676316581833
0.009124999999999994,1.6094816280908395,1.3569932642954792
0.00924999999999998,1.6147635866850052,1.361974357811225
0.009374999999999967,1.6084912608544333,1.3599819204049266
0.009500000000000008,1.6038695470845383,1.3540046081860317
0.009624999999999995,1.6051900367330798,1.3520121707797335
0.009749999999999981,1.6121226073879225,1.3566611913944295
0.009874999999999967,1.6150937090971407,1.360646066207026
0.010000000000000009,1.6088213832665688,1.3576574100975787
0.010124999999999995,1.6051900367330798,1.3520121707797335
0.010249999999999981,1.6088213832665688,1.3520121707797335
0.010374999999999968,1.6150937090971407,1.3576574100975787
0.01050000000000001,1.6157539539214114,1.3603139933059762
0.010624999999999996,1.6094816280908395,1.3576574100975787
0.010749999999999982,1.6084912608544333,1.3546687539881312
0.010874999999999968,1.6150937090971407,1.3579894829986283
0.01100000000000001,1.62367689181266,1.3646309410196227
0.011124999999999996,1.6216961573398478,1.3652950868217222
0.011249999999999982,1.6177346883942234,1.3599819204049266
0.011374999999999968,1.6180648108063589,1.3569932642954792
0.01150000000000001,1.6259877486976075,1.3599819204049266
0.011624999999999996,1.6312697072917732,1.364298868118573
0.011749999999999983,1.6259877486976075,1.362970576514374
0.011874999999999969,1.621035912515577,1.359317774602827
0.01200000000000001,1.622026279751983,1.3589857017017775
0.012124999999999997,1.6279684831704198,1.3636347223164735
0.012249999999999983,1.6292889728189612,1.3669554513269706
0.01237499999999997,1.6230166469883893,1.3639667952175232
0.012500000000000011,1.6177346883942234,1.359317774602827
0.012624999999999997,1.621035912515577,1.3589857017017775
0.012749999999999984,1.624667259049066,1.361974357811225
0.01287499999999997,1.624667259049066,1.361974357811225
0.013000000000000012,1.617074443569953,1.3569932642954792
0.013124999999999998,1.615423831509276,1.353672535284982
0.013249999999999984,1.6197154228670356,1.3553328997902305
0.01337499999999997,1.6226865245762538,1.358321555899678
0.013500000000000012,1.6207057901034418,1.3573253371965288
0.013624999999999998,1.6141033418607345,1.352676316581833
0.013749999999999984,1.6147635866850052,1.351348024977634
0.01387499999999997,1.6203756676913064,1.3543366810870814
0.014000000000000012,1.6223564021641186,1.3553328997902305
0.014124999999999999,1.6187250556306296,1.351348024977634
0.014249999999999985,1.6141033418607345,1.3463669314618882
0.014374999999999971,1.6167443211578174,1.3466990043629379
0.014500000000000013,1.6213660349277124,1.3500197333734352
0.014624999999999999,1.6207057901034418,1.3503518062744848
0.014749999999999985,1.615423831509276,1.3466990043629379
0.014874999999999972,1.612782852212193,1.3450386398576895
0.015000000000000013,1.6167443211578174,1.3480272959671369
0.015125,1.6207057901034418,1.3506838791755347
0.015249999999999986,1.6183949332184941,1.3483593688681865
0.015374999999999972,1.6131129746243285,1.3430462024513912
0.015500000000000014,1.6134430970364637,1.3413858379461425
0.015625,1.6180648108063589,1.3440424211545403
0.015749999999999986,1.6203756676913064,1.345370712758739
0.015874999999999972,1.6157539539214114,1.3423820566492917
0.016000000000000014,1.6114623625636517,1.3387292547377447
0.016125,1.6124527298000577,1.3400575463419437
0.016249999999999987,1.6167443211578174,1.34437449405559
0.016374999999999973,1.6167443211578174,1.3460348585608386
0.016500000000000015,1.611792484975787,1.3427141295503413
0.016625,1.609151505678704,1.3403896192429934
0.016749999999999987,1.6124527298000577,1.3433782753524408
0.016874999999999973,1.616414198745682,1.3470310772639877
0.017000000000000015,1.6150937090971407,1.3457027856597887
0.017125,1.610802117739381,1.3410537650450929
0.017249999999999988,1.6098117505029748,1.3393934005398442
0.017374999999999974,1.61443346427287,1.3433782753524408
0.017500000000000016,1.616414198745682,1.3463669314618882
0.017625000000000002,1.6131129746243285,1.34437449405559
0.017749999999999988,1.6084912608544333,1.3413858379461425
0.017874999999999974,1.6098117505029748,1.3427141295503413
0.018000000000000016,1.6141033418607345,1.3473631501650374
0.018125000000000002,1.61443346427287,1.3483593688681865
0.01824999999999999,1.6104719953272455,1.34437449405559
0.018374999999999975,1.6075008936180273,1.3413858379461425
0.018500000000000016,1.6111322401515162,1.3433782753524408
0.018625000000000003,1.61443346427287,1.3470310772639877
0.01874999999999999,1.6121226073879225,1.345370712758739
0.018874999999999975,1.6068406487937565,1.3400575463419437
0.019000000000000017,1.6041996694966736,1.3377330360345956
0.019125000000000003,1.6075008936180273,1.340721692144043
0.01924999999999999,1.609151505678704,1.3430462024513912
0.019374999999999976,1.605520159145215,1.3403896192429934
