DAQ/accel_badea_4_7/test_two_0176.csv

#Digilent WaveForms Oscilloscope Acquisition
#Device Name: Discovery2
#Serial Number: SN:210321B02866
#Date Time: 2021-04-07 15:17:07.026
#Sample rate: 8000Hz
#Samples: 8192
#Trigger: None
#Channel 1: Range: 50 mV/div Offset: -1.44 V Attenuation: 1 X
#Channel 2: Range: 20 mV/div Offset: -1.396 V Attenuation: 1 X
#Power Supplies: ON
#Positive Supply: ON
#Voltage: 3.3 V
#Negative Supply: OFF
#Voltage: -3.3 V

Time (s),Channel 1 (V),Channel 2 (V)
-0.02200000000000002,1.5860429368292288,1.3503518062744848
-0.021874999999999978,1.5876935488899067,1.3510159520765852
-0.021750000000000047,1.5903345281869874,1.3530083894828817
-0.021625000000000005,1.5896742833627178,1.3533404623839322
-0.021499999999999964,1.5890140385384468,1.3540046081860317
-0.021375000000000033,1.5883537937141763,1.3540046081860317
-0.02124999999999999,1.5870333040656348,1.3530083894828826
-0.02112500000000006,1.5870333040656348,1.3510159520765852
-0.02100000000000002,1.5873634264777703,1.3496876604723855
-0.020874999999999977,1.5883537937141774,1.350351806274486
-0.020750000000000046,1.5906646505991227,1.3526763165818319
-0.020625000000000004,1.5900044057748532,1.3533404623839322
-0.020499999999999963,1.589344160950582,1.3536725352849819
-0.020375000000000032,1.5883537937141763,1.3533404623839322
-0.02024999999999999,1.5870333040656348,1.3520121707797335
-0.02012500000000006,1.5863730592413643,1.350019733373436
-0.020000000000000018,1.5867031816534996,1.3486914417692362
-0.019874999999999976,1.5876935488899067,1.349023514670287
-0.019750000000000045,1.5900044057748521,1.3510159520765834
-0.019625000000000004,1.589014038538447,1.3516800978786838
-0.019499999999999962,1.588683916126311,1.3520121707797332
-0.01937500000000003,1.5873634264777703,1.3516800978786838
-0.01924999999999999,1.5857128144170933,1.3503518062744848
-0.01912500000000006,1.5853826920049583,1.3486914417692368
-0.019000000000000017,1.585382692004958,1.3473631501650374
-0.018874999999999975,1.5863730592413652,1.3483593688681876
-0.018750000000000044,1.589014038538446,1.3506838791755336
-0.018625000000000003,1.588023671302041,1.351348024977634
-0.01849999999999996,1.5873634264777698,1.3520121707797332
-0.01837500000000003,1.586373059241364,1.351348024977634
-0.01824999999999999,1.585382692004958,1.3506838791755347
-0.018125000000000058,1.585712814417093,1.350351806274485
-0.018000000000000016,1.5870333040656348,1.3500197333734352
-0.017874999999999974,1.5890140385384484,1.3520121707797348
-0.017750000000000044,1.591985140247664,1.3550008268891796
-0.017625000000000002,1.5919851402476652,1.3563291184933797
-0.01749999999999996,1.591985140247665,1.3579894829986285
-0.01737500000000003,1.59165501783553,1.358321555899678
-0.017249999999999988,1.5906646505991238,1.3579894829986283
-0.017125000000000057,1.590994773011259,1.3566611913944302
-0.017000000000000015,1.5913248954233945,1.3556649726912804
-0.016874999999999973,1.592645385071937,1.3563291184933806
-0.016750000000000043,1.5949562419568826,1.358321555899677
-0.016625,1.5942959971326127,1.3586536288007278
-0.01649999999999996,1.5936357523083415,1.3589857017017772
-0.01637500000000003,1.5923152626598007,1.358321555899678
-0.016249999999999987,1.5906646505991238,1.3566611913944295
-0.016125000000000056,1.5896742833627182,1.3543366810870825
-0.016000000000000014,1.5893441609505825,1.352344243680783
-0.015874999999999972,1.5896742833627187,1.352344243680784
-0.015750000000000042,1.591655017835529,1.3543366810870805
-0.015625,1.5906646505991238,1.3546687539881312
-0.015499999999999958,1.589674283362717,1.3546687539881308
-0.015375000000000028,1.588023671302041,1.353672535284982
-0.015249999999999986,1.586373059241364,1.3520121707797335
-0.015125000000000055,1.5853826920049585,1.3496876604723866
-0.015000000000000013,1.5847224471806873,1.347695223066087
-0.014874999999999972,1.5857128144170942,1.3480272959671376
-0.01475000000000004,1.5876935488899047,1.3496876604723849
-0.014624999999999999,1.5867031816534996,1.3500197333734352
-0.014499999999999957,1.5860429368292281,1.3503518062744844
-0.014375000000000027,1.5847224471806873,1.3493555875713357
-0.014249999999999985,1.5830718351200106,1.3480272959671369
-0.014125000000000054,1.5820814678836048,1.3460348585608395
-0.014000000000000012,1.5817513454714691,1.34437449405559
-0.01387499999999997,1.582411590295741,1.3447065669566403
-0.01375000000000004,1.5847224471806862,1.346034858560838
-0.013624999999999998,1.5837320799442813,1.3463669314618882
-0.013499999999999956,1.58307183512001,1.3466990043629374
-0.013375000000000026,1.5814212230593339,1.3457027856597887
-0.013249999999999984,1.5801007334107924,1.3447065669566396
-0.013125000000000053,1.5797706109986571,1.3427141295503422
-0.013000000000000012,1.579770610998657,1.3410537650450929
-0.01287499999999997,1.580760978235064,1.342049983748243
-0.012750000000000039,1.5834019575321447,1.3440424211545394
-0.012624999999999997,1.5824115902957399,1.3447065669566396
-0.012499999999999956,1.582081467883604,1.3453707127587389
-0.012375000000000025,1.5810911006471984,1.3450386398576895
-0.012249999999999983,1.579770610998657,1.3440424211545403
-0.012125000000000052,1.5794404885865219,1.3423820566492923
-0.01200000000000001,1.579770610998657,1.3413858379461425
-0.011874999999999969,1.581421223059335,1.3423820566492928
-0.011750000000000038,1.5837320799442802,1.3447065669566385
-0.011624999999999996,1.5827417127078751,1.3457027856597887
-0.011499999999999955,1.5824115902957396,1.346366931461888
-0.011375000000000024,1.5817513454714691,1.3460348585608386
-0.011249999999999982,1.5804308558229276,1.3450386398576895
-0.011125000000000052,1.5804308558229276,1.3433782753524415
-0.01100000000000001,1.580760978235063,1.3423820566492917
-0.010874999999999968,1.5820814678836055,1.343046202451392
-0.010750000000000037,1.5847224471806873,1.3450386398576895
-0.010624999999999996,1.5840622023564166,1.3457027856597887
-0.010499999999999954,1.5837320799442811,1.3460348585608386
-0.010375000000000023,1.5830718351200106,1.3460348585608386
-0.010249999999999981,1.5817513454714691,1.3450386398576895
-0.01012500000000005,1.5810911006471986,1.3437103482534911
-0.010000000000000009,1.5804308558229276,1.3413858379461425
-0.009875000000000023,1.580760978235063,1.3410537650450929
-0.009750000000000036,1.5820814678836044,1.342049983748242
-0.009624999999999995,1.5804308558229276,1.3417179108471922
-0.009500000000000008,1.5791103661743862,1.3413858379461425
-0.009375000000000022,1.5774597541137094,1.3400575463419437
-0.009250000000000036,1.5754790196408972,1.338397181836695
-0.009124999999999994,1.5748187748166265,1.3364047444303968
-0.009000000000000008,1.5748187748166265,1.3347443799251482
-0.008875000000000022,1.5754790196408972,1.3350764528261978
-0.008750000000000036,1.5777898765258447,1.337400963133546
-0.008624999999999994,1.577129631701574,1.3380651089356455
-0.008500000000000008,1.5764693868773034,1.3390613276387946
-0.008375000000000021,1.5758091420530327,1.3387292547377447
-0.008250000000000035,1.5748187748166265,1.3380651089356455
-0.008124999999999993,1.5744886524044912,1.3367368173314464
-0.008000000000000007,1.575148897228762,1.3357405986282973
-0.007875000000000021,1.5767995092894387,1.337068890232496
-0.007750000000000035,1.5801007334107924,1.3400575463419437
-0.007624999999999993,1.580760978235063,1.3417179108471922
-0.007500000000000007,1.5810911006471984,1.3430462024513912
-0.00737500000000002,1.580760978235063,1.3440424211545403
-0.007250000000000034,1.5804308558229276,1.3440424211545403
-0.0071249999999999925,1.5810911006471984,1.3440424211545403
-0.007000000000000006,1.5820814678836044,1.3437103482534904
-0.00687500000000002,1.5837320799442813,1.3450386398576895
-0.006750000000000034,1.5867031816534996,1.3480272959671369
-0.006624999999999992,1.5867031816534996,1.349023514670286
-0.006500000000000006,1.586373059241364,1.3500197333734352
-0.0063750000000000195,1.5857128144170933,1.3506838791755347
-0.006250000000000033,1.5847224471806873,1.3496876604723855
-0.0061249999999999916,1.5847224471806873,1.3483593688681865
-0.006000000000000005,1.5850525695928228,1.347695223066087
-0.005875000000000019,1.586373059241364,1.3486914417692362
-0.005750000000000033,1.589014038538447,1.3510159520765843
-0.005624999999999991,1.5886839161263118,1.3520121707797335
-0.005500000000000005,1.5883537937141763,1.352676316581833
-0.005375000000000019,1.5873634264777703,1.352344243680783
-0.005250000000000032,1.5860429368292288,1.3510159520765843
-0.005124999999999991,1.5860429368292288,1.3493555875713357
-0.0050000000000000044,1.586373059241364,1.3480272959671369
-0.004875000000000018,1.5876935488899055,1.3486914417692362
-0.004750000000000032,1.5903345281869885,1.3510159520765843
-0.00462499999999999,1.5896742833627178,1.3516800978786838
-0.004500000000000004,1.5893441609505825,1.352344243680783
-0.004375000000000018,1.5883537937141763,1.3516800978786838
-0.0042500000000000315,1.5870333040656348,1.3506838791755347
-0.00412499999999999,1.5867031816534996,1.349023514670286
-0.0040000000000000036,1.5867031816534996,1.3480272959671369
-0.0038750000000000173,1.5876935488899055,1.3483593688681865
-0.003750000000000031,1.5900044057748532,1.3506838791755347
-0.0036249999999999893,1.589014038538447,1.3510159520765843
-0.003500000000000003,1.5886839161263118,1.3516800978786838
-0.003375000000000017,1.5876935488899055,1.3510159520765843
-0.0032500000000000306,1.5860429368292288,1.3500197333734352
-0.003124999999999989,1.585382692004958,1.3480272959671369
-0.0030000000000000027,1.5857128144170933,1.3466990043629379
-0.0028750000000000164,1.586373059241364,1.3473631501650374
-0.00275000000000003,1.5886839161263118,1.349023514670286
-0.0026249999999999885,1.5876935488899055,1.3496876604723855
-0.0025000000000000022,1.5870333040656348,1.3503518062744848
-0.002375000000000016,1.586373059241364,1.3500197333734352
-0.0022500000000000298,1.5847224471806873,1.349023514670286
-0.002124999999999988,1.584392324768552,1.3473631501650374
-0.0020000000000000018,1.5847224471806873,1.3460348585608386
-0.0018750000000000155,1.585382692004958,1.3470310772639877
-0.0017500000000000293,1.5876935488899055,1.349023514670286
-0.0016249999999999876,1.5873634264777703,1.3500197333734352
-0.0015000000000000013,1.5876935488899055,1.3520121707797335
-0.001375000000000015,1.588023671302041,1.3530083894828826
-0.0012500000000000289,1.5876935488899055,1.3533404623839322
-0.0011249999999999871,1.588023671302041,1.352676316581833
-0.0010000000000000009,1.5886839161263118,1.3520121707797335
-0.0008750000000000147,1.5903345281869885,1.3533404623839322
-0.0007500000000000284,1.5933056298962067,1.3566611913944295
-0.0006249999999999867,1.5933056298962067,1.3579894829986283
-0.0005000000000000004,1.5933056298962067,1.3586536288007278
-0.0003750000000000142,1.5923152626598007,1.358321555899678
-0.000250000000000028,1.5909947730112592,1.3576574100975787
-0.00012499999999998623,1.5906646505991238,1.35599704559233
0,1.5906646505991238,1.3546687539881312
0.00012499999999998623,1.5913248954233945,1.3550008268891809
0.00024999999999997247,1.5936357523083422,1.3569932642954792
0.0003750000000000142,1.5923152626598007,1.3573253371965288
0.0005000000000000004,1.5913248954233945,1.3573253371965288
0.0006249999999999867,1.5893441609505825,1.3563291184933797
0.0007499999999999729,1.5876935488899055,1.3546687539881312
0.0008750000000000147,1.5870333040656348,1.3530083894828826
0.0010000000000000009,1.5870333040656348,1.351348024977634
0.0011249999999999871,1.588023671302041,1.3520121707797335
0.0012499999999999734,1.5896742833627178,1.353672535284982
0.001375000000000015,1.5886839161263118,1.3533404623839322
0.0015000000000000013,1.5876935488899055,1.3533404623839322
0.0016249999999999876,1.586373059241364,1.3520121707797335
0.0017499999999999738,1.5847224471806873,1.3500197333734352
0.0018750000000000155,1.5834019575321459,1.347695223066087
0.0020000000000000018,1.5834019575321459,1.3460348585608386
0.002124999999999988,1.5840622023564166,1.3463669314618882
0.0022499999999999742,1.586373059241364,1.3480272959671369
0.002375000000000016,1.585382692004958,1.3483593688681865
0.0025000000000000022,1.5847224471806873,1.3486914417692362
0.0026249999999999885,1.5834019575321459,1.347695223066087
0.0027499999999999747,1.5820814678836044,1.3463669314618882
0.0028750000000000164,1.5814212230593339,1.3440424211545403
0.0030000000000000027,1.5814212230593339,1.3423820566492917
0.003124999999999989,1.5820814678836044,1.3430462024513912
0.003249999999999975,1.5840622023564166,1.3447065669566396
0.003375000000000017,1.5830718351200106,1.345370712758739
0.003500000000000003,1.5824115902957399,1.3457027856597887
0.0036249999999999893,1.5814212230593339,1.345370712758739
0.0037499999999999756,1.579770610998657,1.3440424211545403
0.0038750000000000173,1.5794404885865216,1.3423820566492917
0.0040000000000000036,1.5801007334107924,1.340721692144043
0.00412499999999999,1.5810911006471984,1.3417179108471922
0.004249999999999976,1.5834019575321459,1.3437103482534904
0.004375000000000018,1.5830718351200106,1.34437449405559
0.004500000000000004,1.5827417127078751,1.3450386398576895
0.00462499999999999,1.5820814678836044,1.3450386398576895
0.0047499999999999765,1.580760978235063,1.34437449405559
0.004875000000000018,1.580760978235063,1.3430462024513912
0.0050000000000000044,1.5810911006471984,1.342049983748242
0.005124999999999991,1.5824115902957399,1.3430462024513912
0.005249999999999977,1.5850525695928228,1.345370712758739
0.005375000000000019,1.584392324768552,1.3460348585608386
0.005500000000000005,1.5840622023564166,1.3470310772639877
0.005624999999999991,1.5830718351200106,1.3466990043629379
0.005749999999999977,1.5817513454714691,1.3457027856597887
0.005874999999999964,1.5814212230593339,1.34437449405559
0.006000000000000005,1.5817513454714691,1.3430462024513912
0.0061249999999999916,1.5827417127078751,1.3440424211545403
0.006249999999999978,1.585382692004958,1.3457027856597887
0.006374999999999964,1.5847224471806873,1.3463669314618882
0.006500000000000006,1.584392324768552,1.3470310772639877
0.006624999999999992,1.5827417127078751,1.3460348585608386
0.006749999999999978,1.580760978235063,1.3437103482534904
0.0068749999999999645,1.579770610998657,1.3410537650450929
0.007000000000000006,1.5791103661743862,1.3387292547377447
0.0071249999999999925,1.5794404885865216,1.3390613276387946
0.007249999999999979,1.5810911006471984,1.340721692144043
0.007374999999999965,1.5801007334107924,1.3410537650450929
0.007500000000000007,1.5791103661743862,1.3413858379461425
0.007624999999999993,1.5774597541137094,1.3400575463419437
0.007749999999999979,1.5754790196408972,1.338397181836695
0.007874999999999965,1.5748187748166265,1.3364047444303968
0.008000000000000007,1.5748187748166265,1.3347443799251482
0.008124999999999993,1.5758091420530327,1.3350764528261978
0.00824999999999998,1.5784501213501154,1.3377330360345956
0.008374999999999966,1.5781199989379802,1.3387292547377447
0.008500000000000008,1.5777898765258447,1.3393934005398442
0.008624999999999994,1.5767995092894387,1.3393934005398442
0.00874999999999998,1.5758091420530327,1.3387292547377447
0.008874999999999966,1.576139264465168,1.3377330360345956
0.009000000000000008,1.577129631701574,1.337400963133546
0.009124999999999994,1.5791103661743862,1.3393934005398442
0.00924999999999998,1.5824115902957399,1.3427141295503413
0.009374999999999967,1.5830718351200106,1.3447065669566396
0.009500000000000008,1.5834019575321459,1.3463669314618882
0.009624999999999995,1.5834019575321459,1.3470310772639877
0.009749999999999981,1.5827417127078751,1.3470310772639877
0.009874999999999967,1.5830718351200106,1.3460348585608386
0.010000000000000009,1.5837320799442813,1.3450386398576895
0.010124999999999995,1.5850525695928228,1.3463669314618882
0.010249999999999981,1.5876935488899055,1.3493555875713357
0.010374999999999968,1.5873634264777703,1.3506838791755347
0.01050000000000001,1.5873634264777703,1.3520121707797335
0.010624999999999996,1.586373059241364,1.3520121707797335
0.010749999999999982,1.585382692004958,1.351348024977634
0.010874999999999968,1.585382692004958,1.3503518062744848
0.01100000000000001,1.5860429368292288,1.349023514670286
0.011124999999999996,1.5873634264777703,1.3500197333734352
0.011249999999999982,1.5896742833627178,1.352344243680783
0.011374999999999968,1.589014038538447,1.3530083894828826
0.01150000000000001,1.5886839161263118,1.353672535284982
0.011624999999999996,1.588023671302041,1.3533404623839322
0.011749999999999983,1.586373059241364,1.352344243680783
0.011874999999999969,1.5860429368292288,1.3510159520765843
0.01200000000000001,1.586373059241364,1.3496876604723855
0.012124999999999997,1.5876935488899055,1.3506838791755347
0.012249999999999983,1.5900044057748532,1.352676316581833
0.01237499999999997,1.5893441609505825,1.3533404623839322
0.012500000000000011,1.5886839161263118,1.3540046081860317
0.012624999999999997,1.5876935488899055,1.353672535284982
0.012749999999999984,1.586373059241364,1.352676316581833
0.01287499999999997,1.5860429368292288,1.3506838791755347
0.013000000000000012,1.586373059241364,1.349023514670286
0.013124999999999998,1.5870333040656348,1.3500197333734352
0.013249999999999984,1.5893441609505825,1.3520121707797335
0.01337499999999997,1.5886839161263118,1.352676316581833
0.013500000000000012,1.588023671302041,1.353672535284982
0.013624999999999998,1.5870333040656348,1.3530083894828826
0.013749999999999984,1.5857128144170933,1.3520121707797335
0.01387499999999997,1.5850525695928228,1.3500197333734352
0.014000000000000012,1.585382692004958,1.3483593688681865
0.014124999999999999,1.586373059241364,1.3493555875713357
0.014249999999999985,1.589014038538447,1.3510159520765843
0.014374999999999971,1.5883537937141763,1.3516800978786838
0.014500000000000013,1.588023671302041,1.3520121707797335
0.014624999999999999,1.5870333040656348,1.3516800978786838
0.014749999999999985,1.5857128144170933,1.3510159520765843
0.014874999999999972,1.585382692004958,1.349023514670286
0.015000000000000013,1.585382692004958,1.347695223066087
0.015125,1.5870333040656348,1.349023514670286
0.015249999999999986,1.5903345281869885,1.3520121707797335
0.015374999999999972,1.5906646505991238,1.353672535284982
0.015500000000000014,1.5909947730112592,1.3550008268891809
0.015625,1.5903345281869885,1.3553328997902305
0.015749999999999986,1.5896742833627178,1.3550008268891809
0.015874999999999972,1.5896742833627178,1.3543366810870814
0.016000000000000014,1.5906646505991238,1.3540046081860317
0.016125,1.5923152626598007,1.3550008268891809
0.016249999999999987,1.5946261195447482,1.3576574100975787
0.016374999999999973,1.5939658747204775,1.358321555899678
0.016500000000000015,1.5936357523083422,1.359317774602827
0.016625,1.5929755074840715,1.3589857017017775
0.016749999999999987,1.5913248954233945,1.3576574100975787
0.016874999999999973,1.5906646505991238,1.35599704559233
0.017000000000000015,1.5906646505991238,1.3543366810870814
0.017125,1.5909947730112592,1.3546687539881312
0.017249999999999988,1.592645385071936,1.35599704559233
0.017374999999999974,1.5913248954233945,1.3563291184933797
0.017500000000000016,1.5909947730112592,1.3566611913944295
0.017625000000000002,1.5896742833627178,1.35599704559233
0.017749999999999988,1.588023671302041,1.3543366810870814
0.017874999999999974,1.5870333040656348,1.3520121707797335
0.018000000000000016,1.5867031816534996,1.3496876604723855
0.018125000000000002,1.5873634264777703,1.3500197333734352
0.01824999999999999,1.589014038538447,1.3516800978786838
0.018374999999999975,1.5876935488899055,1.3520121707797335
0.018500000000000016,1.5867031816534996,1.3520121707797335
0.018625000000000003,1.585382692004958,1.3510159520765843
0.01874999999999999,1.5837320799442813,1.3493555875713357
0.018874999999999975,1.5830718351200106,1.3473631501650374
0.019000000000000017,1.5827417127078751,1.3457027856597887
0.019125000000000003,1.5834019575321459,1.3460348585608386
0.01924999999999999,1.585382692004958,1.3480272959671369
0.019374999999999976,1.584392324768552,1.3483593688681865
