DAQ/accel_badea_4_7/test_two_0023.csv

#Digilent WaveForms Oscilloscope Acquisition
#Device Name: Discovery2
#Serial Number: SN:210321B02866
#Date Time: 2021-04-07 15:00:17.487
#Sample rate: 8000Hz
#Samples: 8192
#Trigger: None
#Channel 1: Range: 50 mV/div Offset: -1.44 V Attenuation: 1 X
#Channel 2: Range: 50 mV/div Offset: -1.45 V Attenuation: 1 X
#Power Supplies: ON
#Positive Supply: ON
#Voltage: 3.3 V
#Negative Supply: OFF
#Voltage: -3.3 V

Time (s),Channel 1 (V),Channel 2 (V)
-0.36725,1.576139264465168,1.357441843853328
-0.367125,1.5767995092894385,1.3554494064470286
-0.36700000000000005,1.5764693868773036,1.353124896139683
-0.366875,1.5764693868773034,1.3501362400302341
-0.36674999999999996,1.5764693868773028,1.3478117297228853
-0.36662500000000003,1.575148897228762,1.345819292316588
-0.3665,1.575148897228762,1.3448230736134388
-0.36637500000000006,1.5731681627559506,1.3441589278113395
-0.36625,1.572507917931679,1.3448230736134388
-0.366125,1.5711874282831364,1.3458192923165884
-0.36600000000000005,1.5688765713981911,1.3468155110197366
-0.365875,1.567886204161784,1.3484758755249857
-0.36574999999999996,1.5652452248647002,1.3498041671291852
-0.36562500000000003,1.5632644903918889,1.3514645316344331
-0.3655,1.5629343679797536,1.3531248961396818
-0.36537500000000006,1.5609536335069423,1.3541211148428305
-0.36525,1.5609536335069414,1.3547852606449302
-0.365125,1.5612837559190758,1.3551173335459799
-0.36500000000000005,1.5593030214462655,1.3544531877438808
-0.364875,1.5612837559190766,1.353789041941781
-0.36474999999999996,1.5609536335069412,1.3531248961396811
-0.36462500000000003,1.560623511094806,1.3517966045354828
-0.3645,1.5619440007433474,1.3511324587333835
-0.36437500000000006,1.5602933886826713,1.3504683129312842
-0.36425,1.560623511094806,1.3501362400302341
-0.364125,1.5596331438583992,1.350136240030234
-0.36400000000000005,1.558312654209859,1.349472094228135
-0.363875,1.5573222869734524,1.3498041671291845
-0.36374999999999996,1.556331919737046,1.3494720942281346
-0.36362500000000003,1.556001797324911,1.349140021327085
-0.3635,1.5556716749127755,1.3488079484260354
-0.36337500000000006,1.5556716749127755,1.3488079484260354
-0.36325,1.5566620421491817,1.3478117297228862
-0.363125,1.5566620421491824,1.3464834381186865
-0.36300000000000004,1.5583126542098578,1.34449100071239
-0.362875,1.5589728990341292,1.3424985633060909
-0.36274999999999996,1.5599632662705356,1.3405061258997917
-0.36262500000000003,1.5609536335069414,1.338513688493494
-0.3625,1.5609536335069414,1.3371853968892953
-0.36237500000000006,1.5622741231554822,1.3368533239882459
-0.36225,1.560623511094806,1.3371853968892953
-0.362125,1.5609536335069412,1.338513688493495
-0.36200000000000004,1.5602933886826709,1.3405061258997917
-0.361875,1.5583126542098584,1.3424985633060909
-0.36174999999999996,1.5586427766219932,1.34449100071239
-0.36162500000000003,1.556992164561317,1.3464834381186874
-0.3615,1.5563319197370462,1.3484758755249857
-0.36137500000000006,1.5563319197370462,1.3498041671291838
-0.36125,1.5556716749127755,1.3508003858323336
-0.361125,1.5563319197370467,1.3517966045354832
-0.36100000000000004,1.557322286973452,1.3527928232386315
-0.360875,1.5566620421491817,1.3534569690407314
-0.36074999999999996,1.5583126542098582,1.353789041941781
-0.36062500000000003,1.5579825317977232,1.353789041941781
-0.3605,1.5583126542098584,1.3534569690407314
-0.36037500000000006,1.5579825317977234,1.3524607503375827
-0.36025,1.556992164561317,1.3511324587333835
-0.360125,1.5573222869734522,1.3501362400302335
-0.36000000000000004,1.5569921645613172,1.3484758755249864
-0.359875,1.556001797324911,1.346815511019737
-0.35974999999999996,1.5569921645613163,1.3451551465144873
-0.35962500000000003,1.5556716749127755,1.3428306362071405
-0.3595,1.5553415525006402,1.3405061258997926
-0.35937500000000006,1.5553415525006402,1.338513688493495
-0.35925,1.5540210628520987,1.3368533239882456
-0.35912499999999997,1.555011430088504,1.3358571052850963
-0.35900000000000004,1.5536909404399641,1.3355250323840469
-0.358875,1.5550114300885047,1.3355250323840466
-0.35874999999999996,1.555011430088505,1.3361891781861464
-0.358625,1.5553415525006402,1.3368533239882456
-0.3585,1.556001797324911,1.3378495426913948
-0.35837500000000005,1.5573222869734518,1.3388457613945435
-0.35825,1.5579825317977232,1.3395099071966432
-0.35812499999999997,1.5602933886826709,1.3398419800976933
-0.35800000000000004,1.5609536335069412,1.3401740529987425
-0.357875,1.5632644903918889,1.3405061258997926
-0.35774999999999996,1.5639247352161598,1.3408381988008424
-0.357625,1.5645849800404303,1.3411702717018918
-0.3575,1.5655753472768363,1.342166490405041
-0.35737500000000005,1.5652452248647013,1.3434947820092393
-0.35725,1.5655753472768363,1.3451551465144884
-0.35712499999999997,1.5652452248647009,1.3474796568218377
-0.35700000000000004,1.5645849800404306,1.3498041671291834
-0.356875,1.5649151024525656,1.3524607503375823
-0.35674999999999996,1.5639247352161598,1.3541211148428314
-0.356625,1.5645849800404303,1.35511733354598
-0.3565,1.5649151024525656,1.3557814793480794
-0.35637500000000005,1.5652452248647009,1.35544940644703
-0.35625,1.566235592101107,1.3544531877438806
-0.35612499999999997,1.5668958369253783,1.353456969040731
-0.35600000000000004,1.567886204161784,1.3524607503375823
-0.355875,1.5692066938103253,1.3521286774365326
-0.35574999999999996,1.569206693810326,1.3521286774365326
-0.355625,1.5708573058710023,1.3521286774365326
-0.3555,1.5701970610467315,1.3521286774365326
-0.35537500000000005,1.570857305871002,1.3521286774365326
-0.35525,1.5711874282831375,1.3521286774365326
-0.355125,1.5705271834588668,1.3511324587333835
-0.35500000000000004,1.5708573058710023,1.3501362400302341
-0.354875,1.5701970610467315,1.3488079484260354
-0.35475,1.569866938634596,1.3478117297228862
-0.354625,1.5695368162224608,1.3471475839207867
-0.35450000000000004,1.5675560817496486,1.346815511019737
-0.354375,1.5675560817496486,1.3471475839207867
-0.35425,1.565245224864701,1.3481438026239358
-0.354125,1.5642548576282949,1.3498041671291845
-0.35400000000000004,1.5635946128040241,1.3514645316344331
-0.353875,1.5622741231554829,1.3531248961396818
-0.35375,1.5626042455676181,1.354121114842831
-0.353625,1.5622741231554829,1.3547852606449302
-0.35350000000000004,1.5619440007433474,1.3547852606449302
-0.353375,1.5626042455676181,1.3544531877438806
-0.35325,1.5626042455676181,1.354121114842831
-0.353125,1.5632644903918889,1.353789041941781
-0.35300000000000004,1.5635946128040241,1.353789041941781
-0.352875,1.5626042455676181,1.354121114842831
-0.35275,1.5632644903918889,1.3544531877438806
-0.352625,1.5619440007433474,1.3547852606449302
-0.35250000000000004,1.5619440007433474,1.3547852606449302
-0.352375,1.5616138783312121,1.3547852606449302
-0.35225,1.560623511094806,1.3544531877438806
-0.352125,1.5622741231554829,1.35511733354598
-0.35200000000000004,1.5626042455676181,1.3554494064470297
-0.351875,1.5642548576282949,1.3561135522491292
-0.35175,1.5655753472768363,1.3561135522491292
-0.351625,1.5665657145132426,1.3564456251501789
-0.35150000000000003,1.567886204161784,1.3567776980512285
-0.351375,1.5695368162224608,1.357441843853328
-0.35125,1.5705271834588668,1.3581059896554275
-0.351125,1.572507917931679,1.3584380625564771
-0.35100000000000003,1.5728380403438145,1.3584380625564771
-0.350875,1.5744886524044912,1.3581059896554275
-0.35075,1.5744886524044912,1.3577739167543776
-0.350625,1.5748187748166265,1.357441843853328
-0.35050000000000003,1.5754790196408972,1.3564456251501789
-0.350375,1.5744886524044912,1.3557814793480794
-0.35025,1.5741585299923557,1.3554494064470297
-0.350125,1.5731681627559497,1.35511733354598
-0.35000000000000003,1.5718476731074082,1.3554494064470297
-0.349875,1.5718476731074082,1.3561135522491292
-0.34975,1.5705271834588668,1.3571097709522784
-0.349625,1.5701970610467315,1.3577739167543776
-0.34950000000000003,1.569866938634596,1.3581059896554275
-0.349375,1.5692066938103253,1.3577739167543776
-0.34925,1.5692066938103253,1.3571097709522784
-0.349125,1.56887657139819,1.3561135522491292
-0.34900000000000003,1.56887657139819,1.3554494064470297
-0.348875,1.56887657139819,1.3547852606449302
-0.34875,1.5682163265739193,1.354121114842831
-0.348625,1.5682163265739193,1.353789041941781
-0.34850000000000003,1.5675560817496486,1.3534569690407314
-0.348375,1.5675560817496486,1.352792823238632
-0.34825,1.5672259593375133,1.3521286774365326
-0.348125,1.5668958369253778,1.3511324587333835
-0.34800000000000003,1.5668958369253778,1.3501362400302341
-0.347875,1.5665657145132426,1.3488079484260354
-0.34775,1.5659054696889718,1.3474796568218366
-0.347625,1.5659054696889718,1.3461513652176376
-0.34750000000000003,1.5645849800404303,1.3448230736134388
-0.347375,1.5642548576282949,1.3438268549102896
-0.34725,1.5626042455676181,1.3428306362071405
-0.347125,1.5616138783312121,1.342166490405041
-0.34700000000000003,1.5609536335069414,1.3418344175039914
-0.346875,1.5599632662705352,1.3418344175039914
-0.34675,1.5596331438584,1.3418344175039914
-0.346625,1.5593030214462646,1.342166490405041
-0.34650000000000003,1.558642776621994,1.342166490405041
-0.346375,1.5589728990341292,1.342166490405041
-0.34625,1.5583126542098584,1.3424985633060909
-0.346125,1.5589728990341292,1.3428306362071405
-0.34600000000000003,1.5589728990341292,1.34349478200924
-0.345875,1.5589728990341292,1.3444910007123891
-0.34575,1.5593030214462646,1.3451551465144884
-0.345625,1.5593030214462646,1.345819292316588
-0.34550000000000003,1.5596331438584,1.346815511019737
-0.345375,1.5596331438584,1.3474796568218366
-0.34525,1.5593030214462646,1.3481438026239358
-0.345125,1.5593030214462646,1.3488079484260354
-0.34500000000000003,1.5589728990341292,1.3494720942281349
-0.344875,1.558642776621994,1.3501362400302341
-0.34475,1.558642776621994,1.3508003858323336
-0.344625,1.5579825317977232,1.3511324587333835
-0.34450000000000003,1.5579825317977232,1.3514645316344331
-0.344375,1.5583126542098584,1.3517966045354828
-0.34425,1.5583126542098584,1.3514645316344331
-0.344125,1.558642776621994,1.3517966045354828
-0.34400000000000003,1.5579825317977232,1.3508003858323336
-0.343875,1.5579825317977232,1.3494720942281349
-0.34375,1.5573222869734524,1.3478117297228862
-0.343625,1.5566620421491817,1.3454872194155383
-0.3435,1.556001797324911,1.3438268549102896
-0.343375,1.5546813076763695,1.3418344175039914
-0.34325,1.5543511852642342,1.3401740529987427
-0.343125,1.5536909404399635,1.3391778342955936
-0.343,1.5527005732035573,1.3378495426913948
-0.342875,1.552370450791422,1.3368533239882456
-0.34275,1.5517102059671513,1.3361891781861461
-0.342625,1.5513800835550158,1.3361891781861461
-0.3425,1.5513800835550158,1.3361891781861461
-0.342375,1.5510499611428805,1.3361891781861461
-0.34225,1.5513800835550158,1.3361891781861461
-0.342125,1.5513800835550158,1.3365212510871958
-0.342,1.5513800835550158,1.3365212510871958
-0.341875,1.552370450791422,1.3371853968892953
-0.34175,1.5530306956156927,1.3381816155924444
-0.341625,1.5546813076763695,1.3391778342955936
-0.3415,1.556001797324911,1.3405061258997926
-0.341375,1.556992164561317,1.3418344175039914
-0.34125,1.558642776621994,1.34349478200924
-0.341125,1.5599632662705352,1.3451551465144884
-0.341,1.5616138783312121,1.3464834381186874
-0.340875,1.5632644903918889,1.3478117297228862
-0.34075,1.5639247352161596,1.3484758755249857
-0.340625,1.565245224864701,1.3488079484260354
-0.3405,1.5659054696889718,1.3494720942281349
-0.340375,1.5665657145132426,1.3501362400302341
-0.34025,1.5675560817496486,1.350468312931284
-0.340125,1.5675560817496486,1.3508003858323336
-0.34,1.5682163265739193,1.3511324587333835
-0.339875,1.5685464489860546,1.3517966045354828
-0.33975,1.5685464489860546,1.3517966045354828
-0.339625,1.56887657139819,1.3521286774365326
-0.3395,1.56887657139819,1.3521286774365326
-0.33937500000000004,1.5692066938103253,1.3517966045354828
-0.33925,1.5692066938103253,1.3517966045354828
-0.339125,1.5692066938103253,1.3514645316344331
-0.339,1.5695368162224608,1.3511324587333835
-0.33887500000000004,1.5692066938103253,1.3511324587333835
-0.33875,1.5695368162224608,1.3508003858323336
-0.338625,1.5695368162224608,1.3511324587333835
-0.3385,1.5692066938103253,1.3511324587333835
-0.33837500000000004,1.5692066938103253,1.3511324587333835
-0.33825,1.56887657139819,1.3511324587333835
-0.338125,1.56887657139819,1.3514645316344331
-0.338,1.5685464489860546,1.3511324587333835
-0.33787500000000004,1.5682163265739193,1.3508003858323336
-0.33775,1.5682163265739193,1.3508003858323336
-0.337625,1.5672259593375133,1.3508003858323336
-0.3375,1.5668958369253778,1.3511324587333835
-0.33737500000000004,1.5665657145132426,1.3511324587333835
-0.33725,1.5659054696889718,1.3514645316344331
-0.337125,1.5655753472768363,1.3521286774365326
-0.337,1.5645849800404303,1.3524607503375823
-0.33687500000000004,1.5642548576282949,1.3531248961396818
-0.33675,1.5642548576282949,1.3534569690407314
-0.336625,1.5639247352161596,1.3534569690407314
-0.3365,1.5642548576282949,1.3534569690407314
-0.33637500000000004,1.5639247352161596,1.3531248961396818
-0.33625,1.5639247352161596,1.3531248961396818
-0.336125,1.5639247352161596,1.3531248961396818
-0.336,1.5639247352161596,1.3531248961396818
-0.33587500000000003,1.5639247352161596,1.3531248961396818
-0.33575,1.5639247352161596,1.3531248961396818
-0.335625,1.5639247352161596,1.3531248961396818
-0.3355,1.5649151024525656,1.354121114842831
-0.33537500000000003,1.5659054696889718,1.3554494064470297
-0.33525,1.5672259593375133,1.3571097709522784
-0.335125,1.5685464489860546,1.3581059896554275
-0.335,1.5692066938103253,1.3591022083585766
-0.33487500000000003,1.5705271834588668,1.359766354160676
-0.33475,1.5711874282831375,1.360762572863825
-0.334625,1.5718476731074082,1.3614267186659246
-0.3345,1.572507917931679,1.3617587915669742
-0.33437500000000003,1.572507917931679,1.362090864468024
-0.33425,1.5728380403438145,1.3617587915669742
-0.334125,1.5728380403438145,1.362090864468024
-0.334,1.5728380403438145,1.3624229373690737
-0.33387500000000003,1.5728380403438145,1.362090864468024
-0.33375,1.5721777955195435,1.3617587915669742
-0.333625,1.5721777955195435,1.3614267186659246
-0.3335,1.571517550695273,1.3604304999627754
-0.33337500000000003,1.5708573058710023,1.3594342812596263
-0.33325,1.5705271834588668,1.3587701354575268
-0.333125,1.569866938634596,1.3581059896554275
-0.333,1.5695368162224608,1.3577739167543776
-0.33287500000000003,1.5692066938103253,1.3571097709522784
-0.33275,1.5682163265739193,1.3564456251501789
-0.332625,1.567886204161784,1.3554494064470297
-0.3325,1.5668958369253778,1.3547852606449302
-0.33237500000000003,1.566235592101107,1.353789041941781
-0.33225,1.5655753472768363,1.352792823238632
-0.332125,1.5649151024525656,1.3521286774365326
-0.332,1.5642548576282949,1.3511324587333835
-0.33187500000000003,1.5635946128040241,1.350468312931284
-0.33175,1.5629343679797536,1.3498041671291845
-0.331625,1.5626042455676181,1.349140021327085
-0.3315,1.5622741231554829,1.3484758755249857
-0.33137500000000003,1.5619440007433474,1.3481438026239358
-0.33125,1.5616138783312121,1.3474796568218366
-0.331125,1.5616138783312121,1.3464834381186874
-0.331,1.5616138783312121,1.3461513652176376
-0.33087500000000003,1.5612837559190766,1.345819292316588
-0.33075,1.5612837559190766,1.3451551465144884
-0.330625,1.5612837559190766,1.3448230736134388
-0.3305,1.5609536335069414,1.3441589278113393
-0.33037500000000003,1.5612837559190766,1.3441589278113393
-0.33025,1.5609536335069414,1.3438268549102896
-0.330125,1.5609536335069414,1.34349478200924
-0.33,1.5609536335069414,1.34349478200924
-0.32987500000000003,1.5609536335069414,1.34349478200924
-0.32975,1.5612837559190766,1.3438268549102896
-0.329625,1.5612837559190766,1.3438268549102896
-0.3295,1.5616138783312121,1.3441589278113393
-0.32937500000000003,1.5616138783312121,1.3444910007123891
-0.32925,1.5616138783312121,1.3448230736134388
-0.329125,1.5619440007433474,1.3451551465144884
-0.329,1.5619440007433474,1.3454872194155383
-0.32887500000000003,1.5619440007433474,1.3454872194155383
-0.32875,1.5622741231554829,1.345819292316588
-0.328625,1.5622741231554829,1.345819292316588
-0.3285,1.5626042455676181,1.3461513652176376
-0.32837500000000003,1.5626042455676181,1.3461513652176376
-0.32825,1.5622741231554829,1.3461513652176376
-0.328125,1.5622741231554829,1.3461513652176376
-0.328,1.5622741231554829,1.3461513652176376
-0.327875,1.5622741231554829,1.3464834381186874
-0.32775,1.5619440007433474,1.3464834381186874
-0.327625,1.5616138783312121,1.3464834381186874
-0.3275,1.5616138783312121,1.346815511019737
-0.327375,1.5609536335069414,1.346815511019737
-0.32725,1.5599632662705352,1.3454872194155383
-0.327125,1.558642776621994,1.3441589278113393
-0.327,1.556992164561317,1.3431627091081901
-0.326875,1.556001797324911,1.342166490405041
-0.32675,1.5546813076763695,1.3408381988008422
-0.326625,1.5540210628520987,1.339841980097693
-0.3265,1.553360818027828,1.3391778342955936
-0.326375,1.5527005732035573,1.3381816155924444
-0.32625,1.5520403283792865,1.337517469790345
-0.326125,1.5517102059671513,1.3368533239882456
-0.326,1.5517102059671513,1.3368533239882456
-0.325875,1.5520403283792865,1.3368533239882456
-0.32575,1.5520403283792865,1.3368533239882456
-0.325625,1.552370450791422,1.3365212510871958
-0.3255,1.552370450791422,1.3368533239882456
-0.325375,1.5530306956156927,1.3371853968892953
-0.32525,1.5536909404399635,1.337517469790345
-0.325125,1.5540210628520987,1.338513688493494
-0.325,1.5550114300885047,1.3395099071966432
-0.324875,1.5563319197370462,1.3408381988008422
-0.32475,1.5573222869734524,1.3418344175039914
-0.324625,1.558642776621994,1.3431627091081901
-0.3245,1.5596331438584,1.3441589278113393
-0.324375,1.5609536335069414,1.3451551465144884
-0.32425,1.5619440007433474,1.3461513652176376
-0.324125,1.5622741231554829,1.346815511019737
-0.324,1.5632644903918889,1.3474796568218366
-0.323875,1.5639247352161596,1.3481438026239358
-0.32375000000000004,1.5645849800404303,1.3484758755249857
-0.323625,1.5649151024525656,1.3488079484260354
-0.3235,1.5655753472768363,1.3494720942281349
-0.323375,1.5659054696889718,1.3498041671291845
-0.32325000000000004,1.566235592101107,1.350468312931284
-0.323125,1.566235592101107,1.350468312931284
-0.323,1.5665657145132426,1.350468312931284
-0.322875,1.5665657145132426,1.3508003858323336
-0.32275000000000004,1.5665657145132426,1.3508003858323336
-0.322625,1.5668958369253778,1.3508003858323336
-0.3225,1.5668958369253778,1.3511324587333835
-0.322375,1.5672259593375133,1.3514645316344331
-0.32225000000000004,1.5668958369253778,1.3514645316344331
-0.322125,1.5668958369253778,1.3514645316344331
-0.322,1.5668958369253778,1.3517966045354828
-0.321875,1.5675560817496486,1.3524607503375823
-0.32175000000000004,1.5675560817496486,1.352792823238632
-0.321625,1.5675560817496486,1.3531248961396818
-0.3215,1.567886204161784,1.3534569690407314
-0.321375,1.567886204161784,1.3534569690407314
-0.32125000000000004,1.567886204161784,1.3531248961396818
-0.321125,1.567886204161784,1.352792823238632
-0.321,1.5675560817496486,1.3524607503375823
-0.320875,1.5675560817496486,1.3524607503375823
-0.32075000000000004,1.567886204161784,1.3521286774365326
-0.320625,1.5675560817496486,1.3517966045354828
-0.3205,1.567886204161784,1.3517966045354828
-0.320375,1.567886204161784,1.3514645316344331
-0.32025000000000003,1.5675560817496486,1.3511324587333835
-0.320125,1.5675560817496486,1.3508003858323336
-0.32,1.5672259593375133,1.3508003858323336
-0.319875,1.5675560817496486,1.350468312931284
-0.31975000000000003,1.5675560817496486,1.350468312931284
-0.319625,1.5672259593375133,1.350468312931284
-0.3195,1.5672259593375133,1.350468312931284
-0.319375,1.5668958369253778,1.350468312931284
-0.31925000000000003,1.5668958369253778,1.350468312931284
-0.319125,1.5665657145132426,1.350468312931284
-0.319,1.566235592101107,1.3501362400302341
-0.318875,1.5665657145132426,1.3508003858323336
-0.31875000000000003,1.5675560817496486,1.3521286774365326
-0.318625,1.56887657139819,1.353789041941781
-0.3185,1.569866938634596,1.35511733354598
