DAQ/accel_badea_4_7/test_two_0238.csv

#Digilent WaveForms Oscilloscope Acquisition
#Device Name: Discovery2
#Serial Number: SN:210321B02866
#Date Time: 2021-04-07 15:20:57.116
#Sample rate: 8000Hz
#Samples: 8192
#Trigger: None
#Channel 1: Range: 50 mV/div Offset: -1.44 V Attenuation: 1 X
#Channel 2: Range: 20 mV/div Offset: -1.396 V Attenuation: 1 X
#Power Supplies: ON
#Positive Supply: ON
#Voltage: 3.3 V
#Negative Supply: OFF
#Voltage: -3.3 V

Time (s),Channel 1 (V),Channel 2 (V)
-0.02200000000000002,1.588023671302041,1.3500197333734352
-0.021874999999999978,1.588353793714176,1.350019733373435
-0.021750000000000047,1.5880236713020413,1.3496876604723858
-0.021625000000000005,1.5876935488899055,1.3493555875713357
-0.021499999999999964,1.5876935488899053,1.3493555875713357
-0.021375000000000033,1.5873634264777703,1.3493555875713357
-0.02124999999999999,1.5873634264777703,1.349023514670286
-0.02112500000000006,1.5873634264777703,1.349023514670286
-0.02100000000000002,1.5873634264777703,1.3486914417692362
-0.020874999999999977,1.5873634264777703,1.3486914417692362
-0.020750000000000046,1.5873634264777703,1.3486914417692362
-0.020625000000000004,1.5870333040656348,1.3483593688681865
-0.020499999999999963,1.5870333040656348,1.3480272959671369
-0.020375000000000032,1.5870333040656348,1.3480272959671369
-0.02024999999999999,1.5873634264777703,1.3486914417692362
-0.02012500000000006,1.5876935488899053,1.349687660472385
-0.020000000000000018,1.5886839161263118,1.3510159520765843
-0.019874999999999976,1.589674283362718,1.352012170779734
-0.019750000000000045,1.5903345281869883,1.3530083894828822
-0.019625000000000004,1.5913248954233945,1.353672535284982
-0.019499999999999962,1.5916550178355302,1.3546687539881317
-0.01937500000000003,1.5923152626598007,1.3556649726912804
-0.01924999999999999,1.5929755074840715,1.35599704559233
-0.01912500000000006,1.5933056298962065,1.3563291184933794
-0.019000000000000017,1.5933056298962067,1.3566611913944295
-0.018874999999999975,1.5933056298962067,1.3569932642954794
-0.018750000000000044,1.5933056298962067,1.3573253371965286
-0.018625000000000003,1.5933056298962067,1.3573253371965288
-0.01849999999999996,1.5929755074840715,1.3573253371965286
-0.01837500000000003,1.5929755074840715,1.3569932642954792
-0.01824999999999999,1.5923152626598007,1.3569932642954792
-0.018125000000000058,1.5916550178355302,1.35632911849338
-0.018000000000000016,1.5909947730112592,1.3556649726912804
-0.017874999999999974,1.590004405774853,1.3550008268891809
-0.017750000000000044,1.589674283362718,1.3550008268891809
-0.017625000000000002,1.5896742833627178,1.3550008268891809
-0.01749999999999996,1.5893441609505823,1.354668753988131
-0.01737500000000003,1.5886839161263118,1.3540046081860317
-0.017249999999999988,1.588023671302041,1.3530083894828826
-0.017125000000000057,1.5873634264777705,1.3526763165818332
-0.017000000000000015,1.5873634264777703,1.3520121707797335
-0.016874999999999973,1.5870333040656346,1.3513480249776337
-0.016750000000000043,1.5863730592413643,1.350683879175535
-0.016625,1.5860429368292288,1.3500197333734352
-0.01649999999999996,1.5853826920049578,1.3496876604723853
-0.01637500000000003,1.5847224471806873,1.3493555875713357
-0.016249999999999987,1.584392324768552,1.3486914417692362
-0.016125000000000056,1.5840622023564168,1.348027295967137
-0.016000000000000014,1.5837320799442813,1.3473631501650374
-0.015874999999999972,1.5830718351200106,1.3466990043629377
-0.015750000000000042,1.5830718351200106,1.3463669314618885
-0.015625,1.5827417127078751,1.3460348585608386
-0.015499999999999958,1.582741712707875,1.3457027856597885
-0.015375000000000028,1.5824115902957399,1.345370712758739
-0.015249999999999986,1.5824115902957399,1.3447065669566396
-0.015125000000000055,1.5820814678836046,1.3447065669566396
-0.015000000000000013,1.5817513454714691,1.34437449405559
-0.014874999999999972,1.5817513454714691,1.34404242115454
-0.01475000000000004,1.5817513454714691,1.3437103482534907
-0.014624999999999999,1.5817513454714691,1.3437103482534904
-0.014499999999999957,1.5814212230593339,1.3437103482534904
-0.014375000000000027,1.5814212230593339,1.3437103482534904
-0.014249999999999985,1.5814212230593339,1.3437103482534904
-0.014125000000000054,1.5814212230593339,1.3437103482534904
-0.014000000000000012,1.5817513454714691,1.3440424211545403
-0.01387499999999997,1.5817513454714691,1.3440424211545405
-0.01375000000000004,1.5817513454714691,1.3443744940555897
-0.013624999999999998,1.5820814678836044,1.34437449405559
-0.013499999999999956,1.5824115902957399,1.34437449405559
-0.013375000000000026,1.5824115902957399,1.34437449405559
-0.013249999999999984,1.5820814678836044,1.34437449405559
-0.013125000000000053,1.5824115902957396,1.34437449405559
-0.013000000000000012,1.5824115902957399,1.34437449405559
-0.01287499999999997,1.5827417127078751,1.34437449405559
-0.012750000000000039,1.5827417127078751,1.34437449405559
-0.012624999999999997,1.5824115902957399,1.34437449405559
-0.012499999999999956,1.58241159029574,1.34437449405559
-0.012375000000000025,1.5827417127078751,1.34437449405559
-0.012249999999999983,1.5827417127078751,1.3447065669566396
-0.012125000000000052,1.5827417127078751,1.3447065669566396
-0.01200000000000001,1.5820814678836044,1.3440424211545403
-0.011874999999999969,1.5810911006471982,1.3427141295503409
-0.011750000000000038,1.5804308558229279,1.3417179108471926
-0.011624999999999996,1.5794404885865216,1.3403896192429934
-0.011499999999999955,1.5787802437622507,1.3397254734408934
-0.011375000000000024,1.5781199989379802,1.3387292547377447
-0.011249999999999982,1.5774597541137094,1.338397181836695
-0.011125000000000052,1.576799509289439,1.3377330360345958
-0.01100000000000001,1.5764693868773034,1.337400963133546
-0.010874999999999968,1.576139264465168,1.3370688902324963
-0.010750000000000037,1.576139264465168,1.337400963133546
-0.010624999999999996,1.576139264465168,1.3377330360345956
-0.010499999999999954,1.576139264465168,1.3380651089356457
-0.010375000000000023,1.576139264465168,1.338397181836695
-0.010249999999999981,1.5764693868773034,1.3390613276387946
-0.01012500000000005,1.5767995092894385,1.339393400539844
-0.010000000000000009,1.5767995092894387,1.3397254734408939
-0.009875000000000023,1.5774597541137094,1.3403896192429934
-0.009750000000000036,1.5777898765258447,1.3410537650450929
-0.009624999999999995,1.5784501213501154,1.3417179108471922
-0.009500000000000008,1.5794404885865216,1.3423820566492917
-0.009375000000000022,1.5801007334107924,1.3433782753524408
-0.009250000000000036,1.5810911006471984,1.34437449405559
-0.009124999999999994,1.5820814678836044,1.345370712758739
-0.009000000000000008,1.5827417127078751,1.3463669314618882
-0.008875000000000022,1.5837320799442813,1.3473631501650374
-0.008750000000000036,1.5840622023564166,1.3480272959671369
-0.008624999999999994,1.5847224471806873,1.3486914417692362
-0.008500000000000008,1.585382692004958,1.3493555875713357
-0.008375000000000021,1.5857128144170933,1.3496876604723855
-0.008250000000000035,1.5860429368292288,1.3503518062744848
-0.008124999999999993,1.5860429368292288,1.3506838791755347
-0.008000000000000007,1.586373059241364,1.3506838791755347
-0.007875000000000021,1.586373059241364,1.3510159520765843
-0.007750000000000035,1.5867031816534996,1.3510159520765843
-0.007624999999999993,1.5867031816534996,1.351348024977634
-0.007500000000000007,1.5870333040656348,1.3516800978786838
-0.00737500000000002,1.5873634264777703,1.3516800978786838
-0.007250000000000034,1.5873634264777703,1.3520121707797335
-0.0071249999999999925,1.5876935488899055,1.352344243680783
-0.007000000000000006,1.588023671302041,1.352344243680783
-0.00687500000000002,1.588023671302041,1.352344243680783
-0.006750000000000034,1.5883537937141763,1.352344243680783
-0.006624999999999992,1.5886839161263118,1.352344243680783
-0.006500000000000006,1.5886839161263118,1.352676316581833
-0.0063750000000000195,1.5886839161263118,1.352676316581833
-0.006250000000000033,1.5886839161263118,1.352344243680783
-0.0061249999999999916,1.5886839161263118,1.352344243680783
-0.006000000000000005,1.5886839161263118,1.352344243680783
-0.005875000000000019,1.5886839161263118,1.3520121707797335
-0.005750000000000033,1.5883537937141763,1.3516800978786838
-0.005624999999999991,1.5883537937141763,1.351348024977634
-0.005500000000000005,1.588023671302041,1.3510159520765843
-0.005375000000000019,1.5876935488899055,1.3510159520765843
-0.005250000000000032,1.5876935488899055,1.3506838791755347
-0.005124999999999991,1.5873634264777703,1.3500197333734352
-0.0050000000000000044,1.5873634264777703,1.3500197333734352
-0.004875000000000018,1.5870333040656348,1.3496876604723855
-0.004750000000000032,1.5870333040656348,1.3493555875713357
-0.00462499999999999,1.5867031816534996,1.3493555875713357
-0.004500000000000004,1.5867031816534996,1.3493555875713357
-0.004375000000000018,1.5867031816534996,1.3493555875713357
-0.0042500000000000315,1.586373059241364,1.349023514670286
-0.00412499999999999,1.586373059241364,1.349023514670286
-0.0040000000000000036,1.5860429368292288,1.349023514670286
-0.0038750000000000173,1.5860429368292288,1.3486914417692362
-0.003750000000000031,1.5860429368292288,1.3486914417692362
-0.0036249999999999893,1.5860429368292288,1.349023514670286
-0.003500000000000003,1.5867031816534996,1.3496876604723855
-0.003375000000000017,1.5876935488899055,1.3510159520765843
-0.0032500000000000306,1.5886839161263118,1.352344243680783
-0.003124999999999989,1.5896742833627178,1.3533404623839322
-0.0030000000000000027,1.5903345281869885,1.3540046081860317
-0.0028750000000000164,1.5906646505991238,1.3550008268891809
-0.00275000000000003,1.5913248954233945,1.35599704559233
-0.0026249999999999885,1.59165501783553,1.3569932642954792
-0.0025000000000000022,1.5923152626598007,1.3573253371965288
-0.002375000000000016,1.5923152626598007,1.3573253371965288
-0.0022500000000000298,1.5923152626598007,1.3576574100975787
-0.002124999999999988,1.5923152626598007,1.3573253371965288
-0.0020000000000000018,1.5923152626598007,1.3573253371965288
-0.0018750000000000155,1.5923152626598007,1.3573253371965288
-0.0017500000000000293,1.5919851402476652,1.3566611913944295
-0.0016249999999999876,1.59165501783553,1.35599704559233
-0.0015000000000000013,1.5913248954233945,1.3553328997902305
-0.001375000000000015,1.5906646505991238,1.3546687539881312
-0.0012500000000000289,1.5903345281869885,1.3540046081860317
-0.0011249999999999871,1.5900044057748532,1.3533404623839322
-0.0010000000000000009,1.5893441609505825,1.352676316581833
-0.0008750000000000147,1.589014038538447,1.352344243680783
-0.0007500000000000284,1.5883537937141763,1.3520121707797335
-0.0006249999999999867,1.588023671302041,1.351348024977634
-0.0005000000000000004,1.5873634264777703,1.3506838791755347
-0.0003750000000000142,1.5870333040656348,1.3500197333734352
-0.000250000000000028,1.586373059241364,1.3493555875713357
-0.00012499999999998623,1.5857128144170933,1.3486914417692362
0,1.585382692004958,1.3483593688681865
0.00012499999999998623,1.5847224471806873,1.347695223066087
0.00024999999999997247,1.584392324768552,1.3470310772639877
0.0003750000000000142,1.5840622023564166,1.3463669314618882
0.0005000000000000004,1.5837320799442813,1.3460348585608386
0.0006249999999999867,1.5834019575321459,1.345370712758739
0.0007499999999999729,1.5830718351200106,1.3450386398576895
0.0008750000000000147,1.5827417127078751,1.3447065669566396
0.0010000000000000009,1.5824115902957399,1.34437449405559
0.0011249999999999871,1.5824115902957399,1.3440424211545403
0.0012499999999999734,1.5817513454714691,1.3437103482534904
0.001375000000000015,1.5817513454714691,1.3433782753524408
0.0015000000000000013,1.5814212230593339,1.3430462024513912
0.0016249999999999876,1.5814212230593339,1.3427141295503413
0.0017499999999999738,1.5814212230593339,1.3423820566492917
0.0018750000000000155,1.5814212230593339,1.3423820566492917
0.0020000000000000018,1.5817513454714691,1.3427141295503413
0.002124999999999988,1.5814212230593339,1.3423820566492917
0.0022499999999999742,1.5814212230593339,1.3423820566492917
0.002375000000000016,1.5814212230593339,1.3423820566492917
0.0025000000000000022,1.5817513454714691,1.3423820566492917
0.0026249999999999885,1.5817513454714691,1.3427141295503413
0.0027499999999999747,1.5820814678836044,1.3430462024513912
0.0028750000000000164,1.5824115902957399,1.3433782753524408
0.0030000000000000027,1.5827417127078751,1.3433782753524408
0.003124999999999989,1.5827417127078751,1.3437103482534904
0.003249999999999975,1.5830718351200106,1.3437103482534904
0.003375000000000017,1.5830718351200106,1.3440424211545403
0.003500000000000003,1.5830718351200106,1.3440424211545403
0.0036249999999999893,1.5834019575321459,1.34437449405559
0.0037499999999999756,1.5834019575321459,1.34437449405559
0.0038750000000000173,1.5834019575321459,1.3447065669566396
0.0040000000000000036,1.5830718351200106,1.3447065669566396
0.00412499999999999,1.5830718351200106,1.3450386398576895
0.004249999999999976,1.5834019575321459,1.3450386398576895
0.004375000000000018,1.5830718351200106,1.345370712758739
0.004500000000000004,1.5830718351200106,1.345370712758739
0.00462499999999999,1.5827417127078751,1.3450386398576895
0.0047499999999999765,1.5820814678836044,1.3440424211545403
0.004875000000000018,1.5814212230593339,1.3430462024513912
0.0050000000000000044,1.580760978235063,1.342049983748242
0.005124999999999991,1.5801007334107924,1.340721692144043
0.005249999999999977,1.5794404885865216,1.3397254734408939
0.005375000000000019,1.578780243762251,1.3390613276387946
0.005500000000000005,1.5784501213501154,1.338397181836695
0.005624999999999991,1.5777898765258447,1.3377330360345956
0.005749999999999977,1.5774597541137094,1.337400963133546
0.005874999999999964,1.577129631701574,1.337068890232496
0.006000000000000005,1.5767995092894387,1.337068890232496
0.0061249999999999916,1.577129631701574,1.337400963133546
0.006249999999999978,1.577129631701574,1.337400963133546
0.006374999999999964,1.577129631701574,1.337400963133546
0.006500000000000006,1.5774597541137094,1.3380651089356455
0.006624999999999992,1.5777898765258447,1.338397181836695
0.006749999999999978,1.5781199989379802,1.3390613276387946
0.0068749999999999645,1.578780243762251,1.3393934005398442
0.007000000000000006,1.579770610998657,1.3403896192429934
0.0071249999999999925,1.5804308558229276,1.3413858379461425
0.007249999999999979,1.5810911006471984,1.3423820566492917
0.007374999999999965,1.5817513454714691,1.3433782753524408
0.007500000000000007,1.5830718351200106,1.3447065669566396
0.007624999999999993,1.5840622023564166,1.3460348585608386
0.007749999999999979,1.5847224471806873,1.3466990043629379
0.007874999999999965,1.585382692004958,1.347695223066087
0.008000000000000007,1.5857128144170933,1.3483593688681865
0.008124999999999993,1.5860429368292288,1.3483593688681865
0.00824999999999998,1.5860429368292288,1.3486914417692362
0.008374999999999966,1.586373059241364,1.349023514670286
0.008500000000000008,1.5867031816534996,1.349023514670286
0.008624999999999994,1.5870333040656348,1.349023514670286
0.00874999999999998,1.5873634264777703,1.3493555875713357
0.008874999999999966,1.5876935488899055,1.3493555875713357
0.009000000000000008,1.5876935488899055,1.3493555875713357
0.009124999999999994,1.5876935488899055,1.349023514670286
0.00924999999999998,1.5876935488899055,1.3493555875713357
0.009374999999999967,1.5876935488899055,1.3493555875713357
0.009500000000000008,1.5876935488899055,1.3493555875713357
0.009624999999999995,1.5876935488899055,1.3493555875713357
0.009749999999999981,1.5876935488899055,1.349023514670286
0.009874999999999967,1.588023671302041,1.349023514670286
0.010000000000000009,1.5883537937141763,1.3493555875713357
0.010124999999999995,1.5883537937141763,1.3493555875713357
0.010249999999999981,1.5883537937141763,1.3493555875713357
0.010374999999999968,1.5883537937141763,1.3496876604723855
0.01050000000000001,1.5886839161263118,1.3496876604723855
0.010624999999999996,1.5883537937141763,1.3496876604723855
0.010749999999999982,1.5883537937141763,1.3496876604723855
0.010874999999999968,1.5883537937141763,1.3496876604723855
0.01100000000000001,1.5883537937141763,1.3493555875713357
0.011124999999999996,1.588023671302041,1.349023514670286
0.011249999999999982,1.588023671302041,1.349023514670286
0.011374999999999968,1.5876935488899055,1.349023514670286
0.01150000000000001,1.5873634264777703,1.3486914417692362
0.011624999999999996,1.5873634264777703,1.349023514670286
0.011749999999999983,1.5873634264777703,1.349023514670286
0.011874999999999969,1.5870333040656348,1.349023514670286
0.01200000000000001,1.5870333040656348,1.3486914417692362
0.012124999999999997,1.5870333040656348,1.3486914417692362
0.012249999999999983,1.5867031816534996,1.3486914417692362
0.01237499999999997,1.5870333040656348,1.3486914417692362
0.012500000000000011,1.5870333040656348,1.349023514670286
0.012624999999999997,1.5867031816534996,1.349023514670286
0.012749999999999984,1.5867031816534996,1.349023514670286
0.01287499999999997,1.5870333040656348,1.349023514670286
0.013000000000000012,1.5870333040656348,1.349023514670286
0.013124999999999998,1.5873634264777703,1.3496876604723855
0.013249999999999984,1.588023671302041,1.3510159520765843
0.01337499999999997,1.589014038538447,1.3520121707797335
0.013500000000000012,1.5896742833627178,1.3530083894828826
0.013624999999999998,1.5903345281869885,1.353672535284982
0.013749999999999984,1.5906646505991238,1.3543366810870814
0.01387499999999997,1.5913248954233945,1.3550008268891809
0.014000000000000012,1.59165501783553,1.3556649726912804
0.014124999999999999,1.5919851402476652,1.35599704559233
0.014249999999999985,1.5923152626598007,1.3563291184933797
0.014374999999999971,1.5923152626598007,1.3563291184933797
0.014500000000000013,1.592645385071936,1.3563291184933797
0.014624999999999999,1.592645385071936,1.3566611913944295
0.014749999999999985,1.5923152626598007,1.3563291184933797
0.014874999999999972,1.5919851402476652,1.3563291184933797
0.015000000000000013,1.5919851402476652,1.35599704559233
0.015125,1.5913248954233945,1.3550008268891809
0.015249999999999986,1.5906646505991238,1.3543366810870814
0.015374999999999972,1.5903345281869885,1.353672535284982
0.015500000000000014,1.5900044057748532,1.3533404623839322
0.015625,1.5896742833627178,1.3530083894828826
0.015749999999999986,1.5893441609505825,1.352344243680783
0.015874999999999972,1.5886839161263118,1.3516800978786838
0.016000000000000014,1.588023671302041,1.3510159520765843
0.016125,1.5873634264777703,1.3503518062744848
0.016249999999999987,1.5867031816534996,1.3496876604723855
0.016374999999999973,1.586373059241364,1.349023514670286
0.016500000000000015,1.5860429368292288,1.3486914417692362
0.016625,1.585382692004958,1.3480272959671369
0.016749999999999987,1.5850525695928228,1.3473631501650374
0.016874999999999973,1.5847224471806873,1.3466990043629379
0.017000000000000015,1.584392324768552,1.3463669314618882
0.017125,1.5840622023564166,1.3460348585608386
0.017249999999999988,1.5834019575321459,1.345370712758739
0.017374999999999974,1.5834019575321459,1.3450386398576895
0.017500000000000016,1.5830718351200106,1.3447065669566396
0.017625000000000002,1.5827417127078751,1.3440424211545403
0.017749999999999988,1.5824115902957399,1.3437103482534904
0.017874999999999974,1.5820814678836044,1.3430462024513912
0.018000000000000016,1.5817513454714691,1.3430462024513912
0.018125000000000002,1.5817513454714691,1.3430462024513912
0.01824999999999999,1.5817513454714691,1.3430462024513912
0.018374999999999975,1.5814212230593339,1.3427141295503413
0.018500000000000016,1.5814212230593339,1.3423820566492917
0.018625000000000003,1.5814212230593339,1.3423820566492917
0.01874999999999999,1.5814212230593339,1.3423820566492917
0.018874999999999975,1.5814212230593339,1.3423820566492917
0.019000000000000017,1.5814212230593339,1.3427141295503413
0.019125000000000003,1.5817513454714691,1.3427141295503413
0.01924999999999999,1.5817513454714691,1.3430462024513912
0.019374999999999976,1.5820814678836044,1.3430462024513912
