DAQ/accel_badea_4_7/test_two_0161.csv

#Digilent WaveForms Oscilloscope Acquisition
#Device Name: Discovery2
#Serial Number: SN:210321B02866
#Date Time: 2021-04-07 15:13:08.007
#Sample rate: 8000Hz
#Samples: 8192
#Trigger: None
#Channel 1: Range: 50 mV/div Offset: -1.44 V Attenuation: 1 X
#Channel 2: Range: 20 mV/div Offset: -1.396 V Attenuation: 1 X
#Power Supplies: ON
#Positive Supply: ON
#Voltage: 3.3 V
#Negative Supply: OFF
#Voltage: -3.3 V

Time (s),Channel 1 (V),Channel 2 (V)
-0.02200000000000002,1.558642776621994,1.3463669314618882
-0.021874999999999978,1.5586427766219937,1.3463669314618882
-0.021750000000000047,1.5583126542098586,1.3463669314618882
-0.021625000000000005,1.558642776621994,1.3463669314618882
-0.021499999999999964,1.5586427766219941,1.3463669314618885
-0.021375000000000033,1.5589728990341292,1.3466990043629379
-0.02124999999999999,1.558642776621994,1.3466990043629379
-0.02112500000000006,1.558642776621994,1.3470310772639875
-0.02100000000000002,1.5589728990341292,1.3470310772639877
-0.020874999999999977,1.5593030214462646,1.347031077263988
-0.020750000000000046,1.5593030214462646,1.3473631501650372
-0.020625000000000004,1.5593030214462646,1.3470310772639877
-0.020499999999999963,1.5596331438584,1.347031077263988
-0.020375000000000032,1.5596331438584,1.3473631501650374
-0.02024999999999999,1.5599632662705352,1.347695223066087
-0.02012500000000006,1.5599632662705352,1.347695223066087
-0.020000000000000018,1.5599632662705352,1.3480272959671369
-0.019874999999999976,1.5602933886826709,1.3483593688681865
-0.019750000000000045,1.5606235110948057,1.3483593688681865
-0.019625000000000004,1.560623511094806,1.3483593688681865
-0.019499999999999962,1.5602933886826704,1.348359368868186
-0.01937500000000003,1.5596331438584,1.3473631501650374
-0.01924999999999999,1.5589728990341292,1.3463669314618882
-0.01912500000000006,1.5583126542098586,1.3453707127587395
-0.019000000000000017,1.5573222869734524,1.3440424211545403
-0.018874999999999975,1.556331919737046,1.3427141295503409
-0.018750000000000044,1.5556716749127757,1.3417179108471926
-0.018625000000000003,1.5553415525006402,1.3410537650450929
-0.01849999999999996,1.5546813076763693,1.3407216921440426
-0.01837500000000003,1.5540210628520987,1.3397254734408939
-0.01824999999999999,1.553360818027828,1.3390613276387946
-0.018125000000000058,1.553360818027828,1.339393400539844
-0.018000000000000016,1.553360818027828,1.3393934005398442
-0.017874999999999974,1.553360818027828,1.339393400539844
-0.017750000000000044,1.553360818027828,1.3390613276387948
-0.017625000000000002,1.5536909404399635,1.3397254734408939
-0.01749999999999996,1.5540210628520987,1.339725473440894
-0.01737500000000003,1.5540210628520987,1.3400575463419437
-0.017249999999999988,1.5546813076763695,1.340721692144043
-0.017125000000000057,1.55534155250064,1.3410537650450927
-0.017000000000000015,1.556001797324911,1.342049983748242
-0.016874999999999973,1.5566620421491821,1.3427141295503418
-0.016750000000000043,1.5576524093855872,1.34371034825349
-0.016625,1.558642776621994,1.3447065669566396
-0.01649999999999996,1.5599632662705354,1.3457027856597894
-0.01637500000000003,1.560623511094806,1.3470310772639877
-0.016249999999999987,1.5612837559190766,1.347695223066087
-0.016125000000000056,1.5619440007433472,1.3483593688681863
-0.016000000000000014,1.5622741231554829,1.3493555875713357
-0.015874999999999972,1.5629343679797538,1.3500197333734354
-0.015750000000000042,1.5632644903918886,1.3503518062744846
-0.015625,1.5635946128040241,1.3506838791755347
-0.015499999999999958,1.5639247352161598,1.3513480249776342
-0.015375000000000028,1.5642548576282949,1.3516800978786838
-0.015249999999999986,1.5642548576282949,1.3520121707797335
-0.015125000000000055,1.5645849800404301,1.3523442436807829
-0.015000000000000013,1.5649151024525656,1.352344243680783
-0.014874999999999972,1.5649151024525654,1.3526763165818327
-0.01475000000000004,1.5645849800404306,1.3523442436807833
-0.014624999999999999,1.5649151024525656,1.352676316581833
-0.014499999999999957,1.5649151024525658,1.352676316581833
-0.014375000000000027,1.565245224864701,1.352676316581833
-0.014249999999999985,1.565245224864701,1.3530083894828826
-0.014125000000000054,1.565245224864701,1.3530083894828826
-0.014000000000000012,1.565245224864701,1.3533404623839322
-0.01387499999999997,1.5652452248647013,1.3533404623839325
-0.01375000000000004,1.5655753472768361,1.3536725352849819
-0.013624999999999998,1.5655753472768363,1.353672535284982
-0.013499999999999956,1.5655753472768363,1.3536725352849819
-0.013375000000000026,1.5655753472768363,1.3533404623839322
-0.013249999999999984,1.5655753472768363,1.3530083894828826
-0.013125000000000053,1.5652452248647013,1.3526763165818332
-0.013000000000000012,1.565245224864701,1.3530083894828826
-0.01287499999999997,1.5649151024525654,1.352676316581833
-0.012750000000000039,1.5645849800404306,1.352676316581833
-0.012624999999999997,1.5645849800404303,1.352676316581833
-0.012499999999999956,1.5645849800404301,1.3526763165818327
-0.012375000000000025,1.5642548576282949,1.352344243680783
-0.012249999999999983,1.5639247352161596,1.352344243680783
-0.012125000000000052,1.5639247352161596,1.352344243680783
-0.01200000000000001,1.5639247352161596,1.352344243680783
-0.011874999999999969,1.5635946128040241,1.352344243680783
-0.011750000000000038,1.5635946128040241,1.352344243680783
-0.011624999999999996,1.5632644903918889,1.352344243680783
-0.011499999999999955,1.5632644903918889,1.352344243680783
-0.011375000000000024,1.5632644903918889,1.352344243680783
-0.011249999999999982,1.5635946128040241,1.3520121707797335
-0.011125000000000052,1.563264490391889,1.351680097878684
-0.01100000000000001,1.5635946128040241,1.3520121707797335
-0.010874999999999968,1.5642548576282953,1.353008389482883
-0.010750000000000037,1.565245224864701,1.3540046081860317
-0.010624999999999996,1.5665657145132426,1.3553328997902305
-0.010499999999999954,1.5672259593375137,1.3563291184933801
-0.010375000000000023,1.5682163265739193,1.3573253371965288
-0.010249999999999981,1.56887657139819,1.3576574100975787
-0.01012500000000005,1.569206693810325,1.3586536288007274
-0.010000000000000009,1.5695368162224608,1.3589857017017775
-0.009875000000000023,1.5701970610467315,1.359317774602827
-0.009750000000000036,1.5701970610467315,1.359649847503877
-0.009624999999999995,1.5701970610467315,1.359649847503877
-0.009500000000000008,1.5701970610467315,1.359649847503877
-0.009375000000000022,1.5701970610467315,1.359649847503877
-0.009250000000000036,1.5701970610467315,1.359317774602827
-0.009124999999999994,1.569866938634596,1.3586536288007278
-0.009000000000000008,1.5695368162224608,1.358321555899678
-0.008875000000000022,1.56887657139819,1.3576574100975787
-0.008750000000000036,1.567886204161784,1.3566611913944295
-0.008624999999999994,1.5672259593375133,1.3563291184933797
-0.008500000000000008,1.5668958369253778,1.3556649726912804
-0.008375000000000021,1.5665657145132426,1.3553328997902305
-0.008250000000000035,1.566235592101107,1.3550008268891809
-0.008124999999999993,1.5659054696889718,1.3546687539881312
-0.008000000000000007,1.565245224864701,1.353672535284982
-0.007875000000000021,1.5645849800404303,1.352676316581833
-0.007750000000000035,1.5639247352161596,1.3520121707797335
-0.007624999999999993,1.5632644903918889,1.351348024977634
-0.007500000000000007,1.5626042455676181,1.3503518062744848
-0.00737500000000002,1.5622741231554829,1.3500197333734352
-0.007250000000000034,1.5616138783312121,1.3493555875713357
-0.0071249999999999925,1.5612837559190766,1.3486914417692362
-0.007000000000000006,1.5609536335069414,1.3483593688681865
-0.00687500000000002,1.560623511094806,1.3480272959671369
-0.006750000000000034,1.5602933886826706,1.347695223066087
-0.006624999999999992,1.5599632662705352,1.3470310772639877
-0.006500000000000006,1.5596331438584,1.3470310772639877
-0.0063750000000000195,1.5593030214462646,1.3466990043629379
-0.006250000000000033,1.558642776621994,1.3460348585608386
-0.0061249999999999916,1.558642776621994,1.3460348585608386
-0.006000000000000005,1.5583126542098584,1.3457027856597887
-0.005875000000000019,1.5583126542098584,1.3457027856597887
-0.005750000000000033,1.5583126542098584,1.345370712758739
-0.005624999999999991,1.5579825317977232,1.345370712758739
-0.005500000000000005,1.5576524093855877,1.3450386398576895
-0.005375000000000019,1.5576524093855877,1.3450386398576895
-0.005250000000000032,1.5576524093855877,1.3450386398576895
-0.005124999999999991,1.5576524093855877,1.3450386398576895
-0.0050000000000000044,1.5576524093855877,1.3450386398576895
-0.004875000000000018,1.5579825317977232,1.345370712758739
-0.004750000000000032,1.5579825317977232,1.345370712758739
-0.00462499999999999,1.5583126542098584,1.345370712758739
-0.004500000000000004,1.558642776621994,1.3457027856597887
-0.004375000000000018,1.558642776621994,1.345370712758739
-0.0042500000000000315,1.5589728990341292,1.3457027856597887
-0.00412499999999999,1.5589728990341292,1.3460348585608386
-0.0040000000000000036,1.5593030214462646,1.3460348585608386
-0.0038750000000000173,1.5593030214462646,1.3460348585608386
-0.003750000000000031,1.5593030214462646,1.3460348585608386
-0.0036249999999999893,1.5593030214462646,1.3460348585608386
-0.003500000000000003,1.5596331438584,1.3460348585608386
-0.003375000000000017,1.5593030214462646,1.3463669314618882
-0.0032500000000000306,1.5593030214462646,1.3463669314618882
-0.003124999999999989,1.5596331438584,1.3463669314618882
-0.0030000000000000027,1.5596331438584,1.3463669314618882
-0.0028750000000000164,1.5596331438584,1.3463669314618882
-0.00275000000000003,1.5593030214462646,1.3460348585608386
-0.0026249999999999885,1.5583126542098584,1.3447065669566396
-0.0025000000000000022,1.5573222869734524,1.3437103482534904
-0.002375000000000016,1.5566620421491817,1.3427141295503413
-0.0022500000000000298,1.5556716749127755,1.3417179108471922
-0.002124999999999988,1.5550114300885047,1.340721692144043
-0.0020000000000000018,1.5546813076763695,1.3400575463419437
-0.0018750000000000155,1.5540210628520987,1.3393934005398442
-0.0017500000000000293,1.553360818027828,1.3387292547377447
-0.0016249999999999876,1.5530306956156927,1.3380651089356455
-0.0015000000000000013,1.5530306956156927,1.3377330360345956
-0.001375000000000015,1.5530306956156927,1.3380651089356455
-0.0012500000000000289,1.5530306956156927,1.3380651089356455
-0.0011249999999999871,1.5530306956156927,1.3380651089356455
-0.0010000000000000009,1.5530306956156927,1.338397181836695
-0.0008750000000000147,1.553360818027828,1.338397181836695
-0.0007500000000000284,1.5536909404399635,1.3390613276387946
-0.0006249999999999867,1.5543511852642342,1.3393934005398442
-0.0005000000000000004,1.5550114300885047,1.3403896192429934
-0.0003750000000000142,1.556001797324911,1.3410537650450929
-0.000250000000000028,1.556992164561317,1.342049983748242
-0.00012499999999998623,1.5579825317977232,1.3430462024513912
0,1.5589728990341292,1.34437449405559
0.00012499999999998623,1.5599632662705352,1.345370712758739
0.00024999999999997247,1.5609536335069414,1.3466990043629379
0.0003750000000000142,1.5616138783312121,1.347695223066087
0.0005000000000000004,1.5622741231554829,1.3486914417692362
0.0006249999999999867,1.5626042455676181,1.3493555875713357
0.0007499999999999729,1.5632644903918889,1.3500197333734352
0.0008750000000000147,1.5635946128040241,1.3506838791755347
0.0010000000000000009,1.5639247352161596,1.3510159520765843
0.0011249999999999871,1.5642548576282949,1.3510159520765843
0.0012499999999999734,1.5649151024525656,1.3516800978786838
0.001375000000000015,1.5645849800404303,1.3516800978786838
0.0015000000000000013,1.565245224864701,1.352344243680783
0.0016249999999999876,1.565245224864701,1.352344243680783
0.0017499999999999738,1.565245224864701,1.352676316581833
0.0018750000000000155,1.5655753472768363,1.3530083894828826
0.0020000000000000018,1.5655753472768363,1.3533404623839322
0.002124999999999988,1.5659054696889718,1.3530083894828826
0.0022499999999999742,1.5659054696889718,1.3530083894828826
0.002375000000000016,1.566235592101107,1.3530083894828826
0.0025000000000000022,1.566235592101107,1.3530083894828826
0.0026249999999999885,1.566235592101107,1.3530083894828826
0.0027499999999999747,1.566235592101107,1.3533404623839322
0.0028750000000000164,1.566235592101107,1.353672535284982
0.0030000000000000027,1.566235592101107,1.3540046081860317
0.003124999999999989,1.566235592101107,1.3540046081860317
0.003249999999999975,1.566235592101107,1.3540046081860317
0.003375000000000017,1.5659054696889718,1.3540046081860317
0.003500000000000003,1.5659054696889718,1.3540046081860317
0.0036249999999999893,1.5655753472768363,1.3540046081860317
0.0037499999999999756,1.5655753472768363,1.353672535284982
0.0038750000000000173,1.565245224864701,1.353672535284982
0.0040000000000000036,1.565245224864701,1.353672535284982
0.00412499999999999,1.5649151024525656,1.353672535284982
0.004249999999999976,1.5649151024525656,1.3533404623839322
0.004375000000000018,1.5649151024525656,1.3530083894828826
0.004500000000000004,1.5649151024525656,1.352676316581833
0.00462499999999999,1.5649151024525656,1.352344243680783
0.0047499999999999765,1.5645849800404303,1.3520121707797335
0.004875000000000018,1.5645849800404303,1.3520121707797335
0.0050000000000000044,1.5642548576282949,1.3516800978786838
0.005124999999999991,1.5639247352161596,1.3516800978786838
0.005249999999999977,1.5639247352161596,1.351348024977634
0.005375000000000019,1.5635946128040241,1.3510159520765843
0.005500000000000005,1.5639247352161596,1.3510159520765843
0.005624999999999991,1.5639247352161596,1.3510159520765843
0.005749999999999977,1.5642548576282949,1.3516800978786838
0.005874999999999964,1.565245224864701,1.352676316581833
0.006000000000000005,1.566235592101107,1.3543366810870814
0.0061249999999999916,1.5675560817496486,1.3556649726912804
0.006249999999999978,1.5682163265739193,1.3563291184933797
0.006374999999999964,1.5685464489860546,1.3569932642954792
0.006500000000000006,1.5692066938103253,1.3579894829986283
0.006624999999999992,1.569866938634596,1.3589857017017775
0.006749999999999978,1.5701970610467315,1.359317774602827
0.0068749999999999645,1.5705271834588668,1.359649847503877
0.007000000000000006,1.5705271834588668,1.3599819204049266
0.0071249999999999925,1.5705271834588668,1.3603139933059762
0.007249999999999979,1.5708573058710023,1.3603139933059762
0.007374999999999965,1.5705271834588668,1.3603139933059762
0.007500000000000007,1.5705271834588668,1.3603139933059762
0.007624999999999993,1.5701970610467315,1.359649847503877
0.007749999999999979,1.569866938634596,1.3589857017017775
0.007874999999999965,1.56887657139819,1.3579894829986283
0.008000000000000007,1.5682163265739193,1.3569932642954792
0.008124999999999993,1.567886204161784,1.3563291184933797
0.00824999999999998,1.5675560817496486,1.35599704559233
0.008374999999999966,1.5672259593375133,1.3556649726912804
0.008500000000000008,1.5665657145132426,1.3550008268891809
0.008624999999999994,1.5659054696889718,1.3543366810870814
0.00874999999999998,1.565245224864701,1.3533404623839322
0.008874999999999966,1.5649151024525656,1.352676316581833
0.009000000000000008,1.5642548576282949,1.352344243680783
0.009124999999999994,1.5635946128040241,1.3516800978786838
0.00924999999999998,1.5632644903918889,1.3510159520765843
0.009374999999999967,1.5626042455676181,1.3503518062744848
0.009500000000000008,1.5622741231554829,1.3500197333734352
0.009624999999999995,1.5619440007433474,1.3493555875713357
0.009749999999999981,1.5612837559190766,1.349023514670286
0.009874999999999967,1.5609536335069414,1.3486914417692362
0.010000000000000009,1.5609536335069414,1.3483593688681865
0.010124999999999995,1.560623511094806,1.3480272959671369
0.010249999999999981,1.5602933886826706,1.347695223066087
0.010374999999999968,1.5599632662705352,1.3473631501650374
0.01050000000000001,1.5596331438584,1.3470310772639877
0.010624999999999996,1.5589728990341292,1.3466990043629379
0.010749999999999982,1.5589728990341292,1.3466990043629379
0.010874999999999968,1.558642776621994,1.3463669314618882
0.01100000000000001,1.558642776621994,1.3463669314618882
0.011124999999999996,1.5583126542098584,1.3460348585608386
0.011249999999999982,1.5583126542098584,1.3460348585608386
0.011374999999999968,1.5583126542098584,1.3460348585608386
0.01150000000000001,1.5583126542098584,1.3463669314618882
0.011624999999999996,1.5583126542098584,1.3466990043629379
0.011749999999999983,1.558642776621994,1.3466990043629379
0.011874999999999969,1.5589728990341292,1.3470310772639877
0.01200000000000001,1.5593030214462646,1.3470310772639877
0.012124999999999997,1.5593030214462646,1.3470310772639877
0.012249999999999983,1.5593030214462646,1.3470310772639877
0.01237499999999997,1.5596331438584,1.3473631501650374
0.012500000000000011,1.5596331438584,1.3473631501650374
0.012624999999999997,1.5596331438584,1.347695223066087
0.012749999999999984,1.5596331438584,1.347695223066087
0.01287499999999997,1.5596331438584,1.347695223066087
0.013000000000000012,1.5596331438584,1.3473631501650374
0.013124999999999998,1.5596331438584,1.3473631501650374
0.013249999999999984,1.5596331438584,1.3473631501650374
0.01337499999999997,1.5596331438584,1.3470310772639877
0.013500000000000012,1.5596331438584,1.3470310772639877
0.013624999999999998,1.5596331438584,1.3473631501650374
0.013749999999999984,1.5596331438584,1.3470310772639877
0.01387499999999997,1.5596331438584,1.3466990043629379
0.014000000000000012,1.5593030214462646,1.3460348585608386
0.014124999999999999,1.558642776621994,1.3447065669566396
0.014249999999999985,1.5579825317977232,1.3437103482534904
0.014374999999999971,1.5566620421491817,1.342049983748242
0.014500000000000013,1.556001797324911,1.3410537650450929
0.014624999999999999,1.5553415525006402,1.3403896192429934
0.014749999999999985,1.5550114300885047,1.3397254734408939
0.014874999999999972,1.5546813076763695,1.3390613276387946
0.015000000000000013,1.5543511852642342,1.338397181836695
0.015125,1.5540210628520987,1.3380651089356455
0.015249999999999986,1.5536909404399635,1.3380651089356455
0.015374999999999972,1.5536909404399635,1.3380651089356455
0.015500000000000014,1.5536909404399635,1.3380651089356455
0.015625,1.5536909404399635,1.3380651089356455
0.015749999999999986,1.5540210628520987,1.338397181836695
0.015874999999999972,1.5540210628520987,1.3387292547377447
0.016000000000000014,1.5543511852642342,1.3393934005398442
0.016125,1.5550114300885047,1.3400575463419437
0.016249999999999987,1.5556716749127755,1.340721692144043
0.016374999999999973,1.5563319197370462,1.3417179108471922
0.016500000000000015,1.5573222869734524,1.3427141295503413
0.016625,1.5583126542098584,1.3440424211545403
0.016749999999999987,1.5593030214462646,1.345370712758739
0.016874999999999973,1.5602933886826706,1.3463669314618882
0.017000000000000015,1.5609536335069414,1.3473631501650374
0.017125,1.5616138783312121,1.3483593688681865
0.017249999999999988,1.5619440007433474,1.349023514670286
0.017374999999999974,1.5626042455676181,1.3493555875713357
0.017500000000000016,1.5629343679797536,1.3500197333734352
0.017625000000000002,1.5635946128040241,1.3506838791755347
0.017749999999999988,1.5639247352161596,1.3510159520765843
0.017874999999999974,1.5642548576282949,1.3516800978786838
0.018000000000000016,1.5645849800404303,1.3520121707797335
0.018125000000000002,1.5645849800404303,1.352344243680783
0.01824999999999999,1.5645849800404303,1.352676316581833
0.018374999999999975,1.5649151024525656,1.3530083894828826
0.018500000000000016,1.565245224864701,1.3530083894828826
0.018625000000000003,1.565245224864701,1.3530083894828826
0.01874999999999999,1.5655753472768363,1.3530083894828826
0.018874999999999975,1.5655753472768363,1.3533404623839322
0.019000000000000017,1.5659054696889718,1.353672535284982
0.019125000000000003,1.566235592101107,1.3540046081860317
0.01924999999999999,1.566235592101107,1.3540046081860317
0.019374999999999976,1.566235592101107,1.3540046081860317
0.019500000000000017,1.566235592101107,1.3540046081860317
