DAQ/accel_badea_4_7/test_full_0001.csv

#Digilent WaveForms Oscilloscope Acquisition
#Device Name: Discovery2
#Serial Number: SN:210321B02866
#Date Time: 2021-04-06 18:50:25.957
#Sample rate: 80000Hz
#Samples: 8192
#Trigger: Source: Channel 1 Type: Edge Condition: Rising Level: 0 V Hyst.: Auto HoldOff: 0 s
#Channel 1: Range: 500 mV/div Offset: -1.8 V Attenuation: 1 X
#Channel 2: Range: 500 mV/div Offset: -1.45 V Attenuation: 1 X
#Power Supplies: ON
#Positive Supply: ON
#Voltage: 3.3 V
#Negative Supply: OFF
#Voltage: -3.3 V

Time (s),Channel 1 (V),Channel 2 (V)
-0.0581,1.7004992612132803,0.8839058869564334
-0.0580875,1.700169138801145,0.885566251461682
-0.058075,1.6998390163890098,0.8872266159669298
-0.0580625,1.6998390163890098,0.8895511262742778
-0.058050000000000004,1.6998390163890098,0.8918756365816258
-0.058037500000000006,1.699178771564739,0.8935360010868744
-0.05802499999999999,1.6991787715647388,0.8958605113942245
-0.058012499999999995,1.6988486491526038,0.8981850217015726
-0.057999999999999996,1.6988486491526036,0.9005095320089193
-0.0579875,1.6985185267404683,0.9025019694152178
-0.057975,1.698188404328333,0.9048264797225658
-0.0579625,1.6981884043283328,0.9071509900299136
-0.05795,1.6975281595040623,0.909143427436211
-0.0579375,1.697198037091927,0.9118000106446088
-0.057925000000000004,1.697198037091927,0.9144565938530065
-0.057912500000000006,1.6968679146797916,0.9167811041603545
-0.05789999999999999,1.696537792267656,0.9191056144677047
-0.057887499999999995,1.6962076698555208,0.9214301247750529
-0.057874999999999996,1.6962076698555206,0.9240867079834495
-0.0578625,1.6958775474433854,0.9267432911918472
-0.05785,1.6955474250312499,0.9293998744002449
-0.0578375,1.6952173026191146,0.931724384707593
-0.057825,1.6948871802069794,0.9343809679159895
-0.0578125,1.6945570577948441,0.9370375511243872
-0.057800000000000004,1.6942269353827086,0.9400262072338347
-0.057787500000000006,1.6935666905584381,0.9426827904422324
-0.05777499999999999,1.693566690558438,0.9456714465516822
-0.057762499999999994,1.6932365681463024,0.9483280297600802
-0.057749999999999996,1.6929064457341672,0.9513166858695263
-0.0577375,1.6925763233220317,0.9543053419789737
-0.057725,1.6922462009098964,0.9569619251873716
-0.0577125,1.691916078497761,0.959950581296819
-0.0577,1.6912558336734904,0.9629392374062651
-0.0576875,1.6909257112613552,0.9659278935157125
-0.057675000000000004,1.6905955888492197,0.9689165496251599
-0.057662500000000005,1.6902654664370844,0.9722372786356571
-0.05765000000000001,1.6899353440249494,0.9752259347451032
-0.057637499999999994,1.6892750992006782,0.9778825179535052
-0.057624999999999996,1.6889449767885427,0.9812032469640011
-0.0576125,1.6886148543764075,0.9845239759744981
-0.0576,1.687954609552137,0.9878447049849951
-0.0575875,1.6879546095521367,0.9908333610944426
-0.057575,1.6872943647278662,0.9938220172038887
-0.0575625,1.6869642423157307,0.9971427462143858
-0.057550000000000004,1.68630399749146,1.0001314023238332
-0.057537500000000005,1.6859738750793247,1.0037842042353802
-0.05752500000000001,1.6856437526671895,1.007104933245876
-0.057512499999999994,1.685313630255053,1.0104256622563776
-0.057499999999999996,1.684323263018648,1.0137463912668732
-0.0574875,1.6843232630186478,1.0170671202773705
-0.057475,1.683663018194377,1.0207199221889172
-0.0574625,1.6830027733701063,1.0240406511994145
-0.05745,1.682672650957971,1.02736138020991
-0.0574375,1.6820124061337003,1.031014182121457
-0.057425000000000004,1.6813521613094295,1.0343349111319542
-0.057412500000000005,1.6810220388972943,1.037987713043501
-0.05740000000000001,1.680691916485159,1.0416405149550463
-0.057387499999999994,1.680031671660888,1.0449612439655485
-0.057374999999999995,1.6797015492487526,1.048946118778143
-0.0573625,1.6790413044244819,1.05259892068969
-0.05735,1.6783810596002111,1.0559196497001873
-0.0573375,1.6780509371880759,1.0595724516117344
-0.057325,1.6773906923638053,1.0635573264243292
-0.0573125,1.6767304475395346,1.0668780554348263
-0.057300000000000004,1.6760702027152639,1.0708629302474229
-0.057287500000000005,1.6754099578909931,1.0745157321589698
-0.057275000000000006,1.675079835478858,1.078168534070515
-0.057262499999999994,1.6740894682424514,1.0814892630810173
-0.057249999999999995,1.673759345830316,1.085474137893612
-0.0572375,1.6727689785939102,1.089126939805159
-0.057225,1.67276897859391,1.0931118146177554
-0.0572125,1.6721087337696392,1.0967646165293023
-0.0572,1.671448488945369,1.1004174184408475
-0.0571875,1.6704581217089627,1.1040702203523944
-0.057175000000000004,1.6701279992968274,1.1083871680660409
-0.057162500000000005,1.6694677544725567,1.1120399699775878
-0.057150000000000006,1.6688075096482862,1.1160248447901826
-0.057137499999999994,1.6681472648240145,1.1200097196027843
-0.057124999999999995,1.6674870199997442,1.1236625215143294
-0.0571125,1.6668267751754735,1.127647396326926
-0.0571,1.6661665303512028,1.1316322711395226
-0.0570875,1.665506285526932,1.1356171459521194
-0.057075,1.6648460407026615,1.1396020207647142
-0.0570625,1.6645159182905263,1.1435868955773107
-0.057050000000000003,1.66352555105412,1.1472396974888577
-0.057037500000000005,1.6628653062298495,1.151556645202504
-0.057025000000000006,1.662205061405579,1.1555415200150987
-0.057012499999999994,1.6618749389934424,1.1595263948277006
-0.056999999999999995,1.660884571757037,1.1635112696402954
-0.056987499999999996,1.6602243269327663,1.1674961444528924
-0.056975,1.6595640821084956,1.1718130921665386
-0.0569625,1.6589038372842246,1.1761300398801846
-0.05695,1.657913470047819,1.1801149146927794
-0.0569375,1.6575833476356836,1.1844318624064258
-0.056925,1.6569231028114129,1.1884167372190224
-0.056912500000000005,1.6562628579871421,1.192401612031619
-0.056900000000000006,1.6552724907507361,1.1963864868442156
-0.056887499999999994,1.6546122459264645,1.200703434557866
-0.056874999999999995,1.6536218786900592,1.20502038227151
-0.056862499999999996,1.6529616338657882,1.2090052570841066
-0.05685,1.6519712666293822,1.2129901318967033
-0.0568375,1.6513110218051115,1.2173070796103498
-0.056825,1.650650776980841,1.221624027323994
-0.0568125,1.6499905321565702,1.2256089021365906
-0.0568,1.6490001649201642,1.2295937769491871
-0.056787500000000005,1.6483399200958935,1.2335786517617837
-0.056775000000000006,1.6476796752716227,1.2385597452775297
-0.056762499999999994,1.647019430447351,1.2425446200901298
-0.056749999999999995,1.6460290632109456,1.2465294949027246
-0.056737499999999996,1.6450386959745396,1.2505143697153214
-0.056725,1.644378451150269,1.2548313174289676
-0.0567125,1.6437182063259983,1.259148265142614
-0.0567,1.6430579615017273,1.2634652128562602
-0.0566875,1.6420675942653216,1.2677821605699047
-0.056675,1.6414073494410508,1.2717670353825012
-0.056662500000000005,1.6404169822046448,1.2760839830961475
-0.056650000000000006,1.6400868597925096,1.280400930809794
-0.05663749999999999,1.6390964925561025,1.2847178785234437
-0.056624999999999995,1.6381061253196965,1.288702753336041
-0.056612499999999996,1.6371157580832911,1.2933517739507345
-0.0566,1.6364555132590202,1.2973366487633313
-0.0565875,1.6357952684347496,1.3016535964769778
-0.056575,1.6351350236104785,1.305970544190624
-0.0565625,1.6338145339619377,1.3102874919042682
-0.05655,1.6334844115498022,1.3146044396179146
-0.056537500000000004,1.6324940443133962,1.3192534602326107
-0.056525000000000006,1.6315036770769902,1.323570407946257
-0.05651249999999999,1.6305133098405833,1.3275552827588575
-0.056499999999999995,1.6298530650163123,1.331872230472504
-0.056487499999999996,1.6288626977799068,1.3361891781861481
-0.056475,1.6278723305435008,1.3405061258997943
-0.0564625,1.62721208571923,1.3444910007123914
-0.05645,1.626221718482824,1.349140021327087
-0.0564375,1.6255614736585535,1.3534569690407314
-0.056425,1.6245711064221475,1.3577739167543776
-0.056412500000000004,1.6235807391857415,1.3617587915669742
-0.056400000000000006,1.6229204943614706,1.3664078121816703
-0.05638749999999999,1.6219301271250637,1.3707247598953207
-0.056374999999999995,1.6209397598886577,1.375041707608967
-0.056362499999999996,1.619949392652252,1.3793586553226114
-0.05635,1.6189590254158461,1.3836756030362576
-0.0563375,1.6186289030037107,1.3879925507499038
-0.056325,1.6176385357673044,1.3923094984635502
-0.0563125,1.6166481685308989,1.3966264461771944
-0.0563,1.6156578012944927,1.400611320989791
-0.056287500000000004,1.6146674340580867,1.405260341604487
-0.056275000000000006,1.6136770668216807,1.4095772893181335
-0.05626249999999999,1.6130168219974088,1.4138942370317833
-0.056249999999999994,1.6116963323488678,1.4178791118443803
-0.056237499999999996,1.6110360875245973,1.4221960595580247
-0.056225,1.6100457202881915,1.426513007271671
-0.0562125,1.6093854754639203,1.4308299549853174
-0.0562,1.6080649858153793,1.4351469026989636
-0.0561875,1.6074047409911087,1.4394638504126078
-0.056175,1.6064143737547025,1.4437807981262543
-0.056162500000000004,1.6057541289304318,1.4480977458399005
-0.056150000000000005,1.6044336392818905,1.4527467664545965
-0.05613749999999999,1.603773394457619,1.4570637141682465
-0.056124999999999994,1.602783027221213,1.4610485889808436
-0.056112499999999996,1.6021227823969424,1.465365536694488
-0.0561,1.6011324151605364,1.4700145573091838
-0.0560875,1.6001420479241304,1.4743315050228298
-0.056075,1.5991516806877242,1.4783163798354266
-0.0560625,1.5981613134513186,1.482633327549071
-0.05605,1.5975010686270479,1.4869502752627173
-0.056037500000000004,1.5965107013906419,1.4915992958774134
-0.056025000000000005,1.5955203341542357,1.49558417069001
-0.05601250000000001,1.59452996691783,1.4999011184036544
-0.055999999999999994,1.5935395996814228,1.5042180661173066
-0.055987499999999996,1.5928793548571525,1.5085350138309508
-0.055975,1.591888987620746,1.5125198886435476
-0.0559625,1.590568497972205,1.5168368363571938
-0.05595,1.5902383755600693,1.52115378407084
-0.0559375,1.5889178859115285,1.5254707317844844
-0.055925,1.5879275186751225,1.5297876794981307
-0.055912500000000004,1.5872672738508518,1.5337725543107275
-0.055900000000000005,1.5862769066144455,1.5380895020243737
-0.05588750000000001,1.58528653937804,1.5424064497380179
-0.055874999999999994,1.5846262945537677,1.5467233974516699
-0.055862499999999995,1.583305804905227,1.5507082722642647
-0.05585,1.5826455600809561,1.5546931470768615
-0.0558375,1.5816551928445504,1.5590100947905075
-0.055825,1.5809949480202792,1.5629949696031045
-0.0558125,1.5796744583717384,1.5673119173167487
-0.0558,1.5786840911353324,1.5709647192282956
-0.055787500000000004,1.5780238463110616,1.5752816669419418
-0.055775000000000005,1.577363601486791,1.5795986146555883
-0.055762500000000007,1.5763732342503851,1.583583489468183
-0.055749999999999994,1.5753828670139778,1.587568364280785
-0.055737499999999995,1.5743924997775725,1.5915532390933798
-0.055725,1.5737322549533015,1.5955381139059766
-0.0557125,1.5727418877168955,1.5998550616196223
-0.0557,1.5720816428926245,1.6035078635311695
-0.0556875,1.571091275656219,1.6074927383437643
-0.055675,1.5701009084198128,1.611477613156361
-0.055662500000000004,1.5694406635955422,1.6157945608700073
-0.055650000000000005,1.5681201739470008,1.6194473627815542
-0.055637500000000006,1.567129806710595,1.623432237594149
-0.055624999999999994,1.5661394394741879,1.627417112406751
-0.055612499999999995,1.5654791946499174,1.6314019872193455
-0.0556,1.5644888274135114,1.6350547891308926
-0.0555875,1.5634984601771054,1.6390396639434892
-0.055575,1.5628382153528344,1.6430245387560858
-0.0555625,1.5618478481164288,1.6470094135686806
-0.05555,1.561187603292158,1.6509942883812772
-0.055537500000000004,1.5601972360557521,1.6543150173917742
-0.055525000000000005,1.559206868819346,1.6579678193033212
-0.055512500000000006,1.5582165015829403,1.661952694115916
-0.055499999999999994,1.5572261343465332,1.6659375689285176
-0.055487499999999995,1.5565658895222627,1.6692582979390131
-0.055475,1.5555755222858565,1.67291109985056
-0.0554625,1.5545851550494507,1.6765639017621068
-0.05545,1.5539249102251798,1.680216703673654
-0.0554375,1.552934542988774,1.6842015784862487
-0.055425,1.551944175752368,1.6871902345956962
-0.0554125,1.5512839309280972,1.691175109408293
-0.055400000000000005,1.5506236861038265,1.6948279113198397
-0.055387500000000006,1.5496333188674205,1.698148640330337
-0.055374999999999994,1.5486429516310138,1.7014693693408374
-0.055362499999999995,1.5479827068067433,1.7051221712523825
-0.055349999999999996,1.5473224619824724,1.7087749731639292
-0.0553375,1.546001972333931,1.7120957021744263
-0.055325,1.545011605097525,1.715084358283874
-0.0553125,1.5443513602732546,1.7187371601954193
-0.0553,1.5433609930368486,1.7217258163048668
-0.0552875,1.5427007482125779,1.7253786182164137
-0.055275000000000005,1.5417103809761719,1.7283672743258611
-0.055262500000000006,1.5407200137397656,1.7316880033363582
-0.055249999999999994,1.5400597689154945,1.7346766594458087
-0.055237499999999995,1.5393995240912237,1.7379973884563042
-0.055224999999999996,1.5384091568548177,1.740986044565752
-0.0552125,1.537418789618412,1.744306773576249
-0.0552,1.536758544794141,1.747627502586746
-0.0551875,1.535768177557735,1.7506161586961935
-0.055175,1.5351079327334647,1.7536048148056396
-0.0551625,1.5341175654970585,1.7562613980140371
-0.055150000000000005,1.5334573206727877,1.7595821270245344
-0.055137500000000006,1.5324669534363817,1.7622387102329322
-0.05512499999999999,1.53180670861211,1.7652273663423819
-0.055112499999999995,1.530816341375704,1.7675518766497302
-0.055099999999999996,1.530156096551434,1.7705405327591763
-0.0550875,1.529495851727163,1.7735291888686235
-0.055075,1.5285054844907568,1.7761857720770213
-0.0550625,1.527515117254351,1.7788423552854191
-0.05505,1.5268548724300806,1.7814989384938156
-0.0550375,1.5258645051936743,1.7841555217022134
-0.055025000000000004,1.5252042603694038,1.7864800320095613
-0.055012500000000006,1.5242138931329976,1.789468688119009
-0.05499999999999999,1.523223525896591,1.791793198426359
-0.054987499999999995,1.5225632810723202,1.7941177087337075
-0.054974999999999996,1.5219030362480495,1.7967742919421035
-0.0549625,1.5205825465995084,1.798766729348402
-0.05495,1.5199223017752377,1.8010912396557501
-0.0549375,1.5192620569509667,1.803415749963098
-0.054925,1.5182716897145612,1.8060723331714947
-0.0549125,1.5176114448902904,1.808064770577793
-0.054900000000000004,1.5166210776538844,1.810389280885141
-0.054887500000000006,1.5159608328296137,1.8127137911924889
-0.05487499999999999,1.5149704655932068,1.8150383014998388
-0.054862499999999995,1.5143102207689358,1.817030738906137
-0.054849999999999996,1.5133198535325305,1.8190231763124345
-0.0548375,1.5129897311203953,1.821015613718733
-0.054825,1.5123294862961243,1.823340124026081
-0.0548125,1.5116692414718536,1.825332561432379
-0.0548,1.5106788742354478,1.8269929259376267
-0.0547875,1.510018629411177,1.828985363343925
-0.054775000000000004,1.509028262174771,1.8309778007502233
-0.054762500000000006,1.5086981397626356,1.8329702381565216
-0.05474999999999999,1.5080378949383644,1.8346306026617718
-0.054737499999999994,1.5073776501140936,1.8362909671670207
-0.054724999999999996,1.5067174052898233,1.8382834045733178
-0.0547125,1.5060571604655526,1.8399437690785663
-0.0547,1.5053969156412819,1.841604133583815
-0.0546875,1.5047366708170111,1.8432644980890636
-0.054675,1.5040764259927406,1.8449248625943115
-0.0546625,1.5034161811684699,1.8462531541985103
-0.054650000000000004,1.5027559363441991,1.847913518703759
-0.054637500000000006,1.5020956915199284,1.8499059561100573
-0.05462499999999999,1.5017655691077922,1.850902174813208
-0.054612499999999994,1.500775201871387,1.8525625393184566
-0.054599999999999996,1.5004450794592514,1.8542229038237041
-0.0545875,1.4997848346349807,1.8555511954279031
-0.054575,1.4994547122228454,1.856879487032102
-0.0545625,1.4987944673985745,1.8582077786363007
-0.05455,1.4984643449864394,1.859536070240499
-0.0545375,1.4978041001621687,1.8608643618446978
-0.054525000000000004,1.497143855337898,1.861860580547847
-0.054512500000000005,1.4964836105136272,1.8635209450530956
-0.05450000000000001,1.4961534881014922,1.8645171637562443
-0.054487499999999994,1.495493243277221,1.8655133824593948
-0.054474999999999996,1.4951631208650855,1.8665096011625437
-0.0544625,1.494502876040815,1.8678378927667423
-0.05445,1.4941727536286795,1.8688341114698914
-0.0544375,1.4935125088044088,1.8698303301730406
-0.054425,1.4928522639801383,1.8708265488761895
-0.0544125,1.492522141568003,1.8718227675793386
-0.054400000000000004,1.4921920191558675,1.8731510591835374
-0.054387500000000005,1.4915317743315968,1.873815204985637
-0.05437500000000001,1.4912016519194617,1.8748114236887856
-0.054362499999999994,1.4908715295073256,1.8758076423919359
-0.054349999999999996,1.4902112846830553,1.876471788194035
-0.0543375,1.490211284683055,1.8774680068971838
-0.054325,1.4895510398587846,1.8781321526992834
-0.0543125,1.489220917446649,1.8787962985013829
-0.0543,1.488890795034514,1.879460444303482
-0.0542875,1.4882305502102433,1.880456663006631
-0.054275000000000004,1.4879004277981078,1.880788735907681
-0.054262500000000005,1.4879004277981078,1.88178495461083
-0.05425000000000001,1.4872401829738375,1.8824491004129291
-0.054237499999999994,1.4869100605617016,1.8827811733139799
-0.054224999999999995,1.4865799381495661,1.8834453191160787
-0.0542125,1.4862498157374309,1.8837773920171286
-0.0542,1.4859196933252958,1.8844415378192279
-0.0541875,1.4859196933252956,1.8847736107202777
-0.054175,1.485259448501025,1.8854377565223768
-0.0541625,1.485259448501025,1.8857698294234266
-0.054150000000000004,1.4849293260888896,1.8861019023244763
-0.054137500000000005,1.4845992036767544,1.886433975225526
-0.054125000000000006,1.484269081264619,1.8870981210276252
-0.054112499999999994,1.4842690812646182,1.8870981210276256
-0.054099999999999995,1.4836088364403481,1.8874301939286753
-0.0540875,1.483608836440348,1.8877622668297251
-0.054075,1.4832787140282129,1.8880943397307746
-0.0540625,1.4832787140282127,1.8880943397307748
-0.05405,1.4829485916160774,1.8884264126318242
-0.0540375,1.4826184692039421,1.8884264126318242
-0.054025000000000004,1.4822883467918069,1.888758485532874
-0.054012500000000005,1.4822883467918069,1.888758485532874
-0.054000000000000006,1.4822883467918069,1.8890905584339235
-0.053987499999999994,1.4819582243796712,1.8890905584339237
-0.053974999999999995,1.481628101967536,1.8890905584339235
-0.0539625,1.481628101967536,1.888758485532874
-0.05395,1.4816281019675357,1.888758485532874
-0.0539375,1.4812979795554007,1.8887584855328738
-0.053925,1.4812979795554007,1.8884264126318242
-0.0539125,1.4812979795554007,1.8884264126318242
-0.0539,1.4809678571432654,1.8884264126318242
-0.053887500000000005,1.48063773473113,1.8880943397307746
-0.053875000000000006,1.48063773473113,1.8877622668297251
-0.053862499999999994,1.48063773473113,1.8874301939286748
-0.053849999999999995,1.4806377347311297,1.8870981210276252
-0.053837499999999996,1.4803076123189947,1.8867660481265756
-0.053825,1.4803076123189944,1.8864339752255257
-0.0538125,1.4799774899068592,1.886101902324476
-0.0538,1.4799774899068592,1.8854377565223768
-0.0537875,1.4799774899068592,1.8854377565223768
-0.053775,1.4803076123189947,1.8847736107202775
-0.053762500000000005,1.4799774899068592,1.8844415378192276
-0.053750000000000006,1.4799774899068592,1.8837773920171283
-0.053737499999999994,1.4799774899068592,1.8831132462150286
-0.053724999999999995,1.479977489906859,1.882781173313979
-0.053712499999999996,1.4796473674947241,1.8821170275118795
-0.0537,1.479977489906859,1.88145288170978
-0.0536875,1.479647367494724,1.8807887359076807
-0.053675,1.479647367494724,1.880124590105581
-0.0536625,1.479647367494724,1.8791283714024323
-0.05365,1.479647367494724,1.8781321526992831
-0.053637500000000005,1.479647367494724,1.8778000797982335
-0.053625000000000006,1.479647367494724,1.8768038610950843
-0.053612499999999993,1.4796473674947241,1.8758076423919345
-0.053599999999999995,1.4799774899068592,1.8751434965898355
-0.053587499999999996,1.479977489906859,1.874479350787736
-0.053575,1.4796473674947241,1.8738152049856365
-0.0535625,1.4799774899068592,1.8728189862824876
