data_analysis/piezos/acq0018.csv

#Digilent WaveForms Oscilloscope Acquisition
#Device Name: Discovery2
#Serial Number: SN:210321B02866
#Date Time: 2021-02-05 17:26:32.609
#Sample rate: 200000Hz
#Samples: 8192
#Trigger: Source: Channel 1 Type: Edge Condition: Rising Level: 0 V Hyst.: Auto HoldOff: 0 s
#Channel 1: Range: 500 mV/div Offset: 0 V Attenuation: 1 X
#Channel 2: Range: 500 mV/div Offset: 0 V Attenuation: 1 X
#Wavegen Channel 1: Enabled
#Mode: Simple
#Type: Sine
#Frequency: 500 Hz
#Period: 2 ms
#Amplitude: 1 V
#Offset: 0 V
#Symmetry: 50 %
#Phase: 0 °
#Power Supplies: ON
#Positive Supply: ON
#Voltage: 1 V
#Negative Supply: ON
#Voltage: -1 V

Time (s),Channel 1 (V),Channel 2 (V)
-0.030215000000000002,-0.002462971380424939,-0.0016175976016989438
-0.03021,-0.0021328489682895775,-0.0009534517995995113
-0.030205,-0.0018027265561542162,-0.0009534517995993603
-0.0302,-0.0018027265561542162,-0.000621378898549795
-0.030195,-0.002462971380424939,-0.0016175976016989438
-0.03019,-0.0018027265561542162,-0.0009534517995995113
-0.030185,-0.0018027265561542162,-0.0009534517995995113
-0.030180000000000002,-0.0018027265561542162,-0.000621378898549946
-0.030175,-0.002462971380424939,-0.0016175976016989438
-0.03017,-0.0021328489682894275,-0.0012855247006492276
-0.030165,-0.0018027265561542162,-0.0012855247006492276
-0.03016,-0.0021328489682895775,-0.0006213788985500971
-0.030155,-0.0021328489682895775,-0.0012855247006492276
-0.03015,-0.0021328489682895775,-0.0012855247006492276
-0.030145,-0.0021328489682895775,-0.0009534517995995113
-0.03014,-0.0021328489682895775,-0.0009534517995995113
-0.030135000000000002,-0.0027930937925600002,-0.0016175976016986418
-0.03013,-0.0021328489682895775,-0.0012855247006492276
-0.030125,-0.0021328489682895775,-0.0009534517995993603
-0.03012,-0.0021328489682895775,-0.000621378898549795
-0.030115,-0.002462971380424939,-0.0012855247006492276
-0.03011,-0.002462971380424939,-0.0012855247006492276
-0.030105,-0.0018027265561542162,-0.0009534517995995113
-0.030100000000000002,-0.0021328489682894275,-0.0009534517995995113
-0.030095,-0.0021328489682895775,-0.0012855247006492276
-0.030090000000000002,-0.0021328489682895775,-0.0009534517995996623
-0.030085,-0.0018027265561542162,-0.0009534517995995113
-0.03008,-0.0018027265561543662,-0.0012855247006492276
-0.030075,-0.0021328489682895775,-0.0012855247006492276
-0.03007,-0.0018027265561542162,-0.000621378898549795
-0.030065,-0.0021328489682895775,-0.000621378898549795
-0.03006,-0.002462971380424939,-0.0012855247006492276
-0.030055000000000002,-0.0021328489682897276,-0.0012855247006492276
-0.03005,-0.002462971380424939,-0.0009534517995995113
-0.030045000000000002,-0.0018027265561545163,-0.0009534517995995113
-0.03004,-0.0018027265561542162,-0.0012855247006492276
-0.030035,-0.0021328489682895775,-0.0012855247006490766
-0.03003,-0.0021328489682895775,-0.0009534517995995113
-0.030025,-0.001472604144018855,-0.000621378898549795
-0.03002,-0.0021328489682895775,-0.0012855247006492276
-0.030015,-0.002462971380424939,-0.0012855247006492276
-0.030010000000000002,-0.0021328489682897276,-0.0012855247006492276
-0.030005,-0.0018027265561542162,-0.000621378898549795
-0.03,-0.0021328489682897276,-0.0012855247006492276
-0.029995,-0.002462971380424939,-0.0012855247006492276
-0.02999,-0.0021328489682894275,-0.0012855247006489255
-0.029985,-0.0018027265561542162,-0.000621378898549795
-0.02998,-0.0021328489682895775,-0.0012855247006492276
-0.029975,-0.0018027265561542162,-0.0009534517995995113
-0.02997,-0.0018027265561542162,-0.0009534517995995113
-0.029965000000000002,-0.0018027265561542162,-0.000621378898549946
-0.02996,-0.002462971380424939,-0.0012855247006492276
-0.029955,-0.0018027265561542162,-0.0012855247006490766
-0.02995,-0.0018027265561542162,-0.0009534517995995113
-0.029945,-0.0018027265561543662,-0.000621378898550248
-0.02994,-0.0021328489682895775,-0.0016175976016989438
-0.029935,-0.0021328489682895775,-0.0012855247006492276
-0.029930000000000002,-0.0021328489682895775,-0.0009534517995996623
-0.029925,-0.0021328489682895775,-0.000621378898549795
-0.029920000000000002,-0.0018027265561543662,-0.0016175976016984909
-0.029915,-0.0021328489682895775,-0.0009534517995995113
-0.02991,-0.0018027265561542162,-0.0009534517995995113
-0.029905,-0.0018027265561542162,-0.0009534517995995113
-0.0299,-0.0021328489682895775,-0.0012855247006492276
-0.029895,-0.0021328489682895775,-0.0009534517995995113
-0.02989,-0.0018027265561542162,-0.000621378898549795
-0.029885000000000002,-0.0021328489682894275,-0.0012855247006489255
-0.02988,-0.0021328489682895775,-0.0012855247006492276
-0.029875000000000002,-0.0018027265561543662,-0.0006213788985500971
-0.02987,-0.0018027265561542162,-0.0009534517995995113
-0.029865,-0.0018027265561543662,-0.0009534517995996623
-0.02986,-0.0021328489682895775,-0.0012855247006492276
-0.029855,-0.0018027265561542162,-0.0009534517995995113
-0.02985,-0.0018027265561542162,-0.000621378898549795
-0.029845,-0.0018027265561542162,-0.0016175976016989438
-0.029840000000000002,-0.0018027265561542162,-0.0012855247006493785
-0.029835,-0.0018027265561542162,-0.0009534517995995113
-0.02983,-0.0018027265561542162,-0.0009534517995996623
-0.029825,-0.0018027265561542162,-0.0012855247006492276
-0.02982,-0.0018027265561542162,-0.0012855247006490766
-0.029815,-0.0018027265561542162,-0.0009534517995995113
-0.02981,-0.001472604144018855,-0.000621378898549795
-0.029805,-0.0018027265561542162,-0.0009534517995995113
-0.0298,-0.0018027265561542162,-0.0009534517995995113
-0.029795000000000002,-0.001472604144019005,-0.0009534517995995113
-0.02979,-0.001472604144018855,-0.0009534517995995113
-0.029785,-0.0014726041440191553,-0.0009534517995995113
-0.02978,-0.0021328489682895775,-0.0009534517995995113
-0.029775,-0.001472604144018705,-0.0009534517995992092
-0.02977,-0.0011424817318834936,-0.00028930599750007875
-0.029765,-0.0018027265561542162,-0.0012855247006492276
-0.02976,-0.001472604144018855,-0.0012855247006492276
-0.029755,-0.0018027265561542162,-0.0012855247006492276
-0.029750000000000002,-0.001472604144019005,-0.0012855247006492276
-0.029745,-0.0018027265561542162,-0.0012855247006492276
-0.02974,-0.001472604144019005,-0.0016175976016986418
-0.029735,-0.0018027265561542162,-0.0009534517995995113
-0.02973,-0.0011424817318834936,-0.000621378898549795
-0.029725,-0.001472604144018855,-0.0016175976016989438
-0.02972,-0.001472604144018855,-0.0012855247006492276
-0.029715000000000002,-0.0011424817318836436,-0.0009534517995996623
-0.02971,-0.0011424817318834936,-0.000621378898549795
-0.029705000000000002,-0.001472604144018705,-0.0012855247006489255
-0.0297,-0.001472604144018855,-0.0009534517995995113
-0.029695,-0.001472604144018855,-0.0009534517995995113
-0.02969,-0.001472604144018855,-0.0009534517995995113
-0.029685,-0.0018027265561542162,-0.0016175976016989438
-0.02968,-0.001472604144018855,-0.0012855247006492276
-0.029675,-0.0011424817318834936,-0.000621378898549795
-0.029670000000000002,-0.0011424817318834936,-0.0009534517995993603
-0.029665,-0.0011424817318834936,-0.0012855247006492276
-0.02966,-0.001472604144018705,-0.001617597601698793
-0.029655,-0.0011424817318834936,-0.0012855247006492276
-0.02965,-0.0008123593197484324,-0.0006213788985500971
-0.029645,-0.001472604144018855,-0.0012855247006492276
-0.02964,-0.001472604144018855,-0.0012855247006492276
-0.029635,-0.001472604144018855,-0.000621378898549795
-0.02963,-0.0008123593197481322,-0.00028930599750007875
-0.029625000000000002,-0.0018027265561537658,-0.0012855247006487746
-0.02962,-0.001472604144018855,-0.0012855247006492276
-0.029615,-0.0011424817318833435,-0.0009534517995990583
-0.02961,-0.0008123593197481322,4.2766903549637525e-5
-0.029605,-0.001472604144018855,-0.0009534517995995113
-0.0296,-0.001472604144018855,-0.0009534517995995113
-0.029595,-0.0011424817318834936,-0.0012855247006492276
-0.02959,-0.0008123593197481322,-0.000621378898549795
-0.029585,-0.001472604144018855,-0.0016175976016989438
-0.029580000000000002,-0.0011424817318836436,-0.0012855247006493785
-0.029575,-0.0011424817318834936,-0.0012855247006492276
-0.02957,-0.0008123593197484324,-0.0002893059975006828
-0.029565,-0.001472604144018855,-0.0016175976016989438
-0.02956,-0.0011424817318834936,-0.0009534517995995113
-0.029555,-0.0011424817318834936,-0.0009534517995995113
-0.02955,-0.0008123593197481322,-0.000621378898549795
-0.029545000000000002,-0.0014726041440185546,-0.001949670502748056
-0.02954,-0.001472604144018855,-0.0009534517995995113
-0.029535000000000002,-0.0011424817318836436,-0.000621378898549946
-0.02953,-0.0008123593197481322,-0.000621378898549795
-0.029525,-0.001472604144018705,-0.001949670502748358
-0.02952,-0.0011424817318834936,-0.0012855247006492276
-0.029515,-0.001472604144018855,-0.0009534517995995113
-0.02951,-0.0008123593197481322,-0.0012855247006492276
-0.029505,-0.0021328489682895775,-0.0026138163048480927
-0.029500000000000002,-0.0014726041440191553,-0.0012855247006498317
-0.029495,-0.001472604144018855,-0.0009534517995995113
-0.029490000000000002,-0.0021328489682892774,-0.0016175976016986418
-0.029485,-0.002462971380424939,-0.003277962106947525
-0.02948,-0.0021328489682892774,-0.0019496705027482071
-0.029475,-0.001472604144018855,-0.0009534517995995113
-0.02947,-0.0021328489682895775,-0.0022817434037983764
-0.029465,-0.0027930937925603003,-0.002945889205897809
-0.02946,-0.0021328489682895775,-0.0019496705027486601
-0.029455000000000002,-0.0018027265561543662,-0.0012855247006495296
-0.02945,-0.0031232162046956617,-0.0026138163048480927
-0.029445,-0.0031232162046953616,-0.0029458892058973557
-0.02944,-0.002462971380424939,-0.0019496705027486601
-0.029435,-0.002462971380425389,-0.0009534517996005684
-0.02943,-0.003453338616831023,-0.003277962106947525
-0.029425,-0.003453338616831023,-0.002945889205897809
-0.02942,-0.0027930937925603003,-0.0019496705027486601
-0.029415,-0.0031232162046956617,-0.0012855247006492276
-0.029410000000000002,-0.004113583441101296,-0.0032779621069466192
-0.029405,-0.004113583441101746,-0.002945889205897809
-0.0294,-0.003453338616830873,-0.001949670502748358
-0.029395,-0.0031232162046956617,-0.0012855247006492276
-0.02939,-0.004773828265372469,-0.003942107909046505
-0.029385,-0.004773828265372469,-0.002945889205897809
-0.02938,-0.004113583441101746,-0.0022817434037983764
-0.029375000000000002,-0.0034533386168313232,-0.0012855247006496805
-0.02937,-0.0057641955017785525,-0.003942107909046958
-0.029365000000000002,-0.004773828265372919,-0.002945889205898262
-0.02936,-0.004443705853237107,-0.0019496705027486601
-0.029355,-0.0037834610289669847,-0.0012855247006504356
-0.02935,-0.00510395067750783,-0.003942107909046958
-0.029345,-0.005434073089643191,-0.0026138163048480927
-0.02934,-0.00510395067750783,-0.0019496705027486601
-0.029335,-0.004773828265372469,-0.0012855247006492276
-0.029330000000000002,-0.005764195501778102,-0.0032779621069466192
-0.029325,-0.005434073089643191,-0.002945889205897809
-0.029320000000000002,-0.00510395067750798,-0.0022817434037986787
-0.029315,-0.004773828265372469,-0.0012855247006492276
-0.02931,-0.0060943179139139134,-0.00294588920589796
-0.029305,-0.0060943179139139134,-0.003277962106947525
-0.0293,-0.0057641955017785525,-0.0019496705027486601
-0.029295,-0.00510395067750783,-0.0019496705027486601
-0.02929,-0.0060943179139139134,-0.0022817434037983764
-0.029285000000000002,-0.007414807562454759,-0.004274180810095769
-0.02928,-0.0060943179139139134,-0.0019496705027486601
-0.029275,-0.006094317913913613,-0.0022817434037976213
-0.02927,-0.005434073089643191,-0.000621378898549795
-0.029265,-0.007414807562454759,-0.004606253711145182
-0.02926,-0.0060943179139139134,-0.0019496705027486601
-0.029255,-0.006754562738184636,-0.0022817434037983764
-0.02925,-0.0057641955017785525,-0.00028930599750007875
-0.029245,-0.00774492997459072,-0.003942107909046958
-0.029240000000000002,-0.0064244403260498755,-0.0022817434037991314
-0.029235,-0.007084685150319998,-0.0022817434037983764
-0.02923,-0.006094317913914664,-0.0009534517996005684
-0.029225,-0.00774492997459072,-0.003277962106947525
-0.02922,-0.007414807562455209,-0.0029458892058973557
-0.029215,-0.007084685150319998,-0.0019496705027486601
-0.02921,-0.006754562738184636,-0.0016175976016989438
-0.029205000000000002,-0.007414807562455059,-0.00261381630484764
-0.0292,-0.00774492997459072,-0.003277962106947525
-0.029195000000000002,-0.007084685150320298,-0.0016175976016996989
-0.02919,-0.006754562738184636,-0.0012855247006492276
-0.029185,-0.00774492997459087,-0.0022817434037989805
-0.02918,-0.008075052386726081,-0.0036100350079972415
-0.029175,-0.007084685150319998,-0.0016175976016989438
-0.02917,-0.006754562738184636,4.2766903549637525e-5
-0.029165,-0.008405174798861444,-0.003277962106947525
-0.029160000000000002,-0.00774492997459102,-0.0022817434037988296
-0.029155,-0.00774492997459072,-0.0016175976016989438
-0.029150000000000002,-0.006094317913914665,0.00037483980459844784
-0.029145,-0.009065419623132166,-0.003942107909046958
-0.02914,-0.00774492997459057,-0.0016175976016989438
-0.029135,-0.007414807562455359,-0.0016175976016989438
-0.02913,-0.007084685150319998,-0.00028930599750007875
-0.029125,-0.009065419623132166,-0.003942107909046958
-0.02912,-0.007414807562455359,-0.0012855247006492276
-0.029115000000000002,-0.007084685150320148,-0.00028930599750053173
-0.02911,-0.008405174798861444,-0.0026138163048480927
-0.029105,-0.008735297210996354,-0.0026138163048473376
-0.0291,-0.00774492997459072,-0.0009534517995995113
-0.029095,-0.007084685150321049,4.2766903547825417e-5
-0.02909,-0.009395542035267527,-0.003942107909046958
-0.029085,-0.00774492997459072,-0.0012855247006492276
-0.02908,-0.007414807562455359,-0.0012855247006492276
-0.029075,-0.008075052386726081,-0.0009534517995995113
-0.029070000000000002,-0.008735297210996504,-0.0032779621069464683
-0.029065,-0.007414807562455359,-0.000621378898549795
-0.02906,-0.0067545627381856875,4.2766903548278444e-5
-0.029055,-0.009065419623132166,-0.002945889205897809
-0.02905,-0.008405174798861144,-0.0022817434037977723
-0.029045,-0.00774492997459072,-0.0009534517995995113
-0.02904,-0.007084685150319998,4.2766903549637525e-5
-0.029035000000000002,-0.009065419623131265,-0.0036100350079955805
-0.02903,-0.00774492997459072,-0.0009534517995995113
-0.029025000000000002,-0.007084685150320298,-0.0002893059975003808
-0.02902,-0.008075052386726081,-0.0012855247006492276
-0.029015,-0.008735297210996204,-0.002945889205896752
-0.02901,-0.007414807562455359,-0.000621378898549795
-0.029005,-0.007084685150319998,0.0007069127056490701
-0.029,-0.009065419623132166,-0.003277962106947525
-0.028995,-0.008075052386726081,-0.0012855247006492276
-0.028990000000000002,-0.007414807562455659,-0.0006213788985500971
-0.028985,-0.007414807562455359,-0.00028930599750007875
-0.028980000000000002,-0.009065419623131414,-0.003277962106946166
-0.028975,-0.00774492997459072,-0.000621378898549795
-0.02897,-0.007414807562455809,4.276690354873147e-5
-0.028965,-0.008405174798861444,-0.0019496705027486601
-0.02896,-0.008405174798861444,-0.0022817434037983764
-0.028955,-0.00774492997459072,-0.0009534517995995113
-0.02895,-0.006424440326049275,0.0007069127056490701
-0.028945000000000002,-0.009065419623130965,-0.003610035007995279
-0.02894,-0.008075052386726081,-0.0009534517995995113
-0.028935,-0.007414807562455359,-0.000621378898549644
-0.02893,-0.007414807562455359,-0.00028930599750007875
-0.028925,-0.009395542035266775,-0.003942107909045599
-0.02892,-0.00774492997459072,-0.0009534517995995113
-0.028915,-0.007084685150319998,0.0003748398045993538
-0.02891,-0.008735297210996805,-0.0022817434037983764
-0.028905,-0.008735297210996805,-0.0022817434037983764
-0.028900000000000002,-0.008075052386726381,-0.0009534517996001154
-0.028895,-0.007084685150319998,0.0007069127056490701
-0.02889,-0.009725664447401989,-0.0039421079090457495
-0.028885,-0.00774492997459072,-0.0012855247006492276
-0.02888,-0.007414807562455809,-0.0006213788985500971
-0.028875,-0.008405174798861444,-0.0012855247006492276
-0.02887,-0.009395542035267527,-0.002945889205897809
-0.028865000000000002,-0.008075052386726681,-0.0006213788985508519
-0.02886,-0.007084685150319998,0.0003748398045993538
-0.028855000000000002,-0.009065419623131265,-0.003277962106945864
-0.02885,-0.008405174798861444,-0.0019496705027486601
-0.028845,-0.00807505238672578,-0.0009534517995990583
-0.02884,-0.007414807562455359,4.2766903549637525e-5
-0.028835,-0.01005578685953825,-0.0042741808100966745
-0.02883,-0.008405174798861444,-0.0012855247006492276
-0.028825,-0.008075052386726081,-0.000621378898549795
-0.028820000000000002,-0.008735297210996504,-0.0016175976016984909
-0.028815,-0.009395542035267527,-0.003277962106947525
-0.028810000000000002,-0.008405174798861895,-0.0012855247006501335
-0.028805,-0.007414807562455359,4.2766903549637525e-5
-0.0288,-0.0100557868595378,-0.003277962106946921
-0.028795,-0.009065419623132166,-0.0019496705027486601
-0.02879,-0.008405174798861444,-0.0012855247006492276
-0.028785,-0.00774492997459072,0.0003748398045993538
-0.02878,-0.010385909271673611,-0.003942107909046958
-0.028775000000000002,-0.008405174798862344,-0.0016175976017000007
-0.02877,-0.008075052386726081,-0.0009534517995995113
-0.028765,-0.008405174798862195,-0.0009534517996008703
-0.02876,-0.01005578685953825,-0.003942107909046958
-0.028755,-0.008735297210996654,-0.0012855247006487746
-0.02875,-0.008405174798861444,-0.00028930599750007875
-0.028745,-0.01005578685953825,-0.0026138163048480927
-0.02874,-0.01005578685953825,-0.0026138163048480927
-0.028735,-0.009065419623132166,-0.0016175976016989438
-0.028730000000000002,-0.00741480756245611,0.0007069127056480132
-0.028725,-0.01005578685953825,-0.003942107909046958
-0.02872,-0.009395542035267376,-0.001617597601698793
-0.028715,-0.009065419623132166,-0.0012855247006492276
-0.02871,-0.008405174798862195,4.2766903547825417e-5
-0.028705,-0.01005578685953825,-0.003942107909046958
-0.0287,-0.009065419623132166,-0.0009534517995995113
-0.028695000000000002,-0.008735297210996956,-0.0002893059975003808
-0.02869,-0.009065419623132166,-0.0012855247006492276
-0.028685000000000002,-0.0100557868595378,-0.002945889205897054
-0.02868,-0.009065419623132166,-0.0009534517995995113
-0.028675,-0.008075052386726981,0.0003748398045978437
-0.02867,-0.01005578685953825,-0.002945889205897809
-0.028665,-0.00972566444740289,-0.0019496705027486601
-0.02866,-0.009065419623132166,-0.0012855247006492276
-0.028655,-0.008075052386726081,0.0007069127056490701
-0.028650000000000002,-0.010716031683807772,-0.003610035007995279
-0.028645,-0.009395542035267527,-0.0009534517995995113
-0.028640000000000002,-0.009395542035267527,-0.0012855247006490766
-0.028635,-0.008735297210996805,-0.000621378898549795
-0.02863,-0.010385909271673011,-0.0036100350079960332
-0.028625,-0.009065419623132166,-0.0009534517995995113
-0.02862,-0.008735297210996805,-0.00028930599750007875
-0.028615,-0.00972566444740289,-0.0016175976016989438
-0.02861,-0.010385909271673611,-0.0026138163048480927
-0.028605000000000002,-0.009395542035267978,-0.0012855247006498317
-0.0286,-0.008075052386726081,0.0003748398045993538
-0.028595,-0.010716031683808672,-0.0036100350079964864
-0.02859,-0.01005578685953825,-0.0019496705027486601
-0.028585,-0.009725664447402289,-0.0009534517995987563
-0.02858,-0.008405174798861444,0.0007069127056490701
-0.028575,-0.011376276508079696,-0.003942107909046958
-0.02857,-0.00972566444740289,-0.0016175976016989438
-0.028565,-0.009395542035267527,-0.0012855247006492276
-0.028560000000000002,-0.009395542035267527,-0.0006213788985500971
-0.028555,-0.011046154095944333,-0.003942107909046958
-0.02855,-0.009725664447402738,-0.0012855247006487746
-0.028545,-0.009395542035267527,-0.00028930599750007875
-0.02854,-0.010716031683808972,-0.0026138163048482436
-0.028535,-0.010716031683808972,-0.002945889205897809
-0.02853,-0.01005578685953825,-0.0012855247006492276
-0.028525000000000002,-0.008735297210997405,0.00037483980459859876
-0.02852,-0.011046154095944333,-0.0036100350079972415
-0.028515000000000002,-0.010385909271673911,-0.0019496705027494152
