data_analysis/piezos/acq0017.csv

#Digilent WaveForms Oscilloscope Acquisition
#Device Name: Discovery2
#Serial Number: SN:210321B02866
#Date Time: 2021-02-05 17:26:30.068
#Sample rate: 200000Hz
#Samples: 8192
#Trigger: Source: Channel 1 Type: Edge Condition: Rising Level: 0 V Hyst.: Auto HoldOff: 0 s
#Channel 1: Range: 500 mV/div Offset: 0 V Attenuation: 1 X
#Channel 2: Range: 500 mV/div Offset: 0 V Attenuation: 1 X
#Wavegen Channel 1: Enabled
#Mode: Simple
#Type: Sine
#Frequency: 500 Hz
#Period: 2 ms
#Amplitude: 1 V
#Offset: 0 V
#Symmetry: 50 %
#Phase: 0 °
#Power Supplies: ON
#Positive Supply: ON
#Voltage: 1 V
#Negative Supply: ON
#Voltage: -1 V

Time (s),Channel 1 (V),Channel 2 (V)
-0.030215000000000002,-0.11932630527634286,-0.0012855247006492276
-0.03021,-0.11932630527634286,-0.0012855247006492276
-0.030205,-0.11866606045207213,-0.0009534517995993603
-0.0302,-0.11866606045207213,-0.000621378898549795
-0.030195,-0.11965642768847821,-0.0012855247006492276
-0.03019,-0.11998655010061357,-0.0009534517995995113
-0.030185,-0.11998655010061357,-0.0009534517995995113
-0.030180000000000002,-0.11998655010061357,-0.000621378898549946
-0.030175,-0.11998655010061357,-0.0016175976016989438
-0.03017,-0.1193263052763427,-0.0012855247006490766
-0.030165,-0.11899618286420749,-0.0009534517995995113
-0.03016,-0.11833593803993676,-0.0002893059975006828
-0.030155,-0.11833593803993676,-0.0016175976016989438
-0.03015,-0.11833593803993676,-0.0009534517995995113
-0.030145,-0.11866606045207213,-0.000621378898549795
-0.03014,-0.11833593803993676,-0.000621378898549795
-0.030135000000000002,-0.11899618286420718,-0.0012855247006489255
-0.03013,-0.11866606045207213,-0.0009534517995995113
-0.030125,-0.11866606045207213,-0.000621378898549946
-0.03012,-0.11866606045207213,-0.0009534517995995113
-0.030115,-0.11899618286420734,-0.001617597601698793
-0.03011,-0.11866606045207213,-0.0012855247006492276
-0.030105,-0.11866606045207213,-0.000621378898549795
-0.030100000000000002,-0.11899618286420734,-0.0009534517995993603
-0.030095,-0.11899618286420749,-0.0012855247006492276
-0.030090000000000002,-0.11899618286420749,-0.0009534517995996623
-0.030085,-0.11899618286420749,-0.00028930599750007875
-0.03008,-0.11965642768847837,-0.0012855247006490766
-0.030075,-0.11998655010061357,-0.0009534517995995113
-0.03007,-0.11965642768847821,-0.0012855247006492276
-0.030065,-0.12031667251274894,-0.0009534517995995113
-0.03006,-0.1206467949248843,-0.0016175976016989438
-0.030055000000000002,-0.12031667251274909,-0.0012855247006493785
-0.03005,-0.11932630527634286,-0.0009534517995995113
-0.030045000000000002,-0.11899618286420764,-0.000621378898549946
-0.03004,-0.11932630527634286,-0.0012855247006492276
-0.030035,-0.11932630527634286,-0.0009534517995995113
-0.03003,-0.11932630527634286,-0.0009534517995995113
-0.030025,-0.11932630527634286,-0.0016175976016989438
-0.03002,-0.11998655010061357,-0.0012855247006492276
-0.030015,-0.11998655010061357,-0.0009534517995995113
-0.030010000000000002,-0.11998655010061357,-0.000621378898549946
-0.030005,-0.1206467949248843,-0.0012855247006492276
-0.03,-0.12031667251274879,-0.0012855247006492276
-0.029995,-0.11998655010061357,-0.0012855247006492276
-0.02999,-0.11965642768847837,-0.000621378898549946
-0.029985,-0.11998655010061357,-0.0009534517995995113
-0.02998,-0.11998655010061357,-0.0012855247006492276
-0.029975,-0.11998655010061357,-0.0009534517995995113
-0.02997,-0.11998655010061357,-0.0012855247006492276
-0.029965000000000002,-0.11932630527634316,-0.0012855247006492276
-0.02996,-0.11965642768847821,-0.0016175976016989438
-0.029955,-0.11965642768847806,-0.0009534517995995113
-0.02995,-0.11932630527634286,-0.0009534517995995113
-0.029945,-0.11866606045207258,-0.000621378898550248
-0.02994,-0.11965642768847821,-0.0016175976016989438
-0.029935,-0.11965642768847821,-0.0009534517995995113
-0.029930000000000002,-0.11932630527634301,-0.0009534517995995113
-0.029925,-0.11899618286420749,-0.000621378898549795
-0.029920000000000002,-0.11965642768847791,-0.0012855247006489255
-0.029915,-0.11932630527634286,-0.0012855247006492276
-0.02991,-0.11965642768847837,-0.0012855247006490766
-0.029905,-0.11998655010061357,-0.0009534517995995113
-0.0299,-0.1206467949248843,-0.0012855247006492276
-0.029895,-0.12097691733701967,-0.0012855247006492276
-0.02989,-0.12163716216129038,-0.0009534517995995113
-0.029885000000000002,-0.1219672845734256,-0.0012855247006490766
-0.02988,-0.12196728457342575,-0.0009534517995995113
-0.029875000000000002,-0.12229740698556095,-0.0016175976016986418
-0.02987,-0.12196728457342575,-0.0012855247006492276
-0.029865,-0.12163716216129022,-0.0009534517995995113
-0.02986,-0.12130703974915502,-0.0009534517995995113
-0.029855,-0.12163716216129038,-0.0012855247006492276
-0.02985,-0.1206467949248843,-0.0012855247006492276
-0.029845,-0.11998655010061357,-0.0009534517995995113
-0.029840000000000002,-0.11932630527634316,-0.000621378898549946
-0.029835,-0.11965642768847821,-0.0012855247006492276
-0.02983,-0.11899618286420764,-0.0009534517995995113
-0.029825,-0.11932630527634286,-0.0009534517995995113
-0.02982,-0.1189961828642078,-0.000621378898550248
-0.029815,-0.11965642768847821,-0.0016175976016989438
-0.02981,-0.11965642768847821,-0.0016175976016989438
-0.029805,-0.11998655010061357,-0.0009534517995995113
-0.0298,-0.11965642768847821,-0.000621378898549795
-0.029795000000000002,-0.11998655010061342,-0.0012855247006489255
-0.02979,-0.11965642768847821,-0.0012855247006492276
-0.029785,-0.11965642768847821,-0.0009534517995995113
-0.02978,-0.11965642768847821,-0.0009534517995995113
-0.029775,-0.11998655010061327,-0.001617597601698793
-0.02977,-0.11932630527634286,-0.0012855247006492276
-0.029765,-0.11866606045207213,-0.000621378898549795
-0.02976,-0.11899618286420749,-0.0012855247006492276
-0.029755,-0.11899618286420749,-0.0016175976016989438
-0.029750000000000002,-0.11833593803993707,-0.0009534517995998134
-0.029745,-0.11800581562780141,-0.0009534517995995113
-0.02974,-0.11899618286420734,-0.001617597601698793
-0.029735,-0.11866606045207213,-0.0012855247006492276
-0.02973,-0.11833593803993676,-0.000621378898549795
-0.029725,-0.11866606045207213,-0.0012855247006492276
-0.02972,-0.11899618286420749,-0.0019496705027486601
-0.029715000000000002,-0.11833593803993707,-0.0012855247006495296
-0.02971,-0.11734557080353068,-0.00028930599750007875
-0.029705000000000002,-0.1176756932156659,-0.0012855247006487746
-0.0297,-0.11833593803993676,-0.0016175976016989438
-0.029695,-0.11767569321566605,-0.0009534517995989073
-0.02969,-0.11767569321566605,0.0003748398045993538
-0.029685,-0.11899618286420749,-0.0016175976016989438
-0.02968,-0.11899618286420749,-0.0009534517995995113
-0.029675,-0.11866606045207213,4.2766903549637525e-5
-0.029670000000000002,-0.11899618286420734,0.00037483980459920277
-0.029665,-0.11965642768847821,-0.0016175976016989438
-0.02966,-0.11932630527634241,-0.000621378898549191
-0.029655,-0.11833593803993676,0.0007069127056490701
-0.02965,-0.11899618286420764,-0.0006213788985500971
-0.029645,-0.11932630527634286,-0.0012855247006492276
-0.02964,-0.11866606045207213,-0.00028930599750007875
-0.029635,-0.11734557080353068,0.0013710585077485026
-0.02963,-0.11833593803993676,-0.000621378898549795
-0.029625000000000002,-0.11833593803993676,-0.000621378898549795
-0.02962,-0.11866606045207213,4.2766903549637525e-5
-0.029615,-0.11734557080353143,0.0017031314087971618
-0.02961,-0.11899618286420749,-0.000621378898549795
-0.029605,-0.11899618286420734,-0.0002893059974999277
-0.0296,-0.11866606045207213,4.2766903549637525e-5
-0.029595,-0.11767569321566605,0.0023672772108976514
-0.02959,-0.11932630527634286,-0.0009534517995995113
-0.029585,-0.11800581562780141,-0.00028930599750007875
-0.029580000000000002,-0.1176756932156662,4.2766903549486496e-5
-0.029575,-0.11668532597925996,0.002035204309847935
-0.02957,-0.11866606045207183,-0.0012855247006487746
-0.029565,-0.11800581562780141,-0.00028930599750007875
-0.02956,-0.11767569321566605,0.0003748398045993538
-0.029555,-0.11701544839139533,0.0023672772108976514
-0.02955,-0.11899618286420749,-0.0009534517995995113
-0.029545000000000002,-0.11800581562780185,4.2766903549184545e-5
-0.02954,-0.11767569321566605,0.0007069127056490701
-0.029535000000000002,-0.11701544839139563,0.002035204309847331
-0.02953,-0.11800581562780141,-0.0012855247006492276
-0.029525,-0.11701544839139488,0.0003748398045996558
-0.02952,-0.11602508115498925,0.0010389856066987863
-0.029515,-0.11536483633071852,0.002035204309847935
-0.02951,-0.1163552035671246,-0.0012855247006492276
-0.029505,-0.11503471391858315,0.0003748398045993538
-0.029500000000000002,-0.11404434668217751,0.0010389856066984843
-0.029495,-0.11404434668217707,0.0013710585077485026
-0.029490000000000002,-0.11536483633071792,-0.0009534517995984544
-0.029485,-0.11404434668217707,0.0010389856066987863
-0.02948,-0.11305397944577143,0.0017031314087979168
-0.029475,-0.11404434668217707,0.0010389856066987863
-0.02947,-0.11503471391858315,-0.0012855247006492276
-0.029465,-0.11371422427004171,0.0010389856066987863
-0.02946,-0.11338410185790634,0.002035204309847935
-0.029455000000000002,-0.114374469094312,4.2766903550543484e-5
-0.02945,-0.11503471391858315,-0.0009534517995995113
-0.029445,-0.11404434668217676,0.0010389856066993905
-0.02944,-0.11338410185790634,0.0023672772108976514
-0.029435,-0.11569495874285357,-0.0009534517995992092
-0.02943,-0.11503471391858315,-0.00028930599750007875
-0.029425,-0.11437446909431244,0.0013710585077485026
-0.02942,-0.11371422427004171,0.002035204309847935
-0.029415,-0.11536483633071852,-0.0016175976016989438
-0.029410000000000002,-0.11437446909431288,4.2766903548882487e-5
-0.029405,-0.11272385703363563,0.0010389856066987863
-0.0294,-0.11272385703363579,0.00037483980459844773
-0.029395,-0.11305397944577099,-0.0016175976016989438
-0.02939,-0.11239373462149982,0.0007069127056498251
-0.029385,-0.11140336738509418,0.0023672772108976514
-0.02938,-0.11305397944577099,-0.0009534517995995113
-0.029375000000000002,-0.11338410185790619,-0.000621378898549946
-0.02937,-0.11239373462150026,0.0010389856066987863
-0.029365000000000002,-0.11206361220936506,0.0020352043098474824
-0.02936,-0.11437446909431244,-0.0019496705027486601
-0.029355,-0.11338410185790604,-0.0006213788985485869
-0.02935,-0.11272385703363563,0.002035204309847935
-0.029345,-0.11371422427004171,0.0003748398045993538
-0.02934,-0.11437446909431244,-0.0016175976016989438
-0.029335,-0.11338410185790634,0.0003748398045993538
-0.029330000000000002,-0.11239373462150071,0.00203520430984718
-0.029325,-0.1147045915064478,-0.0016175976016989438
-0.029320000000000002,-0.11404434668217737,-0.000621378898550248
-0.029315,-0.11305397944577099,0.0003748398045993538
-0.02931,-0.11206361220936581,0.0017031314087962558
-0.029305,-0.11404434668217707,-0.0026138163048480927
-0.0293,-0.11305397944577099,-0.00028930599750007875
-0.029295,-0.11239373462150026,4.2766903549637525e-5
-0.02929,-0.11173348979722954,0.0010389856066987863
-0.029285000000000002,-0.11305397944577039,-0.001949670502747301
-0.02928,-0.11173348979722954,4.2766903549637525e-5
-0.029275,-0.11140336738509433,0.0010389856066984843
-0.02927,-0.11173348979722954,0.0003748398045993538
-0.029265,-0.11305397944577054,-0.0019496705027477542
-0.02926,-0.11206361220936491,4.2766903549637525e-5
-0.029255,-0.11239373462150026,0.0003748398045993538
-0.02925,-0.11404434668217707,-0.00028930599750007875
-0.029245,-0.11536483633071852,-0.0016175976016989438
-0.029240000000000002,-0.1147045915064481,4.2766903548882487e-5
-0.029235,-0.11404434668217707,0.0003748398045993538
-0.02923,-0.11437446909431304,0.00037483980459829675
-0.029225,-0.11569495874285388,-0.0019496705027486601
-0.02922,-0.11371422427004171,4.2766903549637525e-5
-0.029215,-0.11371422427004171,4.2766903549637525e-5
-0.02921,-0.11305397944577099,4.2766903549637525e-5
-0.029205000000000002,-0.11470459150644705,-0.0022817434037973195
-0.0292,-0.11338410185790634,4.2766903549637525e-5
-0.029195000000000002,-0.11338410185790634,4.2766903549637525e-5
-0.02919,-0.11338410185790634,0.0007069127056490701
-0.029185,-0.1150347139185824,-0.0026138163048470358
-0.02918,-0.11338410185790634,-0.00028930599750007875
-0.029175,-0.11272385703363563,4.2766903549637525e-5
-0.02917,-0.11272385703363563,0.0003748398045993538
-0.029165,-0.11404434668217707,-0.0022817434037983764
-0.029160000000000002,-0.11305397944577143,4.2766903548580645e-5
-0.029155,-0.11272385703363563,4.2766903549637525e-5
-0.029150000000000002,-0.11173348979722998,0.000706912705648768
-0.029145,-0.11371422427004171,-0.0022817434037983764
-0.02914,-0.11239373462150011,-0.000621378898549493
-0.029135,-0.11206361220936491,4.2766903549637525e-5
-0.02913,-0.11173348979722954,0.0007069127056490701
-0.029125,-0.11371422427004171,-0.0026138163048480927
-0.02912,-0.11206361220936491,-0.00028930599750007875
-0.029115000000000002,-0.11206361220936491,-0.00028930599750007875
-0.02911,-0.11173348979722954,0.0010389856066987863
-0.029105,-0.11404434668217632,-0.0026138163048468844
-0.0291,-0.11239373462150026,4.2766903549637525e-5
-0.029095,-0.11206361220936475,4.2766903549788534e-5
-0.02909,-0.11173348979722954,0.0003748398045993538
-0.029085,-0.11305397944577099,-0.0022817434037983764
-0.02908,-0.11140336738509418,-0.00028930599750007875
-0.029075,-0.11107324497295883,0.0003748398045993538
-0.029070000000000002,-0.11074312256082361,0.0003748398045993538
-0.029065,-0.11173348979722954,-0.0019496705027486601
-0.02906,-0.11041300014868795,4.276690354993954e-5
-0.029055,-0.11008287773655273,0.0007069127056490701
-0.02905,-0.11008287773655333,4.276690354873147e-5
-0.029045,-0.11140336738509418,-0.0019496705027486601
-0.02904,-0.1104130001486881,0.0003748398045993538
-0.029035000000000002,-0.11008287773655288,0.0010389856066984843
-0.02903,-0.11107324497295883,4.2766903549637525e-5
-0.029025000000000002,-0.11206361220936446,-0.0019496705027477542
-0.02902,-0.11107324497295883,4.2766903549637525e-5
-0.029015,-0.1104130001486884,0.0010389856066981822
-0.02901,-0.11107324497295883,-0.00028930599750007875
-0.029005,-0.11173348979722954,-0.0012855247006492276
-0.029,-0.11074312256082346,0.0003748398045993538
-0.028995,-0.11008287773655273,0.0007069127056490701
-0.028990000000000002,-0.11074312256082315,-0.0006213788985491909
-0.028985,-0.11140336738509418,-0.0019496705027486601
-0.028980000000000002,-0.11041300014868854,-0.0002893059975008338
-0.028975,-0.10975275532441738,0.0013710585077485026
-0.02897,-0.11107324497295867,-0.0009534517995996623
-0.028965,-0.11074312256082346,-0.0012855247006492276
-0.02896,-0.1104130001486881,4.2766903549637525e-5
-0.028955,-0.10975275532441738,0.0013710585077485026
-0.02895,-0.11173348979722954,-0.0009534517995995113
-0.028945000000000002,-0.11206361220936475,-0.0012855247006490766
-0.02894,-0.11173348979722954,4.2766903549637525e-5
-0.028935,-0.1107431225608242,0.0013710585077475967
-0.02893,-0.11239373462150026,-0.000621378898549795
-0.028925,-0.1117334897972291,-0.0012855247006487746
-0.02892,-0.11074312256082346,-0.00028930599750007875
-0.028915,-0.10909251050014665,0.0013710585077485026
-0.02891,-0.1104130001486881,-0.0016175976016989438
-0.028905,-0.1104130001486881,-0.0009534517995995113
-0.028900000000000002,-0.11008287773655288,4.2766903549184545e-5
-0.028895,-0.10975275532441738,0.0017031314087982189
-0.02889,-0.11206361220936491,-0.001617597601698793
-0.028885,-0.11206361220936491,-0.0012855247006492276
-0.02888,-0.11173348979722894,4.276690355039257e-5
-0.028875,-0.1104130001486881,0.0017031314087982189
-0.02887,-0.11173348979722954,-0.0016175976016989438
-0.028865000000000002,-0.1104130001486887,-0.0009534517995998134
-0.02886,-0.10942263291228202,-0.00028930599750007875
-0.028855000000000002,-0.10744189843947075,0.001703131408797313
-0.02885,-0.11008287773655273,-0.0016175976016989438
-0.028845,-0.10942263291228202,-0.000621378898549493
-0.02884,-0.10942263291228202,4.2766903549637525e-5
-0.028835,-0.10843226567587592,0.002035204309847935
-0.02883,-0.11107324497295883,-0.0022817434037983764
-0.028825,-0.11008287773655273,-0.0009534517995995113
-0.028820000000000002,-0.10975275532441753,-0.0002893059975003808
-0.028815,-0.10843226567587592,0.002035204309847935
-0.028810000000000002,-0.1107431225608224,-0.002281743403796414
-0.028805,-0.11008287773655273,-0.000621378898549795
-0.0288,-0.11008287773655213,4.276690355054358e-5
-0.028795,-0.1087623880880113,0.002035204309847935
-0.02879,-0.11140336738509418,-0.0026138163048480927
-0.028785,-0.11008287773655273,-0.000621378898549795
-0.02878,-0.10909251050014665,-0.00028930599750007875
-0.028775000000000002,-0.10843226567587623,0.0020352043098468783
-0.02877,-0.11107324497295883,-0.0022817434037983764
-0.028765,-0.10975275532441738,-0.00028930599750007875
-0.02876,-0.10975275532441738,-0.00028930599750007875
-0.028755,-0.10843226567587713,0.002035204309845821
-0.02875,-0.11107324497295883,-0.0026138163048480927
-0.028745,-0.10942263291228202,-0.00028930599750007875
-0.02874,-0.10975275532441738,-0.00028930599750007875
-0.028735,-0.10843226567587592,0.0017031314087982189
-0.028730000000000002,-0.1107431225608224,-0.0022817434037965645
-0.028725,-0.10975275532441738,-0.000621378898549795
-0.02872,-0.10942263291228142,-0.0002893059974991727
-0.028715,-0.10810214326374057,0.0017031314087982189
-0.02871,-0.11074312256082255,-0.0022817434037974704
-0.028705,-0.1087623880880113,-0.00028930599750007875
-0.0287,-0.10942263291228202,-0.00028930599750007875
-0.028695000000000002,-0.10810214326374117,0.001703131408797313
-0.02869,-0.11107324497295883,-0.0022817434037983764
-0.028685000000000002,-0.11008287773655318,-0.0009534517996001154
-0.02868,-0.10975275532441738,-0.00028930599750007875
-0.028675,-0.1087623880880125,0.0013710585077469925
-0.02867,-0.11140336738509418,-0.0019496705027486601
-0.028665,-0.1104130001486881,-0.0009534517995995113
-0.02866,-0.1104130001486881,4.2766903549637525e-5
-0.028655,-0.10909251050014665,0.0013710585077485026
-0.028650000000000002,-0.11074312256082271,-0.00194967050274715
-0.028645,-0.10975275532441738,-0.0009534517995995113
-0.028640000000000002,-0.10975275532441738,-0.0002893059975003808
-0.028635,-0.1087623880880113,0.0013710585077485026
-0.02863,-0.11074312256082346,-0.001617597601698793
-0.028625,-0.11074312256082346,-0.0012855247006492276
-0.02862,-0.11008287773655273,-0.00028930599750007875
-0.028615,-0.10942263291228202,0.0007069127056490701
-0.02861,-0.11140336738509418,-0.0016175976016989438
-0.028605000000000002,-0.11074312256082376,-0.0012855247006493785
-0.0286,-0.10975275532441738,-0.00028930599750007875
-0.028595,-0.10876238808801204,0.0010389856066978804
-0.02859,-0.1104130001486881,-0.0009534517995995113
-0.028585,-0.1104130001486878,-0.0012855247006487746
-0.02858,-0.10975275532441738,-0.00028930599750007875
-0.028575,-0.10810214326374057,0.0007069127056490701
-0.02857,-0.10942263291228202,-0.0012855247006492276
-0.028565,-0.10942263291228202,-0.0016175976016989438
-0.028560000000000002,-0.1090925105001468,-0.00028930599750068287
-0.028555,-0.10843226567587592,0.0007069127056490701
-0.02855,-0.10876238808801174,-0.0002893059975009848
-0.028545,-0.10975275532441738,-0.0022817434037983764
-0.02854,-0.1087623880880113,-0.00028930599750007875
-0.028535,-0.1087623880880113,-0.00028930599750007875
-0.02853,-0.1087623880880113,4.2766903549637525e-5
-0.028525000000000002,-0.11041300014868735,-0.0022817434037973195
-0.02852,-0.10909251050014665,-0.00028930599750007875
-0.028515000000000002,-0.10909251050014665,-0.00028930599750007875
-0.02851,-0.10810214326374057,0.0010389856066987863
-0.028505,-0.11041300014868735,-0.0029458892058964498
-0.0285,-0.1087623880880113,4.2766903549637525e-5
-0.028495,-0.10909251050014665,-0.000621378898549795
-0.02849,-0.10777202085160521,0.0010389856066987863
-0.028485,-0.1104130001486881,-0.0022817434037983764
-0.028480000000000002,-0.10975275532441768,-0.0009534517996001154
-0.028475,-0.10975275532441738,-0.00028930599750007875
-0.028470000000000002,-0.10909251050014696,0.0007069127056486171
