data_analysis/piezos/acq0016.csv

#Digilent WaveForms Oscilloscope Acquisition
#Device Name: Discovery2
#Serial Number: SN:210321B02866
#Date Time: 2021-02-05 17:26:19.788
#Sample rate: 200000Hz
#Samples: 8192
#Trigger: Source: Channel 1 Type: Edge Condition: Rising Level: 0 V Hyst.: Auto HoldOff: 0 s
#Channel 1: Range: 500 mV/div Offset: 0 V Attenuation: 1 X
#Channel 2: Range: 500 mV/div Offset: 0 V Attenuation: 1 X
#Wavegen Channel 1: Enabled
#Mode: Simple
#Type: Sine
#Frequency: 500 Hz
#Period: 2 ms
#Amplitude: 1 V
#Offset: 0 V
#Symmetry: 50 %
#Phase: 0 °
#Power Supplies: ON
#Positive Supply: ON
#Voltage: 1 V
#Negative Supply: ON
#Voltage: -1 V

Time (s),Channel 1 (V),Channel 2 (V)
-0.030215000000000002,-0.07575014687447516,-0.00028930599750007875
-0.03021,-0.07608026928661052,-0.0012855247006492276
-0.030205,-0.07608026928661067,-0.000621378898549644
-0.0302,-0.07641039169874587,-0.00028930599750007875
-0.030195,-0.07740075893515197,-0.000621378898549795
-0.03019,-0.07740075893515197,-0.0012855247006492276
-0.030185,-0.07674051411088124,-0.000621378898549795
-0.030180000000000002,-0.07641039169874603,4.2766903549335466e-5
-0.030175,-0.07641039169874587,-0.0016175976016989438
-0.03017,-0.07542002446233949,-0.000621378898549493
-0.030165,-0.07475977963806907,4.2766903549637525e-5
-0.03016,-0.07508990205020444,-0.0009534517995996623
-0.030155,-0.07508990205020444,-0.0012855247006492276
-0.03015,-0.07475977963806907,-0.000621378898549795
-0.030145,-0.07442965722593371,-0.00028930599750007875
-0.03014,-0.0754200244623398,-0.0009534517995995113
-0.030135000000000002,-0.0754200244623398,-0.0009534517995995113
-0.03013,-0.0754200244623398,-0.00028930599750007875
-0.030125,-0.07542002446233995,-0.00028930599750038075
-0.03012,-0.07575014687447516,-0.0009534517995995113
-0.030115,-0.07508990205020413,-0.0009534517995992092
-0.03011,-0.07442965722593371,-0.00028930599750007875
-0.030105,-0.07508990205020444,-0.000621378898549795
-0.030100000000000002,-0.07475977963806922,-0.0009534517995993603
-0.030095,-0.07508990205020444,-0.000621378898549795
-0.030090000000000002,-0.07475977963806922,-0.0002893059975002298
-0.030085,-0.07508990205020444,-0.0009534517995995113
-0.03008,-0.07475977963806907,-0.000621378898549795
-0.030075,-0.07475977963806907,-0.000621378898549795
-0.03007,-0.07409953481379836,-0.000621378898549795
-0.030065,-0.07508990205020444,-0.0012855247006492276
-0.03006,-0.07475977963806907,-0.0009534517995995113
-0.030055000000000002,-0.07376941240166343,-0.000621378898549946
-0.03005,-0.07343928998952763,-0.000621378898549795
-0.030045000000000002,-0.07376941240166283,-0.0016175976016984909
-0.03004,-0.07343928998952763,-0.0009534517995995113
-0.030035,-0.07343928998952748,-0.000621378898549644
-0.03003,-0.07310916757739226,-0.00028930599750007875
-0.030025,-0.07376941240166299,-0.0012855247006492276
-0.03002,-0.07409953481379836,-0.0009534517995995113
-0.030015,-0.07409953481379836,-0.000621378898549795
-0.030010000000000002,-0.07376941240166314,-0.000621378898549795
-0.030005,-0.07343928998952763,-0.0012855247006492276
-0.03,-0.07310916757739211,-0.000621378898549644
-0.029995,-0.0727790451652569,-0.00028930599750007875
-0.02999,-0.0727790451652569,-0.0006213788985500971
-0.029985,-0.0727790451652569,-0.0012855247006492276
-0.02998,-0.0727790451652569,-0.0009534517995995113
-0.029975,-0.07211880034098618,-0.00028930599750007875
-0.02997,-0.07178867792885082,-0.0012855247006492276
-0.029965000000000002,-0.07178867792885082,-0.0012855247006492276
-0.02996,-0.07145855551671546,-0.0009534517995995113
-0.029955,-0.0711284331045804,4.276690354903349e-5
-0.02995,-0.07178867792885082,-0.0012855247006492276
-0.029945,-0.0711284331045801,-0.0009534517995993603
-0.02994,-0.0711284331045801,-0.000621378898549795
-0.029935,-0.0711284331045801,-0.000621378898549795
-0.029930000000000002,-0.0711284331045801,-0.0012855247006489255
-0.029925,-0.07145855551671546,-0.0009534517995995113
-0.029920000000000002,-0.07211880034098588,-0.000621378898549946
-0.029915,-0.07310916757739226,-0.0009534517995995113
-0.02991,-0.07376941240166268,-0.0009534517995995113
-0.029905,-0.07310916757739226,-0.0009534517995995113
-0.0299,-0.07178867792885082,-0.000621378898549795
-0.029895,-0.07178867792885082,-0.0012855247006492276
-0.02989,-0.07178867792885082,-0.0009534517995995113
-0.029885000000000002,-0.07145855551671561,-0.0002893059975003808
-0.02988,-0.07145855551671546,-0.000621378898549795
-0.029875000000000002,-0.0724489227531211,-0.0012855247006489255
-0.02987,-0.07244892275312155,-0.0009534517995995113
-0.029865,-0.07211880034098633,-0.00028930599750038075
-0.02986,-0.07244892275312155,-0.0009534517995995113
-0.029855,-0.07244892275312155,-0.0009534517995995113
-0.02985,-0.07178867792885082,-0.000621378898549795
-0.029845,-0.07079831069244474,-0.0009534517995995113
-0.029840000000000002,-0.07046818828030953,-0.0012855247006490766
-0.029835,-0.07013806586817402,-0.000621378898549795
-0.02983,-0.06980794345603909,4.276690354903349e-5
-0.029825,-0.07079831069244474,-0.0012855247006492276
-0.02982,-0.0711284331045804,-0.0009534517995995113
-0.029815,-0.07178867792885082,-0.0009534517995995113
-0.02981,-0.07211880034098618,-0.00028930599750007875
-0.029805,-0.07244892275312155,-0.0009534517995995113
-0.0298,-0.07211880034098618,-0.0009534517995995113
-0.029795000000000002,-0.07211880034098618,-0.000621378898549946
-0.02979,-0.0727790451652569,-0.0009534517995995113
-0.029785,-0.07310916757739241,-0.0016175976016986418
-0.02978,-0.07343928998952763,-0.0009534517995995113
-0.029775,-0.07310916757739257,-0.0002893059975005318
-0.02977,-0.07376941240166299,-0.0012855247006492276
-0.029765,-0.07442965722593371,-0.0009534517995995113
-0.02976,-0.07376941240166299,-0.0009534517995995113
-0.029755,-0.07310916757739226,4.2766903549637525e-5
-0.029750000000000002,-0.07343928998952748,-0.0009534517995990583
-0.029745,-0.0727790451652569,-0.0009534517995995113
-0.02974,-0.07211880034098633,-0.000621378898549644
-0.029735,-0.07244892275312155,-0.00028930599750007875
-0.02973,-0.07376941240166299,-0.0012855247006492276
-0.029725,-0.07343928998952763,-0.000621378898549795
-0.02972,-0.07343928998952763,-0.0009534517995995113
-0.029715000000000002,-0.07277904516525721,-0.0002893059975003808
-0.02971,-0.07310916757739226,-0.0009534517995995113
-0.029705000000000002,-0.07211880034098662,-0.000621378898549946
-0.0297,-0.07178867792885082,-0.00028930599750007875
-0.029695,-0.07145855551671561,-0.000621378898549946
-0.02969,-0.07178867792885082,-0.0009534517995995113
-0.029685,-0.0711284331045801,-0.00028930599750007875
-0.02968,-0.07079831069244474,-0.00028930599750007875
-0.029675,-0.07211880034098618,-0.00028930599750007875
-0.029670000000000002,-0.07211880034098618,-0.0009534517995992092
-0.029665,-0.07178867792885082,-0.000621378898549795
-0.02966,-0.0711284331045801,-0.00028930599750038075
-0.029655,-0.0711284331045801,-0.0009534517995995113
-0.02965,-0.07013806586817357,-0.0009534517995992092
-0.029645,-0.06914769863176792,-0.00028930599750007875
-0.02964,-0.06848745380749721,-0.00028930599750007875
-0.029635,-0.06914769863176792,-0.0009534517995995113
-0.02963,-0.06848745380749721,-0.000621378898549795
-0.029625000000000002,-0.06881757621963241,-0.000621378898549795
-0.02962,-0.06881757621963257,-0.00028930599750007875
-0.029615,-0.06947782104390314,-0.0012855247006490766
-0.02961,-0.06914769863176792,-0.0009534517995995113
-0.029605,-0.0698079434560385,-0.0009534517995990583
-0.0296,-0.06947782104390329,4.2766903549637525e-5
-0.029595,-0.07013806586817402,-0.0012855247006492276
-0.02959,-0.06980794345603865,-0.000621378898549795
-0.029585,-0.06914769863176792,-0.0009534517995995113
-0.029580000000000002,-0.06914769863176792,4.2766903549184545e-5
-0.029575,-0.06914769863176792,-0.0012855247006492276
-0.02957,-0.06815733139536154,-0.0009534517995993603
-0.029565,-0.06749708657109112,-0.000621378898549795
-0.02956,-0.06749708657109112,-0.000621378898549795
-0.029555,-0.06749708657109112,-0.0009534517995995113
-0.02955,-0.0668368417468204,-0.0009534517995995113
-0.029545000000000002,-0.06650671933468519,-0.0002893059975003808
-0.02954,-0.0668368417468204,-0.000621378898549795
-0.029535000000000002,-0.06716696415895561,-0.0012855247006489255
-0.02953,-0.06650671933468504,-0.000621378898549795
-0.029525,-0.06617659692254953,-0.00028930599750038075
-0.02952,-0.06584647451041431,-0.0009534517995995113
-0.029515,-0.06584647451041431,-0.0009534517995995113
-0.02951,-0.06452598486187287,-0.000621378898549795
-0.029505,-0.06353561762546679,-0.00028930599750007875
-0.029500000000000002,-0.0641958624497372,-0.0012855247006487746
-0.029495,-0.06452598486187287,-0.0009534517995995113
-0.029490000000000002,-0.06485610727400808,-0.000621378898549946
-0.029485,-0.06485610727400823,-0.000621378898549795
-0.02948,-0.06617659692254968,-0.0012855247006490766
-0.029475,-0.06617659692254968,-0.0009534517995995113
-0.02947,-0.06584647451041431,-0.000621378898549795
-0.029465,-0.06617659692254968,-0.000621378898549795
-0.02946,-0.06716696415895576,-0.0012855247006492276
-0.029455000000000002,-0.06650671933468534,-0.0006213788985500971
-0.02945,-0.06650671933468504,-0.000621378898549795
-0.029445,-0.06650671933468534,-0.0009534517995996623
-0.02944,-0.06716696415895576,-0.0012855247006492276
-0.029435,-0.0668368417468204,-0.000621378898549795
-0.02943,-0.0668368417468204,-0.000621378898549795
-0.029425,-0.06782720898322649,-0.0009534517995995113
-0.02942,-0.06947782104390329,-0.0012855247006492276
-0.029415,-0.06947782104390329,-0.0009534517995995113
-0.029410000000000002,-0.06914769863176808,-0.0002893059975003808
-0.029405,-0.06980794345603865,-0.0009534517995995113
-0.0294,-0.07013806586817371,-0.0009534517995993603
-0.029395,-0.06947782104390329,-0.000621378898549795
-0.02939,-0.06914769863176823,-0.0009534517995993603
-0.029385,-0.06980794345603865,-0.000621378898549795
-0.02938,-0.06947782104390329,-0.00028930599750007875
-0.029375000000000002,-0.06947782104390329,-0.00028930599750007875
-0.02937,-0.07046818828030937,-0.0012855247006492276
-0.029365000000000002,-0.06980794345603895,-0.0012855247006492276
-0.02936,-0.06881757621963257,-0.000621378898549795
-0.029355,-0.06815733139536169,-0.000621378898549946
-0.02935,-0.06782720898322649,-0.0009534517995995113
-0.029345,-0.06716696415895576,-0.000621378898549795
-0.02934,-0.06716696415895576,-0.00028930599750007875
-0.029335,-0.06782720898322649,-0.0009534517995995113
-0.029330000000000002,-0.06716696415895607,-0.000621378898549946
-0.029325,-0.06716696415895576,-0.00028930599750007875
-0.029320000000000002,-0.06683684174682056,-0.000621378898549644
-0.029315,-0.06716696415895576,-0.0012855247006492276
-0.02931,-0.0668368417468201,-0.0009534517995992092
-0.029305,-0.06617659692254968,-0.00028930599750007875
-0.0293,-0.06617659692254968,-0.0009534517995995113
-0.029295,-0.06617659692254968,-0.0009534517995995113
-0.02929,-0.06650671933468504,-0.000621378898549795
-0.029285000000000002,-0.06650671933468504,-0.0002893059975002298
-0.02928,-0.06749708657109112,-0.0012855247006492276
-0.029275,-0.06782720898322618,-0.000621378898549644
-0.02927,-0.06716696415895576,-0.00028930599750007875
-0.029265,-0.06749708657109112,-0.0009534517995996623
-0.02926,-0.06749708657109112,-0.0012855247006492276
-0.029255,-0.06716696415895576,-0.0009534517995995113
-0.02925,-0.0668368417468204,-0.00028930599750007875
-0.029245,-0.0668368417468204,-0.0009534517995995113
-0.029240000000000002,-0.0668368417468204,-0.000621378898549946
-0.029235,-0.06650671933468504,-0.000621378898549795
-0.02923,-0.06584647451041446,-0.0002893059975005318
-0.029225,-0.06617659692254968,-0.0012855247006492276
-0.02922,-0.06584647451041431,-0.0009534517995993603
-0.029215,-0.06584647451041431,-0.000621378898549795
-0.02921,-0.06551635209827895,-0.000621378898549795
-0.029205000000000002,-0.06551635209827895,-0.0009534517995993603
-0.0292,-0.06485610727400823,-0.0009534517995995113
-0.029195000000000002,-0.06485610727400823,-0.000621378898549946
-0.02919,-0.0651862296861436,-0.000621378898549795
-0.029185,-0.0655163520982788,-0.0012855247006490766
-0.02918,-0.0651862296861436,-0.0009534517995995113
-0.029175,-0.0651862296861436,-0.000621378898549795
-0.02917,-0.06551635209827895,-0.0009534517995995113
-0.029165,-0.06551635209827895,-0.0012855247006492276
-0.029160000000000002,-0.06518622968614375,-0.0006213788985500971
-0.029155,-0.06584647451041431,-0.000621378898549795
-0.029150000000000002,-0.06584647451041431,-0.0009534517995993603
-0.029145,-0.06551635209827895,-0.0012855247006492276
-0.02914,-0.06551635209827911,-0.0009534517995992092
-0.029135,-0.06584647451041431,-0.00028930599750007875
-0.02913,-0.06650671933468504,-0.000621378898549795
-0.029125,-0.06650671933468504,-0.0012855247006492276
-0.02912,-0.06617659692254968,-0.000621378898549795
-0.029115000000000002,-0.0668368417468201,-0.000621378898549795
-0.02911,-0.06749708657109112,-0.0009534517995995113
-0.029105,-0.06749708657109096,-0.0012855247006489255
-0.0291,-0.06716696415895576,-0.000621378898549795
-0.029095,-0.06749708657109127,-0.00028930599750038075
-0.02909,-0.06782720898322649,-0.0009534517995995113
-0.029085,-0.06782720898322649,-0.0009534517995995113
-0.02908,-0.06782720898322649,-0.0009534517995995113
-0.029075,-0.06782720898322649,-0.00028930599750007875
-0.029070000000000002,-0.06782720898322649,-0.0012855247006487746
-0.029065,-0.06749708657109112,-0.0009534517995995113
-0.02906,-0.06683684174682025,-0.000621378898549795
-0.029055,-0.06650671933468504,-0.000621378898549795
-0.02905,-0.06716696415895561,-0.0012855247006490766
-0.029045,-0.0668368417468204,-0.0009534517995995113
-0.02904,-0.0668368417468204,-0.0009534517995995113
-0.029035000000000002,-0.06782720898322604,-0.000621378898549946
-0.02903,-0.06881757621963257,-0.0012855247006492276
-0.029025000000000002,-0.06749708657109171,-0.0012855247006492276
-0.02902,-0.06650671933468504,-0.000621378898549795
-0.029015,-0.0655163520982794,-0.000621378898549946
-0.02901,-0.06650671933468504,-0.0009534517995995113
-0.029005,-0.06617659692254968,-0.000621378898549795
-0.029,-0.06584647451041431,-0.000621378898549795
-0.028995,-0.06617659692254968,-0.00028930599750007875
-0.028990000000000002,-0.0668368417468201,-0.0012855247006487746
-0.028985,-0.06650671933468504,-0.0009534517995995113
-0.028980000000000002,-0.06584647451041462,-0.000621378898549946
-0.028975,-0.0651862296861436,-0.000621378898549795
-0.02897,-0.06452598486187243,-0.0009534517995993603
-0.028965,-0.06353561762546679,-0.000621378898549795
-0.02896,-0.06287537280119607,-0.00028930599750007875
-0.028955,-0.06320549521333142,-0.000621378898549795
-0.02895,-0.06353561762546679,-0.000621378898549795
-0.028945000000000002,-0.06353561762546679,-0.000621378898549795
-0.02894,-0.06353561762546679,-0.000621378898549795
-0.028935,-0.06386574003760245,-0.0012855247006492276
-0.02893,-0.06452598486187287,-0.0012855247006492276
-0.028925,-0.0641958624497375,-0.0009534517995993603
-0.02892,-0.0641958624497375,-0.000621378898549795
-0.028915,-0.06386574003760215,-0.0009534517995995113
-0.02891,-0.06287537280119607,-0.000621378898549795
-0.028905,-0.06287537280119607,-0.000621378898549795
-0.028900000000000002,-0.06221512797692564,-0.0002893059975002298
-0.028895,-0.06320549521333142,-0.0009534517995995113
-0.02889,-0.06320549521333142,-0.0009534517995995113
-0.028885,-0.06320549521333142,-0.0009534517995995113
-0.02888,-0.06353561762546694,-0.000621378898549946
-0.028875,-0.06386574003760215,-0.0009534517995995113
-0.02887,-0.06353561762546679,-0.0009534517995995113
-0.028865000000000002,-0.06353561762546679,-0.0009534517995995113
-0.02886,-0.06320549521333142,-0.000621378898549795
-0.028855000000000002,-0.06353561762546664,-0.000621378898549795
-0.02885,-0.06386574003760215,-0.0009534517995995113
-0.028845,-0.0638657400376023,-0.000621378898549795
-0.02884,-0.0641958624497375,-0.000621378898549795
-0.028835,-0.06386574003760215,-0.000621378898549795
-0.02883,-0.06386574003760215,-0.0012855247006492276
-0.028825,-0.06353561762546679,-0.000621378898549795
-0.028820000000000002,-0.06320549521333158,-0.000621378898549795
-0.028815,-0.06287537280119607,-0.00028930599750007875
-0.028810000000000002,-0.06287537280119607,-0.0012855247006487746
-0.028805,-0.0625452503890607,-0.0009534517995995113
-0.0288,-0.06353561762546679,-0.000621378898549644
-0.028795,-0.06353561762546679,-0.00028930599750007875
-0.02879,-0.0641958624497375,-0.0009534517995995113
-0.028785,-0.0641958624497375,-0.000621378898549795
-0.02878,-0.0641958624497375,-0.00028930599750007875
-0.028775000000000002,-0.0641958624497375,-0.000621378898549644
-0.02877,-0.06452598486187287,-0.0012855247006492276
-0.028765,-0.0641958624497375,-0.0009534517995995113
-0.02876,-0.0641958624497375,-0.0009534517995995113
-0.028755,-0.06353561762546664,-0.0002893059975005318
-0.02875,-0.06320549521333142,-0.0012855247006492276
-0.028745,-0.0625452503890607,-0.0009534517995995113
-0.02874,-0.06287537280119607,-0.0009534517995995113
-0.028735,-0.06287537280119607,-0.00028930599750007875
-0.028730000000000002,-0.06353561762546649,-0.0016175976016983397
-0.028725,-0.06353561762546679,-0.0009534517995995113
-0.02872,-0.06419586244973735,-0.000621378898549795
-0.028715,-0.06386574003760215,-0.000621378898549795
-0.02871,-0.06353561762546664,-0.0012855247006490766
-0.028705,-0.06320549521333142,-0.0009534517995995113
-0.0287,-0.06320549521333142,-0.000621378898549795
-0.028695000000000002,-0.06287537280119622,4.2766903549335466e-5
-0.02869,-0.06320549521333142,-0.0012855247006492276
-0.028685000000000002,-0.06320549521333142,-0.0006213788985500971
-0.02868,-0.06287537280119607,-0.000621378898549795
-0.028675,-0.06320549521333158,-0.000621378898549946
-0.02867,-0.06353561762546679,-0.0009534517995995113
-0.028665,-0.06320549521333142,-0.0009534517995995113
-0.02866,-0.0625452503890607,-0.00028930599750007875
-0.028655,-0.0625452503890607,-0.000621378898549795
-0.028650000000000002,-0.06287537280119591,-0.0012855247006489255
-0.028645,-0.0625452503890607,-0.000621378898549795
-0.028640000000000002,-0.06188500556479028,-0.0009534517995993603
-0.028635,-0.06188500556478998,-0.0009534517995995113
-0.02863,-0.06188500556478998,-0.0012855247006489255
-0.028625,-0.06188500556478998,-0.000621378898549795
-0.02862,-0.061554883152654616,-0.000621378898549795
-0.028615,-0.06188500556478998,-0.0012855247006492276
-0.02861,-0.06122476074051926,-0.0009534517995995113
-0.028605000000000002,-0.06122476074051926,-0.000621378898549946
-0.0286,-0.060564515916248535,-0.00028930599750007875
-0.028595,-0.06122476074051911,-0.0012855247006490766
-0.02859,-0.0608946383283839,-0.0009534517995995113
-0.028585,-0.061554883152654616,-0.0009534517995992092
-0.02858,-0.061554883152654616,-0.00028930599750007875
-0.028575,-0.06188500556478998,-0.0012855247006492276
-0.02857,-0.06122476074051926,-0.000621378898549795
-0.028565,-0.0608946383283839,-0.000621378898549795
-0.028560000000000002,-0.05990427109197826,4.2766903549335466e-5
-0.028555,-0.060564515916248535,-0.0009534517995995113
-0.02855,-0.05990427109197766,-0.0009534517995996623
-0.028545,-0.059574148679842454,-0.0012855247006492276
-0.02854,-0.05957414867984275,-0.0006213788985500971
-0.028535,-0.06023439350411317,-0.0012855247006492276
-0.02853,-0.059574148679842454,-0.0012855247006492276
-0.028525000000000002,-0.05990427109197766,-0.0006213788985500971
-0.02852,-0.06023439350411317,-0.000621378898549795
-0.028515000000000002,-0.06155488315265401,-0.0012855247006489255
-0.02851,-0.060564515916248535,-0.0009534517995995113
-0.028505,-0.05990427109197796,-0.000621378898549795
-0.0285,-0.06023439350411317,-0.000621378898549795
-0.028495,-0.060564515916248535,-0.00028930599750007875
-0.02849,-0.0608946383283839,-0.0012855247006492276
-0.028485,-0.06122476074051926,-0.000621378898549795
-0.028480000000000002,-0.06188500556478968,-0.000621378898549795
-0.028475,-0.06122476074051926,-0.000621378898549795
-0.028470000000000002,-0.06089463832838405,-0.000621378898549795
