DAQ/testing_accel_4_6/test_full_0035.csv

#Digilent WaveForms Oscilloscope Acquisition
#Device Name: Discovery2
#Serial Number: SN:210321B02866
#Date Time: 2021-04-06 19:02:54.004
#Sample rate: 38343.6Hz
#Samples: 8192
#Trigger: None
#Channel 1: Range: 500 mV/div Offset: -1.15 V Attenuation: 1 X
#Channel 2: Range: 500 mV/div Offset: -1.45 V Attenuation: 1 X
#Power Supplies: ON
#Positive Supply: ON
#Voltage: 3.3 V
#Negative Supply: OFF
#Voltage: -3.3 V

Time (s),Channel 1 (V),Channel 2 (V)
-0.21116975999999998,1.6540658608141219,1.188748810120072
-0.21114368,1.6534056159898514,1.1960544139431626
-0.2111176,1.6530754935777159,1.2036920906673094
-0.21109151999999998,1.6520851263413094,1.2109976944904068
-0.21106544,1.6517550039291746,1.2192995170166423
-0.21103935999999998,1.6507646366927684,1.2266051208397397
-0.21101327999999997,1.6504345142806327,1.2349069433659863
-0.21098719999999999,1.6497742694563622,1.2425446200901262
-0.21096112,1.6487839022199569,1.2508464426163615
-0.21093504,1.648453779807821,1.2588161922415586
-0.21090895999999998,1.64779353498355,1.2667859418667555
-0.21088288,1.6471332901592795,1.2750877643929945
-0.21085679999999998,1.6464730453350085,1.2830575140181915
-0.21083071999999997,1.6458128005107378,1.291359336544438
-0.21080464,1.645152555686467,1.2993290861696276
-0.21077856,1.6444923108621972,1.307630908695863
-0.21075247999999996,1.6435019436257896,1.315932731222121
-0.21072639999999998,1.6428416988015195,1.3242345537483564
-0.21070032,1.642181453977249,1.3325363762745954
-0.21067423999999998,1.6411910867408428,1.3408381988008422
-0.21064815999999997,1.6405308419165716,1.3491400213270885
-0.21062208,1.639540474680166,1.3571097709522784
-0.21059599999999998,1.6392103522680301,1.3657436663795743
-0.21056991999999997,1.638219985031624,1.3737134160047717
-0.21054383999999998,1.6375597402073538,1.382015238531007
-0.21051776,1.636569372970948,1.3899849881561965
-0.21049168,1.6355790057345416,1.398286810682443
-0.21046559999999997,1.6345886384981354,1.4065886332086899
-0.21043952,1.633928393673865,1.4148904557349251
-0.21041343999999998,1.6329380264374587,1.422860205360122
-0.21038735999999997,1.6319476592010524,1.4304978820842693
-0.21036127999999998,1.631287414376782,1.4387997046105085
-0.2103352,1.6302970471403764,1.4467694542356981
-0.21030912,1.6293066799039697,1.4550712767619445
-0.21028303999999998,1.6286464350796985,1.4623768805850421
-0.21025696,1.6276560678432934,1.4706787031112776
-0.21023087999999998,1.6266657006068868,1.4786484527364745
-0.21020479999999997,1.6256753333704803,1.4862861294606218
-0.21017871999999999,1.6246849661340748,1.4945879519868608
-0.21015264,1.6233644764855344,1.501893555809948
-0.21012656,1.6227042316612628,1.5098633054351442
-0.21010047999999998,1.621383742012721,1.517833055060341
-0.2100744,1.6203933747763155,1.525470731784481
-0.21004831999999998,1.6194030075399088,1.532776335607578
-0.21002223999999997,1.6184126403035022,1.5404140123317251
-0.20999616,1.6170921506549614,1.548051689055865
-0.20997008,1.6161017834185563,1.5553572928789523
-0.20994399999999996,1.6151114161821483,1.562994969603109
-0.20991791999999998,1.613790926533608,1.5699685005251465
-0.20989184,1.6131306817093374,1.577938250150336
-0.20986575999999998,1.6118101920607957,1.5852438539734335
-0.20983967999999997,1.610819824824389,1.5925494577965307
-0.2098136,1.6098294575879835,1.6001871345206706
-0.20978751999999998,1.6085089679394415,1.6074927383437676
-0.20976143999999997,1.607518600703035,1.6147983421668648
-0.20973535999999998,1.60652823346663,1.6221039459899518
-0.20970928,1.6052077438180892,1.6297416227140917
-0.2096832,1.6042173765816823,1.6367151536361393
-0.20965711999999997,1.6032270093452756,1.6436886845581868
-0.20963104,1.6019065196967355,1.6509942883812738
-0.20960495999999998,1.6009161524603286,1.6576357464022715
-0.20957887999999997,1.5999257852239221,1.6646092773243186
-0.20955279999999998,1.5989354179875166,1.6712507353453099
-0.20952672,1.5979450507511108,1.6782242662673508
-0.20950064,1.5966245611025691,1.6845336513872986
-0.20947455999999998,1.5956341938661625,1.691175109408296
-0.20944848,1.5946438266297573,1.697816567429284
-0.20942239999999998,1.5933233369812154,1.7044580254502815
-0.20939631999999997,1.5923329697448088,1.710767410570229
-0.20937023999999999,1.5913426025084032,1.7170767956901707
-0.20934416,1.5903522352719976,1.7233861808101125
-0.20931808,1.5890317456234557,1.7293634930290103
-0.20929199999999998,1.588371500799185,1.7356728781489548
-0.20926592,1.5870510111506442,1.7413181174667973
-0.20923983999999998,1.5860606439142375,1.7472954296856948
-0.20921375999999997,1.5854003990899663,1.7529406690035425
-0.20918768,1.5844100318535608,1.7582538354203354
-0.2091616,1.5830895422050204,1.7635670018371261
-0.20913551999999996,1.5820991749686122,1.7685480953528812
-0.20910943999999998,1.581108807732207,1.7735291888686224
-0.20908336,1.5797883180836663,1.778510282384366
-0.20905727999999998,1.5787979508472594,1.7831593029990642
-0.20903119999999997,1.5778075836108527,1.7878083236137623
-0.20900512,1.576487093962312,1.7921252713274067
-0.20897903999999998,1.5754967267259052,1.7967742919421041
-0.20895295999999997,1.5741762370773635,1.800427093853653
-0.20892687999999998,1.5731858698409584,1.804411968666246
-0.2089008,1.5721955026045527,1.8083968434788409
-0.20887471999999999,1.570875012956011,1.8117175724893397
-0.20884863999999997,1.569884645719604,1.815702447301938
-0.20882256,1.568564156071064,1.819023176312432
-0.20879647999999998,1.5675737888346573,1.822011832421881
-0.20877039999999997,1.5665834215982504,1.8253325614323794
-0.20874431999999998,1.5649328095375743,1.8279891446407759
-0.20871824,1.5646026871254393,1.830977800750222
-0.20869216,1.5632821974768976,1.8333023110575715
-0.20866607999999998,1.5622918302404911,1.83629096716702
-0.20864,1.5613014630040858,1.8386154774743657
-0.20861391999999998,1.5599809733555439,1.840939987781715
-0.20858783999999997,1.5593207285312725,1.8429324251880141
-0.20856175999999998,1.5580002388827316,1.8449248625943115
-0.20853568,1.5566797492341908,1.846917300000609
-0.2085096,1.5560195044099197,1.8489097374069081
-0.20848351999999998,1.5546990147613777,1.8505701019121574
-0.20845744,1.5537086475249724,1.8522304664174045
-0.20843135999999998,1.552718280288566,1.8532266851205543
-0.20840527999999997,1.551397790640024,1.8548870496258036
-0.2083792,1.5504074234036185,1.8562153412300018
-0.20835312,1.549086933755078,1.85721155993315
-0.20832703999999996,1.5484266889308052,1.8585398515373508
-0.20830095999999998,1.5471061992822648,1.859536070240499
-0.20827488,1.5464459544579943,1.860200216042598
-0.20824879999999998,1.545455587221588,1.8608643618446978
-0.20822271999999997,1.5441350975730463,1.8611964347457477
-0.20819664,1.5438049751609113,1.861860580547847
-0.20817056,1.542484485512371,1.861860580547847
-0.20814447999999997,1.541494118275963,1.8618605805478468
-0.20811839999999998,1.5408338734516929,1.8615285076467973
-0.20809232,1.5398435062152873,1.860864361844698
-0.20806623999999999,1.5391832613910161,1.8608643618446978
-0.20804015999999997,1.5381928941546095,1.860200216042598
-0.20801408,1.5372025269182044,1.8595360702404993
-0.20798799999999998,1.5365422820939332,1.8588719244383995
-0.20796191999999997,1.535551914857527,1.8578757057352502
-0.20793583999999998,1.5348916700332564,1.857211559933151
-0.20790976,1.5339013027968509,1.8555511954279031
-0.20788368,1.5329109355604442,1.8545549767247533
-0.20785759999999998,1.5322506907361733,1.8535587580216033
-0.20783152,1.531590445911903,1.8515663206153068
-0.20780543999999998,1.5306000786754967,1.8505701019121568
-0.20777935999999997,1.5296097114390903,1.8489097374069074
-0.20775327999999998,1.52894946661482,1.8472493729016595
-0.2077272,1.5286193442026847,1.8459210812974614
-0.20770112,1.5279590993784138,1.8439286438911624
-0.20767503999999998,1.5272988545541426,1.841936206484863
-0.20764896,1.5263084873177375,1.839611696177517
-0.20762287999999998,1.5256482424934663,1.8369551129691182
-0.20759679999999997,1.5249879976691953,1.8342985297607193
-0.20757072,1.5246578752570603,1.8313098736512732
-0.20754464,1.5239976304327902,1.827989144640779
-0.20751856,1.523337385608519,1.8250004885313298
-0.20749247999999998,1.522677140784248,1.8210156137187319
-0.2074664,1.5220168959599776,1.8176948847082364
-0.20744031999999998,1.5213566511357066,1.8140420827966879
-0.20741423999999997,1.521026528723571,1.8100572079840893
-0.20738816,1.5203662838993006,1.8057402602704449
-0.20736208,1.5197060390750305,1.8010912396557532
-0.20733599999999996,1.5193759166628942,1.7971063648431485
-0.20730991999999998,1.5190457942507591,1.792789417129506
-0.20728384,1.5187156718386239,1.7874762507127129
-0.20725775999999999,1.5183855494264884,1.7828272300980146
-0.20723167999999997,1.5177253046022174,1.7778461365822664
-0.2072056,1.517065059777947,1.7725329701654733
-0.20717951999999998,1.5167349373658114,1.7678839495507748
-0.20715343999999997,1.5160746925415407,1.76223871023293
-0.20712735999999998,1.5160746925415407,1.7572576167171863
-0.20710128,1.5160746925415407,1.751612377399344
-0.2070752,1.5157445701294054,1.745967138081496
-0.20704911999999998,1.5157445701294052,1.7406539716646978
-0.20702304,1.515084325305135,1.7343445865447589
-0.20699695999999998,1.5150843253051347,1.7286993472269108
-0.20697087999999997,1.5147542028929994,1.7230541079090627
-0.20694479999999998,1.5147542028929994,1.716744722789121
-0.20691872,1.5150843253051345,1.7110994834712785
-0.20689264,1.5147542028929994,1.705122171252381
-0.20686655999999998,1.5147542028929994,1.6988127861324336
-0.20684048,1.5147542028929994,1.692835473913544
-0.20681439999999998,1.514424080480864,1.686194015892547
-0.20678831999999997,1.5147542028929994,1.6802167036736493
-0.20676223999999999,1.5147542028929994,1.6739073185537077
-0.20673616,1.5144240804808642,1.6672658605327193
-0.20671008,1.5147542028929992,1.6609564754127715
-0.20668399999999998,1.5147542028929994,1.6543150173917742
-0.20665792,1.5147542028929994,1.6473414864697333
-0.20663183999999998,1.5150843253051347,1.640700028448736
-0.20660575999999997,1.5150843253051347,1.6337264975266887
-0.20657968,1.5150843253051347,1.6270850395056975
-0.2065536,1.5157445701294048,1.6204435814847093
-0.20652751999999996,1.5157445701294057,1.6128059047605539
-0.20650143999999998,1.5160746925415407,1.6061644467395655
-0.20647536,1.516404814953676,1.5991909158175246
-0.20644927999999999,1.5164048149536762,1.5918853119944276
-0.20642319999999997,1.5167349373658119,1.5849117810723803
-0.20639712,1.5173951821900822,1.57760617724929
-0.20637103999999998,1.5177253046022179,1.5699685005251431
-0.20634495999999997,1.5180554270143534,1.562662896702046
-0.20631887999999998,1.5183855494264884,1.555357292878959
-0.2062928,1.5187156718386234,1.5480516890558684
-0.20626672,1.5193759166628944,1.5404140123317216
-0.20624063999999998,1.51970603907503,1.5327763356075745
-0.20621456,1.5203662838993004,1.5251386588834384
-0.20618847999999998,1.5203662838993006,1.5175009821592913
-0.20616239999999997,1.5210265287235714,1.5095312325340946
-0.20613631999999998,1.521686773547842,1.5015614829089048
-0.20611024,1.5220168959599771,1.4939238061847648
-0.20608416,1.522677140784248,1.486286129460618
-0.20605807999999998,1.5230072631963836,1.478316379835421
-0.206032,1.5236675080206539,1.470678703111285
-0.20600591999999998,1.5243277528449248,1.4623768805850383
-0.20597983999999997,1.5249879976691958,1.4547392038608913
-0.20595375999999999,1.5256482424934663,1.4467694542357017
-0.20592768,1.5263084873177368,1.4391317775115617
-0.2059016,1.5269687321420078,1.4308299549853154
-0.20587551999999998,1.5276289769662785,1.423192278261172
-0.20584944,1.528289221790549,1.415222528635982
-0.20582335999999998,1.52894946661482,1.4072527790107854
-0.20579727999999997,1.529609711439091,1.399615102286638
-0.2057712,1.5306000786754967,1.391313279760399
-0.20574512,1.5312603234997668,1.3836756030362625
-0.20571903999999996,1.5322506907361741,1.3757058534110551
-0.20569295999999998,1.5329109355604442,1.3677361037858693
-0.20566688,1.53390130279685,1.3600984270617293
-0.20564079999999998,1.534561547621121,1.3521286774365326
-0.20561471999999997,1.5352217924453921,1.3441589278113357
-0.20558864,1.5358820372696624,1.3361891781861461
-0.20556255999999998,1.5365422820939336,1.328551501461999
-0.20553647999999997,1.53753264933034,1.3209138247378518
-0.20551039999999998,1.53819289415461,1.312944075112666
-0.20548432,1.5391832613910157,1.305306398388526
-0.20545824,1.5401736286274224,1.2976687216643792
-0.20543215999999997,1.5408338734516933,1.2900310449402321
-0.20540608,1.5418242406880986,1.2823933682160957
-0.20537999999999998,1.542814607924505,1.2747556914919487
-0.20535391999999997,1.5438049751609115,1.2671180147678016
-0.20532783999999998,1.5444652199851818,1.2594803380436617
-0.20530176,1.5454555872215876,1.2518426613195217
-0.20527568,1.546445954457994,1.2445370574964245
-0.20524959999999998,1.5474363216944007,1.237231453673327
-0.20522352,1.5484266889308058,1.2295937769491907
-0.20519743999999998,1.549086933755077,1.2222881731260935
-0.20517135999999997,1.5500773009914837,1.2149825693029963
-0.20514527999999999,1.5513977906400245,1.207676965479906
-0.2051192,1.552058035464295,1.200703434557865
-0.20509312,1.5533785251128367,1.1933978307347681
-0.20506703999999998,1.5546990147613784,1.1864242998127208
-0.20504096,1.5553592595856487,1.1791186959896336
-0.20501487999999998,1.5566797492341902,1.1721451650675863
-0.20498879999999997,1.5576701164705968,1.1651716341455391
-0.20496272,1.5586604837070024,1.158530176124548
-0.20493664,1.5599809733555428,1.1515566452025103
-0.20491055999999996,1.560971340591951,1.144583114280454
-0.20488447999999998,1.561961707828356,1.1379416562594655
-0.2048584,1.563282197476897,1.1313001982384743
-0.20483231999999998,1.564602687125439,1.1246587402174768
-0.20480623999999997,1.5652629319497102,1.1180172821964796
-0.20478016,1.566583421598251,1.1113758241754883
-0.20475408,1.5675737888346564,1.1047343661545
-0.20472799999999997,1.5685641560710644,1.0984249810345434
-0.20470191999999998,1.5698846457196047,1.0921155959146047
-0.20467584,1.5712051353681455,1.085806210794663
-0.20464976,1.571865380192417,1.0791647527736656
-0.20462367999999997,1.5731858698409589,1.0731874405547681
-0.2045976,1.574176237077364,1.0672101283358786
-0.20457151999999998,1.575496726725906,1.0609007432159314
-0.20454543999999997,1.5764870939623126,1.0549234309970337
-0.20451935999999998,1.5778075836108534,1.0489461187781415
-0.20449328,1.578797950847259,1.0426367336581999
-0.2044672,1.5801184404958009,1.0366594214393021
-0.20444111999999998,1.5811088077322075,1.0310141821214542
-0.20441504,1.5820991749686126,1.0253689428036143
-0.20438895999999998,1.5834196646171546,1.0197237034857665
-0.20436287999999997,1.5847401542656965,1.014078464167919
-0.20433679999999999,1.585730521502102,1.0087652977511259
-0.20431072,1.5870510111506428,1.0034521313343328
-0.20428464,1.5880413783870497,0.9978068920164853
-0.20425855999999998,1.5893618680355914,0.9924937255996875
-0.20423248,1.5903522352719968,0.9875126320839462
-0.20420639999999998,1.5916727249205387,0.9825315385681983
-0.20418031999999997,1.5929932145690806,0.9775504450524505
-0.20415424,1.5939835818054862,0.9729014244377565
-0.20412816,1.5953040714540265,0.9682524038230648
-0.20410208,1.5966245611025685,0.9636033832083666
-0.20407599999999998,1.5976149283389751,0.9592864354947181
-0.20404992,1.598935417987516,0.9546374148800243
-0.20402383999999998,1.600255907636058,0.9506525400674255
-0.20399775999999997,1.6012462748724647,0.9466676652548272
-0.20397168,1.6025667645210055,0.9426827904422324
-0.2039456,1.6035571317574107,0.9386979156296394
-0.20391951999999997,1.604877621405954,0.9350451137180852
-0.20389343999999998,1.605867988642359,0.9310602389054923
-0.20386736,1.6071884782908998,0.9277395098949967
-0.20384127999999999,1.608508967939442,0.924418780884498
-0.20381519999999997,1.6094993351758486,0.9214301247750489
-0.20378912,1.6108198248243895,0.9181093957645534
-0.20376303999999998,1.612140314472931,0.9151207396551059
-0.20373695999999997,1.6131306817093376,0.9121320835456572
-0.20371087999999998,1.6141210489457432,0.9094755003372608
-0.2036848,1.615441538594284,0.9068189171288642
-0.20365872,1.616762028242826,0.904494406821515
-0.20363263999999998,1.6180825178913678,0.9018378236131164
-0.20360656,1.6190728851277731,0.8998453862068199
-0.20358047999999998,1.6200632523641796,0.8975208758994709
-0.20355439999999997,1.6213837420127215,0.8955284384931715
-0.20352831999999998,1.6223741092491273,0.8932039281858246
-0.20350224,1.623694598897668,0.8915435636805769
-0.20347616,1.6246849661340748,0.8895511262742778
-0.20345007999999998,1.6260054557826167,0.8882228346700781
-0.203424,1.6269958230190218,0.8865624701648311
-0.20339791999999998,1.6279861902554282,0.8855662514616812
-0.20337183999999997,1.628976557491835,0.8842379598574818
-0.20334576,1.6299669247282405,0.8829096682532834
-0.20331968,1.6312874143767808,0.8815813766490858
-0.2032936,1.6319476592010524,0.8805851579459358
-0.20326751999999998,1.6332681488495941,0.8795889392427862
-0.20324144,1.6342585160859997,0.8789247934406872
-0.20321535999999998,1.6352488833224064,0.8779285747375377
-0.20318927999999997,1.6362392505588128,0.8772644289354379
-0.2031632,1.6372296177952186,0.8766002831333388
-0.20313712,1.6382199850316237,0.8766002831333388
-0.20311103999999996,1.6392103522680312,0.8759361373312394
-0.20308495999999998,1.6398705970923013,0.8759361373312394
-0.20305888,1.640860964328707,0.8759361373312394
-0.20303279999999999,1.6418513315651135,0.8756040644301897
-0.20300671999999997,1.6431718212136552,0.8762682102322894
-0.20298064,1.6438320660379258,0.8769323560343886
-0.20295455999999998,1.6451525556864675,0.8775965018364884
-0.20292847999999997,1.6461429229228741,0.878592720539638
-0.20290239999999998,1.6471332901592792,0.8795889392427862
-0.20287632,1.64845377980782,0.8809172308469846
-0.20285024,1.649444147044227,0.882245522451184
-0.20282415999999998,1.6504345142806336,0.8835738140553836
-0.20279808,1.6517550039291737,0.8852341785606307
-0.20277199999999998,1.652415248753445,0.88689454306588
-0.20274591999999997,1.6530754935777165,0.8885549075711295
-0.20271983999999998,1.6543959832262574,0.8905473449774269
-0.20269376,1.6547261056383924,0.8925397823837243
-0.20266768,1.6557164728747988,0.8945322197900235
-0.20264159999999998,1.6563767176990698,0.8971888029984223
-0.20261552,1.657367084935475,0.8995133133057681
-0.20258943999999998,1.6580273297597463,0.902169896514167
-0.20256335999999997,1.658687574584017,0.9044944068215164
-0.20253728,1.6593478194082878,0.9074830629309625
-0.2025112,1.6603381866446933,0.9104717190404086
-0.20248512,1.660668309056829,0.9131283022488064
-0.20245903999999998,1.6613285538810998,0.9164490312593048
-0.20243296,1.6623189211175053,0.9197697602698004
-0.20240687999999998,1.6626490435296413,0.9230904892802991
-0.20238079999999997,1.6633092883539122,0.9270753640928973
-0.20235472,1.6636394107660473,0.9303960931033929
-0.20232864,1.6642996555903176,0.9340488950149364
-0.20230255999999996,1.6649599004145887,0.9380337698275397
-0.20227647999999998,1.6649599004145887,0.9416865717390832
-0.2022504,1.6659502676509943,0.9460035194527275
-0.20222431999999999,1.6662803900631302,0.9503204671663759
-0.20219823999999997,1.6662803900631307,0.9543053419789747
-0.20217216,1.6672707572995362,0.9592864354947181
-0.20214607999999998,1.667600879711672,0.9639354561094163
-0.20211999999999997,1.6679310021238074,0.9685844767241149
-0.20209391999999998,1.6682611245359424,0.973565570239856
-0.20206784,1.6685912469480775,0.9778825179535002
-0.20204176,1.6689213693602132,0.9831956843702978
-0.20201567999999998,1.6692514917723489,0.9881767778860457
-0.2019896,1.6695816141844835,0.993157871401787
-0.20196351999999998,1.6699117365966192,0.9988031107196345
-0.20193743999999997,1.6699117365966194,1.0037842042353826
-0.20191135999999998,1.6702418590087547,1.0090973706521758
-0.20188528,1.6702418590087547,1.014742609970018
-0.2018592,1.6702418590087547,1.020387849287866
