DAQ/testing_accel_4_6/test_full_0026.csv

#Digilent WaveForms Oscilloscope Acquisition
#Device Name: Discovery2
#Serial Number: SN:210321B02866
#Date Time: 2021-04-06 19:02:52.024
#Sample rate: 38343.6Hz
#Samples: 8192
#Trigger: None
#Channel 1: Range: 500 mV/div Offset: -1.15 V Attenuation: 1 X
#Channel 2: Range: 500 mV/div Offset: -1.45 V Attenuation: 1 X
#Power Supplies: ON
#Positive Supply: ON
#Voltage: 3.3 V
#Negative Supply: OFF
#Voltage: -3.3 V

Time (s),Channel 1 (V),Channel 2 (V)
-0.21116975999999998,1.6659502676509947,1.1180172821964827
-0.21114368,1.66628039006313,1.1256549589206224
-0.2111176,1.6656201452388595,1.13262848984267
-0.21109151999999998,1.6659502676509945,1.140266166566817
-0.21106544,1.6652900228267244,1.147571770389904
-0.21103935999999998,1.6652900228267242,1.1552094471140508
-0.21101327999999997,1.665290022826724,1.1628471238381979
-0.21098719999999999,1.6646297780024535,1.1704848005623378
-0.21096112,1.6646297780024535,1.1784545501875237
-0.21093504,1.6642996555903184,1.1860922269116707
-0.21090895999999998,1.6639695331781827,1.193729903635818
-0.21088288,1.6636394107660475,1.2016996532610076
-0.21085679999999998,1.663309288353912,1.2093373299851544
-0.21083071999999997,1.6629791659417765,1.217639152511401
-0.21080464,1.6623189211175058,1.2256089021365906
-0.21077856,1.6623189211175058,1.2335786517617764
-0.21075247999999996,1.6619887987053699,1.241880474288034
-0.21072639999999998,1.6613285538810998,1.2498502239132199
-0.21070032,1.6609984314689645,1.258152046439459
-0.21067423999999998,1.6606683090568293,1.266121796064656
-0.21064815999999997,1.660008064232558,1.274423618590903
-0.21062208,1.6593478194082878,1.2830575140181915
-0.21059599999999998,1.6586875745840166,1.2910272636433888
-0.21056991999999997,1.658357452171881,1.2996611590706848
-0.21054383999999998,1.6576972073476108,1.3076309086958706
-0.21051776,1.6570369625233403,1.3162648041231593
-0.21049168,1.6563767176990694,1.324898699550456
-0.21046559999999997,1.6557164728747986,1.3332005220767027
-0.21043952,1.6553863504626636,1.342166490405037
-0.21041343999999998,1.6543959832262574,1.350468312931284
-0.21038735999999997,1.6540658608141217,1.3591022083585806
-0.21036127999999998,1.6534056159898511,1.3677361037858693
-0.2103352,1.6524152487534454,1.3757058534110589
-0.21030912,1.6520851263413097,1.384339748838355
-0.21028303999999998,1.6510947591049034,1.3929736442656515
-0.21025696,1.6504345142806331,1.4012754667918867
-0.21023087999999998,1.6497742694563622,1.4099093622191832
-0.21020479999999997,1.6487839022199557,1.4178791118443803
-0.21017871999999999,1.6484537798078207,1.426513007271669
-0.21015264,1.6474634125714156,1.4344827568968548
-0.21012656,1.646473045335009,1.4427845794231013
-0.21010047999999998,1.645812800510738,1.4514184748503978
-0.2100744,1.6448224332743322,1.4593882244755874
-0.21004831999999998,1.644162188450061,1.4676900470018337
-0.21002223999999997,1.6435019436257898,1.4759918695280803
-0.20999616,1.6425115763893843,1.4839616191532699
-0.20997008,1.641521209152979,1.4922634416795053
-0.20994399999999996,1.6405308419165712,1.5005652642057625
-0.20991791999999998,1.639540474680166,1.5082029409298991
-0.20989184,1.6385501074437603,1.5165047634561384
-0.20986575999999998,1.6375597402073538,1.5244745130813353
-0.20983967999999997,1.6368994953830827,1.532444262706532
-0.2098136,1.635909128146677,1.540081939430672
-0.20978751999999998,1.6345886384981354,1.5477196161548192
-0.20976143999999997,1.6339283936738638,1.556021438681065
-0.20973535999999998,1.6326079040253234,1.563327042504152
-0.20970928,1.631947659201053,1.570964719228292
-0.2096832,1.6306271695525112,1.5789344688534888
-0.20965711999999997,1.62996692472824,1.586240072676586
-0.20963104,1.628976557491835,1.593545676499673
-0.20960495999999998,1.627656067843293,1.6011833532238198
-0.20957887999999997,1.6266657006068863,1.6084889570469167
-0.20955279999999998,1.6256753333704808,1.6157945608700073
-0.20952672,1.62435484372194,1.6231001646930976
-0.20950064,1.6233644764855333,1.6304057685161948
-0.20947455999999998,1.6220439868369914,1.6373792994382421
-0.20944848,1.6210536196005862,1.6446849032613293
-0.20942239999999998,1.6200632523641796,1.6519905070844263
-0.20939631999999997,1.6187427627156379,1.6589640380064734
-0.20937023999999999,1.617752395479232,1.6659375689285145
-0.20934416,1.6167620282428266,1.6725790269495056
-0.20931808,1.61577166100642,1.6795525578715527
-0.20929199999999998,1.6144511713578784,1.686194015892547
-0.20926592,1.6134608041214729,1.6931675468145881
-0.20923983999999998,1.612140314472931,1.6994769319345358
-0.20921375999999997,1.6111499472365243,1.7064504628565826
-0.20918768,1.6098294575879835,1.7127598479765245
-0.2091616,1.6088390903515783,1.7190692330964632
-0.20913551999999996,1.6078487231151701,1.725378618216419
-0.20910943999999998,1.60652823346663,1.7313559304353086
-0.20908336,1.6055378662302242,1.7376653155552502
-0.20905727999999998,1.6042173765816823,1.7436426277741481
-0.20903119999999997,1.6032270093452758,1.7496199399930457
-0.20900512,1.60223664210887,1.755265179310888
-0.20897903999999998,1.6009161524603281,1.7609104186287359
-0.20895295999999997,1.5999257852239215,1.7665556579465833
-0.20892687999999998,1.5986052955753811,1.771868824363374
-0.2089008,1.5972848059268403,1.777181990780167
-0.20887471999999999,1.5962944386904336,1.782163084295915
-0.20884863999999997,1.5949739490418917,1.7874762507127127
-0.20882256,1.5939835818054866,1.7921252713274045
-0.20879647999999998,1.5926630921569447,1.7971063648431524
-0.20877039999999997,1.591672724920538,1.8017553854578503
-0.20874431999999998,1.5903522352719972,1.8060723331714947
-0.20871824,1.5890317456234564,1.8107213537861884
-0.20869216,1.5877112559749142,1.815038301499837
-0.20866607999999998,1.5867208887385076,1.8193552492134852
-0.20864,1.5854003990899674,1.8233401240260783
-0.20861391999999998,1.5840799094414253,1.8269929259376267
-0.20858783999999997,1.5830895422050186,1.8306457278491752
-0.20856175999999998,1.5817690525564778,1.8342985297607206
-0.20853568,1.580448562907937,1.8376192587712161
-0.2085096,1.5794581956715303,1.840939987781715
-0.20848351999999998,1.5781377060229882,1.8439286438911637
-0.20845744,1.576817216374448,1.8469173000006085
-0.20843135999999998,1.575496726725906,1.8495738832090076
-0.20840527999999997,1.5741762370773638,1.8525625393184562
-0.2083792,1.572855747428823,1.854887049625803
-0.20835312,1.5718653801924178,1.8572115599331487
-0.20832703999999996,1.5705448905438744,1.8595360702405008
-0.20830095999999998,1.569224400895334,1.8615285076467973
-0.20827488,1.5682340336589284,1.8635209450530947
-0.20824879999999998,1.5669135440103865,1.865181309558344
-0.20822271999999997,1.5659231767739799,1.8665096011625437
-0.20819664,1.564602687125439,1.8681699656677917
-0.20817056,1.5632821974768987,1.86916618437094
-0.20814447999999997,1.5619617078283552,1.8704944759751403
-0.20811839999999998,1.56097134059195,1.8711586217772391
-0.20809232,1.5596508509434093,1.8721548404803878
-0.20806623999999999,1.5586604837070024,1.8728189862824878
-0.20804015999999997,1.5576701164705957,1.8738152049856371
-0.20801408,1.5563496268220556,1.8741472778866863
-0.20798799999999998,1.555359259585649,1.8744793507877362
-0.20796191999999997,1.554038769937107,1.8744793507877362
-0.20793583999999998,1.5530484027007012,1.8744793507877362
-0.20790976,1.5517279130521604,1.8744793507877362
-0.20788368,1.5507375458157537,1.8744793507877362
-0.20785759999999998,1.5497471785793473,1.8741472778866863
-0.20783152,1.5487568113429422,1.8738152049856371
-0.20780543999999998,1.5474363216944003,1.8731510591835374
-0.20777935999999997,1.5467760768701289,1.8724869133814372
-0.20775327999999998,1.545455587221588,1.8711586217772391
-0.2077272,1.5444652199851823,1.8708265488761897
-0.20770112,1.5434748527487758,1.8694982572719905
-0.20767503999999998,1.542154363100234,1.868169965667791
-0.20764896,1.5411639958638288,1.8668416740635934
-0.20762287999999998,1.5405037510395576,1.865181309558344
-0.20759679999999997,1.539513383803151,1.863520945053095
-0.20757072,1.5385230165667454,1.861860580547847
-0.20754464,1.537202526918205,1.8605322889436493
-0.20751856,1.5365422820939334,1.8585398515373508
-0.20749247999999998,1.5355519148575272,1.857211559933151
-0.2074664,1.5345615476211214,1.854887049625804
-0.20744031999999998,1.533571180384715,1.852562539318455
-0.20741423999999997,1.5325808131483087,1.8505701019121554
-0.20738816,1.5319205683240382,1.8475814458027093
-0.20736208,1.5312603234997682,1.8445927896932646
-0.20733599999999996,1.5302699562633608,1.8419362064848614
-0.20730991999999998,1.5296097114390905,1.8389475503754165
-0.20728384,1.528619344202685,1.835626821364921
-0.20725775999999999,1.5282892217905493,1.8319740194533725
-0.20723167999999997,1.5276289769662783,1.828321217541824
-0.2072056,1.5269687321420078,1.8243363427292292
-0.20717951999999998,1.5259783649056013,1.8206835408176802
-0.20715343999999997,1.5253181200813308,1.8163665931040338
-0.20712735999999998,1.5246578752570603,1.8120496453903896
-0.20710128,1.5246578752570603,1.8077326976767452
-0.2070752,1.523667508020654,1.8030836770620473
-0.20704911999999998,1.5233373856085186,1.798434656447349
-0.20702304,1.5230072631963836,1.7937856358326574
-0.20699695999999998,1.5223470183721126,1.7888045423169094
-0.20697087999999997,1.5220168959599771,1.7838234488011613
-0.20694479999999998,1.5213566511357066,1.7785102823843681
-0.20691872,1.520696406311436,1.7735291888686247
-0.20689264,1.5203662838993006,1.768216022451827
-0.20686655999999998,1.520036161487165,1.7629028560350288
-0.20684048,1.51970603907503,1.757257616717189
-0.20681439999999998,1.5193759166628944,1.7516123773993413
-0.20678831999999997,1.519045794250759,1.7459671380814934
-0.20676223999999999,1.5187156718386237,1.7399898258626012
-0.20673616,1.5183855494264886,1.734344586544761
-0.20671008,1.5180554270143534,1.7280352014248141
-0.20668399999999998,1.5177253046022177,1.7220578892059164
-0.20665792,1.5173951821900824,1.7157485040859748
-0.20663183999999998,1.5173951821900822,1.709771191867077
-0.20660575999999997,1.5177253046022177,1.7034618067471297
-0.20657968,1.5177253046022177,1.6974844945282375
-0.2065536,1.5177253046022177,1.691507182309348
-0.20652751999999996,1.5177253046022177,1.6851977971893919
-0.20650143999999998,1.5177253046022177,1.6785563391684035
-0.20647536,1.518055427014353,1.672246954048462
-0.20644927999999999,1.5180554270143531,1.6656054960274647
-0.20642319999999997,1.5183855494264884,1.659296110907517
-0.20639712,1.5183855494264884,1.6526546528865258
-0.20637103999999998,1.5183855494264886,1.6456811219644787
-0.20634495999999997,1.5187156718386239,1.6387075910424318
-0.20631887999999998,1.5190457942507591,1.6320661330214434
-0.2062928,1.5190457942507591,1.624760529198353
-0.20626672,1.5193759166628944,1.6177869982763056
-0.20624063999999998,1.5193759166628946,1.610813467354258
-0.20621456,1.5197060390750297,1.6031757906301216
-0.20618847999999998,1.5200361614871651,1.596202259708074
-0.20616239999999997,1.5200361614871654,1.5888966558849769
-0.20613631999999998,1.5203662838993006,1.5815910520618865
-0.20611024,1.521026528723571,1.5746175211398454
-0.20608416,1.5210265287235711,1.566979844415699
-0.20605807999999998,1.5213566511357068,1.5593421676915522
-0.206032,1.5216867735478419,1.552036563868465
-0.20600591999999998,1.5220168959599774,1.5443988871443182
-0.20597983999999997,1.5223470183721128,1.537093283321221
-0.20595375999999999,1.5230072631963834,1.529455606597081
-0.20592768,1.5233373856085186,1.5214858569718914
-0.2059016,1.5239976304327896,1.514180253148794
-0.20587551999999998,1.5243277528449248,1.5062105035236009
-0.20584944,1.52465787525706,1.498572826799461
-0.20582335999999998,1.525318120081331,1.4912672229763637
-0.20579727999999997,1.5259783649056018,1.483297473351167
-0.2057712,1.5266386097298725,1.475659796627027
-0.20574512,1.5272988545541424,1.4680221199028904
-0.20571903999999996,1.5279590993784145,1.460052370277683
-0.20569295999999998,1.5286193442026845,1.452082620652497
-0.20566688,1.529279589026955,1.4441128710273075
-0.20564079999999998,1.529939833851226,1.4361431214021108
-0.20561471999999997,1.5306000786754972,1.4285054446779635
-0.20558864,1.5315904459119027,1.4202036221517245
-0.20556255999999998,1.5319205683240384,1.4122338725265275
-0.20553647999999997,1.5325808131483096,1.4045961958023805
-0.20551039999999998,1.5332410579725797,1.3966264461771944
-0.20548432,1.5342314252089853,1.3879925507499058
-0.20545824,1.5348916700332564,1.3803548740257585
-0.20543215999999997,1.5355519148575276,1.3723851244005614
-0.20540608,1.5365422820939327,1.3640833018743261
-0.20537999999999998,1.537202526918204,1.3564456251501789
-0.20535391999999997,1.5381928941546101,1.3481438026239323
-0.20532783999999998,1.5388531389788809,1.3405061258997926
-0.20530176,1.5398435062152864,1.3325363762746028
-0.20527568,1.5405037510395576,1.324898699550456
-0.20524959999999998,1.5418242406880993,1.3172610228263089
-0.20522352,1.5424844855123696,1.3092912732011226
-0.20519743999999998,1.5434748527487758,1.3016535964769758
-0.20517135999999997,1.5444652199851823,1.2936838468517788
-0.20514527999999999,1.545455587221588,1.2857140972265892
-0.2051192,1.5464459544579936,1.2780764205024493
-0.20509312,1.5471061992822648,1.2701066708772526
-0.20506703999999998,1.547766444106536,1.2621369212520561
-0.20504096,1.5487568113429413,1.254831317428969
-0.20501487999999998,1.5494170561672123,1.2468615678037724
-0.20498879999999997,1.5504074234036191,1.2395559639806752
-0.20496272,1.5517279130521597,1.2319182872565353
-0.20493664,1.552718280288565,1.2242806105323987
-0.20491055999999996,1.5533785251128378,1.2166429338082416
-0.20488447999999998,1.5546990147613782,1.2093373299851544
-0.2048584,1.5553592595856487,1.202031726162064
-0.20483231999999998,1.5566797492341902,1.1950581952400168
-0.20480623999999997,1.5573399940584616,1.1874205185158702
-0.20478016,1.5583303612948671,1.1804469875938293
-0.20475408,1.5596508509434075,1.173141383770742
-0.20472799999999997,1.5603110957676802,1.1658357799476353
-0.20470191999999998,1.5616315854162206,1.1588622490255975
-0.20467584,1.5626219526526264,1.1518887181035566
-0.20464976,1.5636123198890328,1.14458311428046
-0.20462367999999997,1.5646026871254395,1.1379416562594622
-0.2045976,1.5655930543618446,1.130636052436375
-0.20457151999999998,1.5669135440103865,1.1239945944153775
-0.20454543999999997,1.5679039112467927,1.11735313639438
-0.20451935999999998,1.5685641560710633,1.1107116783733888
-0.20449328,1.569884645719604,1.1040702203523975
-0.2044672,1.5705448905438755,1.0974287623314
-0.20444111999999998,1.5718653801924172,1.0911193772114527
-0.20441504,1.5725256250166875,1.0848099920915137
-0.20438895999999998,1.573846114665229,1.0781685340705165
-0.20436287999999997,1.5748364819016356,1.0725232947526684
-0.20433679999999999,1.5758268491380412,1.0658818367316771
-0.20431072,1.577147338786582,1.0595724516117355
-0.20428464,1.5781377060229889,1.0535951393928376
-0.20425855999999998,1.579458195671531,1.0472857542728904
-0.20423248,1.580778685320071,1.0413084420540009
-0.20420639999999998,1.5817690525564778,1.0353311298351033
-0.20418031999999997,1.582429297380749,1.0293538176162056
-0.20415424,1.5840799094414253,1.0233765053973134
-0.20412816,1.5847401542656954,1.0173991931784239
-0.20410208,1.5860606439142368,1.011753953860576
-0.20407599999999998,1.5867208887385083,1.006108714542728
-0.20404992,1.5877112559749138,1.0004634752248855
-0.20402383999999998,1.5887016232113202,0.9951503088080875
-0.20399775999999997,1.589691990447727,0.9895050694902401
-0.20397168,1.5906823576841325,0.9845239759744966
-0.2039456,1.5916727249205378,0.9792108095577061
-0.20391951999999997,1.5923329697448103,0.9742297160419512
-0.20389343999999998,1.5936534593933507,0.9695806954272594
-0.20386736,1.5943137042176212,0.964599601911516
-0.20384127999999999,1.595634193866163,0.9602826541978673
-0.20381519999999997,1.5966245611025696,0.9553015606821196
-0.20378912,1.5976149283389751,0.9509846129684753
-0.20376303999999998,1.5989354179875166,0.9469997381558787
-0.20373695999999997,1.5999257852239233,0.9426827904422306
-0.20371087999999998,1.601246274872464,0.9386979156296358
-0.2036848,1.6022366421088696,0.9343809679159915
-0.20365872,1.6032270093452763,0.9307281660044426
-0.20363263999999998,1.604217376581683,0.9270753640928939
-0.20360656,1.605537866230223,0.9230904892803009
-0.20358047999999998,1.60652823346663,0.9201018331708517
-0.20355439999999997,1.6075186007030366,0.9164490312593032
-0.20352831999999998,1.6088390903515775,0.9131283022488076
-0.20350224,1.609829457587983,0.9101396461393615
-0.20347616,1.611149947236525,0.9071509900299127
-0.20345007999999998,1.6121403144729314,0.9044944068215137
-0.203424,1.6131306817093367,0.9015057507120688
-0.20339791999999998,1.6144511713578784,0.8991812404047196
-0.20337183999999997,1.615441538594285,0.8965246571963207
-0.20334576,1.6164319058306906,0.8942001468889738
-0.20331968,1.617752395479231,0.8918756365816279
-0.2032936,1.6184126403035026,0.8898831991753283
-0.20326751999999998,1.6194030075399088,0.8882228346700789
-0.20324144,1.6203933747763146,0.885898324362732
-0.20321535999999998,1.621383742012721,0.8845700327585321
-0.20318927999999997,1.6223741092491277,0.8829096682532827
-0.2031632,1.6233644764855333,0.8812493037480349
-0.20313712,1.6246849661340736,0.8799210121438372
-0.20311103999999996,1.6250150885462111,0.8785927205396362
-0.20308495999999998,1.6263355781947515,0.877596501836488
-0.20305888,1.626995823019022,0.8759361373312402
-0.20303279999999999,1.6279861902554282,0.8749399186280903
-0.20300671999999997,1.6289765574918347,0.8739436999249407
-0.20298064,1.6296368023161052,0.872947481221792
-0.20295455999999998,1.6302970471403764,0.872283335419692
-0.20292847999999997,1.6312874143767828,0.871287116716543
-0.20290239999999998,1.6322777816131882,0.8709550438154936
-0.20287632,1.6332681488495937,0.8696267522112954
-0.20285024,1.6342585160860001,0.8692946793102451
-0.20282415999999998,1.6349187609102713,0.8686305335081458
-0.20279808,1.6359091281466767,0.8689626064091952
-0.20277199999999998,1.6365693729709476,0.8689626064091953
-0.20274591999999997,1.6375597402073543,0.8689626064091954
-0.20271983999999998,1.6385501074437598,0.8692946793102451
-0.20269376,1.638880229855895,0.8696267522112947
-0.20266768,1.6398705970923013,0.8702908980133942
-0.20264159999999998,1.6405308419165727,0.8706229709144445
-0.20261552,1.6418513315651129,0.8719512625186423
-0.20258943999999998,1.6421814539772488,0.8726154083207422
-0.20256335999999997,1.6431718212136555,0.873611627023892
-0.20253728,1.644162188450061,0.8749399186280903
-0.2025112,1.6448224332743315,0.8762682102322885
-0.20248512,1.6458128005107375,0.8779285747375369
-0.20245903999999998,1.6461429229228732,0.8795889392427862
-0.20243296,1.6471332901592788,0.8815813766490836
-0.20240687999999998,1.6474634125714147,0.8835738140553828
-0.20238079999999997,1.648453779807821,0.8862303972637814
-0.20235472,1.6491140246320914,0.8878907617690291
-0.20232864,1.6497742694563615,0.8905473449774245
-0.20230255999999996,1.6504345142806336,0.8928718552847776
-0.20227647999999998,1.6510947591049037,0.8958605113942224
-0.2022504,1.6517550039291742,0.8988491675036685
-0.20222431999999999,1.6520851263413097,0.9015057507120675
-0.20219823999999997,1.6527453711655806,0.9051585526236158
-0.20217216,1.6530754935777159,0.9081472087330619
-0.20214607999999998,1.6537357384019866,0.9114679377435606
-0.20211999999999997,1.6540658608141225,0.9147886667540599
-0.20209391999999998,1.6547261056383926,0.9187735415666528
-0.20206784,1.6550562280505277,0.9220942705771484
-0.20204176,1.6553863504626634,0.9260791453897466
-0.20201567999999998,1.655716472874799,0.9300640202023451
-0.2019896,1.6560465952869339,0.9343809679159875
-0.20196351999999998,1.6563767176990694,0.938365842728586
-0.20193743999999997,1.656706840111205,0.9426827904422344
-0.20191135999999998,1.65703696252334,0.9469997381558787
-0.20188528,1.65703696252334,0.951316685869523
-0.2018592,1.6576972073476108,0.9562977793852707
