DAQ/testing_accel_4_6/test_full_0038.csv

#Digilent WaveForms Oscilloscope Acquisition
#Device Name: Discovery2
#Serial Number: SN:210321B02866
#Date Time: 2021-04-06 19:02:54.664
#Sample rate: 38343.6Hz
#Samples: 8192
#Trigger: None
#Channel 1: Range: 500 mV/div Offset: -1.15 V Attenuation: 1 X
#Channel 2: Range: 500 mV/div Offset: -1.45 V Attenuation: 1 X
#Power Supplies: ON
#Positive Supply: ON
#Voltage: 3.3 V
#Negative Supply: OFF
#Voltage: -3.3 V

Time (s),Channel 1 (V),Channel 2 (V)
-0.21116975999999998,1.6679310021238072,0.9556336335831713
-0.21114368,1.6685912469480775,0.9599505812968157
-0.2111176,1.6685912469480777,0.9645996019115137
-0.21109151999999998,1.6692514917723489,0.9689165496251622
-0.21106544,1.6695816141844835,0.9738976431409034
-0.21103935999999998,1.6699117365966192,0.9785466637556017
-0.21101327999999997,1.67057198142089,0.9835277572713499
-0.21098719999999999,1.67057198142089,0.9888409236881429
-0.21096112,1.67123222624516,0.9941540901049335
-0.21093504,1.671562348657296,0.9991351836206819
-0.21090895999999998,1.6718924710694314,1.005112495839579
-0.21088288,1.6722225934815664,1.010425662256372
-0.21085679999999998,1.6728828383058376,1.0164029744752694
-0.21083071999999997,1.6725527158937024,1.0217161408920676
-0.21080464,1.6732129607179729,1.0280255260120095
-0.21077856,1.6732129607179729,1.0333386924288002
-0.21075247999999996,1.6732129607179729,1.0396480775487547
-0.21072639999999998,1.6732129607179729,1.0452933168665948
-0.21070032,1.673543083130108,1.0519347748875858
-0.21067423999999998,1.6732129607179729,1.057912087106484
-0.21064815999999997,1.673543083130108,1.0645535451274812
-0.21062208,1.6732129607179729,1.0708629302474229
-0.21059599999999998,1.673543083130108,1.07750438826842
-0.21056991999999997,1.673212960717973,1.0838137733883682
-0.21054383999999998,1.6735430831301081,1.090787304310406
-0.21051776,1.673212960717973,1.097428762331397
-0.21049168,1.6732129607179729,1.1040702203523944
-0.21046559999999997,1.6732129607179729,1.1110437512744418
-0.21043952,1.6732129607179729,1.118349355097529
-0.21041343999999998,1.6728828383058376,1.1249908131185267
-0.21038735999999997,1.6728828383058376,1.1326284898426733
-0.21036127999999998,1.6728828383058376,1.1399340936657638
-0.2103352,1.6725527158937024,1.1469076245878047
-0.21030912,1.6722225934815667,1.1545453013119513
-0.21028303999999998,1.6718924710694312,1.1618509051350485
-0.21025696,1.6715623486572964,1.1691565089581355
-0.21023087999999998,1.6715623486572961,1.1767941856822823
-0.21020479999999997,1.6712322262451604,1.1840997895053795
-0.21017871999999999,1.67057198142089,1.1917374662295197
-0.21015264,1.6702418590087549,1.199375142953656
-0.21012656,1.669581614184484,1.207012819677803
-0.21010047999999998,1.6692514917723487,1.2149825693029996
-0.2100744,1.6689213693602134,1.2226202460271396
-0.21004831999999998,1.6685912469480777,1.2305899956523363
-0.21002223999999997,1.667931002123807,1.2388918181785828
-0.20999616,1.6676008797116717,1.2465294949027228
-0.20997008,1.6669406348874016,1.2544992445279086
-0.20994399999999996,1.666610512475265,1.2628010670541658
-0.20991791999999998,1.6659502676509947,1.2704387437783022
-0.20989184,1.6656201452388597,1.2787405663045415
-0.20986575999999998,1.6646297780024535,1.2867103159297384
-0.20983967999999997,1.6639695331781823,1.295012138455985
-0.2098136,1.6629791659417767,1.302649815180125
-0.20978751999999998,1.6623189211175053,1.3112837106074209
-0.20976143999999997,1.6613285538810991,1.3189213873315686
-0.20973535999999998,1.6606683090568293,1.3275552827588535
-0.20970928,1.6596779418204235,1.3351929594829934
-0.2096832,1.6590176969961523,1.3438268549102896
-0.20965711999999997,1.6583574521718811,1.3517966045354863
-0.20963104,1.6573670849354758,1.3597663541606724
-0.20960495999999998,1.6563767176990694,1.368068176686919
-0.20957887999999997,1.6557164728747984,1.3763699992131653
-0.20955279999999998,1.6547261056383926,1.384339748838355
-0.20952672,1.654065860814122,1.3929736442656437
-0.20950064,1.6530754935777159,1.4009433938908409
-0.20947455999999998,1.6524152487534445,1.409577289318137
-0.20944848,1.6514248815170394,1.4172149660422733
-0.20942239999999998,1.650434514280633,1.4255167885685198
-0.20939631999999997,1.6497742694563617,1.4334865381937165
-0.20937023999999999,1.648783902219956,1.4414562878189061
-0.20934416,1.6477935349835504,1.449426037444096
-0.20931808,1.646803167747144,1.4573957870692926
-0.20929199999999998,1.6461429229228732,1.4653655366944858
-0.20926592,1.6448224332743324,1.4733352863196754
-0.20923983999999998,1.644162188450061,1.481637108845922
-0.20921375999999997,1.642841698801519,1.489274785570069
-0.20918768,1.6418513315651135,1.4972445351952586
-0.2091616,1.6405308419165732,1.5045501390183456
-0.20913551999999996,1.639540474680165,1.5125198886435525
-0.20910943999999998,1.6382199850316246,1.5201575653676889
-0.20908336,1.637229617795219,1.5281273149928787
-0.20905727999999998,1.635909128146677,1.5354329188159759
-0.20903119999999997,1.6352488833224057,1.5434026684411721
-0.20900512,1.6339283936738649,1.5503761993632132
-0.20897903999999998,1.632938026437458,1.55834594898841
-0.20895295999999997,1.6316175367889163,1.5659836257125566
-0.20892687999999998,1.6306271695525112,1.5732892295356435
-0.2089008,1.6289765574918351,1.5809269062597835
-0.20887471999999999,1.6279861902554282,1.588232510082881
-0.20884863999999997,1.6269958230190218,1.595538113905978
-0.20882256,1.6260054557826167,1.6031757906301145
-0.20879647999999998,1.6246849661340748,1.6104813944532117
-0.20877039999999997,1.6233644764855328,1.6174549253752593
-0.20874431999999998,1.6223741092491273,1.6247605291983496
-0.20871824,1.6210536196005865,1.6314019872193408
-0.20869216,1.6200632523641796,1.6390396639434874
-0.20866607999999998,1.6184126403035026,1.645681121964485
-0.20864,1.6177523954792323,1.6526546528865227
-0.20861391999999998,1.6161017834185554,1.6592961109075202
-0.20858783999999997,1.6151114161821487,1.666269641829567
-0.20856175999999998,1.613790926533608,1.6725790269495087
-0.20853568,1.612470436885067,1.6792204849705
-0.2085096,1.611149947236525,1.6858619429914974
-0.20848351999999998,1.6101595800001183,1.6921713281114452
-0.20845744,1.6088390903515781,1.6988127861324331
-0.20843135999999998,1.607518600703036,1.705122171252381
-0.20840527999999997,1.6061981110544938,1.7114315563723281
-0.2083792,1.604877621405953,1.7170767956901707
-0.20835312,1.603887254169548,1.7233861808101096
-0.20832703999999996,1.602236642108869,1.7293634930290156
-0.20830095999999998,1.6009161524603286,1.7353408052479051
-0.20827488,1.599595662811788,1.7406539716646983
-0.20824879999999998,1.5986052955753811,1.7466312838835956
-0.20822271999999997,1.5969546835147037,1.751612377399344
-0.20819664,1.595634193866163,1.7572576167171863
-0.20817056,1.5939835818054877,1.7622387102329278
-0.20814447999999997,1.5929932145690786,1.7678839495507817
-0.20811839999999998,1.5913426025084032,1.7725329701654733
-0.20809232,1.5900221128598624,1.7775140636812168
-0.20806623999999999,1.5887016232113202,1.782163084295915
-0.20804015999999997,1.587381133562778,1.7868121049106134
-0.20801408,1.5860606439142382,1.791461125525305
-0.20798799999999998,1.5844100318535608,1.7957780732389534
-0.20796191999999997,1.5834196646171539,1.800427093853651
-0.20793583999999998,1.5817690525564778,1.8040798957651965
-0.20790976,1.580778685320072,1.80872891637989
-0.20788368,1.5791280732593949,1.8123817182914392
-0.20785759999999998,1.5778075836108527,1.8160345202029877
-0.20783152,1.5764870939623126,1.8196873221145315
-0.20780543999999998,1.5751666043137704,1.8230080511250302
-0.20777935999999997,1.5738461146652283,1.8263287801355288
-0.20775327999999998,1.5721955026045522,1.829317436244975
-0.2077272,1.5708750129560116,1.8326381652554704
-0.20770112,1.5695545233074695,1.8352947484638698
-0.20767503999999998,1.5685641560710626,1.8379513316722684
-0.20764896,1.5672436664225224,1.8402758419796144
-0.20762287999999998,1.5659231767739805,1.8429324251880133
-0.20759679999999997,1.5646026871254384,1.8449248625943127
-0.20757072,1.5632821974768976,1.8472493729016595
-0.20754464,1.5619617078283572,1.8495738832090054
-0.20751856,1.5603110957676798,1.8512342477142554
-0.20749247999999998,1.5593207285312731,1.8528946122195047
-0.2074664,1.5580002388827323,1.8542229038237028
-0.20744031999999998,1.5570098716463256,1.8562153412300018
-0.20741423999999997,1.5553592595856485,1.8572115599331516
-0.20738816,1.5543688923492427,1.8588719244383995
-0.20736208,1.5530484027007023,1.8595360702404984
-0.20733599999999996,1.5517279130521586,1.8605322889436489
-0.20730991999999998,1.5504074234036185,1.8611964347457475
-0.20728384,1.5490869337550777,1.8618605805478468
-0.20725775999999999,1.5480965665186708,1.8625247263499465
-0.20723167999999997,1.5464459544579938,1.8625247263499467
-0.2072056,1.5457857096337233,1.8631888721520458
-0.20717951999999998,1.5441350975730461,1.8628567992509961
-0.20715343999999997,1.5431447303366397,1.8628567992509961
-0.20712735999999998,1.541824240688099,1.8628567992509961
-0.20710128,1.5405037510395583,1.8625247263499467
-0.2070752,1.5395133838031514,1.8621926534488966
-0.20704911999999998,1.5381928941546095,1.8611964347457473
-0.20702304,1.5372025269182044,1.8605322889436484
-0.20699695999999998,1.5358820372696624,1.8592039973394492
-0.20697087999999997,1.5348916700332558,1.8588719244383989
-0.20694479999999998,1.533571180384715,1.857211559933151
-0.20691872,1.5329109355604444,1.8562153412300022
-0.20689264,1.5315904459119027,1.8545549767247533
-0.20686655999999998,1.530600078675496,1.8532266851205537
-0.20684048,1.529279589026956,1.8515663206153066
-0.20681439999999998,1.5279590993784138,1.8499059561100573
-0.20678831999999997,1.5272988545541424,1.8479135187037583
-0.20676223999999999,1.5259783649056016,1.8462531541985103
-0.20673616,1.5249879976691965,1.8442607167922138
-0.20671008,1.524327752844925,1.842600352286964
-0.20668399999999998,1.5233373856085188,1.840607914880665
-0.20665792,1.522016895959978,1.8382834045733183
-0.20663183999999998,1.5213566511357066,1.8356268213649194
-0.20660575999999997,1.5206964063114354,1.8329702381565203
-0.20657968,1.5197060390750299,1.8299815820470742
-0.2065536,1.5190457942507598,1.827324998838679
-0.20652751999999996,1.518055427014353,1.8240042698281762
-0.20650143999999998,1.5177253046022177,1.8206835408176822
-0.20647536,1.516734937365812,1.8173628118071865
-0.20644927999999999,1.5160746925415407,1.813710009895638
-0.20642319999999997,1.51541444771727,1.8097251350830397
-0.20639712,1.5147542028929994,1.8057402602704449
-0.20637103999999998,1.5140939580687285,1.8017553854578463
-0.20634495999999997,1.5137638356565926,1.797438437744198
-0.20631887999999998,1.5131035908323227,1.7931214900305559
-0.2062928,1.512443346008052,1.7888045423169114
-0.20626672,1.5121132235959165,1.7841555217022134
-0.20624063999999998,1.5114529787716455,1.779506501087515
-0.20621456,1.5111228563595107,1.7745254075717738
-0.20618847999999998,1.510792733947375,1.7695443140560259
-0.20616239999999997,1.5104626115352395,1.764563220540278
-0.20613631999999998,1.5101324891231043,1.7595821270245344
-0.20611024,1.5098023667109692,1.7542689606077413
-0.20608416,1.5094722442988335,1.7489557941909435
-0.20605807999999998,1.5094722442988333,1.7436426277741455
-0.206032,1.508811999474563,1.7379973884563056
-0.20600591999999998,1.5088119994745628,1.7323521491384577
-0.20597983999999997,1.5088119994745626,1.7267069098206098
-0.20595375999999999,1.5084818770624275,1.7207295976017176
-0.20592768,1.5081517546502925,1.715084358283875
-0.2059016,1.5081517546502923,1.7091070460649775
-0.20587551999999998,1.5078216322381568,1.7031297338460827
-0.20584944,1.5078216322381568,1.6964882758250914
-0.20582335999999998,1.5074915098260213,1.6905109636061935
-0.20579727999999997,1.5074915098260213,1.6842015784862459
-0.2057712,1.5074915098260213,1.6778921933663042
-0.20574512,1.5074915098260213,1.6712507353453159
-0.20571903999999996,1.5078216322381566,1.6649413502253594
-0.20569295999999998,1.5074915098260213,1.658299892204371
-0.20566688,1.5078216322381566,1.65132636128233
-0.20564079999999998,1.5078216322381568,1.6446849032613327
-0.20561471999999997,1.508151754650292,1.6377113723392855
-0.20558864,1.5078216322381568,1.6310699143182943
-0.20556255999999998,1.5081517546502925,1.6244284562972966
-0.20553647999999997,1.5084818770624275,1.6171228524741996
-0.20551039999999998,1.5084818770624275,1.610149321552162
-0.20548432,1.5084818770624275,1.6031757906301212
-0.20545824,1.5088119994745628,1.5958701868070242
-0.20543215999999997,1.5091421218866985,1.5885645829839274
-0.20540608,1.5094722442988333,1.5815910520618897
-0.20537999999999998,1.5094722442988335,1.5742854482387927
-0.20535391999999997,1.5098023667109692,1.5669798444156957
-0.20532783999999998,1.5101324891231043,1.5596742405926052
-0.20530176,1.5107927339473748,1.5523686367695149
-0.20527568,1.5111228563595105,1.544730960045368
-0.20524959999999998,1.511452978771646,1.5374253562222706
-0.20522352,1.511783101183781,1.5297876794981342
-0.20519743999999998,1.5124433460080517,1.5221500027739872
-0.20517135999999997,1.5127734684201875,1.5145123260498403
-0.20514527999999999,1.5131035908323227,1.5068746493257004
-0.2051192,1.513763835656593,1.4992369726015604
-0.20509312,1.5140939580687287,1.4915992958774134
-0.20506703999999998,1.5147542028929997,1.4839616191532663
-0.20504096,1.51541444771727,1.47632394242913
-0.20501487999999998,1.5157445701294054,1.4683541928039332
-0.20498879999999997,1.5164048149536764,1.4603844431787365
-0.20496272,1.517065059777947,1.4527467664545965
-0.20493664,1.517725304602217,1.4447770168294107
-0.20491055999999996,1.518385549426489,1.436807267204203
-0.20488447999999998,1.5190457942507591,1.428837517579017
-0.2048584,1.5197060390750297,1.4211998408548772
-0.20483231999999998,1.5206964063114359,1.4132300912296802
-0.20480623999999997,1.5210265287235716,1.4055924145055334
-0.20478016,1.5220168959599774,1.3979547377813935
-0.20475408,1.5226771407842474,1.389652915255158
-0.20472799999999997,1.52333738560852,1.382015238531
-0.20470191999999998,1.5246578752570603,1.3743775618068634
-0.20467584,1.5253181200813308,1.3664078121816738
-0.20464976,1.526308487317737,1.3584380625564771
-0.20462367999999997,1.5269687321420082,1.35080038583233
-0.2045976,1.5279590993784133,1.342830636207144
-0.20457151999999998,1.5286193442026845,1.3348608865819473
-0.20454543999999997,1.5296097114390912,1.3272232098578003
-0.20451935999999998,1.530930201087632,1.3192534602326107
-0.20449328,1.5315904459119025,1.3116157835084707
-0.2044672,1.532580813148309,1.3039781067843237
-0.20444111999999998,1.5332410579725801,1.296008357159127
-0.20441504,1.5342314252089853,1.2883706804349906
-0.20438895999999998,1.5355519148575272,1.2807330037108435
-0.20436287999999997,1.5362121596817984,1.272763254085647
-0.20433679999999999,1.537202526918204,1.2654576502625565
-0.20431072,1.5381928941546095,1.2581520464394662
-0.20428464,1.5391832613910161,1.2501822968142697
-0.20425855999999998,1.5401736286274228,1.2428766929911725
-0.20423248,1.541163995863828,1.2355710891680853
-0.20420639999999998,1.5421543631002343,1.2279334124439387
-0.20418031999999997,1.5434748527487763,1.2209598815218912
-0.20415424,1.5444652199851818,1.2133222047977512
-0.20412816,1.5454555872215872,1.206016600974664
-0.20410208,1.5467760768701289,1.1990430700526165
-0.20407599999999998,1.5477664441065355,1.1917374662295197
-0.20404992,1.5487568113429413,1.1847639353074786
-0.20402383999999998,1.550077300991483,1.1774583314843818
-0.20399775999999997,1.5510676682278897,1.1704848005623347
-0.20397168,1.5520580354642952,1.1635112696402936
-0.2039456,1.5533785251128356,1.156537738718256
-0.20391951999999997,1.554699014761379,1.1495642077961996
-0.20389343999999998,1.5556893819977842,1.1429227497752112
-0.20386736,1.5566797492341897,1.1359492188531704
-0.20384127999999999,1.5583303612948671,1.1293077608321729
-0.20381519999999997,1.5593207285312736,1.1226663028111754
-0.20378912,1.5603110957676791,1.1160248447901844
-0.20376303999999998,1.5616315854162206,1.10938338676919
-0.20373695999999997,1.5626219526526275,1.1027419287481928
-0.20371087999999998,1.5639424423011683,1.096432543628251
-0.2036848,1.5649328095375739,1.0901231585083093
-0.20365872,1.5662532991861158,1.0838137733883617
-0.20363263999999998,1.567573788834658,1.0775043882684145
-0.20360656,1.568894278483198,1.071527076049525
-0.20358047999999998,1.5698846457196047,1.0652176909295776
-0.20355439999999997,1.5712051353681467,1.05924037871068
-0.20352831999999998,1.5721955026045522,1.053263066491788
-0.20350224,1.573185869840958,1.0466216084707967
-0.20347616,1.5741762370773644,1.0406442962518987
-0.20345007999999998,1.5751666043137709,1.034666984033001
-0.203424,1.5761569715501762,1.028357598913062
-0.20339791999999998,1.5771473387865826,1.0223802866941643
-0.20337183999999997,1.5778075836108538,1.0164029744752667
-0.20334576,1.5787979508472594,1.0107577351574242
-0.20331968,1.5797883180836647,1.005112495839584
-0.2032936,1.5807786853200712,0.9994672565217364
-0.20326751999999998,1.5817690525564778,0.9941540901049384
-0.20324144,1.5827594197928834,0.9885088507870957
-0.20321535999999998,1.5840799094414253,0.9831956843702978
-0.20318927999999997,1.5850702766778317,0.9782145908545496
-0.2031632,1.5860606439142375,0.9729014244377565
-0.20313712,1.5873811335627777,0.9682524038230648
-0.20311103999999996,1.5883715007991859,0.9632713103073102
-0.20308495999999998,1.589361868035591,0.958290216791569
-0.20305888,1.5910124800962673,0.9539732690779248
-0.20303279999999999,1.592002847332674,0.9496563213642765
-0.20300671999999997,1.5929932145690808,0.9450073007495787
-0.20298064,1.5943137042176214,0.9413544988380335
-0.20295455999999998,1.5956341938661636,0.9370375511243855
-0.20292847999999997,1.5969546835147055,0.9330526763117872
-0.20290239999999998,1.5982751731632459,0.9293998744002437
-0.20287632,1.5992655403996514,0.925414999587649
-0.20285024,1.600255907636058,0.9217621976761002
-0.20282415999999998,1.6015763972846002,0.9184414686656014
-0.20279808,1.6028968869331401,0.9147886667540579
-0.20277199999999998,1.603887254169547,0.911467937743559
-0.20274591999999997,1.6052077438180892,0.9084792816341103
-0.20271983999999998,1.60652823346663,0.9054906255246642
-0.20269376,1.6075186007030355,0.902501969415218
-0.20266768,1.6088390903515775,0.899845386206819
-0.20264159999999998,1.6101595800001194,0.89718880299842
-0.20261552,1.6111499472365245,0.8945322197900247
-0.20258943999999998,1.6124704368850664,0.8918756365816258
-0.20256335999999997,1.6131306817093378,0.8895511262742767
-0.20253728,1.6144511713578784,0.8872266159669298
-0.2025112,1.6154415385942842,0.8852341785606324
-0.20248512,1.6164319058306902,0.8832417411543341
-0.20245903999999998,1.6180825178913674,0.8812493037480349
-0.20243296,1.6190728851277731,0.879588939242787
-0.20240687999999998,1.6200632523641796,0.8779285747375377
-0.20238079999999997,1.6213837420127215,0.8766002831333384
-0.20235472,1.6223741092491273,0.8756040644301897
-0.20232864,1.6233644764855324,0.8739436999249427
-0.20230255999999996,1.6246849661340759,0.8726154083207417
-0.20227647999999998,1.6260054557826162,0.8719512625186429
-0.2022504,1.6269958230190218,0.870955043815494
-0.20222431999999999,1.627656067843293,0.8699588251123445
-0.20219823999999997,1.6293066799039702,0.868962606409195
-0.20217216,1.630297047140376,0.8682984606070959
-0.20214607999999998,1.6309572919646471,0.8676343148049962
-0.20211999999999997,1.6319476592010536,0.8669701690028967
-0.20209391999999998,1.6329380264374587,0.8666380961018474
-0.20206784,1.6339283936738644,0.8663060232007977
-0.20204176,1.6349187609102709,0.8663060232007976
-0.20201567999999998,1.6359091281466775,0.8663060232007977
-0.2019896,1.6368994953830827,0.8666380961018473
-0.20196351999999998,1.637889862619489,0.866970169002897
-0.20193743999999997,1.6388802298558958,0.8676343148049969
-0.20191135999999998,1.6398705970923013,0.8682984606070959
-0.20188528,1.6411910867408421,0.8692946793102446
-0.2018592,1.6418513315651135,0.8699588251123445
