DAQ/testing_accel_4_6/test_full_0007.csv

#Digilent WaveForms Oscilloscope Acquisition
#Device Name: Discovery2
#Serial Number: SN:210321B02866
#Date Time: 2021-04-06 18:57:22.896
#Sample rate: 6275.1Hz
#Samples: 8192
#Trigger: None
#Channel 1: Range: 500 mV/div Offset: -1.8 V Attenuation: 1 X
#Channel 2: Range: 500 mV/div Offset: -1.45 V Attenuation: 1 X
#Power Supplies: ON
#Positive Supply: ON
#Voltage: 3.3 V
#Negative Supply: OFF
#Voltage: -3.3 V

Time (s),Channel 1 (V),Channel 2 (V)
-1.2903379200000002,1.7051209749831666,1.1572018845202703
-1.2901785600000002,1.7150246473472321,1.2438729116942855
-1.2900192000000001,1.7239379524748872,1.329547720165113
-1.28985984,1.7315307679540046,1.4115697267244318
-1.28970048,1.7384633386088495,1.4899389313721987
-1.28954112,1.7440754196151513,1.5646553341084155
-1.2893817600000002,1.7473766437365004,1.6357189349329577
-1.2892224,1.7493573782093141,1.7031297338460827
-1.28906304,1.749687500621449,1.7678839495508052
-1.2889036800000002,1.7486971333850443,1.8289853633438695
-1.2887443200000002,1.746386276500097,1.8874301939286484
-1.2885849600000001,1.7417645627302007,1.9432184413050275
-1.2884256,1.7354922368996257,1.9963501054730048
-1.28826624,1.7285596662447824,2.046493113531511
-1.28810688,1.7199764835292584,2.0949757570847893
-1.2879475200000001,1.7104029335773414,2.1408018174296086
-1.28778816,1.7001691388011453,2.1843033674671215
-1.2876288000000002,1.688284731964283,2.2221596781867543
-1.2874694400000002,1.675409957890999,2.2500538018749525
-1.2873100800000001,1.6622050614055788,2.2673215927295507
-1.28715072,1.6473495528594875,2.2732989049484456
-1.28699136,1.6324940443133888,2.268981957234793
-1.286832,1.6163180461187472,2.2550348953906845
-1.2866726400000001,1.598491435863462,2.2258124800983494
-1.28651328,1.5816551928445506,2.1843033674671215
-1.2863539200000003,1.5654791946499325,2.1324999949034127
-1.2861945600000002,1.5499634412795629,2.0707344353081463
-1.2860352000000002,1.5351079327334713,2.00099912608771
-1.28587584,1.519922301775238,1.9232940672420447
-1.28571648,1.5063872828776825,1.840275841979577
-1.28555712,1.4941727536286746,1.7555972522118999
-1.28539776,1.4829485916160683,1.6722469540483875
-1.2852384000000001,1.4730449192520165,1.5935456764996763
-1.28507904,1.4634713693000871,1.5181651279613582
-1.2849196800000002,1.4548881865845795,1.4467694542357665
-1.2847603200000002,1.4486158607540027,1.37935865532264
-1.2846009600000001,1.4436640245719694,1.3152685854200141
-1.2844416,1.4400326780384805,1.2538350987258164
-1.28428224,1.4377218211535325,1.1953902681410415
-1.28412288,1.4367314539171272,1.1405982394678158
-1.2839635200000001,1.4370615763292622,1.0884627940030578
-1.28380416,1.4397025556263452,1.03898393174665
-1.2836448000000003,1.443994146984101,0.992493725599732
-1.2834854400000002,1.4496062279904036,0.947995956859048
-1.2833260800000001,1.4565387986452456,0.9054906255246835
-1.28316672,1.4641316141243619,0.8653098044976485
-1.28300736,1.4727147968398857,0.8264572750748149
-1.282848,1.4826184692039523,0.7895971830582814
-1.28268864,1.4938426312165556,0.7547295284480636
-1.28252928,1.5060571604655528,0.7225184570462705
-1.28236992,1.518931934538838,0.6959526249622856
-1.2822105600000002,1.5321368310242343,0.6793489799098225
-1.2820512000000002,1.5466622171581956,0.672707521888816
-1.2818918400000001,1.5628382153528348,0.6756961779982605
-1.28173248,1.5793443359596104,0.68831494823816
-1.28157312,1.595520334154243,0.7108959055095447
-1.28141376,1.611696332348882,0.7424428311092897
-1.2812544000000001,1.6265518408949597,0.7822915792352194
-1.28109504,1.642397716677457,0.830774222788478
-1.2809356800000002,1.65824359245994,0.8875586888679279
-1.2807763200000002,1.673099101006039,0.9519808316715952
-1.2806169600000001,1.6872943647278662,1.023708578298363
-1.2804576,1.7001691388011453,1.1020777829460962
-1.28029824,1.7110631784016168,1.186424299812764
-1.28013888,1.7212969731778167,1.274091545689927
-1.2799795200000001,1.7305404007175942,1.359766354160637
-1.27982016,1.7387934610209825,1.4411242149178565
-1.2796608000000003,1.7453959092636837,1.51849720086237
-1.2795014400000002,1.7500176230335807,1.5918853119943608
-1.2793420800000002,1.7526586023306665,1.6616206212148363
-1.27918272,1.7543092143913446,1.7280352014248113
-1.27902336,1.7543092143913437,1.7914611255253345
-1.278864,1.752328479918531,1.851566320615332
-1.27870464,1.7493573782093093,1.9090149324969565
-1.2785452800000001,1.7440754196151482,1.9638069611701099
-1.27838592,1.7378030937845739,2.016274479535988
-1.2782265600000002,1.7318608903661452,2.067413706297575
-1.2780672000000002,1.7236078300627597,2.115896349850858
-1.2779078400000001,1.7143644025229658,2.1617224101957406
-1.27774848,1.7034703629224988,2.2042277415301044
-1.27758912,1.6912558336734849,2.240091614843486
-1.27742976,1.6790413044244699,2.265993301125365
-1.2772704000000001,1.6655062855269385,2.2806045087715323
-1.27711104,1.6513110218051117,2.284589383584136
-1.2769516800000003,1.636125390846899,2.277615852662098
-1.2767923200000002,1.6196192702401246,2.2606801347085637
-1.2766329600000001,1.6034432720454916,2.229797354910947
-1.2764736,1.587597396262987,2.1866278777744697
-1.27631424,1.5717515204804828,2.1321679220022873
-1.27615488,1.556565889522249,2.0690740708028046
-1.27599552,1.5410501361518874,1.9973463241760592
-1.27583616,1.5258645051936743,1.9183129737262987
-1.2756768,1.5126596087082547,1.8342985297606822
-1.2755174400000002,1.500775201871398,1.74961993999312
-1.2753580800000002,1.4902112846830602,1.6672658605327508
-1.2751987200000001,1.4799774899068592,1.5885645829839306
-1.27503936,1.4700738175427983,1.5138481802477444
-1.27488,1.4611605124151401,1.4421204336209748
-1.27472064,1.4535676969360252,1.3743775618068046
-1.2745612800000001,1.447955615929729,1.309623346102169
-1.27440192,1.4439941469841049,1.2478577865069216
-1.2742425600000002,1.4413531676870244,1.189745028823274
-1.2740832000000002,1.4393724332142106,1.134288854347944
-1.2739238400000001,1.4387121883899392,1.0814892630810378
-1.27376448,1.4397025556263452,1.0306821092204073
-1.27360512,1.4426736573355652,0.9828636114692271
-1.27344576,1.446635126281193,0.9367054782232976
-1.2732864000000002,1.4522472072874864,0.892871855284795
-1.27312704,1.4588496555301962,0.8516948155546101
-1.27296768,1.4674328382457202,0.8128422861317766
-1.2728083200000002,1.4776666330219024,0.7759821941153083
-1.2726489600000002,1.4895510398587795,0.74144661240612
-1.2724896,1.5020956915199284,0.7098996868063813
-1.27233024,1.5153005880053492,0.6853262921286956
-1.27217088,1.5291657293150347,0.6707150844825126
-1.27201152,1.544021237861134,0.6660660638678224
-1.2718521600000001,1.5601972360557521,0.6700509386804153
-1.2716928,1.5763732342503847,0.6846621463266028
-1.2715334400000002,1.5928793548571378,0.7092355410042596
-1.2713740800000002,1.6090553530517782,0.7437711227134367
-1.2712147200000001,1.6245711064221475,0.7869405998499155
-1.27105536,1.6407471046167803,0.8380798266115718
-1.270896,1.6565929803992845,0.8975208758995012
-1.27073664,1.6717786113575168,0.9642675290105306
-1.2705772800000001,1.685643752667183,1.037655640142418
-1.27041792,1.698188404328333,1.1180172821964827
-1.2702585600000003,1.70908244392879,1.2036920906672315
-1.2700992000000002,1.7183258714685858,1.2903631178412458
-1.2699398400000002,1.7259186869477,1.3733813431036765
-1.26978048,1.7331813800146814,1.4530788393556462
-1.26962112,1.7391235834331196,1.5287914607950144
-1.26946176,1.7430850523787433,1.6008512803228012
-1.2693024,1.7453959092636906,1.6695903708401205
-1.2691430400000001,1.746386276500096,1.7346766594458056
-1.26898368,1.745726031675824,1.7967742919421297
-1.2688243200000002,1.7430850523787447,1.8562153412299478
-1.2686649600000002,1.7387934610209845,1.9123356615073783
-1.2685056000000001,1.7331813800146814,1.9664635443785077
-1.26834624,1.7269090541841094,2.0179348440412137
-1.26818688,1.7193162387049923,2.0674137062976428
-1.26802752,1.7104029335773323,2.114568058246722
-1.2678681600000001,1.7004992612132805,2.1597299727894423
-1.2677088,1.6892750992006784,2.2005749396185577
-1.2675494400000002,1.6773906923638162,2.2341143026245485
-1.2673900800000002,1.6655062855269376,2.257691478599098
-1.2672307200000001,1.652301389041524,2.2696461030368935
-1.26707136,1.638766370143968,2.271638540443197
-1.266912,1.624240984010005,2.263668790817995
-1.26675264,1.608395108227501,2.2447406354581396
-1.2665932800000002,1.593209477269295,2.2115333453532133
-1.26643392,1.5783539687231969,2.166703503711487
-1.26627456,1.5631683377649637,2.1119114750382537
-1.2661152000000002,1.5486429516310276,2.046825186432598
-1.2659558400000002,1.5337874430849299,1.973437075300585
-1.2657964800000001,1.5192620569509672,1.8930754332465203
-1.26563712,1.5067174052898185,1.8097251350830033
-1.26547776,1.4954932432772168,1.7257106911174267
-1.2653184,1.485589570913152,1.6453490490633624
-1.2651590400000001,1.4763461433733702,1.5689722818219973
-1.26499968,1.4677629606578508,1.4962483164921094
-1.2648403200000002,1.4598400227666093,1.4265130072717325
-1.2646809600000002,1.4535676969360332,1.360098427061756
-1.2645216000000001,1.4489459831661353,1.2970045758622797
-1.26436224,1.4459748814569169,1.2365673078712314
-1.26420288,1.4436640245719687,1.1791186959896054
-1.26404352,1.4423435349234281,1.12432666731638
-1.2638841600000001,1.4426736573355632,1.072523294752695
-1.2637248,1.4449845142205109,1.0233765053973134
-1.2635654400000003,1.4492761055782666,0.9765542263493461
-1.2634060800000002,1.4545580641724314,0.9320564576086818
-1.2632467200000002,1.4605002675908703,0.8892190533732475
-1.26308736,1.4677629606578508,0.8490382323462123
-1.262928,1.476346143373375,0.8105177758244286
-1.26276864,1.486910060561707,0.7739897567089609
-1.26260928,1.4981342225743155,0.7394541749997785
-1.2624499200000001,1.5106788742354478,0.7092355410042819
-1.26229056,1.5238837707208686,0.6866545837328956
-1.2621312000000002,1.5374187896184,0.6743678863940729
-1.2619718400000002,1.5522742981644968,0.6720433760867147
-1.2618124800000001,1.5687804187712715,0.6790169070087576
-1.26165312,1.5856166617901748,0.6976129894675418
-1.26149376,1.6031131496333564,0.7258391860567844
-1.2613344,1.6192891478279963,0.7626992780733276
-1.2611750400000001,1.6354651460226144,0.8081932655170972
-1.26101568,1.652301389041518,0.8619890754871513
-1.2608563200000003,1.6688075096482708,0.9237546350823423
-1.2606969600000002,1.6836630181943706,0.992161652698609
-1.2605376000000001,1.6978582819161914,1.0672101283358417
-1.26037824,1.7100728111652062,1.148900061994106
-1.26021888,1.7209668507656775,1.2359031620691716
-1.26005952,1.730870523129742,1.3232383350452834
-1.25990016,1.7397838282573947,1.4069207061098072
-1.2597408,1.7467163989122312,1.4856219836585185
-1.25958144,1.752328479918534,1.560670459295787
-1.2594220800000002,1.755959826452018,1.6323982059224278
-1.2592627200000002,1.7572803161005621,1.7001410777366044
-1.2591033600000001,1.757610438512698,1.7642311476392305
-1.258944,1.7562899488641555,1.8256646343334546
-1.25878464,1.7536489695670718,1.884441537819253
-1.25862528,1.7493573782093081,1.9402297851956278
-1.2584659200000001,1.742754929966607,1.9926973035614353
-1.25830656,1.7351621144874936,2.0428403116199423
-1.2581472000000002,1.726248809359847,2.0903267364700087
-1.2579878400000002,1.7156848921715122,2.136152796814892
-1.2578284800000001,1.7047908525710451,2.1793222739513562
-1.25766912,1.6922462009098966,2.2185068762752422
-1.25750976,1.6790413044244763,2.2487255102707753
-1.2573504,1.6661665303511894,2.2679857385316575
-1.2571910400000001,1.6513110218051184,2.276287561057889
-1.25703168,1.6361253908468851,2.2732989049484456
-1.2568723200000003,1.6196192702401322,2.2613442805106665
-1.2567129600000002,1.6021227823969588,2.236770885832999
-1.2565536000000002,1.5859467842023176,2.1989145751133266
-1.25639424,1.5704310308319482,2.1500998586590008
-1.25623488,1.555245399873715,2.0913229551731702
-1.25607552,1.5403898913276235,2.023580083359024
-1.25591616,1.5252042603693916,1.9478674619196492
-1.2557568000000001,1.511669241471854,1.8661775282614932
-1.25559744,1.499784834634981,1.7818310113948654
-1.2554380800000002,1.488890795034524,1.6984807132314623
-1.2552787200000002,1.4789871226704576,1.618783216979491
-1.2551193600000001,1.4694135727185276,1.5427385226390697
-1.25496,1.4601701451787377,1.4703466302102315
-1.25480064,1.4525773296996216,1.4019396125939603
-1.25464128,1.4466351262811843,1.336521251087139
-1.2544819200000001,1.4426736573355652,1.2740915456898776
-1.25432256,1.4397025556263452,1.2149825693029996
-1.2541632000000003,1.43805194356567,1.1585301761245992
-1.2540038400000002,1.4377218211535332,1.1050664390555678
-1.2538444800000001,1.4387121883899385,1.0542592851949601
-1.25368512,1.4420134125112927,1.0054445687406288
-1.25352576,1.4466351262811898,0.9592864354946975
-1.2533664,1.4509267176389498,0.9137924480508874
-1.25320704,1.456538798645255,0.8706229709144068
-1.25304768,1.4634713693000911,0.8297780040853289
-1.25288832,1.4723846744277507,0.791589620464595
-1.2527289600000002,1.4826184692039328,0.7553936742502254
-1.2525696000000002,1.4938426312165394,0.7211901654420871
-1.2524102400000001,1.506387282877688,0.6922998230507463
-1.25225088,1.5192620569509672,0.6723754489877634
-1.25209152,1.5324669534363886,0.6624132619562717
-1.25193216,1.547652584394623,0.662081189055231
-1.2517728000000001,1.563828582589241,0.6717113031856639
-1.25161344,1.5800045807838736,0.6913036043475972
-1.2514540800000002,1.5968408238027618,0.7211901654420444
-1.2512947200000002,1.6126866995852673,0.7600426948648707
-1.2511353600000001,1.6285325753677646,0.8068649739128771
-1.250976,1.6447085735624045,0.8619890754871513
-1.25081664,1.6608845717570442,0.9254149995876794
-1.25065728,1.676070202715277,0.9961465275113074
-1.2504979200000002,1.690595588849213,1.073851586356835
-1.25033856,1.702810118098228,1.1578660303224484
-1.2501792,1.7143644025229707,1.2468615678038124
-1.2500198400000002,1.7252584421234227,1.3345288136808178
-1.2498604800000002,1.7345018696632186,1.4178791118443383
-1.24970112,1.7420946851423362,1.4972445351952586
-1.24954176,1.7480368885607742,1.5719609379314772
-1.2493824,1.7513381126821272,1.6433566116571645
-1.24922304,1.753318847154939,1.7110994834713342
-1.2490636800000001,1.753979091979209,1.775189553373871
-1.24890432,1.7523284799185324,1.8366230400680685
-1.2487449600000002,1.7500176230335869,1.895399943553815
-1.2485856000000002,1.7457260316758272,1.951520263831245
-1.2484262400000001,1.740113950669524,2.004984000900275
-1.24826688,1.733841624838952,2.0554590818598317
-1.24810752,1.7249283197112928,2.1036096525120613
-1.24794816,1.7153547697593619,2.1491036399558907
-1.2477888000000001,1.7044607301589099,2.192273117092295
-1.24762944,1.6912558336734904,2.230129427811982
-1.2474700800000003,1.678381059600223,2.257691478599084
-1.2473107200000002,1.665176163114803,2.275291342354736
-1.2471513600000002,1.6503206545687124,2.281600727474686
-1.246992,1.6351350236104791,2.277283779761042
-1.24683264,1.6189590254158388,2.2633367179169417
-1.24667328,1.6021227823969357,2.2357746671298093
-1.24651392,1.5866070290265668,2.195261773201716
-1.2463545600000001,1.571091275656219,2.1444546193411558
-1.2461952,1.55557552228585,2.0833532055479758
-1.2460358400000002,1.5403898913276441,2.013285823426582
-1.2458764800000002,1.5255343827815457,1.9359128374819687
-1.2457171200000001,1.5119993638839893,1.8528946122195047
-1.24555776,1.499784834634981,1.768216022451827
-1.2453984,1.4892209174466449,1.685197797189362
-1.24523904,1.47931724508258,1.6061644467394973
-1.2450796800000001,1.4700738175427983,1.5311159711023297
-1.24492032,1.4624810020636851,1.4610485889808396
-1.2447609600000002,1.456538798645254,1.393969862968858
-1.2446016000000002,1.4522472072874908,1.3298797930662307
-1.2444422400000001,1.4489459831661369,1.2687783792730816
-1.24428288,1.446965248693323,1.2106656215893534
-1.24412352,1.4463050038690521,1.1555415200150765
-1.24396416,1.4459748814569187,1.1027419287481501
-1.2438048,1.4479556159297324,1.0525989206896451
-1.24364544,1.4515869624632183,1.005112495839579
-1.24348608,1.456208676233116,0.9592864354946984
-1.2433267200000002,1.4621508796515443,0.9157848854572449
-1.2431673600000002,1.4690834503063892,0.8742757728260097
-1.2430080000000001,1.4766762657855055,0.8344270247000248
-1.24284864,1.4865799381495712,0.7969027868813907
-1.24268928,1.4974739777500388,0.7613709864690722
-1.24252992,1.5090282621747824,0.7281636963640903
-1.2423705600000001,1.5215729138359149,0.7002695726759395
-1.2422112,1.5344476879091937,0.6826697089203045
-1.2420518400000002,1.5486429516310016,0.675032032196168
-1.2418924800000002,1.5638285825892342,0.6763603238003594
-1.2417331200000001,1.579344335959603,0.6873187295350005
-1.24157376,1.5945299669178297,0.7082393223011327
-1.2414144,1.6103758427003336,0.7387900291977245
-1.24125504,1.6249012288342966,0.7783067044226664
-1.2410956800000001,1.6400868597925027,0.8261252021737602
-1.24093632,1.6556026131628714,0.8825775953522337
-1.2407769600000003,1.6701279992968143,0.9466676652547706
-1.2406176000000002,1.684323263018635,1.0180633389804532
-1.2404582400000002,1.6965377922676508,1.0957683978261163
-1.24029888,1.707101709455988,1.1791186959896303
-1.24013952,1.7166752594079175,1.2661217960646947
-1.23998016,1.725918686947707,1.3511324587334204
-1.2398208,1.733841624838958,1.4321582465895846
-1.2396614400000001,1.7404440730816593,1.5095312325340982
-1.23950208,1.7457260316758265,1.5835834894682168
-1.2393427200000002,1.7486971333850407,1.6539829444906606
-1.2391833600000002,1.7503477454457195,1.7203975247006378
-1.2390240000000001,1.7503477454457201,1.7841555217022134
-1.23886464,1.7486971333850434,1.844592789693262
-1.23870528,1.745726031675823,1.9023734744759373
-1.23854592,1.740774195493789,1.9571655031491633
-1.2383865600000001,1.7345018696632257,2.0096330215149467
-1.2382272,1.727239176596245,2.0594439566724283
-1.2380678400000003,1.7179957490564632,2.1069303815224947
-1.2379084800000002,1.7080920766923984,2.152424368966328
-1.2377491200000001,1.6968679146797967,2.194929700300693
-1.23758976,1.6836630181943772,2.230793573614082
-1.2374304,1.6714484889453627,2.257027332797016
-1.23727104,1.657913470047806,2.2719706133442497
-1.23711168,1.6433880839138493,2.2756234152557875
-1.23695232,1.6282024529556365,2.268981957234799
-1.23679296,1.6107059651124542,2.2510500205781
-1.2366336000000002,1.5932094772693042,2.218506876275272
-1.2364742400000002,1.5767033566625277,2.1746732533367
-1.2363148800000001,1.5605273584678874,2.1208774433666258
-1.23615552,1.5450116050975253,2.05711944636508
-1.23599616,1.5298259741392919,1.9853916997383052
-1.2358368,1.51464034318106,1.9060262763873832
-1.2356774400000001,1.5011053242835224,1.822343905322931
-1.23551808,1.4895510398587848,1.737665315555253
-1.2353587200000002,1.4783268778461927,1.6553112360949984
-1.2351993600000002,1.468423205482126,1.5772741043482756
-1.2350400000000001,1.4588496555302006,1.502557701612088
-1.23488064,1.4509267176389473,1.4324903194905638
-1.23472128,1.4449845142205089,1.3657436663795417
-1.23456192,1.4403628004506133,1.3019856693779701
-1.2344025600000001,1.4373916987413988,1.2412163284859548
-1.2342432,1.4357410866807208,1.1837677166043263
-1.23408384,1.435410964268586,1.129639833733199
-1.2339244800000002,1.4364013315049906,1.077836461169514
-1.2337651200000002,1.4393724332142084,1.0293538176162302
-1.23360576,1.4443242693962401,0.9831956843702978
-1.2334464,1.4505965952268154,0.9390299885306663
-1.23328704,1.4578592882937935,0.8968567300973532
-1.23312768,1.465782226185047,0.8566759090703211
-1.2329683200000001,1.4750256537248287,0.8184875254496384
-1.23280896,1.485259448501025,0.7819595063341697
-1.2326496000000002,1.4968137329257523,0.7474239246250306
-1.2324902400000002,1.5090282621747655,0.7162090719263401
-1.2323308800000001,1.5219030362480501,0.6916356772486468
-1.23217152,1.5357681775577352,0.6770244696024593
-1.23201216,1.550623686103834,0.6723754489877656
-1.2318528,1.5671298067106096,0.6773565425035226
-1.2316934400000001,1.583635927317355,0.6922998230507396
