DAQ/testing_accel_4_6/test_full_0057.csv

#Digilent WaveForms Oscilloscope Acquisition
#Device Name: Discovery2
#Serial Number: SN:210321B02866
#Date Time: 2021-04-06 19:02:58.847
#Sample rate: 38343.6Hz
#Samples: 8192
#Trigger: None
#Channel 1: Range: 500 mV/div Offset: -1.15 V Attenuation: 1 X
#Channel 2: Range: 500 mV/div Offset: -1.45 V Attenuation: 1 X
#Power Supplies: ON
#Positive Supply: ON
#Voltage: 3.3 V
#Negative Supply: OFF
#Voltage: -3.3 V

Time (s),Channel 1 (V),Channel 2 (V)
-0.21116975999999998,1.628646435079699,1.054259285194937
-0.21114368,1.6289765574918342,1.0602365974138293
-0.2111176,1.6293066799039697,1.0662139096327268
-0.21109151999999998,1.6296368023161054,1.0725232947526742
-0.21106544,1.6299669247282402,1.0785006069715637
-0.21103935999999998,1.630297047140376,1.0844779191904612
-0.21101327999999997,1.6306271695525114,1.0907873043104088
-0.21098719999999999,1.6309572919646467,1.0970966894303504
-0.21096112,1.6309572919646467,1.10307400164924
-0.21093504,1.6312874143767817,1.1100475325712862
-0.21090895999999998,1.6316175367889172,1.116356917691234
-0.21088288,1.6316175367889172,1.1226663028111756
-0.21085679999999998,1.6316175367889172,1.1293077608321729
-0.21083071999999997,1.631947659201053,1.1359492188531704
-0.21080464,1.6322777816131882,1.1425906768741616
-0.21077856,1.6322777816131882,1.1495642077961992
-0.21075247999999996,1.6326079040253234,1.1562056658172064
-0.21072639999999998,1.6326079040253234,1.163179196739244
-0.21070032,1.6326079040253234,1.1701527276612849
-0.21067423999999998,1.6329380264374587,1.177126258583332
-0.21064815999999997,1.632938026437459,1.184099789505379
-0.21062208,1.6332681488495941,1.1910733204274202
-0.21059599999999998,1.6332681488495941,1.198378924250517
-0.21056991999999997,1.6332681488495941,1.2053524551725643
-0.21054383999999998,1.6332681488495941,1.212325986094602
-0.21051776,1.632938026437459,1.219963662818742
-0.21049168,1.6329380264374587,1.2272692666418392
-0.21046559999999997,1.6332681488495941,1.234906943365986
-0.21043952,1.6332681488495941,1.242212547189073
-0.21041343999999998,1.6332681488495941,1.2498502239132199
-0.21038735999999997,1.6332681488495941,1.2571558277363173
-0.21036127999999998,1.6332681488495941,1.2647935044604572
-0.2103352,1.632938026437459,1.2724311811845972
-0.21030912,1.6329380264374587,1.2797367850076944
-0.21028303999999998,1.6329380264374587,1.2877065346328909
-0.21025696,1.6329380264374587,1.295012138455978
-0.21023087999999998,1.6326079040253234,1.3029818880811745
-0.21020479999999997,1.6326079040253234,1.3109516377063712
-0.21017871999999999,1.6326079040253234,1.3185893144305112
-0.21015264,1.6322777816131884,1.3262269911546478
-0.21012656,1.6322777816131882,1.3338646678787947
-0.21010047999999998,1.6322777816131882,1.3415023446029417
-0.2100744,1.6322777816131882,1.3494720942281313
-0.21004831999999998,1.6319476592010527,1.3571097709522784
-0.21002223999999997,1.6319476592010524,1.365079520577475
-0.20999616,1.6316175367889172,1.372717197301615
-0.20997008,1.6312874143767822,1.3806869469268008
-0.20994399999999996,1.631287414376782,1.3886566965520082
-0.20991791999999998,1.631287414376782,1.3962943732761448
-0.20989184,1.630957291964647,1.4035999770992353
-0.20986575999999998,1.6306271695525112,1.4115697267244318
-0.20983967999999997,1.630297047140376,1.4192074034485789
-0.2098136,1.630297047140376,1.4271771530737685
-0.20978751999999998,1.6299669247282405,1.4348148297979155
-0.20976143999999997,1.6299669247282402,1.4424525065220626
-0.20973535999999998,1.6296368023161052,1.4504222561472486
-0.20970928,1.62930667990397,1.4580599328713886
-0.2096832,1.6289765574918345,1.4656976095955354
-0.20965711999999997,1.6286464350796988,1.4730032134186328
-0.20963104,1.628316312667564,1.4806408901427692
-0.20960495999999998,1.6283163126675637,1.4882785668669163
-0.20957887999999997,1.6276560678432928,1.4955841706900135
-0.20955279999999998,1.6273259454311577,1.503553920315203
-0.20952672,1.6269958230190225,1.5108595241382936
-0.20950064,1.6266657006068868,1.5181651279613906
-0.20947455999999998,1.6266657006068865,1.525470731784488
-0.20944848,1.6263355781947517,1.5331084085086244
-0.20942239999999998,1.6260054557826162,1.5404140123317216
-0.20939631999999997,1.6256753333704805,1.547387543253769
-0.20937023999999999,1.6253452109583455,1.5546931470768595
-0.20934416,1.624684966134075,1.5616666779989004
-0.20931808,1.6243548437219393,1.5689722818219973
-0.20929199999999998,1.624024721309804,1.576277885645091
-0.20926592,1.623694598897669,1.5832514165671319
-0.20923983999999998,1.6233644764855333,1.5898928745881293
-0.20921375999999997,1.6230343540733976,1.5971984784112263
-0.20918768,1.6223741092491273,1.6038399364322176
-0.2091616,1.622043986836992,1.6108134673542551
-0.20913551999999996,1.6220439868369911,1.617454925375262
-0.20910943999999998,1.621383742012721,1.62409638339625
-0.20908336,1.621053619600586,1.6307378414172413
-0.20905727999999998,1.620393374776315,1.6373792994382388
-0.20903119999999997,1.6200632523641794,1.644020757459236
-0.20900512,1.6197331299520443,1.6503301425791777
-0.20897903999999998,1.6190728851277734,1.6566395276991253
-0.20895295999999997,1.6187427627156377,1.6629489128190726
-0.20892687999999998,1.6180825178913674,1.6692582979390116
-0.2089008,1.6177523954792323,1.6752356101579038
-0.20887471999999999,1.6174222730670968,1.6815449952778512
-0.20884863999999997,1.6167620282428259,1.6875223074967487
-0.20882256,1.6161017834185556,1.6934996197156382
-0.20879647999999998,1.6154415385942846,1.699144859033486
-0.20877039999999997,1.6151114161821492,1.7051221712523836
-0.20874431999999998,1.6144511713578784,1.7107674105702262
-0.20871824,1.6141210489457434,1.7164126498880687
-0.20869216,1.6134608041214724,1.7217258163048668
-0.20866607999999998,1.6128005592972015,1.7273710556227146
-0.20864,1.6121403144729312,1.7330162949405543
-0.20861391999999998,1.6114800696486602,1.7383294613573526
-0.20858783999999997,1.6111499472365247,1.7433105548731005
-0.20856175999999998,1.6104897024122542,1.748291648388844
-0.20853568,1.6101595800001192,1.7532727419045875
-0.2085096,1.609499335175848,1.7582538354203354
-0.20848351999999998,1.6088390903515772,1.7629028560350337
-0.20845744,1.608178845527307,1.7675518766497254
-0.20843135999999998,1.607518600703036,1.771868824363374
-0.20840527999999997,1.6071884782909,1.7765178449780719
-0.2083792,1.6061981110544945,1.7808347926917163
-0.20835312,1.6055378662302244,1.7848196675043093
-0.20832703999999996,1.6048776214059528,1.7891366152179624
-0.20830095999999998,1.6045474989938175,1.792789417129506
-0.20827488,1.6038872541695472,1.7967742919421008
-0.20824879999999998,1.6028968869331408,1.8004270938536495
-0.20822271999999997,1.6022366421088698,1.8037478228641481
-0.20819664,1.6019065196967348,1.8070685518746439
-0.20817056,1.6012462748724647,1.8103892808851378
-0.20814447999999997,1.6005860300481924,1.813377936994591
-0.20811839999999998,1.5995956628117873,1.8163665931040358
-0.20809232,1.5989354179875168,1.8193552492134821
-0.20806623999999999,1.5982751731632459,1.8216797595208314
-0.20804015999999997,1.597614928338975,1.8243363427292303
-0.20801408,1.5969546835147046,1.826660853036576
-0.20798799999999998,1.5962944386904336,1.828985363343925
-0.20796191999999997,1.5956341938661622,1.830977800750224
-0.20793583999999998,1.5943137042176214,1.832638165255472
-0.20790976,1.5939835818054864,1.83429852976072
-0.20788368,1.5933233369812154,1.836290967167019
-0.20785759999999998,1.592332969744809,1.8376192587712183
-0.20783152,1.591672724920539,1.8389475503754158
-0.20780543999999998,1.591012480096268,1.8402758419796155
-0.20777935999999997,1.590352235271997,1.8409399877817154
-0.20775327999999998,1.5896919904477265,1.8419362064848641
-0.2077272,1.589031745623456,1.8429324251880128
-0.20770112,1.588371500799185,1.8439286438911624
-0.20767503999999998,1.587711255974914,1.8442607167922125
-0.20764896,1.587381133562779,1.8452569354953607
-0.20762287999999998,1.5870510111506435,1.845589008396411
-0.20759679999999997,1.5863907663263725,1.8462531541985103
-0.20757072,1.585730521502102,1.8462531541985103
-0.20754464,1.585400399089967,1.8462531541985103
-0.20751856,1.5847401542656963,1.845921081297461
-0.20749247999999998,1.5840799094414253,1.845589008396411
-0.2074664,1.58374978702929,1.8452569354953614
-0.20744031999999998,1.5827594197928838,1.844260716792212
-0.20741423999999997,1.5820991749686129,1.843928643891162
-0.20738816,1.5814389301443423,1.8429324251880133
-0.20736208,1.5807786853200723,1.841936206484865
-0.20733599999999996,1.5801184404958002,1.8409399877817139
-0.20730991999999998,1.5794581956715303,1.839611696177516
-0.20728384,1.579128073259395,1.8382834045733178
-0.20725775999999999,1.5781377060229889,1.8366230400680685
-0.20723167999999997,1.577477461198718,1.835294748463869
-0.2072056,1.5768172163744474,1.833634383958621
-0.20717951999999998,1.5761569715501764,1.8323060923544214
-0.20715343999999997,1.5754967267259057,1.8303136549481231
-0.20712735999999998,1.5748364819016352,1.8283212175418257
-0.20710128,1.5741762370773646,1.8266608530365778
-0.2070752,1.5735159922530937,1.8243363427292292
-0.20704911999999998,1.5728557474288227,1.82201183242188
-0.20702304,1.5721955026045524,1.8193552492134846
-0.20699695999999998,1.571865380192417,1.8166986660050857
-0.20697087999999997,1.5708750129560107,1.8137100098956367
-0.20694479999999998,1.5705448905438755,1.8107213537861906
-0.20691872,1.569884645719605,1.807400624775695
-0.20689264,1.569224400895334,1.8040798957651965
-0.20686655999999998,1.5688942784831985,1.8004270938536477
-0.20684048,1.5682340336589282,1.7964422190410547
-0.20681439999999998,1.5679039112467925,1.7931214900305559
-0.20678831999999997,1.5672436664225216,1.7888045423169074
-0.20676223999999999,1.5669135440103865,1.784487594603263
-0.20673616,1.5662532991861164,1.78050271979067
-0.20671008,1.5655930543618453,1.7758536991759728
-0.20668399999999998,1.565593054361845,1.7715367514623241
-0.20665792,1.5649328095375745,1.76721980374868
-0.20663183999999998,1.5642725647133036,1.7622387102329322
-0.20660575999999997,1.563942442301168,1.757589689618234
-0.20657968,1.5632821974768976,1.75294066900354
-0.2065536,1.5629520750647623,1.7482916483888482
-0.20652751999999996,1.5622918302404913,1.7429784819720437
-0.20650143999999998,1.561961707828356,1.737665315555253
-0.20647536,1.5616315854162208,1.7330162949405592
-0.20644927999999999,1.56097134059195,1.7277031285237616
-0.20642319999999997,1.5606412181798146,1.7223899621069638
-0.20639712,1.5606412181798146,1.7170767956901707
-0.20637103999999998,1.5599809733555439,1.7117636292733729
-0.20634495999999997,1.5599809733555432,1.7064504628565744
-0.20631887999999998,1.5593207285312731,1.700473150637685
-0.2062928,1.5593207285312731,1.6944958384187927
-0.20626672,1.5586604837070024,1.6885185261998952
-0.20624063999999998,1.5583303612948671,1.6822091410799478
-0.20621456,1.5583303612948671,1.676563901762108
-0.20618847999999998,1.5580002388827316,1.669922443741111
-0.20616239999999997,1.5573399940584611,1.6636130586211637
-0.20613631999999998,1.5573399940584611,1.6576357464022715
-0.20611024,1.5566797492341904,1.6509942883812803
-0.20608416,1.5566797492341902,1.6450169761623823
-0.20605807999999998,1.5563496268220547,1.6383755181413848
-0.206032,1.5560195044099199,1.6317340601203967
-0.20600591999999998,1.5560195044099197,1.6257567479014987
-0.20597983999999997,1.5556893819977842,1.6187832169794518
-0.20595375999999999,1.5556893819977842,1.6124738318595102
-0.20592768,1.5553592595856491,1.605500300937469
-0.2059016,1.5550291371735134,1.598526770015422
-0.20587551999999998,1.5550291371735134,1.5918853119944276
-0.20584944,1.5550291371735134,1.5849117810723867
-0.20582335999999998,1.5546990147613782,1.5779382501503396
-0.20579727999999997,1.5543688923492425,1.570964719228292
-0.2057712,1.5540387699371074,1.563327042504152
-0.20574512,1.5537086475249722,1.5566855844831637
-0.20571903999999996,1.5537086475249717,1.5493799806600574
-0.20569295999999998,1.5533785251128367,1.5420743768369702
-0.20566688,1.5533785251128367,1.5351008459149293
-0.20564079999999998,1.5533785251128367,1.5274631691907827
-0.20561471999999997,1.5530484027007012,1.5201575653676855
-0.20558864,1.5530484027007012,1.5128519615445952
-0.20556255999999998,1.5530484027007012,1.505546357721498
-0.20553647999999997,1.5530484027007012,1.498240753898401
-0.20551039999999998,1.5530484027007012,1.4909351500753139
-0.20548432,1.5530484027007012,1.4832974733511741
-0.20545824,1.5530484027007012,1.4759918695280767
-0.20543215999999997,1.5530484027007012,1.4686862657049795
-0.20540608,1.5530484027007012,1.4613806618818925
-0.20537999999999998,1.5533785251128367,1.4540750580587953
-0.20535391999999997,1.5533785251128365,1.4461053084335989
-0.20532783999999998,1.5530484027007012,1.4387997046105085
-0.20530176,1.5537086475249717,1.431494100787418
-0.20527568,1.5533785251128367,1.4235243511622215
-0.20524959999999998,1.5537086475249722,1.4162187473391241
-0.20522352,1.5540387699371072,1.408581070614988
-0.20519743999999998,1.553708647524972,1.400611320989791
-0.20517135999999997,1.553708647524972,1.3933057171666938
-0.20514527999999999,1.553708647524972,1.3856680404425539
-0.2051192,1.553708647524972,1.3776982908173643
-0.20509312,1.5540387699371074,1.3703926869942669
-0.20506703999999998,1.5540387699371074,1.3627550102701198
-0.20504096,1.5540387699371074,1.3551173335459836
-0.20501487999999998,1.5543688923492427,1.3478117297228862
-0.20498879999999997,1.5546990147613782,1.3401740529987392
-0.20496272,1.5546990147613782,1.3325363762745992
-0.20493664,1.5550291371735132,1.3255628453525616
-0.20491055999999996,1.555359259585649,1.3175930957273554
-0.20488447999999998,1.555359259585649,1.3102874919042682
-0.2048584,1.555689381997784,1.3029818880811779
-0.20483231999999998,1.5560195044099197,1.295344211357031
-0.20480623999999997,1.5560195044099199,1.288038607533934
-0.20478016,1.5566797492341902,1.2810650766118932
-0.20475408,1.5566797492341902,1.2730953269867074
-0.20472799999999997,1.5570098716463259,1.2661217960646494
-0.20470191999999998,1.5573399940584611,1.2588161922415622
-0.20467584,1.5576701164705962,1.2511785155174224
-0.20464976,1.5580002388827316,1.2442049845953747
-0.20462367999999997,1.5583303612948671,1.2368993807722775
-0.2045976,1.5583303612948671,1.229261704048141
-0.20457151999999998,1.5589906061191379,1.2222881731260935
-0.20454543999999997,1.5593207285312731,1.215314642204046
-0.20451935999999998,1.5593207285312731,1.207676965479906
-0.20449328,1.5596508509434084,1.2010355074589147
-0.2044672,1.5599809733555439,1.193729903635818
-0.20444111999999998,1.5603110957676793,1.1867563727137707
-0.20441504,1.5606412181798144,1.1801149146927825
-0.20438895999999998,1.56097134059195,1.1731413837707354
-0.20436287999999997,1.5609713405919503,1.1658357799476389
-0.20433679999999999,1.5616315854162206,1.159526394827697
-0.20431072,1.5619617078283559,1.1532170097077554
-0.20428464,1.5622918302404916,1.1462434787857085
-0.20425855999999998,1.5626219526526268,1.1399340936657607
-0.20423248,1.5626219526526268,1.1332926356447726
-0.20420639999999998,1.5632821974768976,1.126983250524825
-0.20418031999999997,1.563612319889033,1.1206738654048771
-0.20415424,1.5639424423011683,1.114032407383886
-0.20412816,1.5646026871254384,1.1077230222639471
-0.20410208,1.564932809537574,1.1017457100450492
-0.20407599999999998,1.5652629319497096,1.0954363249251018
-0.20404992,1.5655930543618448,1.0894590127062096
-0.20402383999999998,1.5662532991861158,1.083481700487312
-0.20399775999999997,1.5665834215982513,1.0775043882684145
-0.20397168,1.5669135440103865,1.0715270760495224
-0.2039456,1.5675737888346566,1.0658818367316822
-0.20391951999999997,1.5679039112467932,1.0599045245127772
-0.20389343999999998,1.5685641560710633,1.054259285194937
-0.20386736,1.5692244008953338,1.048946118778144
-0.20384127999999999,1.5695545233074695,1.0429688065592466
-0.20381519999999997,1.5698846457196052,1.0376556401424488
-0.20378912,1.570875012956011,1.0323424737256557
-0.20376303999999998,1.5712051353681462,1.0270293073088603
-0.20373695999999997,1.5718653801924172,1.0217161408920623
-0.20371087999999998,1.5725256250166877,1.0164029744752694
-0.2036848,1.5728557474288227,1.011421880959526
-0.20365872,1.5735159922530937,1.0067728603448276
-0.20363263999999998,1.5741762370773646,1.002123839730129
-0.20360656,1.5745063594894997,0.9968106733133386
-0.20358047999999998,1.5751666043137704,0.9924937255996897
-0.20355439999999997,1.5761569715501769,0.9881767778860413
-0.20352831999999998,1.576487093962312,0.9831956843702978
-0.20350224,1.5771473387865824,0.9788787366566534
-0.20347616,1.5778075836108534,0.9748938618440548
-0.20345007999999998,1.578137706022989,0.9705769141304066
-0.203424,1.5787979508472592,0.9662599664167641
-0.20339791999999998,1.5794581956715303,0.9626071645052153
-0.20337183999999997,1.5797883180836658,0.958622289692617
-0.20334576,1.5804485629079363,0.9546374148800222
-0.20331968,1.5811088077322064,0.951316685869528
-0.2032936,1.5817690525564776,0.9476638839579797
-0.20326751999999998,1.5824292973807483,0.944343154947481
-0.20324144,1.583089542205019,0.9410224259369854
-0.20321535999999998,1.5837497870292898,0.9377016969264866
-0.20318927999999997,1.5840799094414257,0.934713040817038
-0.2031632,1.5850702766778313,0.9320564576086414
-0.20313712,1.5857305215021014,0.9290678014991967
-0.20311103999999996,1.5860606439142382,0.9260791453897445
-0.20308495999999998,1.5867208887385083,0.9237546350823985
-0.20305888,1.5873811335627785,0.9210980518740021
-0.20303279999999999,1.5880413783870497,0.9184414686656031
-0.20300671999999997,1.5887016232113205,0.9161169583582541
-0.20298064,1.5890317456234557,0.9141245209519567
-0.20295455999999998,1.5893618680355914,0.911800010644608
-0.20292847999999997,1.5903522352719974,0.9101396461393586
-0.20290239999999998,1.5906823576841325,0.9084792816341116
-0.20287632,1.591342602508403,0.9068189171288638
-0.20285024,1.592002847332674,0.9054906255246642
-0.20282415999999998,1.592663092156945,0.903830261019415
-0.20279808,1.5933233369812152,0.9025019694152172
-0.20277199999999998,1.5936534593933507,0.9011736778110179
-0.20274591999999997,1.5943137042176216,0.9001774591078683
-0.20271983999999998,1.594643826629757,0.8991812404047196
-0.20269376,1.5953040714540274,0.8978529488005212
-0.20266768,1.595634193866163,0.8968567300973715
-0.20264159999999998,1.5962944386904339,0.8961925842952717
-0.20261552,1.596624561102569,0.895528438493173
-0.20258943999999998,1.5972848059268396,0.8948642926910733
-0.20256335999999997,1.5979450507511106,0.8948642926910729
-0.20253728,1.5986052955753811,0.8942001468889738
-0.2025112,1.5992655403996516,0.8942001468889738
-0.20248512,1.5995956628117871,0.8942001468889738
-0.20245903999999998,1.600255907636058,0.8942001468889738
-0.20243296,1.6009161524603284,0.8942001468889738
-0.20240687999999998,1.601246274872464,0.8948642926910733
-0.20238079999999997,1.601906519696735,0.8955284384931728
-0.20235472,1.6025667645210055,0.8958605113942224
-0.20232864,1.6032270093452756,0.8965246571963212
-0.20230255999999996,1.6038872541695477,0.8975208758994715
-0.20227647999999998,1.6045474989938175,0.8981850217015704
-0.2022504,1.6048776214059528,0.8995133133057687
-0.20222431999999999,1.6055378662302238,0.9005095320089184
-0.20219823999999997,1.6065282334666302,0.9021698965141676
-0.20217216,1.6071884782909005,0.9034981881183658
-0.20214607999999998,1.6078487231151715,0.905158552623615
-0.20211999999999997,1.6081788455273076,0.9064868442278149
-0.20209391999999998,1.6091692127637127,0.9081472087330619
-0.20206784,1.6094993351758478,0.9098075732383096
-0.20204176,1.610159580000119,0.9118000106446088
-0.20201567999999998,1.6108198248243897,0.9137924480509082
-0.2019896,1.6111499472365247,0.9161169583582539
-0.20196351999999998,1.6118101920607957,0.9191056144677026
-0.20193743999999997,1.6121403144729312,0.9214301247750516
-0.20191135999999998,1.6128005592972017,0.9237546350823985
-0.20188528,1.6134608041214722,0.9264112182907951
-0.2018592,1.613790926533608,0.9293998744002437
