DAQ/testing_accel_4_6/test_full_0002.csv

#Digilent WaveForms Oscilloscope Acquisition
#Device Name: Discovery2
#Serial Number: SN:210321B02866
#Date Time: 2021-04-06 18:50:29.706
#Sample rate: 80000Hz
#Samples: 8192
#Trigger: Source: Channel 1 Type: Edge Condition: Rising Level: 0 V Hyst.: Auto HoldOff: 0 s
#Channel 1: Range: 500 mV/div Offset: -1.8 V Attenuation: 1 X
#Channel 2: Range: 500 mV/div Offset: -1.45 V Attenuation: 1 X
#Power Supplies: ON
#Positive Supply: ON
#Voltage: 3.3 V
#Negative Supply: OFF
#Voltage: -3.3 V

Time (s),Channel 1 (V),Channel 2 (V)
-0.0581,1.7160150145836426,0.9247508537855488
-0.0580875,1.7160150145836426,0.9270753640928969
-0.058075,1.7160150145836426,0.9297319473012934
-0.0580625,1.7153547697593718,0.9320564576086414
-0.058050000000000004,1.7150246473472366,0.9347130408170392
-0.058037500000000006,1.7150246473472366,0.9373696240254369
-0.05802499999999999,1.7146945249351009,0.9400262072338371
-0.058012499999999995,1.7143644025229656,0.9426827904422348
-0.057999999999999996,1.7140342801108301,0.9453393736506314
-0.0579875,1.7137041576986949,0.947995956859029
-0.057975,1.7133740352865594,0.9506525400674267
-0.0579625,1.7130439128744241,0.9533091232758246
-0.05795,1.7127137904622889,0.9562977793852707
-0.0579375,1.7123836680501536,0.9586222896926188
-0.057925000000000004,1.7120535456380184,0.9616109458020662
-0.057912500000000006,1.711723423225883,0.9649316748125634
-0.05789999999999999,1.711393300813747,0.9675882580209638
-0.057887499999999995,1.710733055989477,0.9705769141304113
-0.057874999999999996,1.7107330559894767,0.9735655702398573
-0.0578625,1.710072811165206,0.9765542263493048
-0.05785,1.7097426887530704,0.9795428824587524
-0.0578375,1.7094125663409352,0.9828636114692493
-0.057825,1.7090824439288,0.9855201946776457
-0.0578125,1.7084221991045292,0.9885088507870932
-0.057800000000000004,1.708092076692394,0.9918295797975905
-0.057787500000000006,1.7077619542802585,0.9951503088080875
-0.05777499999999999,1.7074318318681225,0.9984710378185874
-0.057762499999999994,1.7067715870438525,1.0014596939280354
-0.057749999999999996,1.7067715870438522,1.0051124958395805
-0.0577375,1.7061113422195815,1.0084332248500778
-0.057725,1.7057812198074462,1.0117539538605749
-0.0577125,1.7051209749831755,1.015074682871072
-0.0577,1.7047908525710402,1.018063338980518
-0.0576875,1.7047908525710402,1.021384067991015
-0.057675000000000004,1.7041306077467695,1.0253689428036117
-0.057662500000000005,1.7038004853346342,1.0290217447151586
-0.05765000000000001,1.7031402405103637,1.0320104008246047
-0.057637499999999994,1.7028101180982274,1.0353311298351067
-0.057624999999999996,1.7021498732739573,1.0389839317466516
-0.0576125,1.7014896284496865,1.0426367336581985
-0.0576,1.7008293836254158,1.0459574626686956
-0.0575875,1.7004992612132803,1.0496102645802425
-0.057575,1.6998390163890098,1.052930993590738
-0.0575625,1.6995088939768745,1.056583795502285
-0.057550000000000004,1.699178771564739,1.0605686703148818
-0.057537500000000005,1.698188404328333,1.0645535451274784
-0.05752500000000001,1.697858281916198,1.0675422012369244
-0.057512499999999994,1.6971980370919264,1.0708629302474264
-0.057499999999999996,1.696537792267656,1.074847805060021
-0.0574875,1.6958775474433854,1.078500606971568
-0.057475,1.6952173026191146,1.0821534088831148
-0.0574625,1.694557057794844,1.0858062107946618
-0.05745,1.6938968129705734,1.0891269398051573
-0.0574375,1.6935666905584381,1.0931118146177539
-0.057425000000000004,1.692576323322032,1.0970966894303504
-0.057412500000000005,1.6922462009098966,1.1007494913418974
-0.05740000000000001,1.6912558336734909,1.1044022932534425
-0.057387499999999994,1.6909257112613545,1.1083871680660444
-0.057374999999999995,1.6902654664370842,1.112372042878639
-0.0573625,1.6896052216128135,1.1160248447901862
-0.05735,1.6889449767885427,1.1200097196027825
-0.0573375,1.688284731964272,1.1236625215143294
-0.057325,1.6876244871400015,1.1276473963269242
-0.0573125,1.6869642423157307,1.1313001982384712
-0.057300000000000004,1.6859738750793247,1.1356171459521176
-0.057287500000000005,1.685313630255054,1.1396020207647142
-0.057275000000000006,1.6846533854307835,1.1432548226762596
-0.057262499999999994,1.6839931406065123,1.1472396974888617
-0.057249999999999995,1.6836630181943768,1.1515566452025054
-0.0572375,1.6826726509579708,1.1552094471140524
-0.057225,1.6820124061336998,1.1588622490255995
-0.0572125,1.681022038897294,1.1631791967392457
-0.0572,1.6803617940730236,1.1671640715518405
-0.0571875,1.6797015492487528,1.1711489463644371
-0.057175000000000004,1.679041304424482,1.1751338211770337
-0.057162500000000005,1.6783810596002113,1.1791186959896303
-0.057150000000000006,1.6777208147759408,1.1827714979011756
-0.057137499999999994,1.676730447539534,1.1870884456148276
-0.057124999999999995,1.6760702027152634,1.1914053933284716
-0.0571125,1.6750798354788576,1.1953902681410682
-0.0571,1.674419590654587,1.1993751429536648
-0.0570875,1.673759345830316,1.2033600177662613
-0.057075,1.6727689785939102,1.2073448925788561
-0.0570625,1.6717786113575042,1.211329767391453
-0.057050000000000003,1.671448488945369,1.2156467151050991
-0.057037500000000005,1.6701279992968274,1.2196315899176957
-0.057025000000000006,1.669467754472557,1.2236164647302905
-0.057012499999999994,1.6684773872361498,1.227601339542893
-0.056999999999999995,1.6678171424118795,1.2322503601575867
-0.056987499999999996,1.6668267751754735,1.2362352349701833
-0.056975,1.6661665303512028,1.24022010978278
-0.0569625,1.6655062855269316,1.2445370574964263
-0.05695,1.6641857958783908,1.248521932309021
-0.0569375,1.66352555105412,1.2525068071216177
-0.056925,1.6628653062298495,1.2571558277363137
-0.056912500000000005,1.6618749389934433,1.2611407025489103
-0.056900000000000006,1.6608845717570373,1.2651255773615069
-0.056887499999999994,1.6602243269327657,1.269774597976207
-0.056874999999999995,1.6592339596963603,1.274091545689851
-0.056862499999999996,1.6585737148720892,1.2780764205024475
-0.05685,1.6575833476356832,1.2820612953150443
-0.0568375,1.6565929803992772,1.2863782430286907
-0.056825,1.6556026131628714,1.290695190742335
-0.0568125,1.6549423683386006,1.2950121384559814
-0.0568,1.6539520011021946,1.2993290861696276
-0.056787500000000005,1.6529616338657886,1.303646033883274
-0.056775000000000006,1.6516411442172472,1.3072988357948208
-0.056762499999999994,1.6509808993929755,1.3119478564095208
-0.056749999999999995,1.64999053215657,1.3162648041231653
-0.056737499999999996,1.6493302873322992,1.3205817518368113
-0.056725,1.648339920095893,1.324566626649408
-0.0567125,1.647349552859487,1.3288835743630545
-0.0567,1.646359185623081,1.333200522076701
-0.0566875,1.6456989407988107,1.3378495426913948
-0.056675,1.6443784511502693,1.3418344175039914
-0.056662500000000005,1.643388083913863,1.3461513652176376
-0.056650000000000006,1.642397716677457,1.350468312931284
-0.05663749999999999,1.6417374718531854,1.3547852606449342
-0.056624999999999995,1.6407471046167794,1.3591022083585806
-0.056612499999999996,1.6397567373803736,1.3634191560722249
-0.0566,1.6387663701439676,1.3677361037858713
-0.0565875,1.6377760029075614,1.3720530514995177
-0.056575,1.6367856356711554,1.3767020721142136
-0.0565625,1.6357952684347499,1.3810190198278578
-0.05655,1.6348049011983437,1.3853359675415042
-0.056537500000000004,1.6338145339619377,1.3893208423541008
-0.056525000000000006,1.6324940443133962,1.393637790067747
-0.05651249999999999,1.6315036770769895,1.3979547377813977
-0.056499999999999995,1.6308434322527183,1.4026037583960929
-0.056487499999999996,1.6295229426041775,1.406588633208688
-0.056475,1.628532575367771,1.4109055809223345
-0.0564625,1.6272120857192303,1.4155546015370302
-0.05645,1.626551840894959,1.4195394763496272
-0.0564375,1.6252313512464183,1.424188496964321
-0.056425,1.6245711064221475,1.4285054446779673
-0.056412500000000004,1.623250616773606,1.4328223923916137
-0.056400000000000006,1.6222602495372,1.43713934010526
-0.05638749999999999,1.621269882300793,1.4411242149178605
-0.056374999999999995,1.620279515064387,1.4454411626315071
-0.056362499999999996,1.6192891478279812,1.450090183246201
-0.05635,1.6182987805915754,1.4547392038608968
-0.0563375,1.6176385357673042,1.459056151574543
-0.056325,1.616318046118763,1.4630410263871398
-0.0563125,1.6153276788823574,1.467357974100784
-0.0563,1.6143373116459512,1.4720069947154801
-0.056287500000000004,1.6133469444095452,1.4759918695280767
-0.056275000000000006,1.6123565771731392,1.4806408901427728
-0.05626249999999999,1.6113662099367319,1.4846257649553736
-0.056249999999999994,1.610045720288191,1.4892747855700694
-0.056237499999999996,1.6093854754639203,1.4935917332837136
-0.056225,1.6080649858153793,1.49790868099736
-0.0562125,1.607404740991108,1.5022256287110063
-0.0562,1.6060842513425668,1.5065425764246525
-0.0561875,1.6050938841061613,1.510859524138297
-0.056175,1.6044336392818905,1.515508544752993
-0.056162500000000004,1.6034432720454843,1.5201575653676889
-0.056150000000000005,1.6021227823969428,1.5241424401802857
-0.05613749999999999,1.6008022927484007,1.5284593878939359
-0.056124999999999994,1.60014204792413,1.532776335607582
-0.056112499999999996,1.599151680687724,1.5370932833212265
-0.0561,1.5978311910391827,1.5414102310348725
-0.0560875,1.5968408238027767,1.5453951058474695
-0.056075,1.595850456566371,1.5500441264621652
-0.0560625,1.5951902117421004,1.55402900127476
-0.05605,1.5935395996814234,1.5583459489884064
-0.056037500000000004,1.592879354857153,1.5626628967020526
-0.056025000000000005,1.5915588652086115,1.566979844415699
-0.05601250000000001,1.5905684979722057,1.5712967921293433
-0.055999999999999994,1.5895781307357983,1.5752816669419458
-0.055987499999999996,1.5885877634993926,1.5795986146555903
-0.055975,1.5875973962629863,1.5839155623692363
-0.0559625,1.586276906614445,1.587900437181833
-0.05595,1.585286539378039,1.5922173848954793
-0.0559375,1.5842961721416333,1.596202259708074
-0.055925,1.582975682493092,1.6005192074217203
-0.055912500000000004,1.5823154376688213,1.6048361551353667
-0.055900000000000005,1.581325070432415,1.6088210299479633
-0.05588750000000001,1.5803347031960095,1.612805904760558
-0.055874999999999994,1.5790142135474667,1.61679077957316
-0.055862499999999995,1.5780238463110612,1.620775654385755
-0.05585,1.577033479074655,1.625092602099401
-0.0558375,1.5760431118382487,1.6290774769119978
-0.055825,1.5747226221897075,1.6330623517245944
-0.0558125,1.573732254953302,1.6370472265371891
-0.0558,1.5724117653047605,1.6410321013497857
-0.055787500000000004,1.5714213980683542,1.6450169761623823
-0.055775000000000005,1.5707611532440837,1.6490018509749789
-0.055762500000000007,1.569440663595543,1.6529867257875737
-0.055749999999999994,1.5684502963591351,1.656639527699126
-0.055737499999999995,1.5674599291227294,1.6606244025117205
-0.055725,1.5661394394741879,1.6642772044232677
-0.0557125,1.5648189498256468,1.668262079235864
-0.0557,1.5644888274135111,1.6715828082463613
-0.0556875,1.5631683377649703,1.675567683058956
-0.055675,1.5618478481164288,1.679220484970503
-0.055662500000000004,1.561187603292158,1.68287328688205
-0.055650000000000005,1.5598671136436166,1.686526088793597
-0.055637500000000006,1.558876746407211,1.6905109636061917
-0.055624999999999994,1.5578863791708035,1.6941637655177435
-0.055612499999999995,1.556896011934398,1.6974844945282392
-0.0556,1.555905644697992,1.7014693693408354
-0.0555875,1.5549152774615858,1.7044580254502832
-0.055575,1.5539249102251798,1.7084429002628796
-0.0555625,1.552934542988774,1.712095702174425
-0.05555,1.5516140533402327,1.7154164311849223
-0.055537500000000004,1.5506236861038265,1.7184050872943697
-0.055525000000000005,1.5496333188674205,1.7217258163048668
-0.055512500000000006,1.548642951631015,1.7253786182164121
-0.055499999999999994,1.5476525843946076,1.7290314201279635
-0.055487499999999995,1.546992339570337,1.732352149138459
-0.055475,1.5460019723339309,1.7353408052479065
-0.0554625,1.5446814826853896,1.738329461357354
-0.05545,1.5436911154489836,1.7419822632689008
-0.0554375,1.5427007482125779,1.744970919378347
-0.055425,1.5417103809761719,1.7486237212898939
-0.0554125,1.5407200137397656,1.7516123773993413
-0.055400000000000005,1.5400597689154951,1.7546010335087887
-0.055387500000000006,1.5387392792669536,1.7575896896182361
-0.055374999999999994,1.5377489120305468,1.7609104186287359
-0.055362499999999995,1.5370886672062762,1.763899074738182
-0.055349999999999996,1.5360982999698702,1.7668877308476296
-0.0553375,1.5351079327334642,1.7698763869570768
-0.055325,1.534117565497058,1.7725329701654746
-0.0553125,1.5331271982606525,1.7755216262749207
-0.0553,1.5324669534363817,1.7781782094833185
-0.0552875,1.5314765861999757,1.781166865592766
-0.055275000000000005,1.5304862189635695,1.7841555217022134
-0.055262500000000006,1.5294958517271635,1.7864800320095613
-0.055249999999999994,1.528505484490757,1.7894686881190114
-0.055237499999999995,1.5281753620786214,1.7921252713274078
-0.055224999999999996,1.5268548724300803,1.7947818545358056
-0.0552125,1.5261946276058094,1.7977705106452528
-0.0552,1.5252042603694034,1.800095020952601
-0.0551875,1.5242138931329974,1.802419531259949
-0.055175,1.5235536483087269,1.8050761144683456
-0.0551625,1.5228934034844563,1.8077326976767432
-0.055150000000000005,1.5219030362480501,1.810389280885141
-0.055137500000000006,1.520912669011644,1.8127137911924889
-0.05512499999999999,1.5199223017752372,1.8147062285987898
-0.055112499999999995,1.5192620569509665,1.8173628118071872
-0.055099999999999996,1.5186018121266958,1.819687322114534
-0.0550875,1.5172813224781547,1.8216797595208325
-0.055075,1.5166210776538842,1.8240042698281802
-0.0550625,1.5159608328296132,1.8259967072344785
-0.05505,1.5149704655932075,1.8279891446407759
-0.0550375,1.5143102207689367,1.830313654948124
-0.055025000000000004,1.513649975944666,1.832638165255472
-0.055012500000000006,1.51265960870826,1.8346306026617702
-0.05499999999999999,1.5119993638839884,1.8362909671670207
-0.054987499999999995,1.5110089966475826,1.838283404573319
-0.054974999999999996,1.510348751823312,1.8402758419796164
-0.0549625,1.5093583845869063,1.8422682793859146
-0.05495,1.5086981397626353,1.8442607167922127
-0.0549375,1.5080378949383646,1.8459210812974614
-0.054925,1.5070475277019588,1.8475814458027093
-0.0549125,1.5060571604655528,1.8499059561100573
-0.054900000000000004,1.5057270380534173,1.851234247714256
-0.054887500000000006,1.5047366708170113,1.8532266851205543
-0.05487499999999999,1.50407642599274,1.8548870496258045
-0.054862499999999995,1.503416181168469,1.8565474141310532
-0.054849999999999996,1.5024258139320634,1.8582077786363007
-0.0548375,1.5014354466956574,1.8598681431415494
-0.054825,1.501105324283522,1.861528507646798
-0.0548125,1.500114957047116,1.8631888721520464
-0.0548,1.499784834634981,1.8645171637562448
-0.0547875,1.4987944673985747,1.8658454553604435
-0.054775000000000004,1.4981342225743042,1.8671737469646426
-0.054762500000000006,1.4974739777500334,1.868834111469891
-0.05474999999999999,1.496813732925762,1.8701624030740915
-0.054737499999999994,1.4961534881014917,1.8718227675793397
-0.054724999999999996,1.4958233656893563,1.8731510591835379
-0.0547125,1.4948329984529503,1.8741472778866872
-0.0547,1.4941727536286795,1.875475569490886
-0.0546875,1.4935125088044088,1.8771359339961344
-0.054675,1.4931823863922737,1.8781321526992831
-0.0546625,1.492522141568003,1.8791283714024323
-0.054650000000000004,1.4918618967437323,1.8801245901055814
-0.054637500000000006,1.4912016519194615,1.8814528817097802
-0.05462499999999999,1.4905414070951901,1.8821170275118808
-0.054612499999999994,1.4898811622709198,1.8834453191160794
-0.054599999999999996,1.4895510398587846,1.884441537819228
-0.0545875,1.4888907950345138,1.885437756522377
-0.054575,1.488230550210243,1.8861019023244767
-0.0545625,1.4875703053859723,1.8870981210276256
-0.05455,1.4872401829738373,1.887762266829725
-0.0545375,1.4865799381495663,1.8890905584339237
-0.054525000000000004,1.4859196933252958,1.8897547042360232
-0.054512500000000005,1.4855895709131604,1.8900867771370728
-0.05450000000000001,1.4849293260888898,1.8910829958402215
-0.054487499999999994,1.4842690812646187,1.8917471416423224
-0.054474999999999996,1.4839389588524834,1.8927433603454709
-0.0544625,1.4832787140282127,1.8934075061475704
-0.05445,1.4829485916160772,1.89373957904862
-0.0544375,1.4822883467918067,1.8944037248507195
-0.054425,1.481628101967536,1.894735797751769
-0.0544125,1.4812979795554007,1.8953999435538684
-0.054400000000000004,1.4809678571432654,1.895732016454918
-0.054387500000000005,1.4803076123189947,1.8967282351580672
-0.05437500000000001,1.4799774899068594,1.8967282351580672
-0.054362499999999994,1.4793172450825882,1.8970603080591173
-0.054349999999999996,1.478987122670453,1.897392380960167
-0.0543375,1.4786570002583177,1.8980565267622662
-0.054325,1.4779967554340467,1.8980565267622664
-0.0543125,1.4773365106097764,1.8987206725643655
-0.0543,1.4773365106097764,1.8987206725643655
-0.0542875,1.4766762657855055,1.8990527454654154
-0.054275000000000004,1.4763461433733702,1.8990527454654154
-0.054262500000000005,1.4756858985490995,1.899384818366465
-0.05425000000000001,1.4756858985490995,1.899384818366465
-0.054237499999999994,1.4750256537248287,1.899384818366465
-0.054224999999999995,1.4750256537248283,1.8993848183664652
-0.0542125,1.4740352864884225,1.8997168912675146
-0.0542,1.4737051640762873,1.8997168912675146
-0.0541875,1.4733750416641518,1.8997168912675146
-0.054175,1.4730449192520165,1.8997168912675146
-0.0541625,1.4727147968398813,1.899384818366465
-0.054150000000000004,1.4720545520156105,1.8990527454654154
-0.054137500000000005,1.4717244296034753,1.8990527454654154
-0.054125000000000006,1.47139430719134,1.8990527454654154
-0.054112499999999994,1.4713943071913391,1.8987206725643653
-0.054099999999999995,1.4707340623670688,1.8983885996633156
-0.0540875,1.4704039399549336,1.898056526762266
-0.054075,1.470073817542798,1.8977244538612164
-0.0540625,1.4697436951306628,1.8977244538612161
-0.05405,1.4694135727185276,1.8973923809601667
-0.0540375,1.4690834503063923,1.8967282351580672
-0.054025000000000004,1.468753327894257,1.8963961622570176
-0.054012500000000005,1.4684232054821216,1.896064089355968
-0.054000000000000006,1.4684232054821216,1.8953999435538686
-0.053987499999999994,1.4680930830699859,1.895067870652818
-0.053974999999999995,1.4677629606578506,1.894403724850719
-0.0539625,1.4674328382457154,1.8937395790486196
-0.05395,1.46710271583358,1.89307543324652
-0.0539375,1.4671027158335799,1.8927433603454704
-0.053925,1.4667725934214448,1.8920792145433711
-0.0539125,1.4667725934214448,1.8914150687412716
-0.0539,1.4664424710093094,1.8907509229391724
-0.053887500000000005,1.466112348597174,1.8897547042360232
-0.053875000000000006,1.4657822261850388,1.889090558433924
-0.053862499999999994,1.4657822261850386,1.8887584855328732
-0.053849999999999995,1.4657822261850384,1.8877622668297245
-0.053837499999999996,1.4654521037729034,1.8867660481265756
-0.053825,1.4654521037729031,1.8861019023244758
-0.0538125,1.465121981360768,1.885105683621327
-0.0538,1.465121981360768,1.8844415378192276
-0.0537875,1.4647918589486326,1.8837773920171283
-0.053775,1.4644617365364971,1.8824491004129293
-0.053762500000000005,1.4644617365364971,1.88178495461083
-0.053750000000000006,1.4641316141243619,1.880788735907681
-0.053737499999999994,1.464131614124362,1.879792517204531
-0.053724999999999995,1.464461736536497,1.8791283714024318
-0.053712499999999996,1.4641316141243619,1.878132152699283
-0.0537,1.4641316141243617,1.877468006897183
-0.0536875,1.4638014917122266,1.8761397152929844
-0.053675,1.4638014917122266,1.875143496589835
-0.0536625,1.4638014917122266,1.873815204985637
-0.05365,1.4641316141243619,1.8731510591835374
-0.053637500000000005,1.4638014917122266,1.8721548404803883
-0.053625000000000006,1.4641316141243619,1.8708265488761895
-0.053612499999999993,1.4638014917122268,1.8694982572719894
-0.053599999999999995,1.4641316141243617,1.868169965667791
-0.053587499999999996,1.4638014917122266,1.866841674063592
-0.053575,1.4638014917122266,1.8655133824593932
-0.0535625,1.4638014917122268,1.8641850908551942
