DAQ/testing_accel_4_6/test_full_0056.csv

#Digilent WaveForms Oscilloscope Acquisition
#Device Name: Discovery2
#Serial Number: SN:210321B02866
#Date Time: 2021-04-06 19:02:58.624
#Sample rate: 38343.6Hz
#Samples: 8192
#Trigger: None
#Channel 1: Range: 500 mV/div Offset: -1.15 V Attenuation: 1 X
#Channel 2: Range: 500 mV/div Offset: -1.45 V Attenuation: 1 X
#Power Supplies: ON
#Positive Supply: ON
#Voltage: 3.3 V
#Negative Supply: OFF
#Voltage: -3.3 V

Time (s),Channel 1 (V),Channel 2 (V)
-0.21116975999999998,1.6197331299520443,0.9748938618440548
-0.21114368,1.6200632523641794,0.9792108095576992
-0.2111176,1.6207234971884503,0.984191903073447
-0.21109151999999998,1.621053619600586,0.9891729965891948
-0.21106544,1.6213837420127208,0.9938220172038866
-0.21103935999999998,1.6220439868369918,0.9991351836206841
-0.21101327999999997,1.6227042316612628,1.0044483500374821
-0.21098719999999999,1.6233644764855333,1.009761516454275
-0.21096112,1.6236945988976685,1.0150746828710657
-0.21093504,1.624354843721939,1.020719922188913
-0.21090895999999998,1.6246849661340748,1.0263651615067608
-0.21088288,1.6253452109583453,1.032342473725653
-0.21085679999999998,1.6256753333704808,1.037987713043501
-0.21083071999999997,1.6260054557826165,1.0439650252623984
-0.21080464,1.6263355781947515,1.049610264580241
-0.21077856,1.6269958230190216,1.0562517226012293
-0.21075247999999996,1.627325945431158,1.062229034820136
-0.21072639999999998,1.627656067843293,1.068538419940075
-0.21070032,1.627986190255428,1.0745157321589671
-0.21067423999999998,1.628646435079699,1.081157190179964
-0.21064815999999997,1.6286464350796992,1.0871345023988621
-0.21062208,1.6289765574918345,1.094108033320903
-0.21059599999999998,1.6296368023161054,1.1004174184408508
-0.21056991999999997,1.6299669247282407,1.1077230222639474
-0.21054383999999998,1.630297047140376,1.1143644802849357
-0.21051776,1.630627169552511,1.1213380112069766
-0.21049168,1.6309572919646467,1.1283115421290237
-0.21046559999999997,1.6316175367889172,1.1352850730510708
-0.21043952,1.6316175367889172,1.1422586039731089
-0.21041343999999998,1.6319476592010527,1.1495642077962056
-0.21038735999999997,1.6322777816131884,1.1568698116193024
-0.21036127999999998,1.6326079040253234,1.1638433425413435
-0.2103352,1.6329380264374584,1.1711489463644338
-0.21030912,1.6329380264374587,1.178454550187531
-0.21028303999999998,1.6332681488495941,1.185760154010628
-0.21025696,1.6332681488495941,1.1930657578337152
-0.21023087999999998,1.6339283936738649,1.200703434557862
-0.21020479999999997,1.633928393673865,1.2076769654799095
-0.21017871999999999,1.6342585160860001,1.2153146422040495
-0.21015264,1.633928393673865,1.2229523189281861
-0.21012656,1.6345886384981354,1.2309220685533826
-0.21010047999999998,1.6342585160860001,1.2382276723764798
-0.2100744,1.6345886384981354,1.2461974220016696
-0.21004831999999998,1.6345886384981356,1.2531709529237172
-0.21002223999999997,1.6345886384981356,1.2614727754499635
-0.20999616,1.6345886384981356,1.2691104521741035
-0.20997008,1.6349187609102707,1.277412274700339
-0.20994399999999996,1.634918760910271,1.285049951424497
-0.20991791999999998,1.6352488833224064,1.2930197010496831
-0.20989184,1.6352488833224064,1.3009894506748727
-0.20986575999999998,1.6352488833224064,1.309291273201119
-0.20983967999999997,1.6355790057345416,1.3175930957273656
-0.2098136,1.6355790057345416,1.3255628453525552
-0.20978751999999998,1.6355790057345418,1.3338646678788018
-0.20976143999999997,1.635909128146677,1.3415023446029495
-0.20973535999999998,1.635909128146677,1.3501362400302341
-0.20970928,1.635909128146677,1.358105989655424
-0.2096832,1.6362392505588124,1.3664078121816703
-0.20965711999999997,1.6362392505588124,1.3743775618068672
-0.20963104,1.6362392505588124,1.3826793843331027
-0.20960495999999998,1.6362392505588124,1.3906491339582996
-0.20957887999999997,1.6362392505588126,1.3989509564845461
-0.20955279999999998,1.6365693729709476,1.4069207061097357
-0.20952672,1.6362392505588126,1.4148904557349253
-0.20950064,1.6362392505588124,1.423192278261172
-0.20947455999999998,1.6362392505588124,1.4311620278863688
-0.20944848,1.6362392505588124,1.439463850412604
-0.20942239999999998,1.6362392505588124,1.4474336000378012
-0.20939631999999997,1.6365693729709474,1.4557354225640475
-0.20937023999999999,1.635909128146677,1.4633730992881875
-0.20934416,1.635909128146677,1.4720069947154761
-0.20931808,1.6355790057345416,1.4796446714396236
-0.20929199999999998,1.635909128146677,1.4879464939658664
-0.20926592,1.6355790057345418,1.4955841706900064
-0.20923983999999998,1.6355790057345416,1.503553920315203
-0.20921375999999997,1.6355790057345414,1.5115236699404
-0.20918768,1.6352488833224064,1.5194934195655896
-0.2091616,1.6352488833224064,1.5274631691907754
-0.20913551999999996,1.6345886384981356,1.534768773013884
-0.20910943999999998,1.6345886384981356,1.5427385226390697
-0.20908336,1.6342585160860004,1.55004412646216
-0.20905727999999998,1.6342585160860001,1.5580138760873565
-0.20903119999999997,1.6339283936738649,1.565319479910454
-0.20900512,1.6339283936738649,1.572957156634594
-0.20897903999999998,1.6332681488495941,1.5799306875566415
-0.20895295999999997,1.6332681488495935,1.5875683642807878
-0.20892687999999998,1.6326079040253234,1.5945418952028254
-0.2089008,1.6326079040253234,1.6018474990259157
-0.20887471999999999,1.6322777816131882,1.6088210299479633
-0.20884863999999997,1.6319476592010524,1.6157945608700104
-0.20882256,1.6316175367889174,1.6227680917920482
-0.20879647999999998,1.6309572919646467,1.6294095498130456
-0.20877039999999997,1.630627169552511,1.6363830807350928
-0.20874431999999998,1.630297047140376,1.643024538756084
-0.20871824,1.6299669247282407,1.649998069678125
-0.20869216,1.6293066799039697,1.6563074547980727
-0.20866607999999998,1.6289765574918342,1.6629489128190695
-0.20864,1.6286464350796992,1.6689262250379593
-0.20861391999999998,1.6279861902554282,1.6752356101579065
-0.20858783999999997,1.6276560678432928,1.6818770681789037
-0.20856175999999998,1.6273259454311577,1.6881864532988453
-0.20853568,1.6269958230190225,1.6944958384187871
-0.2085096,1.6263355781947515,1.7001410777366353
-0.20848351999999998,1.6260054557826158,1.7064504628565824
-0.20845744,1.6250150885462105,1.7120957021744223
-0.20843135999999998,1.62501508854621,1.7180730143933198
-0.20840527999999997,1.6240247213098038,1.7237182537111677
-0.2083792,1.6236945988976688,1.7293634930290103
-0.20835312,1.6230343540733985,1.7346766594458007
-0.20832703999999996,1.6223741092491266,1.7403218987636557
-0.20830095999999998,1.6217138644248565,1.7456350651804464
-0.20827488,1.621053619600586,1.7509482315972393
-0.20824879999999998,1.620393374776315,1.7559293251129875
-0.20822271999999997,1.6194030075399088,1.760578345727686
-0.20819664,1.6194030075399088,1.7658915121444791
-0.20817056,1.6184126403035037,1.7705405327591708
-0.20814447999999997,1.6180825178913665,1.7755216262749243
-0.20811839999999998,1.6170921506549614,1.7795065010875173
-0.20809232,1.6164319058306909,1.7841555217022111
-0.20806623999999999,1.6154415385942846,1.7884724694158598
-0.20804015999999997,1.6147812937700137,1.7927894171295078
-0.20801408,1.6141210489457434,1.7967742919421008
-0.20798799999999998,1.6134608041214724,1.8004270938536495
-0.20796191999999997,1.6128005592972012,1.8047440415672973
-0.20793583999999998,1.6118101920607957,1.808064770577793
-0.20790976,1.6114800696486604,1.8120496453903878
-0.20788368,1.6104897024122542,1.8153703744008867
-0.20785759999999998,1.6098294575879832,1.8186911034113853
-0.20783152,1.609169212763713,1.82167975952083
-0.20780543999999998,1.6081788455273067,1.8246684156302788
-0.20777935999999997,1.6071884782909003,1.827989144640777
-0.20775327999999998,1.60652823346663,1.8306457278491737
-0.2077272,1.6058679886423592,1.8333023110575704
-0.20770112,1.604877621405953,1.8356268213649194
-0.20767503999999998,1.604547498993817,1.838283404573318
-0.20764896,1.603557131757412,1.8402758419796146
-0.20762287999999998,1.6028968869331408,1.8422682793859138
-0.20759679999999997,1.6022366421088696,1.8442607167922127
-0.20757072,1.601246274872464,1.8459210812974607
-0.20754464,1.600586030048194,1.8475814458027078
-0.20751856,1.5995956628117878,1.8489097374069074
-0.20749247999999998,1.5989354179875166,1.8505701019121568
-0.2074664,1.5979450507511108,1.8515663206153055
-0.20744031999999998,1.5969546835147044,1.852562539318455
-0.20741423999999997,1.5962944386904332,1.8535587580216044
-0.20738816,1.5953040714540276,1.8538908309226538
-0.20736208,1.5943137042176223,1.8545549767247527
-0.20733599999999996,1.5936534593933498,1.8545549767247536
-0.20730991999999998,1.5926630921569447,1.854887049625803
-0.20728384,1.5916727249205391,1.8552191225268524
-0.20725775999999999,1.591012480096268,1.854887049625803
-0.20723167999999997,1.5900221128598613,1.8548870496258028
-0.2072056,1.5890317456234557,1.8545549767247533
-0.20717951999999998,1.5883715007991845,1.854222903823703
-0.20715343999999997,1.5873811335627785,1.853226685120554
-0.20712735999999998,1.5867208887385083,1.8528946122195047
-0.20710128,1.5857305215021025,1.8515663206153066
-0.2070752,1.584740154265696,1.8505701019121568
-0.20704911999999998,1.5837497870292896,1.849241810307957
-0.20702304,1.5830895422050195,1.8479135187037596
-0.20699695999999998,1.582099174968613,1.8465852270995602
-0.20697087999999997,1.5811088077322066,1.8449248625943109
-0.20694479999999998,1.5801184404958009,1.8435965709901125
-0.20691872,1.5794581956715306,1.8419362064848648
-0.20689264,1.5784678284351241,1.840607914880665
-0.20686655999999998,1.5778075836108532,1.8389475503754156
-0.20684048,1.5771473387865829,1.836955112969119
-0.20681439999999998,1.5761569715501766,1.8352947484638698
-0.20678831999999997,1.5751666043137702,1.8329702381565205
-0.20676223999999999,1.5745063594895,1.8306457278491737
-0.20673616,1.5738461146652296,1.8279891446407783
-0.20671008,1.5725256250166884,1.8253325614323794
-0.20668399999999998,1.571865380192417,1.822343905322931
-0.20665792,1.5712051353681464,1.8193552492134848
-0.20663183999999998,1.5705448905438755,1.8160345202029862
-0.20660575999999997,1.5695545233074693,1.8127137911924873
-0.20657968,1.5688942784831987,1.8090609892809422
-0.2065536,1.5679039112467934,1.8054081873693986
-0.20652751999999996,1.567243666422521,1.801423312556795
-0.20650143999999998,1.566583421598251,1.797438437744202
-0.20647536,1.5659231767739807,1.7931214900305579
-0.20644927999999999,1.5652629319497096,1.789136615217959
-0.20642319999999997,1.5646026871254388,1.7848196675043106
-0.20639712,1.5639424423011683,1.7801706468896168
-0.20637103999999998,1.5632821974768973,1.7755216262749185
-0.20634495999999997,1.5626219526526262,1.7708726056602206
-0.20631887999999998,1.561961707828356,1.7662235850455288
-0.2062928,1.5613014630040856,1.761242491529785
-0.20626672,1.5606412181798146,1.7562613980140371
-0.20624063999999998,1.5599809733555436,1.751280304498289
-0.20621456,1.5596508509434088,1.7459671380814985
-0.20618847999999998,1.5589906061191379,1.7406539716647007
-0.20616239999999997,1.558330361294867,1.7353408052479027
-0.20613631999999998,1.5576701164705964,1.7300276388311095
-0.20611024,1.5573399940584614,1.7243823995132672
-0.20608416,1.5566797492341902,1.7187371601954193
-0.20605807999999998,1.5563496268220547,1.7130919208775715
-0.206032,1.5556893819977844,1.7074466815597316
-0.20600591999999998,1.555359259585649,1.7011372964397844
-0.20597983999999997,1.554699014761378,1.6951599842208869
-0.20595375999999999,1.5543688923492427,1.6895147449030443
-0.20592768,1.5537086475249722,1.6832053597831025
-0.2059016,1.5533785251128367,1.676895974663155
-0.20587551999999998,1.5530484027007012,1.6709186624442602
-0.20584944,1.5527182802885662,1.6646092773243184
-0.20582335999999998,1.5520580354642952,1.658299892204371
-0.20579727999999997,1.5517279130521595,1.6516584341833738
-0.2057712,1.5513977906400245,1.645349049063432
-0.20574512,1.5513977906400245,1.6387075910424438
-0.20571903999999996,1.5507375458157535,1.6317340601203878
-0.20569295999999998,1.5504074234036185,1.625424675000449
-0.20566688,1.5504074234036185,1.6184511440784082
-0.20564079999999998,1.5504074234036185,1.6118096860574107
-0.20561471999999997,1.5497471785793477,1.6048361551353636
-0.20558864,1.5497471785793477,1.5978626242133225
-0.20556255999999998,1.5494170561672123,1.5908890932912754
-0.20553647999999997,1.5494170561672116,1.583915562369228
-0.20551039999999998,1.5487568113429417,1.5769420314471905
-0.20548432,1.5487568113429417,1.5696364276241
-0.20545824,1.5484266889308063,1.5626628967020526
-0.20543215999999997,1.5484266889308063,1.5553572928789556
-0.20540608,1.5484266889308063,1.5480516890558684
-0.20537999999999998,1.5480965665186708,1.5407460852327715
-0.20535391999999997,1.5480965665186706,1.533440481409674
-0.20532783999999998,1.5477664441065355,1.525802804685534
-0.20530176,1.5477664441065355,1.5184972008624438
-0.20527568,1.5477664441065355,1.510859524138297
-0.20524959999999998,1.5474363216944005,1.5035539203151997
-0.20522352,1.5477664441065353,1.4962483164921128
-0.20519743999999998,1.5474363216944003,1.488610639767966
-0.20517135999999997,1.5477664441065353,1.4809729630438189
-0.20514527999999999,1.5474363216944003,1.473335286319679
-0.2051192,1.5474363216944003,1.465697609595539
-0.20509312,1.5474363216944003,1.4583920057724418
-0.20506703999999998,1.5474363216944003,1.4507543290482947
-0.20504096,1.5474363216944003,1.4431166523241583
-0.20501487999999998,1.5477664441065355,1.4354789756000113
-0.20498879999999997,1.5477664441065355,1.4278412988758642
-0.20496272,1.5477664441065355,1.4202036221517245
-0.20493664,1.5477664441065355,1.4128980183286373
-0.20491055999999996,1.5477664441065357,1.4052603416044802
-0.20488447999999998,1.5480965665186708,1.3976226648803436
-0.2048584,1.5480965665186708,1.3899849881562036
-0.20483231999999998,1.5484266889308063,1.382015238531007
-0.20480623999999997,1.5484266889308065,1.3747096347079097
-0.20478016,1.5487568113429417,1.3670719579837698
-0.20475408,1.5490869337550768,1.3594342812596332
-0.20472799999999997,1.5490869337550772,1.351796604535476
-0.20470191999999998,1.5494170561672123,1.3441589278113393
-0.20467584,1.5497471785793475,1.3365212510871993
-0.20464976,1.5497471785793477,1.3292156472641021
-0.20462367999999997,1.5504074234036187,1.3215779705399553
-0.2045976,1.5507375458157535,1.314272366716868
-0.20457151999999998,1.5510676682278892,1.3066346899927215
-0.20454543999999997,1.5513977906400247,1.299329086169624
-0.20451935999999998,1.5517279130521597,1.291691409445484
-0.20449328,1.552058035464295,1.2843858056223938
-0.2044672,1.5523881578764307,1.2770802017992966
-0.20444111999999998,1.5527182802885662,1.2697745979761996
-0.20441504,1.553048402700701,1.2624689941531124
-0.20438895999999998,1.5530484027007012,1.2551633903300154
-0.20436287999999997,1.553708647524972,1.2478577865069185
-0.20433679999999999,1.553708647524972,1.2408842555848776
-0.20431072,1.5540387699371072,1.2332465788607376
-0.20428464,1.5543688923492427,1.22627304793869
-0.20425855999999998,1.5550291371735137,1.2189674441155933
-0.20423248,1.5553592595856487,1.2119939131935553
-0.20420639999999998,1.5560195044099197,1.2050203822715082
-0.20418031999999997,1.5560195044099199,1.198046851349461
-0.20415424,1.5566797492341902,1.1910733204274202
-0.20412816,1.5573399940584605,1.1844318624064318
-0.20410208,1.5580002388827314,1.1777904043854346
-0.20407599999999998,1.5586604837070024,1.1711489463644371
-0.20404992,1.559320728531273,1.164507488343446
-0.20402383999999998,1.5599809733555439,1.1581981032234983
-0.20399775999999997,1.5609713405919503,1.1518887181035506
-0.20397168,1.5616315854162206,1.145579332983609
-0.2039456,1.562291830240491,1.1392699478636703
-0.20391951999999997,1.5629520750647623,1.1329605627437138
-0.20389343999999998,1.5632821974768976,1.1263191047227255
-0.20386736,1.563942442301168,1.1203417925038333
-0.20384127999999999,1.564602687125439,1.1143644802849357
-0.20381519999999997,1.5652629319497098,1.1080550951649883
-0.20378912,1.5659231767739805,1.1020777829460962
-0.20376303999999998,1.566583421598251,1.0961004707272013
-0.20373695999999997,1.567243666422522,1.0901231585083038
-0.20371087999999998,1.5679039112467925,1.0844779191904612
-0.2036848,1.5682340336589278,1.078500606971569
-0.20365872,1.5688942784831987,1.0728553676537211
-0.20363263999999998,1.5695545233074697,1.0672101283358733
-0.20360656,1.5698846457196045,1.0612328161169837
-0.20358047999999998,1.570875012956011,1.0559196497001857
-0.20355439999999997,1.5712051353681464,1.050274410382338
-0.20352831999999998,1.571865380192417,1.044961243965545
-0.20350224,1.5725256250166875,1.039648077548752
-0.20347616,1.5731858698409584,1.0346669840330038
-0.20345007999999998,1.5738461146652294,1.029353817616206
-0.203424,1.5748364819016347,1.0243727241004648
-0.20339791999999998,1.575496726725906,1.0190595576836672
-0.20337183999999997,1.5758268491380416,1.0140784641679192
-0.20334576,1.5768172163744474,1.0094294435532254
-0.20331968,1.5778075836108525,1.0047804229385335
-0.2032936,1.578467828435124,0.9997993294227858
-0.20326751999999998,1.5791280732593949,0.9954823817091373
-0.20324144,1.5794581956715301,0.991165433995493
-0.20321535999999998,1.5804485629079363,0.9868484862818446
-0.20318927999999997,1.5814389301443426,0.9821994656671467
-0.2031632,1.582099174968613,0.9778825179535022
-0.20313712,1.5827594197928831,0.9738976431409093
-0.20311103999999996,1.5834196646171548,0.970244841229355
-0.20308495999999998,1.5837497870292898,0.9659278935157125
-0.20305888,1.5847401542656956,0.9622750916041672
-0.20303279999999999,1.5854003990899668,0.9586222896926188
-0.20300671999999997,1.5860606439142377,0.9549694877810703
-0.20298064,1.5867208887385083,0.951316685869525
-0.20295455999999998,1.58804137838705,0.9479959568590262
-0.20292847999999997,1.588701623211321,0.9443431549474783
-0.20290239999999998,1.589361868035591,0.9413544988380335
-0.20287632,1.5900221128598615,0.938697915629637
-0.20285024,1.591012480096268,0.9357092595201884
-0.20282415999999998,1.5920028473326742,0.9327206034107398
-0.20279808,1.5926630921569445,0.930396093103394
-0.20277199999999998,1.5933233369812154,0.9277395098949951
-0.20274591999999997,1.5943137042176219,0.9254149995876461
-0.20271983999999998,1.5953040714540276,0.9230904892802991
-0.20269376,1.595964316278298,0.9204339060719026
-0.20266768,1.5966245611025691,0.9184414686656031
-0.20264159999999998,1.5972848059268399,0.9167811041603536
-0.20261552,1.5979450507511102,0.9147886667540571
-0.20258943999999998,1.5986052955753811,0.912796229347758
-0.20256335999999997,1.5995956628117876,0.9111358648425085
-0.20253728,1.5999257852239226,0.9094755003372608
-0.2025112,1.6009161524603281,0.9081472087330624
-0.20248512,1.6019065196967344,0.9068189171288635
-0.20245903999999998,1.60223664210887,0.9054906255246642
-0.20243296,1.6032270093452758,0.9044944068215155
-0.20240687999999998,1.603887254169547,0.9031661152173162
-0.20238079999999997,1.604547498993818,0.9021698965141667
-0.20235472,1.6055378662302238,0.9015057507120675
-0.20232864,1.6061981110544938,0.9008416049099687
-0.20230255999999996,1.606858355878766,0.8998453862068184
-0.20227647999999998,1.607518600703036,0.8991812404047196
-0.2022504,1.6081788455273065,0.8985170946026204
-0.20222431999999999,1.6088390903515775,0.8981850217015704
-0.20219823999999997,1.6094993351758482,0.8978529488005207
-0.20217216,1.610159580000119,0.8978529488005207
-0.20214607999999998,1.6108198248243897,0.8978529488005208
-0.20211999999999997,1.6114800696486609,0.8981850217015708
-0.20209391999999998,1.612140314472931,0.8985170946026201
-0.20206784,1.6124704368850662,0.8988491675036697
-0.20204176,1.6134608041214724,0.899845386206819
-0.20201567999999998,1.6137909265336081,0.9005095320089187
-0.2019896,1.6144511713578782,0.9011736778110175
-0.20196351999999998,1.6151114161821494,0.902169896514167
-0.20193743999999997,1.6157716610064201,0.9031661152173166
-0.20191135999999998,1.6164319058306906,0.9041623339204653
-0.20188528,1.6174222730670964,0.9058226984257131
-0.2018592,1.617752395479232,0.9071509900299127
