DAQ/testing_accel_4_6/test_full_0033.csv

#Digilent WaveForms Oscilloscope Acquisition
#Device Name: Discovery2
#Serial Number: SN:210321B02866
#Date Time: 2021-04-06 19:02:53.564
#Sample rate: 38343.6Hz
#Samples: 8192
#Trigger: None
#Channel 1: Range: 500 mV/div Offset: -1.15 V Attenuation: 1 X
#Channel 2: Range: 500 mV/div Offset: -1.45 V Attenuation: 1 X
#Power Supplies: ON
#Positive Supply: ON
#Voltage: 3.3 V
#Negative Supply: OFF
#Voltage: -3.3 V

Time (s),Channel 1 (V),Channel 2 (V)
-0.21116975999999998,1.6659502676509947,1.2000392887557625
-0.21114368,1.6652900228267244,1.2073448925788528
-0.2111176,1.6649599004145887,1.2153146422040495
-0.21109151999999998,1.664299655590318,1.2232843918292462
-0.21106544,1.6636394107660475,1.2309220685533826
-0.21103935999999998,1.663309288353912,1.239223891079629
-0.21101327999999997,1.662649043529641,1.2468615678037762
-0.21098719999999999,1.6619887987053705,1.2551633903300154
-0.21096112,1.6613285538811005,1.2631331399552013
-0.21093504,1.6606683090568295,1.2714349624814478
-0.21090895999999998,1.6603381866446938,1.2797367850076944
-0.21088288,1.6593478194082882,1.2880386075339334
-0.21085679999999998,1.6590176969961523,1.2963404300601802
-0.21083071999999997,1.658027329759746,1.3043101796853773
-0.21080464,1.6576972073476108,1.312944075112666
-0.21077856,1.6567068401112057,1.3209138247378518
-0.21075247999999996,1.6560465952869334,1.3292156472641097
-0.21072639999999998,1.6553863504626634,1.337517469790345
-0.21070032,1.6547261056383928,1.3458192923165841
-0.21067423999999998,1.6540658608141219,1.3544531877438806
-0.21064815999999997,1.6530754935777157,1.3624229373690777
-0.21062208,1.652415248753445,1.371388905697416
-0.21059599999999998,1.6510947591049034,1.3793586553226131
-0.21056991999999997,1.650434514280632,1.3876604778488597
-0.21054383999999998,1.649444147044227,1.3959623003750952
-0.21051776,1.6481236573956861,1.4042641229013342
-0.21049168,1.6474634125714147,1.412565945427581
-0.21046559999999997,1.646473045335008,1.4205356950527779
-0.21043952,1.645482678098603,1.4288375175790131
-0.21041343999999998,1.6444923108621965,1.4368072672042103
-0.21038735999999997,1.6438320660379253,1.4447770168294072
-0.21036127999999998,1.6428416988015195,1.4530788393556462
-0.2103352,1.641851331565114,1.461048588980836
-0.21030912,1.6408609643287075,1.4693504115070823
-0.21028303999999998,1.6398705970923009,1.4769880882312296
-0.21025696,1.6388802298558958,1.485289910757465
-0.21023087999999998,1.637889862619489,1.493259660382662
-0.21020479999999997,1.6368994953830827,1.500897337106809
-0.21017871999999999,1.635909128146677,1.5088670867319987
-0.21015264,1.6349187609102718,1.5168368363571845
-0.21012656,1.6339283936738653,1.525138658883431
-0.21010047999999998,1.6329380264374587,1.532776335607578
-0.2100744,1.6319476592010531,1.540746085232768
-0.21004831999999998,1.6306271695525112,1.548051689055865
-0.21002223999999997,1.6296368023161045,1.5560214386810618
-0.20999616,1.6283163126675637,1.5639911883062516
-0.20997008,1.6269958230190233,1.5712967921293386
-0.20994399999999996,1.6260054557826151,1.579266541754545
-0.20991791999999998,1.6246849661340748,1.5865721455776323
-0.20989184,1.6236945988976692,1.5942098223017722
-0.20986575999999998,1.6223741092491273,1.6015154261248694
-0.20983967999999997,1.6210536196005851,1.6088210299479668
-0.2098136,1.6197331299520443,1.6164587066721068
-0.20978751999999998,1.6184126403035022,1.6234322375941541
-0.20976143999999997,1.6170921506549603,1.6307378414172504
-0.20973535999999998,1.61577166100642,1.6373792994382388
-0.20970928,1.6147812937700143,1.6450169761623787
-0.2096832,1.6134608041214724,1.6516584341833767
-0.20965711999999997,1.6121403144729305,1.6582998922043741
-0.20963104,1.6111499472365254,1.6649413502253623
-0.20960495999999998,1.6098294575879835,1.6715828082463595
-0.20957887999999997,1.6088390903515768,1.6785563391684064
-0.20955279999999998,1.607518600703036,1.6848657242883482
-0.20952672,1.6065282334666304,1.6915071823093395
-0.20950064,1.6052077438180885,1.6974844945282375
-0.20947455999999998,1.6038872541695466,1.7041259525492347
-0.20944848,1.6028968869331413,1.7104353376691734
-0.20942239999999998,1.6015763972845996,1.7164126498880714
-0.20939631999999997,1.6005860300481927,1.7227220350080186
-0.20937023999999999,1.5992655403996519,1.7286993472269108
-0.20934416,1.597945050751111,1.734676659445803
-0.20931808,1.5966245611025691,1.7406539716647007
-0.20929199999999998,1.5949739490418922,1.7462992109825457
-0.20926592,1.5939835818054866,1.752276523201438
-0.20923983999999998,1.5923329697448092,1.7575896896182361
-0.20921375999999997,1.5913426025084025,1.762902856035034
-0.20918768,1.5900221128598617,1.768216022451827
-0.2091616,1.5883715007991865,1.7738612617696672
-0.20913551999999996,1.5873811335627772,1.7788423552854222
-0.20910943999999998,1.585730521502102,1.7834913759001139
-0.20908336,1.5847401542656965,1.7891366152179564
-0.20905727999999998,1.5830895422050193,1.7931214900305559
-0.20903119999999997,1.5817690525564772,1.7981025835463036
-0.20900512,1.5804485629079363,1.8024195312599478
-0.20897903999999998,1.5794581956715297,1.8070685518746459
-0.20895295999999997,1.5778075836108523,1.8113854995882936
-0.20892687999999998,1.576487093962312,1.8153703744008867
-0.2089008,1.5754967267259063,1.8193552492134817
-0.20887471999999999,1.573846114665229,1.8226759782239805
-0.20884863999999997,1.5725256250166872,1.8266608530365787
-0.20882256,1.571535257780282,1.8303136549481225
-0.20879647999999998,1.5698846457196047,1.8333023110575715
-0.20877039999999997,1.568894278483198,1.8366230400680699
-0.20874431999999998,1.5672436664225218,1.839611696177516
-0.20871824,1.5662532991861162,1.842600352286962
-0.20869216,1.5649328095375743,1.8452569354953612
-0.20866607999999998,1.5636123198890324,1.8475814458027104
-0.20864,1.5626219526526273,1.8502380290111058
-0.20861391999999998,1.56097134059195,1.8522304664174052
-0.20858783999999997,1.5596508509434082,1.8545549767247542
-0.20856175999999998,1.5586604837070024,1.8565474141310516
-0.20853568,1.5570098716463263,1.858539851537349
-0.2085096,1.5560195044099197,1.8602002160425983
-0.20848351999999998,1.554368892349242,1.861528507646798
-0.20845744,1.5530484027007019,1.8628567992509955
-0.20843135999999998,1.5517279130521597,1.864185090855195
-0.20840527999999997,1.5504074234036178,1.8651813095583447
-0.2083792,1.549086933755077,1.866509601162543
-0.20835312,1.5477664441065366,1.867173746964642
-0.20832703999999996,1.546445954457993,1.8678378927667425
-0.20830095999999998,1.5451254648094526,1.8685020385688413
-0.20827488,1.543804975160912,1.8685020385688413
-0.20824879999999998,1.542814607924505,1.868834111469891
-0.20822271999999997,1.5411639958638281,1.868834111469891
-0.20819664,1.5405037510395576,1.868834111469891
-0.20817056,1.5391832613910172,1.8685020385688416
-0.20814447999999997,1.5378627717424735,1.8678378927667418
-0.20811839999999998,1.5365422820939332,1.8678378927667418
-0.20809232,1.5352217924453926,1.8671737469646428
-0.20806623999999999,1.5342314252089857,1.866509601162543
-0.20804015999999997,1.5329109355604438,1.8655133824593935
-0.20801408,1.5319205683240387,1.8645171637562452
-0.20798799999999998,1.530930201087632,1.8635209450530956
-0.20796191999999997,1.5299398338512253,1.862192653448896
-0.20793583999999998,1.5286193442026845,1.8608643618446978
-0.20790976,1.527959099378414,1.8595360702404997
-0.20788368,1.5269687321420078,1.8582077786363
-0.20785759999999998,1.5259783649056013,1.856547414131051
-0.20783152,1.5253181200813313,1.8548870496258036
-0.20780543999999998,1.5243277528449248,1.8532266851205543
-0.20777935999999997,1.5233373856085184,1.8515663206153052
-0.20775327999999998,1.5223470183721126,1.8499059561100573
-0.2077272,1.521356651135707,1.8479135187037599
-0.20770112,1.5206964063114359,1.845589008396411
-0.20767503999999998,1.520036161487165,1.8432644980890618
-0.20764896,1.5193759166628946,1.8406079148806662
-0.20762287999999998,1.5183855494264884,1.8379513316722673
-0.20759679999999997,1.5177253046022174,1.8349626755628183
-0.20757072,1.517065059777947,1.8316419465523228
-0.20754464,1.5164048149536768,1.8283212175418289
-0.20751856,1.5157445701294057,1.8246684156302804
-0.20749247999999998,1.5150843253051347,1.8213476866197817
-0.2074664,1.5144240804808642,1.8173628118071867
-0.20744031999999998,1.5137638356565932,1.8133779369945884
-0.20741423999999997,1.5131035908323225,1.8093930621819898
-0.20738816,1.5127734684201872,1.8050761144683456
-0.20736208,1.5121132235959172,1.8007591667547032
-0.20733599999999996,1.5117831011837806,1.7964422190410487
-0.20730991999999998,1.5111228563595105,1.7917931984263569
-0.20728384,1.5107927339473752,1.787144177811663
-0.20725775999999999,1.5104626115352398,1.782163084295915
-0.20723167999999997,1.510132489123104,1.777181990780167
-0.2072056,1.5094722442988335,1.771868824363374
-0.20717951999999998,1.509142121886698,1.7672198037486753
-0.20715343999999997,1.5088119994745626,1.7615745644308305
-0.20712735999999998,1.5084818770624275,1.756593470915087
-0.20710128,1.5081517546502925,1.7509482315972444
-0.2070752,1.5078216322381568,1.7453029922793966
-0.20704911999999998,1.5074915098260213,1.739657752961549
-0.20702304,1.5074915098260213,1.7340125136437088
-0.20699695999999998,1.507161387413886,1.7280352014248113
-0.20697087999999997,1.5068312650017508,1.7220578892059135
-0.20694479999999998,1.5068312650017508,1.715748504085972
-0.20691872,1.5065011425896155,1.7097711918670797
-0.20689264,1.5065011425896153,1.703793879648182
-0.20686655999999998,1.506501142589615,1.6971524216271852
-0.20684048,1.5061710201774803,1.6911751094082956
-0.20681439999999998,1.50617102017748,1.6845336513872986
-0.20678831999999997,1.50617102017748,1.6782242662673508
-0.20676223999999999,1.50617102017748,1.6715828082463595
-0.20673616,1.50617102017748,1.6649413502253714
-0.20671008,1.50617102017748,1.6582998922043741
-0.20668399999999998,1.5065011425896153,1.6516584341833767
-0.20665792,1.5065011425896153,1.6450169761623854
-0.20663183999999998,1.5068312650017508,1.6380434452403383
-0.20660575999999997,1.506831265001751,1.6307378414172413
-0.20657968,1.507161387413886,1.62409638339625
-0.2065536,1.507491509826021,1.616790779573163
-0.20652751999999996,1.5078216322381568,1.6098172486511058
-0.20650143999999998,1.5078216322381568,1.6025116448280186
-0.20647536,1.5078216322381568,1.5952060410049282
-0.20644927999999999,1.5081517546502923,1.587900437181831
-0.20642319999999997,1.5084818770624275,1.5809269062597837
-0.20639712,1.5084818770624275,1.5736213024366932
-0.20637103999999998,1.508811999474563,1.566315698613596
-0.20634495999999997,1.5094722442988338,1.5586780218894492
-0.20631887999999998,1.509802366710969,1.5510403451653125
-0.2062928,1.510132489123104,1.5437347413422222
-0.20626672,1.510792733947375,1.5360970646180754
-0.20624063999999998,1.5111228563595107,1.528127314992879
-0.20621456,1.5114529787716455,1.5208217111697917
-0.20618847999999998,1.5121132235959165,1.5131840344456449
-0.20616239999999997,1.5121132235959167,1.5055463577214978
-0.20613631999999998,1.5127734684201872,1.4975766080963082
-0.20611024,1.5134337132444577,1.4896068584711186
-0.20608416,1.5137638356565932,1.4819691817469716
-0.20605807999999998,1.5144240804808642,1.4739994321217749
-0.206032,1.5150843253051345,1.4663617553976385
-0.20600591999999998,1.5157445701294054,1.4583920057724418
-0.20597983999999997,1.5164048149536764,1.450422256147245
-0.20595375999999999,1.517065059777947,1.4427845794231051
-0.20592768,1.5177253046022174,1.4348148297979155
-0.2059016,1.5183855494264884,1.4268450801727186
-0.20587551999999998,1.5190457942507591,1.4188753305475255
-0.20584944,1.5197060390750297,1.4109055809223359
-0.20582335999999998,1.5203662838993006,1.4029358312971392
-0.20579727999999997,1.5210265287235718,1.3949660816719422
-0.2057712,1.5223470183721126,1.386664259145703
-0.20574512,1.5226771407842479,1.3786945095205172
-0.20571903999999996,1.523667508020655,1.371056832796359
-0.20569295999999998,1.5246578752570603,1.3630870831711732
-0.20566688,1.5253181200813308,1.3551173335459836
-0.20564079999999998,1.526308487317737,1.3471475839207867
-0.20561471999999997,1.526968732142008,1.33917783429559
-0.20558864,1.5276289769662785,1.3312080846704004
-0.20556255999999998,1.5289494666148205,1.3235704079462534
-0.20553647999999997,1.529939833851227,1.3156006583210569
-0.20551039999999998,1.530930201087632,1.3079629815969203
-0.20548432,1.5319205683240378,1.2999932319717307
-0.20545824,1.532580813148309,1.2923555552475836
-0.20543215999999997,1.5339013027968507,1.2847178785234366
-0.20540608,1.5345615476211207,1.2767481288982505
-0.20537999999999998,1.5355519148575272,1.2691104521741035
-0.20535391999999997,1.5365422820939336,1.2611407025489068
-0.20532783999999998,1.5375326493303394,1.2535030258247668
-0.20530176,1.538523016566745,1.2458653491006269
-0.20527568,1.5398435062152869,1.2385597452775297
-0.20524959999999998,1.5405037510395583,1.230589995652333
-0.20522352,1.5418242406880984,1.223284391829246
-0.20519743999999998,1.542814607924505,1.2156467151050991
-0.20517135999999997,1.544135097573047,1.208341111282002
-0.20514527999999999,1.5451254648094526,1.2010355074589116
-0.2051192,1.5461158320458583,1.1937299036358213
-0.20509312,1.5474363216944003,1.1864242998127241
-0.20506703999999998,1.5484266889308067,1.1791186959896267
-0.20504096,1.5494170561672118,1.1714810192654905
-0.20501487999999998,1.5504074234036185,1.164507488343443
-0.20498879999999997,1.5517279130521602,1.1575339574213956
-0.20496272,1.552718280288566,1.1505604264993547
-0.20493664,1.5540387699371063,1.1435868955773172
-0.20491055999999996,1.5553592595856498,1.1366133646552603
-0.20488447999999998,1.556349626822055,1.1296398337332225
-0.2048584,1.5570098716463254,1.1226663028111816
-0.20483231999999998,1.5580002388827316,1.1156927718891345
-0.20480623999999997,1.5586604837070028,1.108055095164988
-0.20478016,1.5596508509434086,1.1014136371439966
-0.20475408,1.5606412181798137,1.094440106221959
-0.20472799999999997,1.561301463004086,1.0874665752999022
-0.20470191999999998,1.561961707828356,1.0804930443778646
-0.20467584,1.563282197476897,1.0741836592579228
-0.20464976,1.5639424423011683,1.0675422012369258
-0.20462367999999997,1.564932809537575,1.0609007432159285
-0.2045976,1.5662532991861151,1.0545913580959896
-0.20457151999999998,1.5672436664225218,1.0479499000749923
-0.20454543999999997,1.5682340336589287,1.0416405149550452
-0.20451935999999998,1.5695545233074695,1.035663202736153
-0.20449328,1.570544890543875,1.0293538176162111
-0.2044672,1.5715352577802815,1.0233765053973134
-0.20444111999999998,1.5728557474288234,1.0173991931784159
-0.20441504,1.5738461146652285,1.011753953860576
-0.20438895999999998,1.5751666043137704,1.006108714542728
-0.20436287999999997,1.5764870939623121,1.00079554812593
-0.20433679999999999,1.5771473387865826,0.9951503088080875
-0.20431072,1.5784678284351235,0.9898371423912945
-0.20428464,1.5797883180836656,0.9845239759744966
-0.20425855999999998,1.5807786853200723,0.9788787366566493
-0.20423248,1.5820991749686124,0.9742297160419575
-0.20420639999999998,1.5830895422050193,0.9692486225262097
-0.20418031999999997,1.584079909441426,0.9639354561094121
-0.20415424,1.5854003990899668,0.9592864354947181
-0.20412816,1.5867208887385071,0.9546374148800264
-0.20410208,1.5877112559749138,0.9499883942653282
-0.20407599999999998,1.5890317456234557,0.9456714465516798
-0.20404992,1.5900221128598613,0.9413544988380355
-0.20402383999999998,1.5913426025084032,0.9370375511243872
-0.20399775999999997,1.5926630921569453,0.9327206034107391
-0.20397168,1.5939835818054862,0.9287357285981442
-0.2039456,1.5949739490418913,0.9244187808845019
-0.20391951999999997,1.5962944386904345,0.9207659789729474
-0.20389343999999998,1.5972848059268396,0.9167811041603545
-0.20386736,1.5986052955753804,0.9134603751498589
-0.20384127999999999,1.5995956628117873,0.9098075732383104
-0.20381519999999997,1.600586030048194,0.906486844227812
-0.20378912,1.60223664210887,0.9034981881183658
-0.20376303999999998,1.6032270093452763,0.9001774591078687
-0.20373695999999997,1.604217376581683,0.8975208758994696
-0.20371087999999998,1.6055378662302238,0.8945322197900235
-0.2036848,1.6065282334666295,0.891875636581627
-0.20365872,1.6078487231151712,0.889219053373228
-0.20363263999999998,1.6091692127637132,0.8868945430658788
-0.20360656,1.6101595800001185,0.8842379598574835
-0.20358047999999998,1.611149947236525,0.882245522451184
-0.20355439999999997,1.6124704368850666,0.8802530850448846
-0.20352831999999998,1.6131306817093372,0.8779285747375377
-0.20350224,1.6144511713578777,0.8762682102322898
-0.20347616,1.6154415385942846,0.8742757728259908
-0.20345007999999998,1.6164319058306913,0.8722833354196919
-0.203424,1.6177523954792314,0.8709550438154942
-0.20339791999999998,1.6184126403035028,0.8689626064091953
-0.20337183999999997,1.6194030075399095,0.8679663877060456
-0.20334576,1.6207234971884503,0.8666380961018474
-0.20331968,1.6217138644248557,0.8653098044976497
-0.2032936,1.6230343540733971,0.8646456586955494
-0.20326751999999998,1.624024721309804,0.8636494399923998
-0.20324144,1.6246849661340745,0.8629852941903008
-0.20321535999999998,1.6260054557826162,0.8623211483882011
-0.20318927999999997,1.6269958230190227,0.8616570025861015
-0.2031632,1.6279861902554282,0.8613249296850519
-0.20313712,1.6289765574918336,0.8609928567840025
-0.20311103999999996,1.6299669247282416,0.8599966380808534
-0.20308495999999998,1.631287414376782,0.8603287109819028
-0.20305888,1.6319476592010524,0.8603287109819028
-0.20303279999999999,1.6329380264374587,0.859996638080853
-0.20300671999999997,1.633928393673865,0.8603287109819029
-0.20298064,1.6345886384981356,0.8606607838829524
-0.20295455999999998,1.635579005734542,0.8613249296850524
-0.20292847999999997,1.6365693729709483,0.8623211483882016
-0.20290239999999998,1.6372296177952186,0.8629852941903005
-0.20287632,1.6382199850316241,0.8643135857944988
-0.20285024,1.639540474680166,0.8653098044976485
-0.20282415999999998,1.640200719504437,0.8666380961018479
-0.20279808,1.6411910867408424,0.8679663877060456
-0.20277199999999998,1.6418513315651135,0.8692946793102451
-0.20274591999999997,1.64284169880152,0.8712871167165442
-0.20271983999999998,1.6438320660379258,0.8732795541228416
-0.20269376,1.6444923108621963,0.875271991529139
-0.20266768,1.6454826780986025,0.8772644289354382
-0.20264159999999998,1.6458128005107384,0.8792568663417377
-0.20261552,1.6468031677471435,0.8815813766490834
-0.20258943999999998,1.6474634125714147,0.8842379598574823
-0.20256335999999997,1.6481236573956857,0.8868945430658812
-0.20253728,1.648783902219956,0.8895511262742778
-0.2025112,1.6494441470442267,0.8922077094826742
-0.20248512,1.6501043918684972,0.8951963655921216
-0.20245903999999998,1.6510947591049037,0.8985170946026201
-0.20243296,1.6514248815170387,0.9015057507120662
-0.20240687999999998,1.6520851263413097,0.9051585526236144
-0.20238079999999997,1.6524152487534451,0.9084792816341132
-0.20235472,1.6530754935777159,0.9118000106446088
-0.20232864,1.6537357384019857,0.9161169583582511
-0.20230255999999996,1.6540658608141225,0.9197697602698058
-0.20227647999999998,1.6547261056383926,0.9240867079834483
-0.2022504,1.6550562280505277,0.9284036556970926
-0.20222431999999999,1.6553863504626634,0.9323885305096912
-0.20219823999999997,1.6563767176990694,0.9373696240254389
-0.20217216,1.6563767176990694,0.9416865717390832
-0.20214607999999998,1.6570369625233403,0.9463355923537814
-0.20211999999999997,1.657367084935476,0.9509846129684798
-0.20209391999999998,1.6580273297597463,0.9559657064842211
-0.20206784,1.6583574521718814,0.9609467999999646
-0.20204176,1.6586875745840168,0.9659278935157125
-0.20201567999999998,1.659347819408288,0.9712410599325104
-0.2019896,1.6596779418204228,0.976554226349301
-0.20196351999999998,1.6600080642325583,0.9818673927660989
-0.20193743999999997,1.6606683090568295,0.9875126320839466
-0.20191135999999998,1.6609984314689643,0.9931578714017892
-0.20188528,1.6613285538810996,0.9988031107196319
-0.2018592,1.6613285538810998,1.0047804229385293
