DAQ/testing_accel_4_6/test_full_0051.csv

#Digilent WaveForms Oscilloscope Acquisition
#Device Name: Discovery2
#Serial Number: SN:210321B02866
#Date Time: 2021-04-06 19:02:57.525
#Sample rate: 38343.6Hz
#Samples: 8192
#Trigger: None
#Channel 1: Range: 500 mV/div Offset: -1.15 V Attenuation: 1 X
#Channel 2: Range: 500 mV/div Offset: -1.45 V Attenuation: 1 X
#Power Supplies: ON
#Positive Supply: ON
#Voltage: 3.3 V
#Negative Supply: OFF
#Voltage: -3.3 V

Time (s),Channel 1 (V),Channel 2 (V)
-0.21116975999999998,1.6583574521718816,1.1728093108696858
-0.21114368,1.6580273297597465,1.1807790604948754
-0.2111176,1.6576972073476108,1.1884167372190224
-0.21109151999999998,1.6573670849354751,1.196386486844219
-0.21106544,1.6570369625233403,1.2040241635683555
-0.21103935999999998,1.6567068401112048,1.212325986094602
-0.21101327999999997,1.6563767176990691,1.2202957357197988
-0.21098719999999999,1.6557164728747988,1.2282654853449884
-0.21096112,1.6557164728747988,1.2365673078712238
-0.21093504,1.655056228050528,1.244537057496421
-0.21090895999999998,1.6550562280505279,1.2528388800226673
-0.21088288,1.6547261056383928,1.2611407025489065
-0.21085679999999998,1.6540658608141219,1.269442525075153
-0.21083071999999997,1.6537357384019862,1.2777443476013999
-0.21080464,1.6534056159898511,1.2860461701276389
-0.21077856,1.653075493577716,1.2943479926538743
-0.21075247999999996,1.6524152487534447,1.302981888081182
-0.21072639999999998,1.6520851263413097,1.3112837106074173
-0.21070032,1.6514248815170391,1.319917606034706
-0.21067423999999998,1.6507646366927684,1.3278873556599033
-0.21064815999999997,1.6504345142806327,1.3368533239882494
-0.21062208,1.6497742694563622,1.3451551465144884
-0.21059599999999998,1.6491140246320912,1.353789041941785
-0.21056991999999997,1.6487839022199553,1.3624229373690813
-0.21054383999999998,1.6481236573956854,1.3707247598953167
-0.21051776,1.6477935349835502,1.3793586553226054
-0.21049168,1.646803167747144,1.3876604778488522
-0.21046559999999997,1.646142922922873,1.3959623003750992
-0.21043952,1.6458128005107382,1.4045961958023838
-0.21041343999999998,1.645152555686467,1.4128980183286306
-0.21038735999999997,1.6448224332743315,1.4211998408548772
-0.21036127999999998,1.644162188450061,1.4291695904800668
-0.2103352,1.6435019436257905,1.4378034859073554
-0.21030912,1.6428416988015195,1.4457732355325525
-0.21028303999999998,1.6421814539772486,1.4537429851577495
-0.21025696,1.6415212091529783,1.462044807683985
-0.21023087999999998,1.640530841916572,1.4700145573091818
-0.21020479999999997,1.639870597092301,1.4783163798354282
-0.21017871999999999,1.6392103522680306,1.4859540565595681
-0.21015264,1.6385501074437605,1.493923806184754
-0.21012656,1.6378898626194893,1.501893555809951
-0.21010047999999998,1.636899495383083,1.5095312325340982
-0.2100744,1.6362392505588126,1.5178330550603372
-0.21004831999999998,1.6355790057345416,1.5254707317844844
-0.21002223999999997,1.6345886384981354,1.5331084085086315
-0.20999616,1.6339283936738649,1.541078158133821
-0.20997008,1.6332681488495948,1.5480516890558587
-0.20994399999999996,1.6322777816131873,1.5560214386810651
-0.20991791999999998,1.631287414376782,1.5636591154052017
-0.20989184,1.6306271695525114,1.5709647192282923
-0.20986575999999998,1.6296368023161052,1.5786023959524391
-0.20983967999999997,1.6286464350796988,1.5855759268744865
-0.2098136,1.6279861902554282,1.5928815306975768
-0.20978751999999998,1.6269958230190218,1.600187134520674
-0.20976143999999997,1.6260054557826153,1.6074927383437707
-0.20973535999999998,1.62501508854621,1.6144662692658085
-0.20970928,1.6240247213098045,1.6214398001878494
-0.2096832,1.6230343540733978,1.6287454040109461
-0.20965711999999997,1.6220439868369914,1.6353868620319438
-0.20963104,1.6210536196005862,1.642692465855031
-0.20960495999999998,1.6200632523641796,1.6493339238760285
-0.20957887999999997,1.6190728851277731,1.655975381897026
-0.20955279999999998,1.6180825178913674,1.6626168399180172
-0.20952672,1.6167620282428268,1.6692582979390085
-0.20950064,1.61577166100642,1.675899755960006
-0.20947455999999998,1.6147812937700132,1.682541213981003
-0.20944848,1.613460804121473,1.6885185261998925
-0.20942239999999998,1.6124704368850664,1.6951599842208895
-0.20939631999999997,1.6111499472365247,1.701469369340837
-0.20937023999999999,1.6104897024122542,1.7077787544607785
-0.20934416,1.6094993351758484,1.713756066679671
-0.20931808,1.6081788455273067,1.7197333788985685
-0.20929199999999998,1.6071884782909005,1.726042764018513
-0.20926592,1.606198111054495,1.7316880033363555
-0.20923983999999998,1.604877621405953,1.7373332426542034
-0.20921375999999997,1.6042173765816816,1.7433105548731007
-0.20918768,1.6028968869331408,1.7486237212898939
-0.2091616,1.6019065196967357,1.7542689606077337
-0.20913551999999996,1.6009161524603275,1.7595821270245389
-0.20910943999999998,1.5995956628117873,1.7645632205402801
-0.20908336,1.5989354179875168,1.7702084598581227
-0.20905727999999998,1.5976149283389751,1.7748574804728214
-0.20903119999999997,1.5966245611025685,1.7798385739885694
-0.20900512,1.5953040714540276,1.7848196675043129
-0.20897903999999998,1.5939835818054857,1.7891366152179613
-0.20895295999999997,1.592993214569079,1.794117708733709
-0.20892687999999998,1.5916727249205387,1.7984346564473512
-0.2089008,1.590682357684133,1.8027516041609954
-0.20887471999999999,1.5896919904477265,1.8070685518746439
-0.20884863999999997,1.5883715007991845,1.8107213537861928
-0.20882256,1.5873811335627792,1.8153703744008844
-0.20879647999999998,1.5860606439142375,1.818691103411384
-0.20877039999999997,1.5850702766778308,1.8223439053229324
-0.20874431999999998,1.5840799094414253,1.825664634333428
-0.20871824,1.5827594197928845,1.8289853633439235
-0.20869216,1.5817690525564778,1.8323060923544223
-0.20866607999999998,1.580448562907936,1.835294748463871
-0.20864,1.5794581956715308,1.8382834045733158
-0.20861391999999998,1.5781377060229889,1.840939987781715
-0.20858783999999997,1.576817216374447,1.843264498089064
-0.20856175999999998,1.5758268491380412,1.8459210812974607
-0.20853568,1.5745063594895006,1.847913518703758
-0.2085096,1.572855747428823,1.850238029011107
-0.20848351999999998,1.5718653801924165,1.8518983935163564
-0.20845744,1.5708750129560114,1.853890830922653
-0.20843135999999998,1.5695545233074695,1.8555511954279025
-0.20840527999999997,1.5685641560710626,1.8572115599331516
-0.2083792,1.5672436664225218,1.85853985153735
-0.20835312,1.5659231767739816,1.8595360702404982
-0.20832703999999996,1.5649328095375732,1.8608643618446987
-0.20830095999999998,1.5636123198890328,1.861860580547847
-0.20827488,1.5626219526526273,1.8625247263499463
-0.20824879999999998,1.5613014630040853,1.8631888721520458
-0.20822271999999997,1.5603110957676787,1.8635209450530958
-0.20819664,1.5593207285312731,1.8638530179541453
-0.20817056,1.5580002388827328,1.8641850908551947
-0.20814447999999997,1.5570098716463248,1.864185090855195
-0.20811839999999998,1.5560195044099197,1.864185090855195
-0.20809232,1.5546990147613788,1.864185090855195
-0.20806623999999999,1.553708647524972,1.8638530179541453
-0.20804015999999997,1.5527182802885655,1.8631888721520455
-0.20801408,1.5517279130521602,1.8628567992509963
-0.20798799999999998,1.5504074234036185,1.8621926534488966
-0.20796191999999997,1.5494170561672118,1.861196434745747
-0.20793583999999998,1.5484266889308063,1.8602002160425983
-0.20790976,1.5474363216944007,1.8592039973394496
-0.20788368,1.546445954457994,1.8578757057352504
-0.20785759999999998,1.5454555872215876,1.856547414131051
-0.20783152,1.5444652199851823,1.8548870496258036
-0.20780543999999998,1.5434748527487758,1.8535587580216042
-0.20777935999999997,1.5424844855123694,1.8518983935163549
-0.20775327999999998,1.5414941182759636,1.850238029011107
-0.2077272,1.540503751039558,1.8485776645058591
-0.20770112,1.5395133838031514,1.8469173000006098
-0.20767503999999998,1.538523016566745,1.8449248625943104
-0.20764896,1.5375326493303398,1.8426003522869645
-0.20762287999999998,1.5368724045060687,1.8402758419796155
-0.20759679999999997,1.5358820372696622,1.8376192587712163
-0.20757072,1.535221792445392,1.8346306026617702
-0.20754464,1.5342314252089866,1.8316419465523255
-0.20751856,1.5335711803847152,1.8286532904428767
-0.20749247999999998,1.532580813148309,1.8253325614323783
-0.2074664,1.5319205683240384,1.821679759520833
-0.20744031999999998,1.530930201087632,1.8183590305103343
-0.20741423999999997,1.5302699562633613,1.8147062285987856
-0.20738816,1.5296097114390905,1.8107213537861906
-0.20736208,1.5289494666148207,1.8064044060725484
-0.20733599999999996,1.5286193442026839,1.8020874583588942
-0.20730991999999998,1.5279590993784138,1.7977705106452517
-0.20728384,1.5272988545541433,1.7934535629316075
-0.20725775999999999,1.5266386097298725,1.789136615217959
-0.20723167999999997,1.5259783649056013,1.7841555217022111
-0.2072056,1.5256482424934663,1.7795065010875173
-0.20717951999999998,1.52465787525706,1.7745254075717694
-0.20715343999999997,1.5243277528449246,1.7695443140560236
-0.20712735999999998,1.5239976304327896,1.7645632205402801
-0.20710128,1.523337385608519,1.759250054123487
-0.2070752,1.5230072631963834,1.7539368877066892
-0.20704911999999998,1.5223470183721126,1.7486237212898912
-0.20702304,1.5223470183721126,1.7429784819720513
-0.20699695999999998,1.521686773547842,1.7373332426542034
-0.20697087999999997,1.5213566511357064,1.7316880033363555
-0.20694479999999998,1.5210265287235711,1.7257106911174633
-0.20691872,1.5210265287235711,1.7197333788985711
-0.20689264,1.5206964063114359,1.7137560666796736
-0.20686655999999998,1.5203662838993004,1.7077787544607754
-0.20684048,1.5200361614871654,1.7011372964397875
-0.20681439999999998,1.5197060390750299,1.6951599842208895
-0.20678831999999997,1.5197060390750297,1.6888505991009417
-0.20676223999999999,1.5193759166628944,1.6822091410799505
-0.20673616,1.5190457942507594,1.676231828861061
-0.20671008,1.5190457942507591,1.6695903708400643
-0.20668399999999998,1.5187156718386237,1.6629489128190669
-0.20665792,1.5187156718386237,1.6563074547980758
-0.20663183999999998,1.5183855494264884,1.6496659967770784
-0.20660575999999997,1.5183855494264884,1.643024538756081
-0.20657968,1.5183855494264884,1.63605100783404
-0.2065536,1.5183855494264884,1.6294095498130516
-0.20652751999999996,1.5183855494264884,1.6224360188909952
-0.20650143999999998,1.5183855494264884,1.6154624879689576
-0.20647536,1.5187156718386234,1.6084889570469165
-0.20644927999999999,1.5183855494264884,1.6011833532238198
-0.20642319999999997,1.5187156718386237,1.5942098223017724
-0.20639712,1.5187156718386237,1.586904218478682
-0.20637103999999998,1.5187156718386239,1.580262760457684
-0.20634495999999997,1.5190457942507594,1.5726250837335376
-0.20631887999999998,1.5193759166628944,1.5656515528115
-0.2062928,1.5197060390750297,1.55801387608736
-0.20626672,1.5197060390750299,1.5507082722642629
-0.20624063999999998,1.51970603907503,1.5434026684411657
-0.20621456,1.520036161487165,1.5360970646180787
-0.20618847999999998,1.5203662838993006,1.5287914607949815
-0.20616239999999997,1.5203662838993008,1.5211537840708345
-0.20613631999999998,1.5206964063114359,1.5135161073466947
-0.20611024,1.521026528723571,1.5062105035236042
-0.20608416,1.5213566511357066,1.4985728267994574
-0.20605807999999998,1.5216867735478423,1.4906030771742609
-0.206032,1.5220168959599771,1.483297473351174
-0.20600591999999998,1.5223470183721126,1.475659796627027
-0.20597983999999997,1.5230072631963834,1.4676900470018301
-0.20595375999999999,1.5230072631963834,1.4597202973766406
-0.20592768,1.5236675080206539,1.4520826206525006
-0.2059016,1.5239976304327896,1.4444449439283538
-0.20587551999999998,1.5246578752570603,1.4364751943031604
-0.20584944,1.5249879976691953,1.4285054446779708
-0.20582335999999998,1.5256482424934663,1.4208677679538237
-0.20579727999999997,1.5259783649056018,1.412898018328627
-0.2057712,1.5266386097298725,1.4049282687034375
-0.20574512,1.5272988545541424,1.3969585190782516
-0.20571903999999996,1.5276289769662792,1.3893208423540935
-0.20569295999999998,1.5282892217905493,1.3813510927289077
-0.20566688,1.5289494666148198,1.3737134160047677
-0.20564079999999998,1.5296097114390905,1.3657436663795708
-0.20561471999999997,1.5302699562633617,1.358105989655424
-0.20558864,1.530930201087632,1.3501362400302341
-0.20556255999999998,1.5319205683240384,1.3424985633060873
-0.20553647999999997,1.5325808131483099,1.3345288136808906
-0.20551039999999998,1.533571180384715,1.3268911369567542
-0.20548432,1.5342314252089855,1.3192534602326143
-0.20545824,1.5348916700332564,1.3116157835084672
-0.20543215999999997,1.5358820372696627,1.3039781067843201
-0.20540608,1.536542282093933,1.2963404300601837
-0.20537999999999998,1.537202526918204,1.2887027533360367
-0.20535391999999997,1.5381928941546104,1.2810650766118896
-0.20532783999999998,1.5391832613910161,1.27342739988775
-0.20530176,1.540173628627422,1.2661217960646594
-0.20527568,1.5408338734516929,1.2588161922415622
-0.20524959999999998,1.5418242406880998,1.2515105884184654
-0.20522352,1.5431447303366397,1.2445370574964276
-0.20519743999999998,1.5444652199851818,1.2375635265743805
-0.20517135999999997,1.5454555872215887,1.2305899956523332
-0.20514527999999999,1.5467760768701295,1.2236164647302923
-0.2051192,1.547766444106535,1.2166429338082514
-0.20509312,1.549086933755077,1.2096694028862043
-0.20506703999999998,1.5500773009914834,1.2026958719641572
-0.20504096,1.5510676682278888,1.1957223410421194
-0.20501487999999998,1.5520580354642952,1.188748810120072
-0.20498879999999997,1.5530484027007017,1.1824394250001242
-0.20496272,1.5540387699371074,1.1751338211770337
-0.20493664,1.5553592595856478,1.1684923631560455
-0.20491055999999996,1.5566797492341908,1.1618509051350387
-0.20488447999999998,1.5573399940584611,1.154877374213001
-0.2048584,1.5586604837070017,1.14823591619201
-0.20483231999999998,1.5596508509434086,1.1415944581710125
-0.20480623999999997,1.5606412181798153,1.1349530001500152
-0.20478016,1.561961707828356,1.1286436150300734
-0.20475408,1.5626219526526262,1.1220021570090852
-0.20472799999999997,1.5639424423011694,1.1156927718891287
-0.20470191999999998,1.5652629319497096,1.10938338676919
-0.20467584,1.5659231767739803,1.1027419287481988
-0.20464976,1.5672436664225218,1.096432543628251
-0.20462367999999997,1.5682340336589287,1.0904552314093532
-0.2045976,1.5695545233074688,1.0841458462894145
-0.20457151999999998,1.5705448905438755,1.0781685340705165
-0.20454543999999997,1.5718653801924172,1.0725232947526684
-0.20451935999999998,1.5725256250166877,1.0658818367316771
-0.20449328,1.5738461146652283,1.0602365974138346
-0.2044672,1.5751666043137704,1.0545913580959867
-0.20444111999999998,1.5761569715501773,1.0486140458770894
-0.20441504,1.5774774611987175,1.043300879460299
-0.20438895999999998,1.5784678284351241,1.0369914943403518
-0.20436287999999997,1.5797883180836663,1.031678327923554
-0.20433679999999999,1.581108807732207,1.0263651615067608
-0.20431072,1.5820991749686126,1.0207199221889183
-0.20428464,1.5830895422050193,1.0154067557721203
-0.20425855999999998,1.5840799094414257,1.0100935893553225
-0.20423248,1.5850702766778308,1.0047804229385318
-0.20420639999999998,1.5867208887385083,0.9997993294227836
-0.20418031999999997,1.5877112559749147,0.9948182359070357
-0.20415424,1.5887016232113202,0.9898371423912921
-0.20412816,1.5900221128598606,0.9851881217766003
-0.20410208,1.5910124800962675,0.9802070282608526
-0.20407599999999998,1.592002847332674,0.9755580076461543
-0.20404992,1.5933233369812148,0.9715731328335595
-0.20402383999999998,1.594643826629757,0.9669241122188617
-0.20399775999999997,1.5959643162782988,0.9629392374062633
-0.20397168,1.5972848059268396,0.9589543625936685
-0.2039456,1.598275173163245,0.9549694877810756
-0.20391951999999997,1.5999257852239237,0.9513166858695213
-0.20389343999999998,1.601246274872464,0.9473318110569284
-0.20386736,1.6022366421088696,0.9436790091453832
-0.20384127999999999,1.6035571317574115,0.9403582801348843
-0.20381519999999997,1.6045474989938182,0.9363734053222862
-0.20378912,1.605867988642359,0.9330526763117906
-0.20376303999999998,1.6068583558787652,0.9297319473012934
-0.20373695999999997,1.6078487231151717,0.926411218290795
-0.20371087999999998,1.6088390903515775,0.9234225621813489
-0.2036848,1.6101595800001183,0.9204339060719027
-0.20365872,1.611149947236525,0.9177773228635037
-0.20363263999999998,1.6124704368850666,0.9151207396551047
-0.20360656,1.613130681709337,0.9124641564467094
-0.20358047999999998,1.614781293770014,0.9101396461393602
-0.20355439999999997,1.6157716610064203,0.9078151358320112
-0.20352831999999998,1.616762028242826,0.9058226984257138
-0.20350224,1.6184126403035022,0.9041623339204661
-0.20347616,1.6194030075399088,0.9015057507120675
-0.20345007999999998,1.6203933747763157,0.8998453862068182
-0.203424,1.6217138644248559,0.8981850217015712
-0.20339791999999998,1.6227042316612625,0.8965246571963218
-0.20337183999999997,1.6236945988976692,0.895196365592122
-0.20334576,1.6246849661340748,0.8932039281858246
-0.20331968,1.6256753333704799,0.8922077094826764
-0.2032936,1.6269958230190216,0.8912114907795268
-0.20326751999999998,1.627656067843293,0.8898831991753274
-0.20324144,1.6286464350796985,0.8892190533732284
-0.20321535999999998,1.6296368023161052,0.8882228346700789
-0.20318927999999997,1.6306271695525119,0.8875586888679792
-0.2031632,1.6319476592010527,0.88689454306588
-0.20313712,1.6326079040253227,0.8858983243627317
-0.20311103999999996,1.6335982712617303,0.8855662514616807
-0.20308495999999998,1.6345886384981356,0.8849021056595817
-0.20305888,1.6352488833224061,0.8845700327585322
-0.20303279999999999,1.6365693729709476,0.8845700327585321
-0.20300671999999997,1.637229617795219,0.8842379598574824
-0.20298064,1.6382199850316246,0.8845700327585321
-0.20295455999999998,1.6392103522680308,0.8849021056595818
-0.20292847999999997,1.6398705970923024,0.8852341785606324
-0.20290239999999998,1.6411910867408428,0.8862303972637806
-0.20287632,1.6418513315651133,0.8865624701648303
-0.20285024,1.6428416988015195,0.8875586888679795
-0.20282415999999998,1.643832066037926,0.888554907571129
-0.20279808,1.6444923108621963,0.8892190533732277
-0.20277199999999998,1.645152555686467,0.8905473449774269
-0.20274591999999997,1.6458128005107384,0.8915435636805766
-0.20271983999999998,1.646803167747144,0.892871855284775
-0.20269376,1.6474634125714145,0.8942001468889732
-0.20266768,1.6484537798078207,0.8958605113942224
-0.20264159999999998,1.6491140246320917,0.8975208758994718
-0.20261552,1.649774269456362,0.8995133133057683
-0.20258943999999998,1.6507646366927684,0.9015057507120675
-0.20256335999999997,1.6514248815170391,0.9034981881183667
-0.20253728,1.6520851263413097,0.9054906255246642
-0.2025112,1.6530754935777154,0.9081472087330607
-0.20248512,1.6537357384019862,0.9104717190404088
-0.20245903999999998,1.6547261056383926,0.9131283022488076
-0.20243296,1.6553863504626631,0.9161169583582537
-0.20240687999999998,1.656046595286934,0.9191056144677026
-0.20238079999999997,1.656706840111205,0.922426343478201
-0.20235472,1.65703696252334,0.9254149995876472
-0.20232864,1.6576972073476102,0.9290678014991907
-0.20230255999999996,1.658027329759747,0.9320564576086451
-0.20227647999999998,1.6586875745840168,0.936041332421238
-0.2022504,1.6593478194082876,0.9396941343327833
-0.20222431999999999,1.659677941820423,0.9430148633432821
-0.20219823999999997,1.6603381866446938,0.9473318110569301
-0.20217216,1.6603381866446938,0.9509846129684753
-0.20214607999999998,1.6609984314689645,0.9556336335831731
-0.20211999999999997,1.6613285538811,0.9596185083957718
-0.20209391999999998,1.6616586762932353,0.9639354561094142
-0.20206784,1.6623189211175056,0.9685844767241082
-0.20204176,1.6623189211175058,0.9729014244377565
-0.20201567999999998,1.662979165941777,0.9775504450524547
-0.2019896,1.6633092883539118,0.9821994656671466
-0.20196351999999998,1.6636394107660473,0.9871805591828944
-0.20193743999999997,1.663969533178183,0.9921616526986422
-0.20191135999999998,1.6642996555903182,0.9968106733133362
-0.20188528,1.6646297780024533,1.002123839730129
-0.2018592,1.6646297780024535,1.0067728603448276
