DAQ/testing_accel_4_6/test_full_0025.csv

#Digilent WaveForms Oscilloscope Acquisition
#Device Name: Discovery2
#Serial Number: SN:210321B02866
#Date Time: 2021-04-06 19:02:51.804
#Sample rate: 38343.6Hz
#Samples: 8192
#Trigger: None
#Channel 1: Range: 500 mV/div Offset: -1.15 V Attenuation: 1 X
#Channel 2: Range: 500 mV/div Offset: -1.45 V Attenuation: 1 X
#Power Supplies: ON
#Positive Supply: ON
#Voltage: 3.3 V
#Negative Supply: OFF
#Voltage: -3.3 V

Time (s),Channel 1 (V),Channel 2 (V)
-0.21116975999999998,1.6550562280505279,1.056583795502285
-0.21114368,1.6550562280505279,1.0628931806222268
-0.2111176,1.6550562280505279,1.069534638643224
-0.21109151999999998,1.6547261056383926,1.076176096664221
-0.21106544,1.6547261056383926,1.08248548178416
-0.21103935999999998,1.6547261056383926,1.089459012706207
-0.21101327999999997,1.6543959832262571,1.096432543628254
-0.21098719999999999,1.6540658608141219,1.103406074550295
-0.21096112,1.6540658608141219,1.1107116783733821
-0.21093504,1.6537357384019866,1.1180172821964793
-0.21090895999999998,1.6537357384019864,1.1253228860195763
-0.21088288,1.6534056159898514,1.1329605627437163
-0.21085679999999998,1.6527453711655804,1.1399340936657638
-0.21083071999999997,1.6527453711655802,1.1479038432909603
-0.21080464,1.6520851263413097,1.1552094471140508
-0.21077856,1.6520851263413097,1.1625150509371378
-0.21075247999999996,1.6517550039291742,1.1704848005623447
-0.21072639999999998,1.651424881517039,1.1781224772864811
-0.21070032,1.6510947591049039,1.1860922269116707
-0.21067423999999998,1.6507646366927684,1.1940619765368676
-0.21064815999999997,1.6497742694563622,1.201699653261015
-0.21062208,1.6497742694563622,1.210001475787254
-0.21059599999999998,1.6487839022199557,1.2179712254124508
-0.21056991999999997,1.6484537798078205,1.2262730479386976
-0.21054383999999998,1.6481236573956854,1.2345748704649329
-0.21051776,1.647463412571415,1.2422125471890728
-0.21049168,1.6471332901592792,1.2505143697153194
-0.21046559999999997,1.6464730453350083,1.2591482651426158
-0.21043952,1.6461429229228735,1.267450087668851
-0.21041343999999998,1.6454826780986025,1.2757519101950978
-0.21038735999999997,1.6448224332743315,1.2840537327213444
-0.21036127999999998,1.644162188450061,1.2923555552475836
-0.2103352,1.643832066037926,1.3006573777738228
-0.21030912,1.6428416988015195,1.3089592003000694
-0.21028303999999998,1.642511576389384,1.3175930957273658
-0.21025696,1.6418513315651138,1.3258949182536013
-0.21023087999999998,1.6408609643287075,1.3338646678787982
-0.21020479999999997,1.6402007195044364,1.342830636207144
-0.21017871999999999,1.639540474680166,1.3508003858323336
-0.21015264,1.6385501074437607,1.359102208358569
-0.21012656,1.6382199850316248,1.3677361037858653
-0.21010047999999998,1.636899495383083,1.3757058534110624
-0.2100744,1.6362392505588126,1.384339748838351
-0.21004831999999998,1.6355790057345416,1.3929736442656477
-0.21002223999999997,1.6345886384981354,1.4012754667918945
-0.20999616,1.6339283936738649,1.4099093622191832
-0.20997008,1.6332681488495948,1.418543257646468
-0.20994399999999996,1.6322777816131875,1.4265130072716767
-0.20991791999999998,1.6316175367889172,1.4351469026989616
-0.20989184,1.6306271695525116,1.4434487252252008
-0.20986575999999998,1.6299669247282405,1.4517505477514474
-0.20983967999999997,1.628976557491834,1.460052370277694
-0.2098136,1.6279861902554282,1.4680221199028836
-0.20978751999999998,1.6273259454311575,1.4766560153301798
-0.20976143999999997,1.6266657006068859,1.4846257649553767
-0.20973535999999998,1.6256753333704808,1.4925955145805625
-0.20970928,1.6246849661340752,1.5008973371068017
-0.2096832,1.6236945988976688,1.5088670867319987
-0.20965711999999997,1.6230343540733974,1.5168368363571954
-0.20963104,1.6220439868369922,1.5248065859823814
-0.20960495999999998,1.6210536196005858,1.5324442627065284
-0.20957887999999997,1.6200632523641794,1.540746085232775
-0.20955279999999998,1.6194030075399088,1.5483837619569147
-0.20952672,1.6184126403035033,1.5563535115821046
-0.20950064,1.6174222730670968,1.5643232612073013
-0.20947455999999998,1.6164319058306902,1.5716288650303984
-0.20944848,1.615441538594285,1.5795986146555847
-0.20942239999999998,1.614781293770014,1.5875683642807814
-0.20939631999999997,1.6134608041214722,1.5948739681038786
-0.20937023999999999,1.6128005592972017,1.6025116448280186
-0.20934416,1.6118101920607961,1.609817248651109
-0.20931808,1.6104897024122542,1.617122852474206
-0.20929199999999998,1.609499335175848,1.6247605291983496
-0.20926592,1.6085089679394424,1.6317340601203905
-0.20923983999999998,1.607518600703036,1.6387075910424378
-0.20921375999999997,1.6065282334666295,1.6463452677665842
-0.20918768,1.6055378662302238,1.6529867257875754
-0.2091616,1.6045474989938184,1.659960256709613
-0.20913551999999996,1.6035571317574104,1.667265860532719
-0.20910943999999998,1.60223664210887,1.6735752456526578
-0.20908336,1.6015763972845998,1.6808808494757483
-0.20905727999999998,1.6005860300481933,1.687522307496746
-0.20903119999999997,1.5992655403996514,1.6938316926166936
-0.20900512,1.5982751731632459,1.7008052235387345
-0.20897903999999998,1.5976149283389744,1.7074466815597318
-0.20895295999999997,1.5962944386904325,1.7137560666796794
-0.20892687999999998,1.5949739490418922,1.7200654517996181
-0.2089008,1.5943137042176216,1.72637483691956
-0.20887471999999999,1.5929932145690802,1.7323521491384577
-0.20884863999999997,1.5920028473326735,1.7386615342584049
-0.20882256,1.5910124800962684,1.7446388464772946
-0.20879647999999998,1.5900221128598617,1.7502840857951423
-0.20877039999999997,1.5893618680355905,1.7562613980140398
-0.20874431999999998,1.588371500799185,1.7619066373318824
-0.20871824,1.5873811335627792,1.7672198037486755
-0.20869216,1.5863907663263728,1.7728650430665231
-0.20866607999999998,1.5854003990899663,1.7781782094833207
-0.20864,1.5844100318535612,1.783159302999062
-0.20861391999999998,1.5834196646171546,1.7888045423169094
-0.20858783999999997,1.582429297380748,1.7934535629316077
-0.20856175999999998,1.5814389301443423,1.7984346564473512
-0.20853568,1.5804485629079368,1.803083677062045
-0.2085096,1.5794581956715303,1.8074006247756935
-0.20848351999999998,1.5784678284351237,1.8120496453903916
-0.20845744,1.5774774611987186,1.8163665931040338
-0.20843135999999998,1.576487093962312,1.8200193950155827
-0.20840527999999997,1.5754967267259055,1.824004269828181
-0.2083792,1.5745063594895,1.8279891446407759
-0.20835312,1.5735159922530946,1.8316419465523195
-0.20832703999999996,1.5721955026045513,1.8352947484638729
-0.20830095999999998,1.5712051353681462,1.8386154774743668
-0.20827488,1.5702147681317404,1.8412720606827635
-0.20824879999999998,1.569224400895334,1.844592789693262
-0.20822271999999997,1.5682340336589276,1.8475814458027104
-0.20819664,1.5672436664225218,1.8499059561100573
-0.20817056,1.5662532991861167,1.852894612219502
-0.20814447999999997,1.5652629319497084,1.8548870496258048
-0.20811839999999998,1.5639424423011683,1.8568794870321013
-0.20809232,1.5632821974768978,1.859203997339448
-0.20806623999999999,1.561961707828356,1.8611964347457475
-0.20804015999999997,1.5609713405919496,1.862856799250997
-0.20801408,1.5599809733555443,1.8648492366572935
-0.20798799999999998,1.5589906061191379,1.8658454553604435
-0.20796191999999997,1.557670116470596,1.8671737469646432
-0.20793583999999998,1.5566797492341902,1.8685020385688413
-0.20790976,1.5553592595856496,1.8691661843709406
-0.20788368,1.5546990147613782,1.8704944759751396
-0.20785759999999998,1.5537086475249713,1.871490694678289
-0.20783152,1.5523881578764314,1.8718227675793384
-0.20780543999999998,1.5513977906400245,1.872486913381438
-0.20777935999999997,1.550407423403618,1.8731510591835374
-0.20775327999999998,1.5494170561672123,1.8731510591835374
-0.2077272,1.5484266889308067,1.8731510591835374
-0.20770112,1.5474363216944003,1.8731510591835374
-0.20767503999999998,1.5464459544579936,1.8728189862824878
-0.20764896,1.5454555872215885,1.8728189862824878
-0.20762287999999998,1.5444652199851818,1.8721548404803883
-0.20759679999999997,1.5431447303366401,1.8714906946782885
-0.20757072,1.5424844855123698,1.8708265488761895
-0.20754464,1.5411639958638295,1.869830330173041
-0.20751856,1.5405037510395578,1.869166184370941
-0.20749247999999998,1.5395133838031514,1.8681699656677917
-0.2074664,1.5385230165667458,1.8665096011625437
-0.20744031999999998,1.5375326493303394,1.865513382459394
-0.20741423999999997,1.536872404506068,1.864185090855194
-0.20738816,1.5355519148575272,1.8621926534488966
-0.20736208,1.5352217924453921,1.860864361844699
-0.20733599999999996,1.5342314252089848,1.8592039973394476
-0.20730991999999998,1.5332410579725797,1.8575436328342008
-0.20728384,1.5325808131483092,1.8562153412300024
-0.20725775999999999,1.5315904459119027,1.8538908309226538
-0.20723167999999997,1.5309302010876318,1.8518983935163544
-0.2072056,1.5302699562633615,1.8492418103079578
-0.20717951999999998,1.529279589026955,1.846585227099559
-0.20715343999999997,1.5286193442026843,1.843928643891161
-0.20712735999999998,1.5279590993784138,1.840939987781715
-0.20710128,1.5269687321420082,1.8376192587712192
-0.2070752,1.5266386097298725,1.8346306026617702
-0.20704911999999998,1.5259783649056013,1.8306457278491721
-0.20702304,1.5253181200813313,1.8269929259376283
-0.20699695999999998,1.5249879976691956,1.8230080511250302
-0.20697087999999997,1.5239976304327894,1.8186911034113822
-0.20694479999999998,1.523667508020654,1.8147062285987874
-0.20691872,1.5230072631963836,1.8107213537861924
-0.20689264,1.5223470183721126,1.8057402602704449
-0.20686655999999998,1.5220168959599771,1.8014233125567964
-0.20684048,1.5213566511357068,1.7967742919421048
-0.20681439999999998,1.5210265287235711,1.7917931984263569
-0.20678831999999997,1.5206964063114357,1.7871441778116581
-0.20676223999999999,1.5200361614871651,1.7814989384938156
-0.20673616,1.51970603907503,1.7765178449780743
-0.20671008,1.5193759166628946,1.771204678561277
-0.20668399999999998,1.5187156718386237,1.7658915121444791
-0.20665792,1.5183855494264886,1.760578345727686
-0.20663183999999998,1.5180554270143531,1.7549331064098384
-0.20660575999999997,1.518055427014353,1.7492878670919905
-0.20657968,1.5177253046022177,1.7436426277741481
-0.2065536,1.5173951821900824,1.7376653155552584
-0.20652751999999996,1.5170650597779467,1.732020076237402
-0.20650143999999998,1.5167349373658117,1.7257106911174633
-0.20647536,1.5167349373658117,1.7194013059975217
-0.20644927999999999,1.5167349373658117,1.713423993778624
-0.20642319999999997,1.516404814953676,1.707446681559726
-0.20639712,1.5160746925415407,1.7011372964397844
-0.20637103999999998,1.5160746925415405,1.694495838418787
-0.20634495999999997,1.5157445701294054,1.68785438039779
-0.20631887999999998,1.5157445701294054,1.6815449952778512
-0.2062928,1.5157445701294054,1.67490353725686
-0.20626672,1.5154144477172702,1.6682620792358624
-0.20624063999999998,1.5157445701294052,1.661620621214865
-0.20621456,1.5154144477172704,1.6546470902928272
-0.20618847999999998,1.5157445701294054,1.6480056322718297
-0.20616239999999997,1.5157445701294054,1.6410321013497826
-0.20613631999999998,1.5157445701294054,1.6340585704277417
-0.20611024,1.5160746925415405,1.6270850395057006
-0.20608416,1.5160746925415407,1.6197794356826039
-0.20605807999999998,1.5160746925415407,1.612473831859507
-0.206032,1.5160746925415407,1.605500300937469
-0.20600591999999998,1.5160746925415407,1.5978626242133225
-0.20597983999999997,1.5164048149536764,1.5905570203902255
-0.20595375999999999,1.5167349373658117,1.583251416567135
-0.20592768,1.5170650597779467,1.5759458127440447
-0.2059016,1.5173951821900822,1.5686402089209475
-0.20587551999999998,1.5173951821900822,1.5610025321968042
-0.20584944,1.5177253046022174,1.5533648554726642
-0.20582335999999998,1.5180554270143531,1.5453951058474673
-0.20579727999999997,1.5183855494264886,1.5380895020243701
-0.2057712,1.5187156718386237,1.5301197523991805
-0.20574512,1.519045794250759,1.522482075675044
-0.20571903999999996,1.5193759166628946,1.5145123260498365
-0.20569295999999998,1.5197060390750299,1.5065425764246505
-0.20566688,1.5203662838993004,1.4992369726015602
-0.20564079999999998,1.5206964063114359,1.4912672229763637
-0.20561471999999997,1.5210265287235714,1.4829654004501172
-0.20558864,1.5213566511357066,1.4749956508249276
-0.20556255999999998,1.5220168959599776,1.4670259011997309
-0.20553647999999997,1.5223470183721133,1.459056151574534
-0.20551039999999998,1.5230072631963834,1.451086401949348
-0.20548432,1.5233373856085186,1.442784579423109
-0.20545824,1.523667508020654,1.434814829797912
-0.20543215999999997,1.524327752844925,1.426845080172715
-0.20540608,1.52465787525706,1.418875330547529
-0.20537999999999998,1.525318120081331,1.4109055809223323
-0.20535391999999997,1.5259783649056018,1.4026037583960858
-0.20532783999999998,1.5266386097298725,1.3946340087708962
-0.20530176,1.5272988545541428,1.3866642591457066
-0.20527568,1.5282892217905493,1.3783624366194602
-0.20524959999999998,1.5289494666148205,1.3703926869942633
-0.20522352,1.5299398338512256,1.3624229373690773
-0.20519743999999998,1.5306000786754967,1.354121114842831
-0.20517135999999997,1.531260323499768,1.346151365217634
-0.20514527999999999,1.5322506907361735,1.3381816155924444
-0.2051192,1.532910935560444,1.3298797930662054
-0.20509312,1.5339013027968504,1.3219100434410083
-0.20506703999999998,1.5345615476211214,1.3139402938158116
-0.20504096,1.5355519148575267,1.3059705441906255
-0.20501487999999998,1.536212159681798,1.2980007945654288
-0.20498879999999997,1.536872404506069,1.2903631178412818
-0.20496272,1.5378627717424747,1.2827254411171418
-0.20493664,1.53885313897888,1.274755691491956
-0.20491055999999996,1.5398435062152875,1.2674500876688473
-0.20488447999999998,1.5405037510395576,1.259148265142612
-0.2048584,1.5414941182759632,1.251510588418472
-0.20483231999999998,1.5424844855123698,1.243872911694325
-0.20480623999999997,1.5434748527487763,1.236235234970178
-0.20478016,1.5444652199851818,1.228597558246038
-0.20475408,1.5454555872215872,1.221291954422951
-0.20472799999999997,1.54611583204586,1.2136542776987942
-0.20470191999999998,1.5474363216944003,1.206348673875707
-0.20467584,1.5484266889308058,1.1987109971515673
-0.20464976,1.5494170561672123,1.1917374662295197
-0.20462367999999997,1.550407423403619,1.1840997895053726
-0.2045976,1.551397790640024,1.1767941856822857
-0.20457151999999998,1.5523881578764307,1.1698206547602383
-0.20454543999999997,1.5533785251128371,1.1628471238381912
-0.20451935999999998,1.5543688923492427,1.15587359291615
-0.20449328,1.5556893819977835,1.1489000619941092
-0.2044672,1.5566797492341902,1.142258603973112
-0.20444111999999998,1.5576701164705968,1.1352850730510646
-0.20441504,1.558660483707002,1.1286436150300765
-0.20438895999999998,1.5599809733555439,1.1216700841080294
-0.20436287999999997,1.5609713405919503,1.1150286260870321
-0.20433679999999999,1.5616315854162206,1.1083871680660409
-0.20431072,1.5629520750647614,1.1017457100450496
-0.20428464,1.5639424423011683,1.0951042520240521
-0.20425855999999998,1.56526293194971,1.088462794003055
-0.20423248,1.5662532991861153,1.0821534088831162
-0.20420639999999998,1.5672436664225218,1.0758440237631686
-0.20418031999999997,1.5682340336589287,1.0692025657421713
-0.20415424,1.5695545233074695,1.0628931806222297
-0.20412816,1.5705448905438746,1.0569158684033402
-0.20410208,1.571535257780281,1.050606483283393
-0.20407599999999998,1.572855747428823,1.0442970981634456
-0.20404992,1.5738461146652285,1.0383197859445534
-0.20402383999999998,1.5751666043137704,1.0326745466267055
-0.20399775999999997,1.576156971550177,1.0263651615067582
-0.20397168,1.5771473387865826,1.0207199221889156
-0.2039456,1.578137706022988,1.014742609970026
-0.20391951999999997,1.5794581956715312,1.0090973706521706
-0.20389343999999998,1.5804485629079363,1.0034521313343303
-0.20386736,1.5817690525564772,0.9981389649175374
-0.20384127999999999,1.5827594197928838,0.9924937255996897
-0.20381519999999997,1.5837497870292903,0.9871805591828919
-0.20378912,1.584740154265696,0.9818673927660989
-0.20376303999999998,1.5860606439142375,0.9768862992503531
-0.20373695999999997,1.587051011150644,0.9715731328335556
-0.20371087999999998,1.5880413783870497,0.9669241122188617
-0.2036848,1.5893618680355903,0.9619430187031182
-0.20365872,1.5903522352719972,0.9569619251873702
-0.20363263999999998,1.5916727249205391,0.9523129045726721
-0.20360656,1.5926630921569442,0.9479959568590298
-0.20358047999999998,1.5936534593933507,0.9433469362443319
-0.20355439999999997,1.5949739490418926,0.9393620614317332
-0.20352831999999998,1.5959643162782982,0.9350451137180888
-0.20350224,1.597284805926839,0.931060238905494
-0.20347616,1.5986052955753811,0.9270753640928957
-0.20345007999999998,1.5995956628117878,0.9234225621813472
-0.203424,1.6005860300481929,0.9197697602698036
-0.20339791999999998,1.60223664210887,0.9164490312593048
-0.20337183999999997,1.6032270093452767,0.9127962293477566
-0.20334576,1.6042173765816823,0.9098075732383104
-0.20331968,1.6055378662302227,0.9068189171288656
-0.2032936,1.6065282334666295,0.9038302610194169
-0.20326751999999998,1.6078487231151712,0.9005095320089184
-0.20324144,1.608839090351577,0.8978529488005219
-0.20321535999999998,1.610159580000119,0.8951963655921229
-0.20318927999999997,1.6111499472365256,0.8925397823837243
-0.2031632,1.6128005592972017,0.8905473449774269
-0.20313712,1.613790926533607,0.8885549075711304
-0.20311103999999996,1.6154415385942857,0.8868945430658782
-0.20308495999999998,1.616762028242826,0.8849021056595817
-0.20305888,1.6180825178913667,0.8835738140553834
-0.20303279999999999,1.6194030075399088,0.8819134495501343
-0.20300671999999997,1.620723497188451,0.880585157945935
-0.20298064,1.6220439868369918,0.8795889392427862
-0.20295455999999998,1.623364476485534,0.8779285747375373
-0.20292847999999997,1.6246849661340759,0.8769323560343877
-0.20290239999999998,1.6260054557826162,0.8759361373312394
-0.20287632,1.627325945431157,0.8749399186280907
-0.20285024,1.6283163126675637,0.8739436999249411
-0.20282415999999998,1.6296368023161056,0.8732795541228412
-0.20279808,1.6306271695525107,0.8722833354196929
-0.20277199999999998,1.6319476592010527,0.8719512625186429
-0.20274591999999997,1.6329380264374591,0.8709550438154935
-0.20271983999999998,1.6339283936738649,0.870622970914444
-0.20269376,1.6349187609102704,0.8702908980133943
-0.20266768,1.6362392505588124,0.8699588251123445
-0.20264159999999998,1.6372296177952188,0.8699588251123443
-0.20261552,1.6378898626194889,0.8696267522112949
-0.20258943999999998,1.6392103522680306,0.8699588251123445
-0.20256335999999997,1.639870597092302,0.8699588251123448
-0.20253728,1.6411910867408428,0.870622970914444
-0.2025112,1.6418513315651133,0.870622970914444
-0.20248512,1.6431718212136543,0.8716191896175927
-0.20245903999999998,1.644162188450061,0.8719512625186429
-0.20243296,1.6451525556864666,0.8729474812217916
-0.20240687999999998,1.645812800510738,0.8739436999249411
-0.20238079999999997,1.6468031677471444,0.8752719915291405
-0.20235472,1.64779353498355,0.8766002831333388
-0.20232864,1.648783902219955,0.8782606476385859
-0.20230255999999996,1.6494441470442278,0.8799210121438376
-0.20227647999999998,1.650434514280633,0.8815813766490845
-0.2022504,1.6510947591049034,0.8835738140553819
-0.20222431999999999,1.6517550039291744,0.8855662514616812
-0.20219823999999997,1.6527453711655806,0.88789076176903
-0.20217216,1.6534056159898511,0.8898831991753274
-0.20214607999999998,1.6543959832262576,0.8925397823837263
-0.20211999999999997,1.6547261056383935,0.8948642926910759
-0.20209391999999998,1.6557164728747988,0.8978529488005207
-0.20206784,1.6560465952869339,0.9005095320089171
-0.20204176,1.65703696252334,0.9038302610194155
-0.20201567999999998,1.657697207347611,0.9064868442278149
-0.2019896,1.6583574521718814,0.9098075732383089
-0.20196351999999998,1.6586875745840168,0.9131283022488076
-0.20193743999999997,1.6590176969961528,0.9167811041603562
-0.20191135999999998,1.6600080642325583,0.9204339060719013
-0.20188528,1.6603381866446936,0.9240867079834466
-0.2018592,1.6609984314689643,0.9284036556970946
