DAQ/testing_accel_4_6/test_full_0036.csv

#Digilent WaveForms Oscilloscope Acquisition
#Device Name: Discovery2
#Serial Number: SN:210321B02866
#Date Time: 2021-04-06 19:02:54.224
#Sample rate: 38343.6Hz
#Samples: 8192
#Trigger: None
#Channel 1: Range: 500 mV/div Offset: -1.15 V Attenuation: 1 X
#Channel 2: Range: 500 mV/div Offset: -1.45 V Attenuation: 1 X
#Power Supplies: ON
#Positive Supply: ON
#Voltage: 3.3 V
#Negative Supply: OFF
#Voltage: -3.3 V

Time (s),Channel 1 (V),Channel 2 (V)
-0.21116975999999998,1.6642996555903182,1.1146965531859854
-0.21114368,1.663969533178183,1.1213380112069766
-0.2111176,1.6639695331781827,1.1286436150300734
-0.21109151999999998,1.6639695331781825,1.1362812917542202
-0.21106544,1.6636394107660475,1.1435868955773074
-0.21103935999999998,1.6636394107660473,1.1512245723014543
-0.21101327999999997,1.663309288353912,1.1585301761245514
-0.21098719999999999,1.663309288353912,1.1661678528486914
-0.21096112,1.662979165941777,1.173805529572828
-0.21093504,1.6629791659417767,1.1817752791980245
-0.21090895999999998,1.6626490435296413,1.1894129559221716
-0.21088288,1.662318921117506,1.1973827055473611
-0.21085679999999998,1.6616586762932353,1.2050203822715082
-0.21083071999999997,1.661658676293235,1.2133222047977548
-0.21080464,1.6609984314689643,1.2212919544229444
-0.21077856,1.6609984314689643,1.2295937769491796
-0.21075247999999996,1.6603381866446938,1.237563526574388
-0.21072639999999998,1.6603381866446938,1.2458653491006233
-0.21070032,1.6596779418204233,1.253835098725813
-0.21067423999999998,1.6593478194082878,1.262468994153109
-0.21064815999999997,1.6586875745840166,1.2704387437783062
-0.21062208,1.6583574521718816,1.2790726392055949
-0.21059599999999998,1.6576972073476106,1.287042388830792
-0.21056991999999997,1.6570369625233394,1.295676284258088
-0.21054383999999998,1.6563767176990694,1.303646033883274
-0.21051776,1.6560465952869343,1.3122799293105625
-0.21049168,1.6553863504626634,1.3205817518368095
-0.21046559999999997,1.6547261056383924,1.3292156472641057
-0.21043952,1.654065860814122,1.3371853968892917
-0.21041343999999998,1.6537357384019864,1.3461513652176376
-0.21038735999999997,1.6527453711655802,1.354121114842835
-0.21036127999999998,1.652415248753445,1.3627550102701234
-0.2103352,1.6514248815170394,1.3707247598953132
-0.21030912,1.6507646366927684,1.3793586553226094
-0.21028303999999998,1.650104391868497,1.387660477848856
-0.21025696,1.649114024632092,1.3959623003750914
-0.21023087999999998,1.6484537798078207,1.4039320500002883
-0.21020479999999997,1.6474634125714143,1.4122338725265349
-0.21017871999999999,1.6464730453350085,1.420535695052774
-0.21015264,1.6458128005107386,1.4288375175790093
-0.21012656,1.6448224332743322,1.4371393401052561
-0.21010047999999998,1.6438320660379258,1.4447770168294034
-0.2100744,1.6431718212136552,1.453410912256692
-0.21004831999999998,1.6421814539772488,1.4613806618818892
-0.21002223999999997,1.6411910867408424,1.469350411507086
-0.20999616,1.6402007195044366,1.4773201611322755
-0.20997008,1.6392103522680315,1.485621983658511
-0.20994399999999996,1.638219985031624,1.4929275874816197
-0.20991791999999998,1.6375597402073538,1.5012294100078551
-0.20989184,1.636239250558813,1.5085350138309457
-0.20986575999999998,1.6355790057345416,1.5168368363571918
-0.20983967999999997,1.634258516086,1.5244745130813389
-0.2098136,1.6335982712617294,1.5324442627065284
-0.20978751999999998,1.632607904025323,1.5397498665296259
-0.20976143999999997,1.631617536788916,1.547387543253773
-0.20973535999999998,1.630297047140376,1.555357292878959
-0.20970928,1.6293066799039702,1.562994969603099
-0.2096832,1.628646435079699,1.5703005734261961
-0.20965711999999997,1.6273259454311575,1.577938250150343
-0.20963104,1.626665700606887,1.5852438539734302
-0.20960495999999998,1.6253452109583455,1.5925494577965271
-0.20957887999999997,1.6243548437219386,1.6001871345206737
-0.20955279999999998,1.6230343540733978,1.6071606654427146
-0.20952672,1.6220439868369922,1.6147983421668546
-0.20950064,1.6210536196005858,1.6217718730889021
-0.20947455999999998,1.620063252364179,1.6290774769119993
-0.20944848,1.618742762715639,1.6363830807350863
-0.20942239999999998,1.617752395479232,1.6433566116571336
-0.20939631999999997,1.6167620282428254,1.6503301425791808
-0.20937023999999999,1.6154415385942846,1.6573036735012219
-0.20934416,1.6144511713578789,1.6642772044232628
-0.20931808,1.6131306817093372,1.6709186624442602
-0.20929199999999998,1.612140314472931,1.6778921933663042
-0.20926592,1.6111499472365254,1.6845336513872955
-0.20923983999999998,1.6098294575879835,1.691175109408293
-0.20921375999999997,1.6088390903515768,1.6974844945282406
-0.20918768,1.607518600703036,1.7041259525492318
-0.2091616,1.6061981110544956,1.7104353376691706
-0.20913551999999996,1.6052077438180874,1.7167447227891268
-0.20910943999999998,1.603887254169547,1.7230541079090655
-0.20908336,1.6028968869331413,1.7290314201279577
-0.20905727999999998,1.6015763972845996,1.7350087323468553
-0.20903119999999997,1.6005860300481927,1.740986044565753
-0.20900512,1.5992655403996519,1.7466312838835956
-0.20897903999999998,1.5982751731632452,1.7522765232014432
-0.20895295999999997,1.5969546835147033,1.7579217625192907
-0.20892687999999998,1.595634193866163,1.7632349289360814
-0.2089008,1.5946438266297573,1.7685480953528743
-0.20887471999999999,1.5929932145690802,1.7738612617696723
-0.20884863999999997,1.5920028473326733,1.7788423552854202
-0.20882256,1.5906823576841331,1.7838234488011615
-0.20879647999999998,1.589361868035591,1.7884724694158598
-0.20877039999999997,1.588041378387049,1.793121490030558
-0.20874431999999998,1.5867208887385083,1.7977705106452517
-0.20871824,1.5854003990899674,1.8020874583588962
-0.20869216,1.5840799094414253,1.8064044060725444
-0.20866607999999998,1.5827594197928831,1.8103892808851427
-0.20864,1.581438930144343,1.8143741556977357
-0.20861391999999998,1.5801184404958009,1.8180269576092845
-0.20858783999999997,1.5787979508472587,1.821679759520833
-0.20856175999999998,1.5774774611987181,1.8250004885313285
-0.20853568,1.5761569715501773,1.8286532904428738
-0.2085096,1.5745063594895,1.8316419465523228
-0.20848351999999998,1.573515992253093,1.8346306026617718
-0.20845744,1.5718653801924176,1.8379513316722658
-0.20843135999999998,1.570875012956011,1.840607914880665
-0.20840527999999997,1.5695545233074688,1.843264498089064
-0.2083792,1.568234033658928,1.845589008396411
-0.20835312,1.5672436664225227,1.8479135187037568
-0.20832703999999996,1.5659231767739794,1.8502380290111087
-0.20830095999999998,1.564602687125439,1.8522304664174052
-0.20827488,1.5632821974768982,1.8538908309226532
-0.20824879999999998,1.561961707828356,1.8558832683289521
-0.20822271999999997,1.560641218179814,1.8572115599331516
-0.20819664,1.5593207285312731,1.8588719244383995
-0.20817056,1.5580002388827328,1.8602002160425972
-0.20814447999999997,1.557009871646324,1.8611964347457484
-0.20811839999999998,1.555359259585649,1.8621926534488966
-0.20809232,1.5543688923492431,1.8631888721520453
-0.20806623999999999,1.5530484027007012,1.8638530179541453
-0.20804015999999997,1.5520580354642945,1.864517163756245
-0.20801408,1.5507375458157544,1.8648492366572942
-0.20798799999999998,1.5494170561672123,1.865513382459394
-0.20796191999999997,1.5484266889308056,1.8658454553604435
-0.20793583999999998,1.5471061992822648,1.8658454553604435
-0.20790976,1.5461158320458592,1.8658454553604435
-0.20788368,1.5447953423973173,1.8658454553604435
-0.20785759999999998,1.5438049751609109,1.8655133824593937
-0.20783152,1.5428146079245055,1.8651813095583443
-0.20780543999999998,1.5414941182759636,1.8645171637562448
-0.20777935999999997,1.5405037510395572,1.8641850908551947
-0.20775327999999998,1.5395133838031514,1.8635209450530956
-0.2077272,1.5385230165667458,1.862524726349947
-0.20770112,1.5375326493303394,1.8615285076467973
-0.20767503999999998,1.5365422820939325,1.8605322889436475
-0.20764896,1.5352217924453926,1.8592039973394499
-0.20762287999999998,1.534561547621121,1.8578757057352504
-0.20759679999999997,1.5332410579725795,1.856547414131051
-0.20757072,1.532580813148309,1.854887049625803
-0.20754464,1.5315904459119036,1.8532266851205559
-0.20751856,1.5306000786754972,1.8518983935163562
-0.20749247999999998,1.5292795890269553,1.850238029011107
-0.2074664,1.5286193442026847,1.8485776645058591
-0.20744031999999998,1.5279590993784138,1.8465852270995602
-0.20741423999999997,1.5269687321420073,1.844260716792211
-0.20738816,1.5259783649056016,1.8419362064848641
-0.20736208,1.5253181200813317,1.8396116961775182
-0.20733599999999996,1.5246578752570594,1.836955112969115
-0.20730991999999998,1.523667508020654,1.833634383958621
-0.20728384,1.5230072631963836,1.8303136549481256
-0.20725775999999999,1.5223470183721126,1.8273249988386766
-0.20723167999999997,1.5213566511357064,1.8233401240260785
-0.2072056,1.5206964063114359,1.819687322114533
-0.20717951999999998,1.520036161487165,1.8160345202029844
-0.20715343999999997,1.5197060390750297,1.8120496453903876
-0.20712735999999998,1.5190457942507591,1.8077326976767432
-0.20710128,1.5183855494264886,1.803415749963099
-0.2070752,1.5180554270143531,1.7990988022494507
-0.20704911999999998,1.517395182190082,1.7944497816347527
-0.20702304,1.5167349373658119,1.7901328339211102
-0.20699695999999998,1.5164048149536762,1.7851517404053625
-0.20697087999999997,1.5157445701294052,1.7801706468896146
-0.20694479999999998,1.5154144477172702,1.775189553373871
-0.20691872,1.5147542028929997,1.7698763869570782
-0.20689264,1.514424080480864,1.7645632205402801
-0.20686655999999998,1.5140939580687285,1.7592500541234821
-0.20684048,1.5134337132444582,1.7539368877066916
-0.20681439999999998,1.513433713244458,1.7486237212898939
-0.20678831999999997,1.5127734684201872,1.742978481972046
-0.20676223999999999,1.5127734684201872,1.7370011697531538
-0.20673616,1.512443346008052,1.7313559304353137
-0.20671008,1.5124433460080517,1.7253786182164164
-0.20668399999999998,1.5121132235959165,1.7194013059975188
-0.20665792,1.5117831011837815,1.7134239937786266
-0.20663183999999998,1.5117831011837812,1.7071146086586793
-0.20660575999999997,1.5114529787716457,1.7011372964397813
-0.20657968,1.5114529787716457,1.69449583841879
-0.2065536,1.5114529787716457,1.688186453298851
-0.20652751999999996,1.5111228563595105,1.6818770681788944
-0.20650143999999998,1.5111228563595105,1.6749035372568568
-0.20647536,1.5111228563595105,1.6689262250379646
-0.20644927999999999,1.5111228563595105,1.6622847670169676
-0.20642319999999997,1.5111228563595105,1.6556433089959701
-0.20639712,1.5111228563595105,1.6486697780739292
-0.20637103999999998,1.5114529787716457,1.6420283200529318
-0.20634495999999997,1.511452978771646,1.6350547891308844
-0.20631887999999998,1.5117831011837812,1.6280812582088466
-0.2062928,1.5117831011837812,1.6211077272868057
-0.20626672,1.5121132235959165,1.6141341963647586
-0.20624063999999998,1.5121132235959167,1.6068285925416619
-0.20621456,1.5124433460080515,1.5998550616196239
-0.20618847999999998,1.5127734684201872,1.5925494577965271
-0.20616239999999997,1.513103590832323,1.5852438539734302
-0.20613631999999998,1.513433713244458,1.5779382501503396
-0.20611024,1.513433713244458,1.570632646327249
-0.20608416,1.5140939580687287,1.563327042504152
-0.20605807999999998,1.5144240804808642,1.556021438681055
-0.206032,1.5147542028929992,1.548715834857968
-0.20600591999999998,1.5150843253051347,1.5414102310348707
-0.20597983999999997,1.5157445701294057,1.5337725543107241
-0.20595375999999999,1.5164048149536762,1.5264669504876336
-0.20592768,1.5170650597779467,1.5194934195655927
-0.2059016,1.5177253046022177,1.5121878157424957
-0.20587551999999998,1.5183855494264884,1.5045501390183522
-0.20584944,1.519045794250759,1.497244535195262
-0.20582335999999998,1.5200361614871651,1.489606858471115
-0.20579727999999997,1.520696406311436,1.4819691817469682
-0.2057712,1.5213566511357066,1.474663577923878
-0.20574512,1.5220168959599767,1.4666938282986919
-0.20571903999999996,1.523007263196384,1.459388224475584
-0.20569295999999998,1.523667508020654,1.4517505477514474
-0.20566688,1.5243277528449246,1.4437807981262578
-0.20564079999999998,1.525318120081331,1.4361431214021108
-0.20561471999999997,1.5259783649056018,1.4285054446779637
-0.20558864,1.5266386097298725,1.420535695052774
-0.20556255999999998,1.527628976966279,1.412898018328627
-0.20553647999999997,1.5286193442026852,1.4049282687034306
-0.20551039999999998,1.5292795890269553,1.397290591979294
-0.20548432,1.530269956263361,1.3893208423541044
-0.20545824,1.530930201087632,1.3813510927289077
-0.20543215999999997,1.5322506907361737,1.3737134160047606
-0.20540608,1.532910935560444,1.3660757392806242
-0.20537999999999998,1.5339013027968504,1.3581059896554275
-0.20535391999999997,1.5348916700332569,1.3504683129312804
-0.20532783999999998,1.5358820372696624,1.3424985633060909
-0.20530176,1.5368724045060682,1.334528813680901
-0.20527568,1.5378627717424747,1.3265590640557043
-0.20524959999999998,1.538523016566746,1.3189213873315573
-0.20522352,1.5398435062152862,1.3112837106074209
-0.20519743999999998,1.5405037510395576,1.303646033883274
-0.20517135999999997,1.5418242406880998,1.2960083571591272
-0.20514527999999999,1.5431447303366403,1.2887027533360367
-0.2051192,1.5441350975730461,1.2810650766118967
-0.20509312,1.5447953423973173,1.2737594727887995
-0.20506703999999998,1.5461158320458592,1.2664538689657021
-0.20504096,1.5471061992822643,1.258484119340516
-0.20501487999999998,1.5480965665186708,1.2511785155174189
-0.20498879999999997,1.5490869337550774,1.244204984595371
-0.20496272,1.550077300991483,1.2365673078712314
-0.20493664,1.5513977906400234,1.2292617040481442
-0.20491055999999996,1.5523881578764316,1.2216240273239876
-0.20488447999999998,1.5533785251128367,1.21465049640195
-0.2048584,1.5543688923492422,1.207676965479909
-0.20483231999999998,1.5556893819977842,1.2000392887557625
-0.20480623999999997,1.5566797492341908,1.1930657578337154
-0.20478016,1.5580002388827316,1.1864242998127241
-0.20475408,1.558990606119137,1.1787866230885875
-0.20472799999999997,1.559980973355545,1.1721451650675798
-0.20470191999999998,1.5613014630040853,1.1651716341455423
-0.20467584,1.5626219526526262,1.158530176124551
-0.20464976,1.5639424423011683,1.1522207910046034
-0.20462367999999997,1.564932809537575,1.1452472600825563
-0.2045976,1.5662532991861151,1.1386058020615681
-0.20457151999999998,1.5675737888346573,1.1322964169416203
-0.20454543999999997,1.568564156071064,1.1256549589206228
-0.20451935999999998,1.5698846457196047,1.118681427998582
-0.20449328,1.5708750129560105,1.1123720428786403
-0.2044672,1.571865380192417,1.105730584857643
-0.20444111999999998,1.5728557474288236,1.0994211997376955
-0.20441504,1.5741762370773638,1.0931118146177567
-0.20438895999999998,1.5751666043137704,1.0868024294978094
-0.20436287999999997,1.5764870939623126,1.0801609714768121
-0.20433679999999999,1.5778075836108534,1.07418365925792
-0.20431072,1.578797950847259,1.0678742741379783
-0.20428464,1.5797883180836656,1.0618969619190806
-0.20425855999999998,1.5811088077322077,1.0555875767991332
-0.20423248,1.5824292973807477,1.0499423374812933
-0.20420639999999998,1.5834196646171546,1.0436329523613461
-0.20418031999999997,1.5844100318535614,1.0379877130434982
-0.20415424,1.585730521502102,1.0323424737256557
-0.20412816,1.5870510111506424,1.0263651615067662
-0.20410208,1.5880413783870493,1.021051995089968
-0.20407599999999998,1.5890317456234557,1.0150746828710706
-0.20404992,1.5900221128598613,1.009429443553228
-0.20402383999999998,1.591012480096268,1.0044483500374797
-0.20399775999999997,1.5920028473326746,0.998803110719632
-0.20397168,1.5933233369812154,0.9934899443028389
-0.2039456,1.5943137042176205,0.9888409236881471
-0.20391951999999997,1.5956341938661638,0.9838598301723923
-0.20389343999999998,1.5966245611025691,0.9785466637556017
-0.20386736,1.5979450507511097,0.9738976431409078
-0.20384127999999999,1.5992655403996519,0.9695806954272594
-0.20381519999999997,1.6002559076360587,0.964599601911512
-0.20378912,1.6015763972845996,0.960614727098917
-0.20376303999999998,1.6025667645210055,0.9559657064842211
-0.20373695999999997,1.6038872541695475,0.951648758770573
-0.20371087999999998,1.604877621405953,0.9479959568590278
-0.2036848,1.6061981110544938,0.9443431549474827
-0.20365872,1.6071884782909005,0.9403582801348843
-0.20363263999999998,1.6085089679394426,0.9367054782233358
-0.20360656,1.6098294575879828,0.9330526763117922
-0.20358047999999998,1.6108198248243895,0.9297319473012934
-0.20355439999999997,1.6118101920607963,0.926411218290795
-0.20352831999999998,1.6131306817093372,0.9234225621813489
-0.20350224,1.6144511713578777,0.9201018331708533
-0.20347616,1.6154415385942846,0.9171131770614043
-0.20345007999999998,1.616431905830691,0.9144565938530052
-0.203424,1.6174222730670964,0.9114679377435604
-0.20339791999999998,1.6184126403035028,0.9088113545351613
-0.20337183999999997,1.6197331299520448,0.9064868442278122
-0.20334576,1.6207234971884503,0.9041623339204653
-0.20331968,1.6217138644248557,0.9018378236131194
-0.2032936,1.6230343540733971,0.8998453862068199
-0.20326751999999998,1.6243548437219393,0.8978529488005207
-0.20324144,1.6250150885462098,0.8958605113942233
-0.20321535999999998,1.6260054557826162,0.8942001468889738
-0.20318927999999997,1.6273259454311582,0.8925397823837247
-0.2031632,1.6283163126675637,0.8912114907795263
-0.20313712,1.6293066799039688,0.8895511262742793
-0.20311103999999996,1.6306271695525123,0.8885549075711274
-0.20308495999999998,1.6319476592010527,0.8872266159669298
-0.20305888,1.6326079040253232,0.8858983243627314
-0.20303279999999999,1.6339283936738649,0.8849021056595817
-0.20300671999999997,1.634588638498136,0.8839058869564321
-0.20298064,1.6355790057345416,0.8829096682532834
-0.20295455999999998,1.6368994953830835,0.8822455224511836
-0.20292847999999997,1.6378898626194898,0.8812493037480343
-0.20290239999999998,1.6385501074437598,0.8805851579459354
-0.20287632,1.6395404746801656,0.8802530850448859
-0.20285024,1.6408609643287075,0.879921012143836
-0.20282415999999998,1.6418513315651138,0.8792568663417366
-0.20279808,1.642511576389384,0.8792568663417366
-0.20277199999999998,1.6435019436257903,0.8792568663417366
-0.20274591999999997,1.6441621884500617,0.878924793440687
-0.20271983999999998,1.6454826780986025,0.8792568663417366
-0.20269376,1.646142922922873,0.8799210121438357
-0.20266768,1.646803167747144,0.8802530850448858
-0.20264159999999998,1.6477935349835502,0.8805851579459358
-0.20261552,1.6484537798078205,0.8815813766490841
-0.20258943999999998,1.648783902219956,0.882245522451184
-0.20256335999999997,1.6497742694563626,0.8835738140553833
-0.20253728,1.6507646366927684,0.8845700327585321
-0.2025112,1.6510947591049034,0.8858983243627303
-0.20248512,1.6517550039291742,0.8872266159669292
-0.20245903999999998,1.652415248753445,0.8888869804721783
-0.20243296,1.6530754935777157,0.8902152720763766
-0.20240687999999998,1.6537357384019864,0.8918756365816258
-0.20238079999999997,1.6543959832262576,0.893868073987925
-0.20235472,1.6550562280505279,0.8958605113942224
-0.20232864,1.6557164728747982,0.8981850217015683
-0.20230255999999996,1.6560465952869343,0.9008416049099702
-0.20227647999999998,1.6563767176990694,0.9031661152173162
-0.2022504,1.6570369625233399,0.9058226984257126
-0.20222431999999999,1.6576972073476108,0.9081472087330619
-0.20219823999999997,1.6580273297597465,0.9111358648425109
-0.20217216,1.6586875745840168,0.9144565938530065
-0.20214607999999998,1.6590176969961525,0.917777322863505
-0.20211999999999997,1.6593478194082887,0.9207659789729544
-0.20209391999999998,1.6603381866446938,0.924418780884498
-0.20206784,1.6603381866446938,0.9277395098949935
-0.20204176,1.6606683090568293,0.931392311806542
-0.20201567999999998,1.6613285538810998,0.9350451137180906
-0.2019896,1.6613285538810998,0.9390299885306838
-0.20196351999999998,1.6619887987053705,0.9430148633432821
-0.20193743999999997,1.6623189211175058,0.9473318110569302
-0.20191135999999998,1.6623189211175058,0.951316685869525
-0.20188528,1.6629791659417765,0.955965706484219
-0.2018592,1.6629791659417767,0.9602826541978673
