DAQ/testing_accel_4_6/test_full_0064.csv

#Digilent WaveForms Oscilloscope Acquisition
#Device Name: Discovery2
#Serial Number: SN:210321B02866
#Date Time: 2021-04-06 19:03:00.384
#Sample rate: 38343.6Hz
#Samples: 8192
#Trigger: None
#Channel 1: Range: 500 mV/div Offset: -1.15 V Attenuation: 1 X
#Channel 2: Range: 500 mV/div Offset: -1.45 V Attenuation: 1 X
#Power Supplies: ON
#Positive Supply: ON
#Voltage: 3.3 V
#Negative Supply: OFF
#Voltage: -3.3 V

Time (s),Channel 1 (V),Channel 2 (V)
-0.21116975999999998,1.6349187609102709,1.1522207910046034
-0.21114368,1.6352488833224061,1.1591943219266443
-0.2111176,1.6349187609102709,1.1655037070465921
-0.21109151999999998,1.6349187609102707,1.1724772379686392
-0.21106544,1.6345886384981358,1.1791186959896272
-0.21103935999999998,1.6345886384981356,1.1860922269116743
-0.21101327999999997,1.6342585160860001,1.1930657578337216
-0.21098719999999999,1.6342585160860001,1.2000392887557625
-0.21096112,1.633928393673865,1.2070128196778
-0.21093504,1.6335982712617296,1.2139863505998474
-0.21090895999999998,1.6332681488495941,1.2212919544229444
-0.21088288,1.6332681488495941,1.2279334124439356
-0.21085679999999998,1.6329380264374587,1.235571089168082
-0.21083071999999997,1.6322777816131882,1.2425446200901298
-0.21080464,1.6322777816131882,1.2501822968142697
-0.21077856,1.631947659201053,1.2571558277363073
-0.21075247999999996,1.631617536788917,1.264793504460464
-0.21072639999999998,1.631287414376782,1.2720991082835509
-0.21070032,1.631287414376782,1.2797367850076908
-0.21067423999999998,1.6309572919646467,1.287374461731838
-0.21064815999999997,1.630627169552511,1.294680065554935
-0.21062208,1.630297047140376,1.302317742279075
-0.21059599999999998,1.6299669247282405,1.3096233461021725
-0.21056991999999997,1.6299669247282398,1.317261022826319
-0.21054383999999998,1.6293066799039697,1.324566626649406
-0.21051776,1.6293066799039697,1.3325363762745956
-0.21049168,1.6289765574918345,1.339841980097693
-0.21046559999999997,1.6286464350796988,1.3474796568218401
-0.21043952,1.6279861902554285,1.3551173335459765
-0.21041343999999998,1.6279861902554282,1.3627550102701234
-0.21038735999999997,1.6276560678432928,1.37072475989532
-0.21036127999999998,1.6273259454311577,1.3780303637184104
-0.2103352,1.6273259454311577,1.3860001133436
-0.21030912,1.6269958230190222,1.3933057171666974
-0.21028303999999998,1.626995823019022,1.4012754667918939
-0.21025696,1.6263355781947517,1.408581070614981
-0.21023087999999998,1.6263355781947515,1.4165508202401775
-0.21020479999999997,1.6260054557826162,1.4238564240632747
-0.21017871999999999,1.6260054557826162,1.4314941007874147
-0.21015264,1.625675333370481,1.4391317775115513
-0.21012656,1.6256753333704808,1.4464373813346487
-0.21010047999999998,1.6253452109583455,1.4540750580587953
-0.2100744,1.6250150885462102,1.4617127347829353
-0.21004831999999998,1.6246849661340748,1.4693504115070823
-0.21002223999999997,1.6246849661340745,1.4766560153301798
-0.20999616,1.6243548437219393,1.4842936920543197
-0.20997008,1.6236945988976694,1.4915992958774067
-0.20994399999999996,1.6236945988976685,1.4992369726015633
-0.20991791999999998,1.6233644764855333,1.5062105035236009
-0.20989184,1.623034354073398,1.5138481802477408
-0.20986575999999998,1.6223741092491273,1.5208217111697884
-0.20983967999999997,1.622374109249127,1.5281273149928853
-0.2098136,1.6217138644248565,1.5351008459149262
-0.20978751999999998,1.6213837420127208,1.5427385226390729
-0.20976143999999997,1.6210536196005851,1.5493799806600708
-0.20973535999999998,1.620393374776315,1.5566855844831577
-0.20970928,1.6200632523641798,1.5636591154051986
-0.2096832,1.6197331299520443,1.5706326463272458
-0.20965711999999997,1.6190728851277734,1.577606177249293
-0.20963104,1.6187427627156386,1.5845797081713309
-0.20960495999999998,1.6184126403035028,1.5912211661923283
-0.20957887999999997,1.6177523954792319,1.5981946971143755
-0.20955279999999998,1.6174222730670968,1.6051682280364163
-0.20952672,1.6170921506549616,1.6114776131563582
-0.20950064,1.616762028242826,1.618451144078405
-0.20947455999999998,1.6161017834185551,1.6250926020994023
-0.20944848,1.6157716610064201,1.6317340601203905
-0.20942239999999998,1.6154415385942846,1.638375518141388
-0.20939631999999997,1.6147812937700137,1.6446849032613358
-0.20937023999999999,1.6144511713578784,1.6513263612823268
-0.20934416,1.6141210489457434,1.6573036735012192
-0.20931808,1.613790926533608,1.6636130586211664
-0.20929199999999998,1.6131306817093372,1.669922443741111
-0.20926592,1.6131306817093372,1.6758997559600033
-0.20923983999999998,1.6124704368850664,1.6822091410799505
-0.20921375999999997,1.6121403144729307,1.6878543803977983
-0.20918768,1.6118101920607957,1.6938316926166905
-0.2091616,1.6114800696486604,1.69980900483558
-0.20913551999999996,1.6111499472365243,1.7054542441534357
-0.20910943999999998,1.6104897024122542,1.7110994834712758
-0.20908336,1.6098294575879837,1.716412649888069
-0.20905727999999998,1.6091692127637127,1.7213937434038171
-0.20903119999999997,1.6085089679394418,1.726706909820615
-0.20900512,1.6081788455273067,1.7320200762374078
-0.20897903999999998,1.607848723115171,1.7366690968521061
-0.20895295999999997,1.6071884782908998,1.741650190367854
-0.20892687999999998,1.60652823346663,1.7462992109825457
-0.2089008,1.6061981110544947,1.7509482315972396
-0.20887471999999999,1.605867988642359,1.7555972522119379
-0.20884863999999997,1.6052077438180883,1.7595821270245364
-0.20882256,1.6048776214059532,1.7638990747381786
-0.20879647999999998,1.6045474989938175,1.7678839495507774
-0.20877039999999997,1.6038872541695468,1.7722008972644252
-0.20874431999999998,1.6035571317574115,1.7758536991759706
-0.20871824,1.6032270093452765,1.7795065010875157
-0.20869216,1.6025667645210055,1.7831593029990642
-0.20866607999999998,1.6022366421088698,1.7864800320095628
-0.20864,1.6015763972845998,1.789800761020057
-0.20861391999999998,1.601246274872464,1.7931214900305559
-0.20858783999999997,1.600586030048193,1.7961101461400046
-0.20856175999999998,1.5999257852239226,1.7990988022494507
-0.20853568,1.599265540399652,1.8017553854578472
-0.2085096,1.5986052955753811,1.804411968666246
-0.20848351999999998,1.5979450507511102,1.807068551874645
-0.20845744,1.5972848059268399,1.8093930621819907
-0.20843135999999998,1.5969546835147044,1.81138549958829
-0.20840527999999997,1.595964316278298,1.8137100098956387
-0.2083792,1.5953040714540276,1.8153703744008867
-0.20835312,1.5946438266297576,1.8173628118071832
-0.20832703999999996,1.593983581805486,1.819355249213485
-0.20830095999999998,1.5936534593933507,1.8210156137187319
-0.20827488,1.5926630921569451,1.8226759782239799
-0.20824879999999998,1.5923329697448092,1.8236721969271297
-0.20822271999999997,1.5916727249205385,1.8250004885313291
-0.20819664,1.5913426025084032,1.8263287801355275
-0.20817056,1.590352235271998,1.8273249988386757
-0.20814447999999997,1.5896919904477262,1.8279891446407766
-0.20811839999999998,1.589361868035591,1.8286532904428754
-0.20809232,1.5887016232113205,1.8293174362449747
-0.20806623999999999,1.588371500799185,1.8296495091460245
-0.20804015999999997,1.5873811335627785,1.8299815820470742
-0.20801408,1.5870510111506437,1.8299815820470742
-0.20798799999999998,1.5863907663263728,1.830313654948124
-0.20796191999999997,1.5854003990899665,1.8303136549481238
-0.20793583999999998,1.5850702766778313,1.8299815820470742
-0.20790976,1.584410031853561,1.8296495091460248
-0.20788368,1.5837497870292898,1.829317436244975
-0.20785759999999998,1.583089542205019,1.8286532904428752
-0.20783152,1.582759419792884,1.827989144640776
-0.20780543999999998,1.582099174968613,1.8269929259376267
-0.20777935999999997,1.5814389301443421,1.8263287801355268
-0.20775327999999998,1.5807786853200716,1.8250004885313285
-0.2077272,1.580118440495801,1.8240042698281798
-0.20770112,1.5794581956715303,1.8230080511250302
-0.20767503999999998,1.5787979508472592,1.821347686619781
-0.20764896,1.578137706022989,1.8200193950155834
-0.20762287999999998,1.5774774611987181,1.8183590305103343
-0.20759679999999997,1.5768172163744472,1.8170307389061346
-0.20757072,1.5761569715501766,1.8153703744008867
-0.20754464,1.5758268491380414,1.8133779369945902
-0.20751856,1.5751666043137706,1.811385499588291
-0.20749247999999998,1.5745063594895,1.8097251350830414
-0.2074664,1.5738461146652292,1.807068551874645
-0.20744031999999998,1.5735159922530937,1.8050761144683456
-0.20741423999999997,1.5728557474288227,1.802087458358897
-0.20738816,1.5725256250166877,1.7994308751505004
-0.20736208,1.5718653801924176,1.7964422190410556
-0.20733599999999996,1.571205135368146,1.7934535629316024
-0.20730991999999998,1.570875012956011,1.7901328339211082
-0.20728384,1.5702147681317402,1.7864800320095628
-0.20725775999999999,1.5695545233074695,1.7828272300980146
-0.20723167999999997,1.5695545233074693,1.7791744281864659
-0.2072056,1.5688942784831987,1.775189553373871
-0.20717951999999998,1.568564156071063,1.7712046785612727
-0.20715343999999997,1.5679039112467923,1.7672198037486762
-0.20712735999999998,1.5672436664225218,1.7632349289360814
-0.20710128,1.5669135440103867,1.7585859083213875
-0.2070752,1.5662532991861158,1.7542689606077388
-0.20704911999999998,1.5655930543618448,1.7496199399930408
-0.20702304,1.5652629319497098,1.7449709193783491
-0.20699695999999998,1.564602687125439,1.7399898258626012
-0.20697087999999997,1.5639424423011683,1.735340805247903
-0.20694479999999998,1.5639424423011683,1.7303597117321594
-0.20691872,1.5632821974768978,1.7250465453153663
-0.20689264,1.562952075064762,1.7200654517996181
-0.20686655999999998,1.5626219526526266,1.7147522853828203
-0.20684048,1.5622918302404918,1.7094391189660296
-0.20681439999999998,1.561961707828356,1.7041259525492318
-0.20678831999999997,1.5616315854162204,1.698480713231384
-0.20676223999999999,1.56097134059195,1.6928354739135414
-0.20673616,1.56097134059195,1.6871902345957013
-0.20671008,1.5606412181798148,1.6815449952778538
-0.20668399999999998,1.5603110957676791,1.675567683058956
-0.20665792,1.5596508509434088,1.6699224437411138
-0.20663183999999998,1.5593207285312731,1.6639451315222162
-0.20660575999999997,1.5589906061191376,1.6576357464022689
-0.20657968,1.5586604837070024,1.6516584341833767
-0.2065536,1.5583303612948673,1.6456811219644871
-0.20652751999999996,1.5580002388827314,1.6390396639434817
-0.20650143999999998,1.5576701164705964,1.6327302788235427
-0.20647536,1.5573399940584614,1.6267529666046505
-0.20644927999999999,1.5570098716463256,1.6197794356826039
-0.20642319999999997,1.55667974923419,1.6131379776616066
-0.20639712,1.556349626822055,1.606828592541665
-0.20637103999999998,1.5560195044099197,1.6001871345206675
-0.20634495999999997,1.5560195044099194,1.5932136035986202
-0.20631887999999998,1.5556893819977842,1.5862400726765826
-0.2062928,1.5553592595856491,1.5792665417545415
-0.20626672,1.5550291371735134,1.5722930108324944
-0.20624063999999998,1.554699014761378,1.5656515528114967
-0.20621456,1.554368892349243,1.5583459489884097
-0.20618847999999998,1.5540387699371074,1.5510403451653125
-0.20616239999999997,1.5537086475249717,1.543402668441166
-0.20613631999999998,1.5530484027007012,1.536429137519125
-0.20611024,1.5527182802885662,1.528127314992886
-0.20608416,1.5523881578764307,1.521153784070838
-0.20605807999999998,1.5513977906400245,1.5131840344456413
-0.206032,1.5513977906400245,1.505546357721505
-0.20600591999999998,1.5510676682278892,1.497908680997358
-0.20597983999999997,1.5507375458157535,1.4906030771742607
-0.20595375999999999,1.5504074234036185,1.482633327549071
-0.20592768,1.5504074234036185,1.4749956508249311
-0.2059016,1.5504074234036185,1.4670259011997344
-0.20587551999999998,1.550077300991483,1.4597202973766406
-0.20584944,1.550077300991483,1.4520826206525006
-0.20582335999999998,1.5497471785793477,1.4444449439283538
-0.20579727999999997,1.5497471785793475,1.436475194303157
-0.2057712,1.5494170561672123,1.4291695904800668
-0.20574512,1.5494170561672123,1.4215319137559301
-0.20571903999999996,1.5494170561672123,1.4138942370317729
-0.20569295999999998,1.5494170561672123,1.4062565603076362
-0.20566688,1.5494170561672123,1.398950956484546
-0.20564079999999998,1.549086933755077,1.391313279760399
-0.20561471999999997,1.549417056167212,1.3840076759373017
-0.20558864,1.549086933755077,1.3763699992131617
-0.20556255999999998,1.5494170561672123,1.3690643953900645
-0.20553647999999997,1.5494170561672123,1.361426718665918
-0.20551039999999998,1.5494170561672123,1.354121114842831
-0.20548432,1.5494170561672123,1.3468155110197404
-0.20545824,1.5494170561672123,1.3391778342955936
-0.20543215999999997,1.5497471785793477,1.3318722304724966
-0.20540608,1.5497471785793477,1.3245666266494094
-0.20537999999999998,1.5504074234036185,1.317593095727362
-0.20535391999999997,1.5504074234036187,1.3099554190032154
-0.20532783999999998,1.5507375458157537,1.3029818880811745
-0.20530176,1.5504074234036187,1.2953442113570346
-0.20527568,1.5507375458157537,1.288370680434987
-0.20524959999999998,1.5510676682278892,1.2807330037108404
-0.20522352,1.5510676682278892,1.2737594727888026
-0.20519743999999998,1.5510676682278892,1.2664538689657057
-0.20517135999999997,1.5513977906400245,1.2594803380436583
-0.20514527999999999,1.5513977906400245,1.252174734220568
-0.2051192,1.5517279130521595,1.2452012032985271
-0.20509312,1.5520580354642952,1.2382276723764798
-0.20506703999999998,1.552388157876431,1.2312541414544327
-0.20504096,1.5527182802885657,1.2246126834334445
-0.20501487999999998,1.5530484027007012,1.2176391525113974
-0.20498879999999997,1.5533785251128367,1.2109976944903997
-0.20496272,1.5533785251128367,1.2036920906673094
-0.20493664,1.5540387699371068,1.1973827055473705
-0.20491055999999996,1.554368892349243,1.1904091746253147
-0.20488447999999998,1.5546990147613782,1.1837677166043263
-0.2048584,1.5550291371735132,1.1767941856822854
-0.20483231999999998,1.555359259585649,1.170152727661288
-0.20480623999999997,1.5556893819977842,1.1635112696402905
-0.20478016,1.5556893819977842,1.1568698116192992
-0.20475408,1.5563496268220542,1.1505604264993605
-0.20472799999999997,1.5563496268220556,1.1435868955773054
-0.20470191999999998,1.5570098716463256,1.1376095833584159
-0.20467584,1.5570098716463256,1.1306360524363748
-0.20464976,1.5576701164705964,1.1246587402174768
-0.20462367999999997,1.5580002388827319,1.1183493550975294
-0.2045976,1.5586604837070022,1.1120399699775907
-0.20457151999999998,1.5589906061191379,1.105730584857643
-0.20454543999999997,1.5593207285312733,1.0994211997376957
-0.20451935999999998,1.5599809733555439,1.0937759604198534
-0.20449328,1.560311095767679,1.0877986482009612
-0.2044672,1.56097134059195,1.0821534088831133
-0.20444111999999998,1.5613014630040856,1.0761760966642155
-0.20441504,1.5619617078283559,1.070198784445326
-0.20438895999999998,1.5622918302404916,1.0642214722264285
-0.20436287999999997,1.562621952652627,1.0585762329085806
-0.20433679999999999,1.5632821974768976,1.0525989206896884
-0.20431072,1.5636123198890326,1.0469536813718459
-0.20428464,1.564602687125439,1.0416405149550478
-0.20425855999999998,1.5649328095375745,1.0359952756372004
-0.20423248,1.5655930543618448,1.0313462550225088
-0.20420639999999998,1.5659231767739805,1.0257010157046613
-0.20418031999999997,1.5669135440103867,1.021051995089963
-0.20415424,1.5672436664225218,1.01573882867317
-0.20412816,1.5679039112467918,1.0110898080584783
-0.20410208,1.568564156071063,1.0064407874437802
-0.20407599999999998,1.569224400895334,1.001459693928032
-0.20404992,1.5702147681317395,0.9968106733133383
-0.20402383999999998,1.5705448905438755,0.9921616526986401
-0.20399775999999997,1.5715352577802817,0.9878447049849918
-0.20397168,1.5721955026045522,0.9835277572713474
-0.2039456,1.5725256250166875,0.9792108095577051
-0.20391951999999997,1.573515992253094,0.9748938618440511
-0.20389343999999998,1.573846114665229,0.9709089870314582
-0.20386736,1.5748364819016347,0.9669241122188634
-0.20384127999999999,1.5751666043137704,0.9629392374062651
-0.20381519999999997,1.5758268491380416,0.9596185083957662
-0.20378912,1.5768172163744474,0.9559657064842211
-0.20376303999999998,1.5768172163744474,0.9523129045726741
-0.20373695999999997,1.5778075836108536,0.9493242484632252
-0.20371087999999998,1.5784678284351241,0.9460035194527295
-0.2036848,1.5791280732593946,0.9433469362443331
-0.20365872,1.5794581956715303,0.9403582801348843
-0.20363263999999998,1.5801184404958013,0.9373696240254357
-0.20360656,1.5811088077322066,0.9347130408170404
-0.20358047999999998,1.5814389301443423,0.9323885305096912
-0.20355439999999997,1.5820991749686133,0.9300640202023419
-0.20352831999999998,1.5827594197928838,0.9274074369939455
-0.20350224,1.5837497870292894,0.9250829266865985
-0.20347616,1.5844100318535608,0.9230904892802991
-0.20345007999999998,1.5854003990899672,0.921098051874
-0.203424,1.5863907663263723,0.9191056144677034
-0.20339791999999998,1.5870510111506435,0.9171131770614043
-0.20337183999999997,1.5880413783870502,0.9154528125561547
-0.20334576,1.5890317456234557,0.9134603751498573
-0.20331968,1.5896919904477258,0.9124641564467091
-0.2032936,1.590682357684132,0.9108037919414604
-0.20326751999999998,1.5916727249205387,0.909143427436211
-0.20324144,1.5926630921569442,0.9081472087330623
-0.20321535999999998,1.5933233369812154,0.9071509900299127
-0.20318927999999997,1.5943137042176219,0.9061547713267633
-0.2031632,1.5953040714540276,0.9054906255246642
-0.20313712,1.5962944386904327,0.9044944068215159
-0.20311103999999996,1.5972848059268405,0.903830261019415
-0.20308495999999998,1.5982751731632459,0.9031661152173162
-0.20305888,1.5992655403996514,0.9028340423162665
-0.20303279999999999,1.600255907636058,0.902169896514167
-0.20300671999999997,1.6012462748724645,0.9015057507120676
-0.20298064,1.60223664210887,0.9018378236131173
-0.20295455999999998,1.6028968869331415,0.901173677811018
-0.20292847999999997,1.604217376581683,0.9015057507120675
-0.20290239999999998,1.604877621405953,0.9015057507120675
-0.20287632,1.6058679886423586,0.9021698965141667
-0.20285024,1.6068583558787652,0.9025019694152167
-0.20282415999999998,1.6078487231151717,0.9031661152173166
-0.20279808,1.608839090351577,0.9041623339204649
-0.20277199999999998,1.609499335175848,0.9048264797225647
-0.20274591999999997,1.6104897024122544,0.9058226984257143
-0.20271983999999998,1.6108198248243895,0.906818917128863
-0.20269376,1.6118101920607952,0.9084792816341108
-0.20266768,1.6124704368850664,0.9094755003372608
-0.20264159999999998,1.6134608041214729,0.9114679377435598
-0.20261552,1.614451171357878,0.9131283022488068
-0.20258943999999998,1.6151114161821494,0.9147886667540562
-0.20256335999999997,1.6161017834185556,0.9167811041603554
-0.20253728,1.616762028242826,0.9187735415666528
-0.2025112,1.6177523954792317,0.9210980518739997
-0.20248512,1.6184126403035026,0.9230904892802982
-0.20245903999999998,1.6194030075399088,0.9254149995876472
-0.20243296,1.6200632523641794,0.9280715827960436
-0.20240687999999998,1.6207234971884503,0.9303960931033929
-0.20238079999999997,1.6217138644248568,0.9330526763117918
-0.20235472,1.6220439868369918,0.9357092595201884
-0.20232864,1.6233644764855322,0.9386979156296331
-0.20230255999999996,1.6240247213098047,0.9416865717390859
-0.20227647999999998,1.6246849661340748,0.9446752278485306
-0.2022504,1.6253452109583453,0.9483280297600759
-0.20222431999999999,1.6260054557826162,0.9509846129684753
-0.20219823999999997,1.626665700606887,0.9546374148800237
-0.20217216,1.6269958230190222,0.9579581438905194
-0.20214607999999998,1.6276560678432934,0.961610945802068
-0.20211999999999997,1.6286464350796992,0.9655958206146659
-0.20209391999999998,1.6289765574918345,0.9689165496251599
-0.20206784,1.629636802316105,0.9732334973388043
-0.20204176,1.630297047140376,0.9768862992503531
-0.20201567999999998,1.6306271695525114,0.9808711740629518
-0.2019896,1.6312874143767817,0.9851881217765941
-0.20196351999999998,1.6316175367889172,0.9891729965891927
-0.20193743999999997,1.6322777816131884,0.9938220172038907
-0.20191135999999998,1.6326079040253234,0.998138964917535
-0.20188528,1.6329380264374584,1.0027879855322288
-0.2018592,1.6339283936738649,1.007437006146927
