DAQ/testing_accel_4_6/test_full_0049.csv

#Digilent WaveForms Oscilloscope Acquisition
#Device Name: Discovery2
#Serial Number: SN:210321B02866
#Date Time: 2021-04-06 19:02:57.084
#Sample rate: 38343.6Hz
#Samples: 8192
#Trigger: None
#Channel 1: Range: 500 mV/div Offset: -1.15 V Attenuation: 1 X
#Channel 2: Range: 500 mV/div Offset: -1.45 V Attenuation: 1 X
#Power Supplies: ON
#Positive Supply: ON
#Voltage: 3.3 V
#Negative Supply: OFF
#Voltage: -3.3 V

Time (s),Channel 1 (V),Channel 2 (V)
-0.21116975999999998,1.6682611245359424,1.0376556401424513
-0.21114368,1.6682611245359424,1.0433008794602938
-0.2111176,1.6685912469480777,1.0492781916791913
-0.21109151999999998,1.6679310021238074,1.055255503898089
-0.21106544,1.6682611245359422,1.061564889018028
-0.21103935999999998,1.6682611245359424,1.0675422012369258
-0.21101327999999997,1.6679310021238072,1.0738515863568732
-0.21098719999999999,1.6679310021238072,1.0801609714768148
-0.21096112,1.667600879711672,1.0864703565967537
-0.21093504,1.6676008797116717,1.0934438875188004
-0.21090895999999998,1.666940634887401,1.0994211997376984
-0.21088288,1.666940634887401,1.1063947306597393
-0.21085679999999998,1.6666105124752657,1.113036188680737
-0.21083071999999997,1.66628039006313,1.1196776467017344
-0.21080464,1.6659502676509947,1.126983250524825
-0.21077856,1.6656201452388597,1.133624708545813
-0.21075247999999996,1.6656201452388593,1.1412623852699688
-0.21072639999999998,1.6652900228267242,1.147903843290957
-0.21070032,1.664959900414589,1.1552094471140475
-0.21067423999999998,1.6646297780024535,1.1625150509371445
-0.21064815999999997,1.664299655590318,1.1698206547602419
-0.21062208,1.6639695331781827,1.1774583314843818
-0.21059599999999998,1.663639410766047,1.1844318624064294
-0.21056991999999997,1.6633092883539118,1.192069539130576
-0.21054383999999998,1.6629791659417767,1.199375142953663
-0.21051776,1.662318921117506,1.2066807467767535
-0.21049168,1.6619887987053705,1.2139863505998505
-0.21046559999999997,1.6613285538810996,1.2216240273239976
-0.21043952,1.6609984314689645,1.2295937769491836
-0.21041343999999998,1.6603381866446938,1.2372314536733307
-0.21038735999999997,1.6596779418204228,1.2448691303974777
-0.21036127999999998,1.6593478194082878,1.2525068071216177
-0.2103352,1.658687574584017,1.259812410944708
-0.21030912,1.6580273297597463,1.2681142334709543
-0.21028303999999998,1.6573670849354751,1.275419837294052
-0.21025696,1.656706840111205,1.2837216598202872
-0.21023087999999998,1.656046595286934,1.2913593365444345
-0.21020479999999997,1.6550562280505277,1.2989970132685817
-0.21017871999999999,1.6547261056383926,1.3072988357948208
-0.21015264,1.6537357384019873,1.314604439617908
-0.21012656,1.653075493577716,1.3229062621441536
-0.21010047999999998,1.652415248753445,1.330543938868301
-0.2100744,1.6514248815170394,1.3385136884934905
-0.21004831999999998,1.6507646366927684,1.346815511019737
-0.21002223999999997,1.649774269456362,1.3544531877438841
-0.20999616,1.6491140246320914,1.3624229373690737
-0.20997008,1.6481236573956863,1.3703926869942595
-0.20994399999999996,1.6471332901592783,1.3780303637184177
-0.20991791999999998,1.6461429229228732,1.3860001133436035
-0.20989184,1.6451525556864675,1.3939698629687933
-0.20986575999999998,1.644162188450061,1.4016075396929402
-0.20983967999999997,1.6435019436257898,1.409577289318137
-0.2098136,1.6425115763893843,1.4175470389433267
-0.20978751999999998,1.6415212091529776,1.4251847156674737
-0.20976143999999997,1.6405308419165712,1.4331544652926702
-0.20973535999999998,1.639540474680166,1.4407921420168068
-0.20970928,1.6388802298558955,1.4487618916419964
-0.2096832,1.6375597402073538,1.4567316412671931
-0.20965711999999997,1.6368994953830827,1.4643693179913402
-0.20963104,1.6359091281466775,1.4720069947154766
-0.20960495999999998,1.6349187609102709,1.4799767443406733
-0.20957887999999997,1.6339283936738642,1.4876144210648203
-0.20955279999999998,1.6326079040253234,1.49558417069001
-0.20952672,1.631947659201053,1.5028897745131005
-0.20950064,1.6306271695525112,1.510859524138297
-0.20947455999999998,1.62996692472824,1.518497200862444
-0.20944848,1.628976557491835,1.5261348775865804
-0.20942239999999998,1.6279861902554282,1.534104627211777
-0.20939631999999997,1.6269958230190216,1.541410231034874
-0.20937023999999999,1.6256753333704808,1.5487158348579646
-0.20934416,1.6250150885462102,1.5563535115821046
-0.20931808,1.6236945988976688,1.5639911883062516
-0.20929199999999998,1.6230343540733978,1.5709647192282956
-0.20926592,1.6217138644248572,1.5786023959524356
-0.20923983999999998,1.6207234971884503,1.5859079997755328
-0.20921375999999997,1.620063252364179,1.5932136035986297
-0.20918768,1.6187427627156383,1.6001871345206706
-0.2091616,1.617752395479233,1.6071606654427082
-0.20913551999999996,1.616762028242825,1.6144662692658152
-0.20910943999999998,1.6154415385942846,1.6217718730889021
-0.20908336,1.6144511713578789,1.628745404010943
-0.20905727999999998,1.6134608041214724,1.6353868620319405
-0.20903119999999997,1.612470436885066,1.6426924658550375
-0.20900512,1.6114800696486602,1.6493339238760285
-0.20897903999999998,1.6104897024122535,1.655975381897026
-0.20895295999999997,1.6091692127637116,1.6626168399180232
-0.20892687999999998,1.6078487231151712,1.6692582979390116
-0.2089008,1.6068583558787657,1.6755676830589532
-0.20887471999999999,1.6061981110544945,1.6822091410799505
-0.20884863999999997,1.6048776214059526,1.6881864532988484
-0.20882256,1.6038872541695475,1.6948279113198366
-0.20879647999999998,1.6028968869331408,1.7008052235387345
-0.20877039999999997,1.6019065196967341,1.707114608658682
-0.20874431999999998,1.6005860300481933,1.7130919208775741
-0.20871824,1.5995956628117878,1.7190692330964663
-0.20869216,1.5986052955753811,1.7247144724143142
-0.20866607999999998,1.5972848059268392,1.7306917846332117
-0.20864,1.596294438690434,1.7363370239510516
-0.20861391999999998,1.5949739490418922,1.7416501903678498
-0.20858783999999997,1.5939835818054855,1.7469633567846479
-0.20856175999999998,1.5926630921569447,1.7526085961024904
-0.20853568,1.5913426025084039,1.757589689618234
-0.2085096,1.5903522352719972,1.7625707831339819
-0.20848351999999998,1.5893618680355903,1.7675518766497298
-0.20845744,1.5880413783870504,1.7722008972644214
-0.20843135999999998,1.5867208887385083,1.7771819907801694
-0.20840527999999997,1.5857305215021014,1.7814989384938176
-0.2083792,1.5844100318535608,1.785815886207462
-0.20835312,1.5834196646171554,1.7901328339211042
-0.20832703999999996,1.582099174968612,1.7944497816347582
-0.20830095999999998,1.5807786853200716,1.7984346564473512
-0.20827488,1.579788318083666,1.802419531259946
-0.20824879999999998,1.5784678284351241,1.8060723331714947
-0.20822271999999997,1.5774774611987175,1.809725135083043
-0.20819664,1.5761569715501766,1.8130458640935387
-0.20817056,1.5748364819016363,1.8163665931040327
-0.20814447999999997,1.5735159922530926,1.8193552492134861
-0.20811839999999998,1.5721955026045522,1.822343905322931
-0.20809232,1.5708750129560116,1.8250004885313273
-0.20806623999999999,1.5698846457196047,1.8279891446407759
-0.20804015999999997,1.5685641560710628,1.8306457278491748
-0.20801408,1.5675737888346577,1.8333023110575704
-0.20798799999999998,1.5662532991861158,1.8356268213649194
-0.20796191999999997,1.5649328095375739,1.8376192587712186
-0.20793583999999998,1.5639424423011683,1.839611696177516
-0.20790976,1.5626219526526275,1.8416041335838134
-0.20788368,1.5616315854162206,1.8435965709901125
-0.20785759999999998,1.5603110957676787,1.8452569354953618
-0.20783152,1.5593207285312736,1.8465852270995595
-0.20780543999999998,1.5580002388827316,1.847913518703759
-0.20777935999999997,1.5570098716463252,1.8492418103079582
-0.20775327999999998,1.5560195044099197,1.850238029011107
-0.2077272,1.5550291371735139,1.8512342477142556
-0.20770112,1.553708647524972,1.8522304664174052
-0.20767503999999998,1.5527182802885655,1.852894612219505
-0.20764896,1.5517279130521602,1.853226685120554
-0.20762287999999998,1.5504074234036185,1.8535587580216042
-0.20759679999999997,1.5494170561672118,1.8538908309226538
-0.20757072,1.5484266889308063,1.8538908309226538
-0.20754464,1.5474363216944012,1.8538908309226538
-0.20751856,1.5461158320458595,1.8535587580216044
-0.20749247999999998,1.5451254648094526,1.8535587580216042
-0.2074664,1.544135097573047,1.852894612219505
-0.20744031999999998,1.5431447303366403,1.8522304664174052
-0.20741423999999997,1.542154363100234,1.8515663206153057
-0.20738816,1.5411639958638284,1.8509021748132064
-0.20736208,1.5401736286274232,1.8499059561100581
-0.20733599999999996,1.5391832613910152,1.848909737406907
-0.20730991999999998,1.53819289415461,1.8475814458027093
-0.20728384,1.5375326493303396,1.846253154198511
-0.20725775999999999,1.5368724045060687,1.844592789693262
-0.20723167999999997,1.5358820372696622,1.8432644980890622
-0.2072056,1.535221792445392,1.8416041335838143
-0.20717951999999998,1.5342314252089853,1.8402758419796148
-0.20715343999999997,1.5332410579725795,1.8386154774743662
-0.20712735999999998,1.532580813148309,1.8369551129691182
-0.20710128,1.5315904459119032,1.8349626755628208
-0.2070752,1.5306000786754967,1.8329702381565216
-0.20704911999999998,1.5299398338512256,1.8306457278491726
-0.20702304,1.5289494666148205,1.827989144640777
-0.20699695999999998,1.5282892217905493,1.8253325614323783
-0.20697087999999997,1.527628976966278,1.8223439053229296
-0.20694479999999998,1.5266386097298725,1.8193552492134835
-0.20691872,1.5259783649056018,1.8160345202029877
-0.20689264,1.5256482424934663,1.8127137911924889
-0.20686655999999998,1.52465787525706,1.8090609892809406
-0.20684048,1.5239976304327898,1.8054081873693968
-0.20681439999999998,1.523667508020654,1.8014233125567987
-0.20678831999999997,1.5230072631963831,1.7974384377442003
-0.20676223999999999,1.5223470183721126,1.7934535629316055
-0.20673616,1.5216867735478428,1.789136615217963
-0.20671008,1.5213566511357068,1.7848196675043149
-0.20668399999999998,1.5206964063114359,1.7801706468896168
-0.20665792,1.5200361614871654,1.7758536991759726
-0.20663183999999998,1.5197060390750299,1.7708726056602249
-0.20660575999999997,1.519045794250759,1.765891512144477
-0.20657968,1.5183855494264884,1.7609104186287332
-0.2065536,1.517395182190083,1.7555972522119427
-0.20652751999999996,1.5170650597779463,1.7499520128940877
-0.20650143999999998,1.5164048149536762,1.7446388464772973
-0.20647536,1.5157445701294057,1.7386615342584049
-0.20644927999999999,1.5150843253051347,1.7333483678416068
-0.20642319999999997,1.5144240804808637,1.7277031285237585
-0.20639712,1.5140939580687287,1.7210616705027673
-0.20637103999999998,1.513763835656593,1.7154164311849196
-0.20634495999999997,1.5131035908323225,1.7094391189660214
-0.20631887999999998,1.5127734684201872,1.7031297338460827
-0.2062928,1.5127734684201872,1.6974844945282401
-0.20626672,1.5121132235959165,1.691175109408293
-0.20624063999999998,1.5117831011837812,1.6848657242883456
-0.20621456,1.5117831011837812,1.678888412069456
-0.20618847999999998,1.5114529787716457,1.6719148811474094
-0.20616239999999997,1.5111228563595105,1.6659375689285114
-0.20613631999999998,1.5111228563595105,1.6592961109075202
-0.20611024,1.5107927339473752,1.652654652886529
-0.20608416,1.510792733947375,1.6460131948655314
-0.20605807999999998,1.510792733947375,1.6393717368445337
-0.206032,1.510792733947375,1.6320661330214468
-0.20600591999999998,1.510792733947375,1.6257567479014987
-0.20597983999999997,1.510792733947375,1.619115289880501
-0.20595375999999999,1.510792733947375,1.6118096860574107
-0.20592768,1.5111228563595103,1.6051682280364195
-0.2059016,1.5111228563595105,1.5978626242133225
-0.20587551999999998,1.5111228563595105,1.5908890932912785
-0.20584944,1.5114529787716455,1.5839155623692376
-0.20582335999999998,1.5114529787716457,1.5766099585461408
-0.20579727999999997,1.5117831011837812,1.5693043547230439
-0.2057712,1.5117831011837812,1.562330823801003
-0.20574512,1.5121132235959163,1.5550252199779158
-0.20571903999999996,1.512443346008052,1.5477196161548088
-0.20569295999999998,1.5127734684201872,1.5404140123317216
-0.20566688,1.5131035908323225,1.5327763356075816
-0.20564079999999998,1.513433713244458,1.5254707317844844
-0.20561471999999997,1.5137638356565932,1.5178330550603376
-0.20558864,1.5137638356565932,1.5105274512372473
-0.20556255999999998,1.5144240804808642,1.5028897745131002
-0.20553647999999997,1.5147542028930001,1.4952520977889536
-0.20551039999999998,1.5154144477172702,1.4879464939658664
-0.20548432,1.5160746925415405,1.4799767443406768
-0.20545824,1.5164048149536762,1.4726711405175796
-0.20543215999999997,1.5170650597779471,1.4650334637934326
-0.20540608,1.5177253046022174,1.4573957870692962
-0.20537999999999998,1.5180554270143531,1.4497581103451491
-0.20535391999999997,1.5187156718386239,1.442120433621002
-0.20532783999999998,1.5190457942507591,1.4341506839958125
-0.20530176,1.5197060390750297,1.4265130072716725
-0.20527568,1.5203662838993006,1.4188753305475255
-0.20524959999999998,1.5210265287235714,1.4112376538233784
-0.20522352,1.5213566511357064,1.4032679041981924
-0.20519743999999998,1.5220168959599774,1.3952981545729957
-0.20517135999999997,1.5226771407842483,1.387328404947799
-0.20514527999999999,1.5233373856085188,1.379690728223659
-0.2051192,1.5236675080206539,1.372053051499519
-0.20509312,1.5246578752570603,1.364415374775372
-0.20506703999999998,1.5253181200813313,1.3564456251501753
-0.20504096,1.5259783649056013,1.348807948426039
-0.20501487999999998,1.527298854554143,1.3411702717018918
-0.20498879999999997,1.527628976966279,1.3332005220766954
-0.20496272,1.5286193442026845,1.325894918253605
-0.20493664,1.529939833851225,1.3185893144305179
-0.20491055999999996,1.5306000786754976,1.310951637706361
-0.20488447999999998,1.5315904459119027,1.303646033883274
-0.2048584,1.5325808131483085,1.296008357159134
-0.20483231999999998,1.5332410579725797,1.2887027533360367
-0.20480623999999997,1.5345615476211212,1.2813971495129395
-0.20478016,1.535221792445392,1.27342739988775
-0.20475408,1.5358820372696618,1.2661217960646627
-0.20472799999999997,1.5372025269182046,1.2584841193405056
-0.20470191999999998,1.5378627717424747,1.250846442616369
-0.20467584,1.5391832613910155,1.2435408387932787
-0.20464976,1.5398435062152869,1.2362352349701815
-0.20462367999999997,1.5408338734516933,1.2289296311470848
-0.2045976,1.5418242406880986,1.221956100225047
-0.20457151999999998,1.542814607924505,1.21465049640195
-0.20454543999999997,1.544135097573047,1.2080090383809525
-0.20451935999999998,1.5451254648094526,1.2010355074589116
-0.20449328,1.5464459544579934,1.1940619765368707
-0.2044672,1.5477664441065355,1.1874205185158733
-0.20444111999999998,1.5487568113429422,1.1804469875938262
-0.20441504,1.5497471785793473,1.1734734566717884
-0.20438895999999998,1.5510676682278892,1.1664999257497413
-0.20436287999999997,1.5520580354642959,1.159526394827694
-0.20433679999999999,1.553708647524972,1.1528849368067027
-0.20431072,1.5546990147613777,1.1455793329836124
-0.20428464,1.5556893819977842,1.1392699478636645
-0.20425855999999998,1.5570098716463263,1.1322964169416172
-0.20423248,1.5583303612948665,1.125654958920629
-0.20420639999999998,1.5596508509434086,1.1193455738006814
-0.20418031999999997,1.5603110957676798,1.1123720428786348
-0.20415424,1.5616315854162206,1.1063947306597424
-0.20412816,1.562621952652626,1.0997532726387542
-0.20410208,1.5636123198890324,1.0934438875188064
-0.20407599999999998,1.5649328095375743,1.0874665752999086
-0.20404992,1.56592317677398,1.0808251172789174
-0.20402383999999998,1.5672436664225218,1.075179877961069
-0.20399775999999997,1.5682340336589284,1.0692025657421713
-0.20397168,1.569224400895334,1.0628931806222297
-0.2039456,1.5705448905438744,1.0572479413043896
-0.20391951999999997,1.571865380192418,1.0512706290854845
-0.20389343999999998,1.5731858698409584,1.0456253897676444
-0.20386736,1.5748364819016345,1.0396480775487522
-0.20384127999999999,1.5758268491380412,1.0340028382309043
-0.20381519999999997,1.5771473387865833,1.028689671814106
-0.20378912,1.5784678284351241,1.0230444324962638
-0.20376303999999998,1.5797883180836656,1.0177312660794682
-0.20373695999999997,1.581438930144343,1.0124180996626704
-0.20371087999999998,1.5827594197928838,1.0071049332458775
-0.2036848,1.58441003185356,1.0024559126311834
-0.20365872,1.5854003990899668,0.9971427462143858
-0.20363263999999998,1.586720888738509,0.9924937255996876
-0.20360656,1.5883715007991843,0.9878447049849959
-0.20358047999999998,1.589361868035591,0.982863611469248
-0.20355439999999997,1.5910124800962686,0.9785466637555996
-0.20352831999999998,1.5923329697448092,0.9738976431409057
-0.20350224,1.59365345939335,0.9695806954272614
-0.20347616,1.5949739490418922,0.9655958206146629
-0.20345007999999998,1.5959643162782988,0.9612788729010149
-0.203424,1.5976149283389744,0.9579581438905209
-0.20339791999999998,1.5986052955753811,0.9536411961768729
-0.20337183999999997,1.6002559076360587,0.9503204671663741
-0.20334576,1.6015763972845996,0.9463355923537793
-0.20331968,1.6025667645210047,0.9433469362443345
-0.2032936,1.6038872541695464,0.9396941343327866
-0.20326751999999998,1.604877621405953,0.936041332421238
-0.20324144,1.6061981110544938,0.9330526763117919
-0.20321535999999998,1.6071884782909005,0.9300640202023431
-0.20318927999999997,1.6085089679394424,0.9274074369939439
-0.2031632,1.609499335175848,0.9240867079834483
-0.20313712,1.6108198248243883,0.9214301247750529
-0.20311103999999996,1.6124704368850673,0.9191056144676999
-0.20308495999999998,1.6134608041214724,0.916116958358255
-0.20305888,1.6147812937700132,0.9137924480509082
-0.20303279999999999,1.61577166100642,0.9111358648425093
-0.20300671999999997,1.617092150654962,0.9091434274362101
-0.20298064,1.6184126403035028,0.9071509900299127
-0.20295455999999998,1.619733129952045,0.9048264797225639
-0.20292847999999997,1.621053619600587,0.9031661152173144
-0.20290239999999998,1.6223741092491273,0.9011736778110179
-0.20287632,1.623694598897668,0.89951331330577
-0.20285024,1.62501508854621,0.8975208758994709
-0.20282415999999998,1.6263355781947522,0.8961925842952715
-0.20279808,1.6276560678432923,0.8948642926910738
-0.20277199999999998,1.628646435079699,0.8935360010868744
-0.20274591999999997,1.629966924728241,0.8925397823837244
-0.20271983999999998,1.6309572919646467,0.8908794178784767
-0.20269376,1.6322777816131875,0.8902152720763775
-0.20266768,1.6332681488495941,0.889219053373228
-0.20264159999999998,1.6342585160860008,0.8888869804721778
-0.20261552,1.635579005734541,0.8878907617690296
-0.20258943999999998,1.6365693729709476,0.8875586888679795
-0.20256335999999997,1.6378898626194893,0.8872266159669294
-0.20253728,1.6385501074437598,0.8865624701648304
-0.2025112,1.6398705970923007,0.8868945430658799
-0.20248512,1.640860964328707,0.886230397263781
-0.20245903999999998,1.6421814539772488,0.8865624701648304
-0.20243296,1.6431718212136546,0.8862303972637807
-0.20240687999999998,1.6438320660379258,0.8865624701648304
-0.20238079999999997,1.6451525556864675,0.8868945430658803
-0.20235472,1.6461429229228732,0.8875586888679795
-0.20232864,1.6471332901592783,0.8882228346700783
-0.20230255999999996,1.6477935349835509,0.8885549075711299
-0.20227647999999998,1.648783902219956,0.8898831991753274
-0.2022504,1.6494441470442267,0.8908794178784762
-0.20222431999999999,1.650434514280633,0.8922077094826755
-0.20219823999999997,1.6514248815170391,0.8932039281858254
-0.20217216,1.6520851263413097,0.8948642926910733
-0.20214607999999998,1.6530754935777163,0.8961925842952726
-0.20211999999999997,1.6540658608141225,0.897520875899473
-0.20209391999999998,1.6547261056383926,0.899845386206819
-0.20206784,1.6553863504626631,0.9011736778110173
-0.20204176,1.6563767176990694,0.9034981881183658
-0.20201567999999998,1.6570369625233403,0.9054906255246653
-0.2019896,1.6576972073476106,0.907815135832011
-0.20196351999999998,1.6583574521718816,0.9098075732383104
-0.20193743999999997,1.6590176969961525,0.9124641564467094
-0.20191135999999998,1.659677941820423,0.9151207396551059
-0.20188528,1.6603381866446936,0.9177773228635024
-0.2018592,1.6613285538810998,0.9210980518740008
