DAQ/testing_accel_4_6/test_full_0059.csv

#Digilent WaveForms Oscilloscope Acquisition
#Device Name: Discovery2
#Serial Number: SN:210321B02866
#Date Time: 2021-04-06 19:02:59.284
#Sample rate: 38343.6Hz
#Samples: 8192
#Trigger: None
#Channel 1: Range: 500 mV/div Offset: -1.15 V Attenuation: 1 X
#Channel 2: Range: 500 mV/div Offset: -1.45 V Attenuation: 1 X
#Power Supplies: ON
#Positive Supply: ON
#Voltage: 3.3 V
#Negative Supply: OFF
#Voltage: -3.3 V

Time (s),Channel 1 (V),Channel 2 (V)
-0.21116975999999998,1.6517550039291744,0.9655958206146629
-0.21114368,1.6520851263413094,0.9699127683283071
-0.2111176,1.6517550039291744,0.9742297160419554
-0.21109151999999998,1.6520851263413097,0.9785466637556037
-0.21106544,1.6520851263413097,0.9828636114692461
-0.21103935999999998,1.652415248753445,0.987512632083944
-0.21101327999999997,1.652415248753445,0.9921616526986423
-0.21098719999999999,1.652415248753445,0.9971427462143858
-0.21096112,1.652415248753445,1.002123839730127
-0.21093504,1.6527453711655802,1.0071049332458752
-0.21090895999999998,1.6527453711655804,1.0117539538605733
-0.21088288,1.6530754935777157,1.0170671202773665
-0.21085679999999998,1.6527453711655804,1.0223802866941643
-0.21083071999999997,1.6530754935777157,1.0280255260120117
-0.21080464,1.6527453711655804,1.0330066195277552
-0.21077856,1.6530754935777157,1.0389839317466447
-0.21075247999999996,1.6527453711655804,1.044297098163451
-0.21072639999999998,1.6527453711655804,1.0502744103823405
-0.21070032,1.6524152487534451,1.055919649700183
-0.21067423999999998,1.652415248753445,1.0618969619190806
-0.21064815999999997,1.6520851263413099,1.067542201236929
-0.21062208,1.652415248753445,1.07418365925792
-0.21059599999999998,1.6520851263413097,1.0794968256747186
-0.21056991999999997,1.652085126341309,1.0861382836957152
-0.21054383999999998,1.651424881517039,1.0921155959146047
-0.21051776,1.651424881517039,1.098757053935596
-0.21049168,1.6510947591049037,1.1050664390555436
-0.21046559999999997,1.6514248815170387,1.1117078970765408
-0.21043952,1.6507646366927686,1.1180172821964798
-0.21041343999999998,1.6507646366927684,1.1246587402174768
-0.21038735999999997,1.6504345142806327,1.1313001982384743
-0.21036127999999998,1.6501043918684974,1.1382737291605154
-0.2103352,1.6497742694563624,1.1449151871815064
-0.21030912,1.649444147044227,1.1522207910046034
-0.21028303999999998,1.6491140246320912,1.1591943219266505
-0.21025696,1.6487839022199562,1.1661678528486883
-0.21023087999999998,1.6484537798078207,1.1731413837707354
-0.21020479999999997,1.6481236573956852,1.180779060494882
-0.21017871999999999,1.6474634125714147,1.187752591416923
-0.21015264,1.6471332901592795,1.1953902681410595
-0.21012656,1.6468031677471442,1.2023637990631073
-0.21010047999999998,1.6464730453350085,1.2103335486883038
-0.2100744,1.645482678098603,1.2173070796103447
-0.21004831999999998,1.645152555686467,1.2249447563344913
-0.21002223999999997,1.6444923108621965,1.2322503601575885
-0.20999616,1.6444923108621965,1.240220109782778
-0.20997008,1.6438320660379264,1.2475257136058653
-0.20994399999999996,1.6431718212136548,1.255163390330022
-0.20991791999999998,1.6428416988015195,1.262468994153109
-0.20989184,1.6425115763893845,1.2704387437782987
-0.20986575999999998,1.6418513315651135,1.277744347601396
-0.20983967999999997,1.6415212091529776,1.2860461701276424
-0.2098136,1.640530841916572,1.2936838468517824
-0.20978751999999998,1.6405308419165718,1.301653596476979
-0.20976143999999997,1.6398705970923007,1.3089592003000767
-0.20973535999999998,1.6392103522680306,1.3169289499252625
-0.20970928,1.63855010744376,1.3248986995504524
-0.2096832,1.6382199850316246,1.332868449175649
-0.20965711999999997,1.6372296177952184,1.3401740529987465
-0.20963104,1.6368994953830833,1.348475875524982
-0.20960495999999998,1.6362392505588124,1.3561135522491292
-0.20957887999999997,1.6359091281466769,1.3644153747753756
-0.20955279999999998,1.6352488833224064,1.3720530514995155
-0.20952672,1.6345886384981358,1.380022801124705
-0.20950064,1.6339283936738649,1.3876604778488522
-0.20947455999999998,1.633268148849594,1.3956302274740489
-0.20944848,1.6326079040253236,1.4035999770992351
-0.20942239999999998,1.6319476592010527,1.411237653823382
-0.20939631999999997,1.6312874143767817,1.418875330547529
-0.20937023999999999,1.6306271695525112,1.426513007271669
-0.20934416,1.6299669247282407,1.434150683995809
-0.20931808,1.6289765574918345,1.441788360719956
-0.20929199999999998,1.6283163126675637,1.4497581103451491
-0.20926592,1.6276560678432932,1.4570637141682397
-0.20923983999999998,1.6269958230190222,1.4650334637934361
-0.20921375999999997,1.626005455782616,1.4723390676165333
-0.20918768,1.6253452109583455,1.4799767443406733
-0.2091616,1.6243548437219402,1.4869502752627108
-0.20913551999999996,1.6236945988976679,1.4949200248879169
-0.20910943999999998,1.6227042316612625,1.5018935558099547
-0.20908336,1.6223741092491275,1.5098633054351442
-0.20905727999999998,1.6210536196005858,1.5168368363571918
-0.20903119999999997,1.6207234971884499,1.5244745130813386
-0.20900512,1.6197331299520443,1.531780116904429
-0.20897903999999998,1.6187427627156379,1.5394177936285756
-0.20895295999999997,1.6177523954792312,1.546391324550623
-0.20892687999999998,1.616762028242826,1.5533648554726607
-0.2089008,1.6157716610064203,1.560670459295751
-0.20887471999999999,1.614781293770014,1.5676439902177983
-0.20884863999999997,1.6137909265336075,1.5749495940408953
-0.20882256,1.6128005592972021,1.581923124962933
-0.20879647999999998,1.612140314472931,1.5888966558849802
-0.20877039999999997,1.6108198248243892,1.5958701868070273
-0.20874431999999998,1.610159580000119,1.6028437177290684
-0.20871824,1.6094993351758482,1.6098172486511093
-0.20869216,1.608508967939442,1.6167907795731564
-0.20866607999999998,1.6078487231151708,1.623432237594154
-0.20864,1.6068583558787657,1.6304057685161917
-0.20861391999999998,1.605867988642359,1.6370472265371891
-0.20858783999999997,1.605207743818088,1.6440207574592363
-0.20856175999999998,1.6042173765816823,1.6506622154802275
-0.20853568,1.6032270093452767,1.6569716006001691
-0.2085096,1.6025667645210055,1.6632809857201167
-0.20848351999999998,1.601576397284599,1.6695903708400641
-0.20845744,1.6005860300481938,1.675899755960003
-0.20843135999999998,1.5999257852239226,1.6822091410799505
-0.20840527999999997,1.5989354179875161,1.6885185261998978
-0.2083792,1.5979450507511104,1.69449583841879
-0.20835312,1.5972848059268403,1.7004731506376796
-0.20832703999999996,1.5962944386904327,1.7064504628565849
-0.20830095999999998,1.5953040714540276,1.712095702174425
-0.20827488,1.5943137042176219,1.7177409414922675
-0.20824879999999998,1.5936534593933507,1.723718253711165
-0.20822271999999997,1.5926630921569445,1.7293634930290127
-0.20819664,1.592002847332674,1.7346766594458056
-0.20817056,1.5910124800962688,1.7399898258625963
-0.20814447999999997,1.5900221128598608,1.7449709193783518
-0.20811839999999998,1.5890317456234557,1.7502840857951423
-0.20809232,1.5880413783870502,1.7552651793108858
-0.20806623999999999,1.5873811335627788,1.759914199925584
-0.20804015999999997,1.5860606439142373,1.7645632205402824
-0.20801408,1.585400399089967,1.769212241154974
-0.20798799999999998,1.5840799094414253,1.7735291888686224
-0.20796191999999997,1.583419664617154,1.7778461365822709
-0.20793583999999998,1.5824292973807483,1.782163084295915
-0.20790976,1.5814389301443428,1.7861479591085099
-0.20788368,1.5801184404958009,1.7901328339211082
-0.20785759999999998,1.5794581956715297,1.7941177087337066
-0.20783152,1.5781377060229895,1.7974384377442005
-0.20780543999999998,1.5771473387865826,1.801091239655749
-0.20777935999999997,1.5764870939623112,1.8044119686662476
-0.20775327999999998,1.5751666043137704,1.8077326976767432
-0.2077272,1.5745063594895001,1.811053426687239
-0.20770112,1.5731858698409584,1.8140420827966879
-0.20767503999999998,1.572525625016687,1.8170307389061364
-0.20764896,1.5712051353681469,1.8193552492134824
-0.20762287999999998,1.57021476813174,1.822343905322931
-0.20759679999999997,1.569554523307469,1.82466841563028
-0.20757072,1.5685641560710633,1.8273249988386766
-0.20754464,1.5675737888346581,1.8293174362449731
-0.20751856,1.5665834215982515,1.8313098736512723
-0.20749247999999998,1.565593054361845,1.8333023110575715
-0.2074664,1.5642725647133042,1.8349626755628192
-0.20744031999999998,1.5632821974768976,1.8369551129691182
-0.20741423999999997,1.5619617078283559,1.8382834045733178
-0.20738816,1.5613014630040853,1.839611696177516
-0.20736208,1.56031109576768,1.8409399877817139
-0.20733599999999996,1.5596508509434077,1.8419362064848648
-0.20730991999999998,1.5586604837070024,1.8426003522869634
-0.20728384,1.5576701164705968,1.843596570990112
-0.20725775999999999,1.5566797492341902,1.844260716792212
-0.20723167999999997,1.555689381997784,1.8445927896932621
-0.2072056,1.5550291371735134,1.8449248625943115
-0.20717951999999998,1.554038769937107,1.8452569354953612
-0.20715343999999997,1.5530484027007008,1.8452569354953614
-0.20712735999999998,1.5520580354642952,1.845589008396411
-0.20710128,1.5513977906400247,1.8452569354953614
-0.2070752,1.5504074234036185,1.8449248625943115
-0.20704911999999998,1.549417056167212,1.8442607167922118
-0.20702304,1.548756811342942,1.8435965709901128
-0.20699695999999998,1.5477664441065355,1.8429324251880133
-0.20697087999999997,1.5471061992822643,1.8419362064848637
-0.20694479999999998,1.5461158320458588,1.840939987781715
-0.20691872,1.5454555872215883,1.839943769078566
-0.20689264,1.5447953423973173,1.8386154774743668
-0.20686655999999998,1.543804975160911,1.8372871858701674
-0.20684048,1.5431447303366406,1.8359588942659697
-0.20681439999999998,1.5421543631002343,1.8342985297607206
-0.20678831999999997,1.5418242406880986,1.832970238156521
-0.20676223999999999,1.5408338734516929,1.8313098736512732
-0.20673616,1.540173628627423,1.8293174362449767
-0.20671008,1.5395133838031516,1.827657071739727
-0.20668399999999998,1.5385230165667454,1.825664634333428
-0.20665792,1.5378627717424749,1.8236721969271306
-0.20663183999999998,1.537202526918204,1.8213476866197817
-0.20660575999999997,1.5365422820939327,1.8186911034113828
-0.20657968,1.5355519148575272,1.8160345202029862
-0.2065536,1.5352217924453921,1.8130458640935414
-0.20652751999999996,1.534231425208985,1.8097251350830383
-0.20650143999999998,1.533571180384715,1.8064044060725444
-0.20647536,1.5329109355604444,1.802751604160999
-0.20644927999999999,1.5322506907361735,1.7990988022494507
-0.20642319999999997,1.5315904459119025,1.795446000337902
-0.20639712,1.5312603234997675,1.7914611255253072
-0.20637103999999998,1.5306000786754965,1.787144177811659
-0.20634495999999997,1.5299398338512258,1.7831593029990602
-0.20631887999999998,1.5296097114390905,1.778842355285418
-0.2062928,1.5289494666148202,1.7745254075717736
-0.20626672,1.5286193442026845,1.7698763869570757
-0.20624063999999998,1.5279590993784136,1.7652273663423774
-0.20621456,1.5276289769662788,1.760246272826636
-0.20618847999999998,1.527298854554143,1.755265179310888
-0.20616239999999997,1.5269687321420076,1.7506161586961897
-0.20613631999999998,1.526308487317737,1.7453029922793966
-0.20611024,1.5259783649056018,1.7399898258626036
-0.20608416,1.5256482424934663,1.7350087323468553
-0.20605807999999998,1.525318120081331,1.7296955659300572
-0.206032,1.525318120081331,1.7240503266122174
-0.20600591999999998,1.5249879976691956,1.7184050872943697
-0.20597983999999997,1.5246578752570603,1.7130919208775715
-0.20595375999999999,1.5246578752570603,1.7071146086586793
-0.20592768,1.524327752844925,1.701137296439787
-0.2059016,1.5243277528449248,1.6954920571219392
-0.20587551999999998,1.523667508020654,1.6895147449030443
-0.20584944,1.523667508020654,1.6838695055852018
-0.20582335999999998,1.5233373856085188,1.6778921933663042
-0.20579727999999997,1.5233373856085188,1.6715828082463569
-0.2057712,1.5233373856085188,1.6656054960274647
-0.20574512,1.5233373856085188,1.659296110907526
-0.20571903999999996,1.5230072631963834,1.6529867257875697
-0.20569295999999998,1.5230072631963834,1.646677340667631
-0.20566688,1.5230072631963834,1.640367955547689
-0.20564079999999998,1.5230072631963834,1.6333944246256422
-0.20561471999999997,1.522677140784248,1.6267529666046447
-0.20558864,1.522677140784248,1.6201115085836535
-0.20556255999999998,1.5223470183721124,1.6131379776616062
-0.20553647999999997,1.5220168959599774,1.6058323738385099
-0.20551039999999998,1.5220168959599774,1.5991909158175215
-0.20548432,1.5220168959599774,1.5915532390933815
-0.20545824,1.5220168959599774,1.584579708171334
-0.20543215999999997,1.5220168959599774,1.5776061772492866
-0.20540608,1.5220168959599774,1.5703005734261994
-0.20537999999999998,1.5220168959599774,1.5629949696031025
-0.20535391999999997,1.5223470183721126,1.5556893657800053
-0.20532783999999998,1.5223470183721126,1.5483837619569147
-0.20530176,1.5226771407842479,1.5410781581338244
-0.20527568,1.522677140784248,1.5337725543107275
-0.20524959999999998,1.5230072631963836,1.5264669504876303
-0.20522352,1.5233373856085186,1.519161346664543
-0.20519743999999998,1.5233373856085188,1.5115236699403964
-0.20517135999999997,1.5236675080206543,1.5045501390183487
-0.20514527999999999,1.5239976304327896,1.496912462294209
-0.2051192,1.5243277528449246,1.4896068584711184
-0.20509312,1.5249879976691956,1.4823012546480214
-0.20506703999999998,1.5249879976691958,1.4746635779238746
-0.20504096,1.525648242493466,1.4673579741007874
-0.20501487999999998,1.526308487317737,1.4597202973766406
-0.20498879999999997,1.5266386097298728,1.4520826206524935
-0.20496272,1.5269687321420078,1.4444449439283538
-0.20493664,1.5276289769662779,1.4371393401052666
-0.20491055999999996,1.5279590993784145,1.4295016633811097
-0.20488447999999998,1.5286193442026845,1.4221960595580228
-0.2048584,1.5289494666148198,1.4145583828338828
-0.20483231999999998,1.5296097114390905,1.4069207061097357
-0.20480623999999997,1.5302699562633617,1.3992830293855887
-0.20478016,1.530930201087632,1.3916453526614487
-0.20475408,1.531590445911902,1.384007675937312
-0.20472799999999997,1.531920568324039,1.3760379263121054
-0.20470191999999998,1.532580813148309,1.3687323224890184
-0.20467584,1.5335711803847145,1.3610946457648785
-0.20464976,1.5339013027968504,1.3534569690407314
-0.20462367999999997,1.5345615476211212,1.346151365217634
-0.2045976,1.5352217924453917,1.3385136884934976
-0.20457151999999998,1.5358820372696624,1.3308760117693508
-0.20454543999999997,1.5368724045060689,1.3235704079462534
-0.20451935999999998,1.5375326493303394,1.3159327312221134
-0.20449328,1.5381928941546097,1.308627127399023
-0.2044672,1.5391832613910161,1.301321523575926
-0.20444111999999998,1.5398435062152873,1.2936838468517793
-0.20441504,1.5408338734516924,1.2867103159297415
-0.20438895999999998,1.541824240688099,1.2794047121066447
-0.20436287999999997,1.54248448551237,1.2717670353824981
-0.20433679999999999,1.5431447303366403,1.2647935044604572
-0.20431072,1.5441350975730461,1.2574879006373667
-0.20428464,1.5447953423973173,1.2501822968142697
-0.20425855999999998,1.5457857096337235,1.2432087658922222
-0.20423248,1.5464459544579938,1.2359031620691352
-0.20420639999999998,1.5471061992822648,1.228597558246038
-0.20418031999999997,1.5477664441065357,1.2216240273239904
-0.20415424,1.5484266889308063,1.2139863505998505
-0.20412816,1.5494170561672114,1.2073448925788621
-0.20410208,1.550407423403618,1.2003713616568152
-0.20407599999999998,1.5513977906400245,1.1930657578337185
-0.20404992,1.5527182802885653,1.1864242998127272
-0.20402383999999998,1.553708647524972,1.1794507688906801
-0.20399775999999997,1.5543688923492431,1.172477237968633
-0.20397168,1.555359259585649,1.1658357799476418
-0.2039456,1.556349626822054,1.1591943219266534
-0.20391951999999997,1.557670116470597,1.152552863905647
-0.20389343999999998,1.5583303612948671,1.1459114058846587
-0.20386736,1.5593207285312727,1.1392699478636676
-0.20384127999999999,1.5603110957676791,1.13262848984267
-0.20381519999999997,1.5613014630040858,1.1259870318216727
-0.20378912,1.5622918302404916,1.1193455738006814
-0.20376303999999998,1.562952075064762,1.113036188680737
-0.20373695999999997,1.5639424423011687,1.1063947306597395
-0.20371087999999998,1.5649328095375743,1.1000853455397979
-0.2036848,1.56592317677398,1.0937759604198563
-0.20365872,1.5669135440103865,1.0877986482009585
-0.20363263999999998,1.5679039112467932,1.0814892630810111
-0.20360656,1.5692244008953333,1.0758440237631712
-0.20358047999999998,1.57021476813174,1.0698667115442737
-0.20355439999999997,1.5708750129560116,1.0635573264243265
-0.20352831999999998,1.5721955026045522,1.057912087106484
-0.20350224,1.573185869840958,1.0522668477886414
-0.20347616,1.5745063594895,1.046289535569744
-0.20345007999999998,1.5758268491380416,1.0409763691529457
-0.203424,1.576817216374447,1.035331129835106
-0.20339791999999998,1.5778075836108534,1.0296858905172581
-0.20337183999999997,1.5791280732593953,1.0243727241004599
-0.20334576,1.5801184404958009,1.0187274847826173
-0.20331968,1.5811088077322062,1.013746391266876
-0.2032936,1.5820991749686126,1.0084332248500787
-0.20326751999999998,1.5830895422050193,1.0034521313343303
-0.20324144,1.5840799094414248,0.9981389649175374
-0.20321535999999998,1.5850702766778313,0.9934899443028389
-0.20318927999999997,1.5863907663263732,0.9888409236881408
-0.2031632,1.5873811335627788,0.984191903073447
-0.20313712,1.588371500799184,0.9795428824587551
-0.20311103999999996,1.5893618680355917,0.9748938618440506
-0.20308495999999998,1.5900221128598617,0.9702448412293588
-0.20305888,1.5913426025084025,0.9662599664167639
-0.20303279999999999,1.5923329697448092,0.9619430187031159
-0.20300671999999997,1.5936534593933511,0.957626070989468
-0.20298064,1.594643826629757,0.9539732690779228
-0.20295455999999998,1.5959643162782984,0.9506525400674238
-0.20292847999999997,1.5966245611025702,0.9469997381558753
-0.20290239999999998,1.5979450507511104,0.9433469362443319
-0.20287632,1.5995956628117867,0.9400262072338362
-0.20285024,1.5999257852239226,0.9363734053222877
-0.20282415999999998,1.6012462748724647,0.933384749212839
-0.20279808,1.6025667645210049,0.9303960931033942
-0.20277199999999998,1.6035571317574115,0.9274074369939455
-0.20274591999999997,1.6045474989938182,0.9244187808844969
-0.20271983999999998,1.605867988642359,0.92209427057715
-0.20269376,1.6068583558787648,0.9194376873687534
-0.20266768,1.6078487231151712,0.9167811041603545
-0.20264159999999998,1.6091692127637132,0.9147886667540551
-0.20261552,1.6101595800001185,0.9124641564467093
-0.20258943999999998,1.611149947236525,0.9101396461393602
-0.20256335999999997,1.6128005592972021,0.9084792816341108
-0.20253728,1.613790926533608,0.906818917128863
-0.2025112,1.6147812937700134,0.9048264797225656
-0.20248512,1.6161017834185547,0.9034981881183664
-0.20245903999999998,1.6170921506549614,0.902169896514167
-0.20243296,1.618082517891367,0.9005095320089191
-0.20240687999999998,1.6194030075399088,0.8991812404047196
-0.20238079999999997,1.6203933747763155,0.89818502170157
-0.20235472,1.621383742012721,0.8971888029984212
-0.20232864,1.6223741092491264,0.8961925842952729
-0.20230255999999996,1.6233644764855342,0.8955284384931714
-0.20227647999999998,1.6243548437219393,0.8942001468889738
-0.2022504,1.625345210958345,0.8935360010868747
-0.20222431999999999,1.6266657006068868,0.892871855284775
-0.20219823999999997,1.627325945431158,0.8922077094826754
-0.20217216,1.6279861902554282,0.8918756365816258
-0.20214607999999998,1.6293066799039702,0.891543563680576
-0.20211999999999997,1.6302970471403766,0.8912114907795263
-0.20209391999999998,1.6309572919646467,0.8912114907795263
-0.20206784,1.6319476592010522,0.8912114907795263
-0.20204176,1.6326079040253234,0.8915435636805761
-0.20201567999999998,1.6332681488495948,0.8915435636805764
-0.2019896,1.634588638498135,0.8922077094826751
-0.20196351999999998,1.6352488833224064,0.892871855284775
-0.20193743999999997,1.6359091281466775,0.8932039281858252
-0.20191135999999998,1.636899495383083,0.8945322197900235
-0.20188528,1.6378898626194887,0.8951963655921226
-0.2018592,1.6385501074437598,0.8958605113942224
