DAQ/testing_accel_4_6/test_full_0062.csv

#Digilent WaveForms Oscilloscope Acquisition
#Device Name: Discovery2
#Serial Number: SN:210321B02866
#Date Time: 2021-04-06 19:02:59.944
#Sample rate: 38343.6Hz
#Samples: 8192
#Trigger: None
#Channel 1: Range: 500 mV/div Offset: -1.15 V Attenuation: 1 X
#Channel 2: Range: 500 mV/div Offset: -1.45 V Attenuation: 1 X
#Power Supplies: ON
#Positive Supply: ON
#Voltage: 3.3 V
#Negative Supply: OFF
#Voltage: -3.3 V

Time (s),Channel 1 (V),Channel 2 (V)
-0.21116975999999998,1.6534056159898511,1.2232843918292426
-0.21114368,1.6534056159898511,1.230589995652333
-0.2111176,1.6530754935777159,1.2385597452775297
-0.21109151999999998,1.6527453711655802,1.2461974220016765
-0.21106544,1.6524152487534451,1.2535030258247635
-0.21103935999999998,1.6520851263413097,1.26147277544996
-0.21101327999999997,1.6517550039291742,1.2691104521741068
-0.21098719999999999,1.651424881517039,1.2764160559971973
-0.21096112,1.6510947591049039,1.2843858056223831
-0.21093504,1.6507646366927686,1.2920234823465304
-0.21090895999999998,1.6501043918684974,1.2996611590706775
-0.21088288,1.6497742694563624,1.3072988357948172
-0.21085679999999998,1.649444147044227,1.3152685854200141
-0.21083071999999997,1.6491140246320912,1.322906262144161
-0.21080464,1.6484537798078207,1.3308760117693508
-0.21077856,1.6481236573956857,1.3388457613945366
-0.21075247999999996,1.6474634125714145,1.3464834381186943
-0.21072639999999998,1.6471332901592792,1.354121114842831
-0.21070032,1.6468031677471442,1.36242293736907
-0.21067423999999998,1.6464730453350085,1.3700606140932172
-0.21064815999999997,1.6458128005107378,1.3776982908173643
-0.21062208,1.645152555686467,1.3856680404425539
-0.21059599999999998,1.6448224332743315,1.3936377900677506
-0.21056991999999997,1.6441621884500608,1.4012754667918979
-0.21054383999999998,1.6438320660379258,1.4092452164170837
-0.21051776,1.64284169880152,1.4168828931412236
-0.21049168,1.6425115763893843,1.4245205698653707
-0.21046559999999997,1.6418513315651133,1.4324903194905674
-0.21043952,1.641191086740843,1.4401279962147038
-0.21041343999999998,1.640530841916572,1.4480977458399005
-0.21038735999999997,1.639870597092301,1.4557354225640475
-0.21036127999999998,1.6392103522680306,1.4633730992881875
-0.2103352,1.63855010744376,1.471342848913377
-0.21030912,1.637889862619489,1.4789805256375241
-0.21028303999999998,1.6372296177952181,1.4866182023616712
-0.21025696,1.6362392505588128,1.4942558790858076
-0.21023087999999998,1.635909128146677,1.5018935558099547
-0.21020479999999997,1.6349187609102707,1.5095312325341017
-0.21017871999999999,1.6342585160860001,1.5171689092582414
-0.21015264,1.63359827126173,1.524806585982378
-0.21012656,1.632938026437459,1.5321121898054755
-0.21010047999999998,1.6322777816131882,1.5397498665296223
-0.2100744,1.6312874143767824,1.5470554703527126
-0.21004831999999998,1.6306271695525112,1.5546931470768595
-0.21002223999999997,1.62996692472824,1.5619987508999567
-0.20999616,1.6289765574918345,1.569304354723047
-0.20997008,1.6283163126675644,1.5769420314471836
-0.20994399999999996,1.627656067843292,1.5839155623692411
-0.20991791999999998,1.6266657006068868,1.5912211661923283
-0.20989184,1.6260054557826165,1.5981946971143692
-0.20986575999999998,1.6253452109583455,1.605500300937466
-0.20983967999999997,1.624354843721939,1.6124738318595133
-0.2098136,1.6236945988976688,1.6194473627815542
-0.20978751999999998,1.622704231661262,1.6260888208025515
-0.20976143999999997,1.6217138644248559,1.633062351724599
-0.20973535999999998,1.6210536196005858,1.6400358826466366
-0.20970928,1.62006325236418,1.6463452677665782
-0.2096832,1.6194030075399088,1.653318798688625
-0.20965711999999997,1.618742762715638,1.6599602567096226
-0.20963104,1.6180825178913676,1.6666017147306107
-0.20960495999999998,1.616762028242826,1.6729110998505585
-0.20957887999999997,1.616101783418555,1.679220484970506
-0.20955279999999998,1.6151114161821494,1.6855298700904477
-0.20952672,1.6144511713578786,1.6918392552103894
-0.20950064,1.6134608041214724,1.697816567429287
-0.20947455999999998,1.6128005592972012,1.7041259525492345
-0.20944848,1.6118101920607961,1.710103264768124
-0.20942239999999998,1.6108198248243895,1.7160805769870215
-0.20939631999999997,1.6101595800001185,1.722057889205919
-0.20937023999999999,1.6091692127637127,1.7277031285237616
-0.20934416,1.6085089679394422,1.7333483678416042
-0.20931808,1.607518600703036,1.738993607159452
-0.20929199999999998,1.60652823346663,1.7443067735762474
-0.20926592,1.6055378662302242,1.74995201289409
-0.20923983999999998,1.604877621405953,1.7549331064098384
-0.20921375999999997,1.6038872541695466,1.760246272826636
-0.20918768,1.6028968869331408,1.7652273663423796
-0.2091616,1.6022366421088707,1.7705405327591701
-0.20913551999999996,1.6012462748724632,1.7751895533738753
-0.20910943999999998,1.600255907636058,1.7798385739885672
-0.20908336,1.5992655403996523,1.7844875946032608
-0.20905727999999998,1.5982751731632459,1.7888045423169094
-0.20903119999999997,1.5972848059268394,1.7934535629316073
-0.20900512,1.5966245611025691,1.797438437744202
-0.20897903999999998,1.5956341938661622,1.8014233125568002
-0.20895295999999997,1.5943137042176208,1.8050761144683491
-0.20892687999999998,1.5936534593933507,1.8090609892809422
-0.2089008,1.5923329697448099,1.8127137911924873
-0.20887471999999999,1.5913426025084032,1.8163665931040358
-0.20884863999999997,1.590682357684132,1.8200193950155843
-0.20882256,1.589691990447727,1.8233401240260785
-0.20879647999999998,1.5887016232113202,1.8263287801355275
-0.20877039999999997,1.5877112559749138,1.8293174362449762
-0.20874431999999998,1.5867208887385083,1.8323060923544223
-0.20871824,1.5857305215021025,1.8349626755628188
-0.20869216,1.584740154265696,1.8376192587712177
-0.20866607999999998,1.583419664617154,1.8399437690785667
-0.20864,1.5824292973807488,1.8422682793859126
-0.20861391999999998,1.5814389301443423,1.844592789693262
-0.20858783999999997,1.580448562907936,1.846585227099561
-0.20856175999999998,1.5794581956715303,1.8485776645058585
-0.20853568,1.5784678284351246,1.8505701019121559
-0.2085096,1.5778075836108534,1.8518983935163555
-0.20848351999999998,1.5764870939623115,1.8535587580216049
-0.20845744,1.5754967267259063,1.8548870496258023
-0.20843135999999998,1.5745063594895,1.8562153412300018
-0.20840527999999997,1.5738461146652283,1.8572115599331511
-0.2083792,1.5725256250166877,1.8578757057352504
-0.20835312,1.5718653801924176,1.8585398515373492
-0.20832703999999996,1.57087501295601,1.8592039973394494
-0.20830095999999998,1.5698846457196047,1.859536070240499
-0.20827488,1.5688942784831992,1.8598681431415485
-0.20824879999999998,1.5679039112467925,1.8598681431415487
-0.20822271999999997,1.566913544010386,1.8598681431415487
-0.20819664,1.5659231767739805,1.8598681431415487
-0.20817056,1.5649328095375752,1.8595360702404993
-0.20814447999999997,1.5639424423011676,1.8592039973394485
-0.20811839999999998,1.5632821974768976,1.85853985153735
-0.20809232,1.562621952652627,1.8582077786363003
-0.20806623999999999,1.561961707828356,1.8575436328342008
-0.20804015999999997,1.5609713405919499,1.856879487032101
-0.20801408,1.5606412181798148,1.856215341230002
-0.20798799999999998,1.5599809733555439,1.8552191225268526
-0.20796191999999997,1.5596508509434082,1.8542229038237028
-0.20793583999999998,1.5586604837070024,1.8528946122195047
-0.20790976,1.5580002388827319,1.8515663206153066
-0.20788368,1.5573399940584611,1.8499059561100573
-0.20785759999999998,1.55667974923419,1.8489097374069072
-0.20783152,1.5560195044099199,1.8469173000006107
-0.20780543999999998,1.555359259585649,1.8459210812974607
-0.20777935999999997,1.554699014761378,1.8435965709901116
-0.20775327999999998,1.5540387699371074,1.8416041335838143
-0.2077272,1.553378525112837,1.8392796232764674
-0.20770112,1.552718280288566,1.8366230400680685
-0.20767503999999998,1.552058035464295,1.834298529760719
-0.20764896,1.55172791305216,1.8309778007502249
-0.20762287999999998,1.5510676682278892,1.8279891446407759
-0.20759679999999997,1.5500773009914828,1.8246684156302773
-0.20757072,1.5497471785793477,1.8213476866197817
-0.20754464,1.5490869337550777,1.8176948847082381
-0.20751856,1.548756811342942,1.8140420827966894
-0.20749247999999998,1.5477664441065355,1.8100572079840913
-0.2074664,1.5474363216944005,1.8060723331714965
-0.20744031999999998,1.5467760768701295,1.8017553854578483
-0.20741423999999997,1.5461158320458586,1.7977705106452495
-0.20738816,1.5457857096337233,1.7931214900305559
-0.20736208,1.5451254648094532,1.788472469415864
-0.20733599999999996,1.5447953423973166,1.7838234488011593
-0.20730991999999998,1.5441350975730466,1.778842355285418
-0.20728384,1.5438049751609115,1.7741933346707242
-0.20725775999999999,1.5431447303366403,1.7688801682539266
-0.20723167999999997,1.5431447303366401,1.764231147639228
-0.2072056,1.5424844855123698,1.758917981222435
-0.20717951999999998,1.5424844855123696,1.7539368877066865
-0.20715343999999997,1.5418242406880989,1.7482916483888413
-0.20712735999999998,1.5414941182759636,1.742646409070999
-0.20710128,1.5411639958638286,1.7370011697531564
-0.2070752,1.5408338734516929,1.7313559304353086
-0.20704911999999998,1.5405037510395574,1.7257106911174604
-0.20702304,1.5401736286274226,1.7194013059975217
-0.20699695999999998,1.5401736286274224,1.7140881395807233
-0.20697087999999997,1.5398435062152867,1.7081108273618257
-0.20694479999999998,1.5395133838031514,1.7021335151429335
-0.20691872,1.5391832613910164,1.6958241300229917
-0.20689264,1.5388531389788809,1.6895147449030443
-0.20686655999999998,1.5385230165667452,1.6835374326841464
-0.20684048,1.5381928941546101,1.6768959746631582
-0.20681439999999998,1.53819289415461,1.6709186624442602
-0.20678831999999997,1.53819289415461,1.664277204423263
-0.20676223999999999,1.53819289415461,1.6579678193033212
-0.20673616,1.5378627717424749,1.6513263612823328
-0.20671008,1.5381928941546097,1.6450169761623852
-0.20668399999999998,1.5378627717424747,1.6380434452403383
-0.20665792,1.5375326493303396,1.631401987219347
-0.20663183999999998,1.5375326493303394,1.6247605291983496
-0.20660575999999997,1.5372025269182041,1.617454925375253
-0.20657968,1.5375326493303394,1.6111455402553112
-0.2065536,1.5372025269182041,1.6035078635311746
-0.20652751999999996,1.537202526918204,1.5968664055101667
-0.20650143999999998,1.537202526918204,1.5895608016870797
-0.20647536,1.537202526918204,1.5825872707650388
-0.20644927999999999,1.537202526918204,1.5752816669419418
-0.20642319999999997,1.5372025269182041,1.567976063118845
-0.20639712,1.5375326493303394,1.5610025321968042
-0.20637103999999998,1.5372025269182041,1.5533648554726576
-0.20634495999999997,1.5375326493303394,1.5463913245506098
-0.20631887999999998,1.5375326493303394,1.5390857207275228
-0.2062928,1.5378627717424744,1.5317801169044323
-0.20626672,1.5378627717424747,1.5244745130813353
-0.20624063999999998,1.5378627717424747,1.5168368363571887
-0.20621456,1.5378627717424747,1.509863305435151
-0.20618847999999998,1.5378627717424747,1.5018935558099547
-0.20616239999999997,1.53819289415461,1.4949200248879069
-0.20613631999999998,1.53819289415461,1.4869502752627173
-0.20611024,1.5385230165667452,1.4793125985385773
-0.20608416,1.5388531389788809,1.4716749218144305
-0.20605807999999998,1.538853138978881,1.4637051721892338
-0.206032,1.539183261391016,1.4563995683661468
-0.20600591999999998,1.5395133838031514,1.448761891642
-0.20597983999999997,1.5401736286274226,1.4407921420168035
-0.20595375999999999,1.5405037510395576,1.433486538193713
-0.20592768,1.5408338734516926,1.4255167885685234
-0.2059016,1.5411639958638284,1.4178791118443763
-0.20587551999999998,1.541824240688099,1.4099093622191832
-0.20584944,1.5421543631002341,1.4022716854950432
-0.20582335999999998,1.5424844855123698,1.3946340087708962
-0.20579727999999997,1.5428146079245053,1.386996332046749
-0.2057712,1.5434748527487758,1.3790265824215595
-0.20574512,1.543804975160911,1.3713889056974229
-0.20571903999999996,1.544465219985182,1.364083301874315
-0.20569295999999998,1.5447953423973173,1.3561135522491292
-0.20566688,1.5454555872215878,1.3488079484260387
-0.20564079999999998,1.5457857096337233,1.3408381988008422
-0.20561471999999997,1.5464459544579943,1.3332005220766951
-0.20558864,1.5471061992822648,1.3255628453525552
-0.20556255999999998,1.5474363216944005,1.3175930957273587
-0.20553647999999997,1.5477664441065362,1.3102874919042613
-0.20551039999999998,1.5484266889308063,1.302649815180125
-0.20548432,1.5490869337550768,1.295012138455985
-0.20545824,1.5497471785793477,1.2877065346328875
-0.20543215999999997,1.5504074234036187,1.279736785007691
-0.20540608,1.551067668227889,1.272431181184604
-0.20537999999999998,1.5513977906400245,1.2651255773615069
-0.20535391999999997,1.552388157876431,1.25748790063736
-0.20532783999999998,1.5530484027007012,1.2501822968142697
-0.20530176,1.5537086475249717,1.2428766929911792
-0.20527568,1.5546990147613782,1.2359031620691319
-0.20524959999999998,1.5553592595856491,1.2282654853449853
-0.20522352,1.5560195044099194,1.2212919544229475
-0.20519743999999998,1.5570098716463256,1.2139863505998505
-0.20517135999999997,1.5576701164705968,1.2070128196778034
-0.20514527999999999,1.5586604837070024,1.2000392887557625
-0.2051192,1.559320728531273,1.1927336849326722
-0.20509312,1.5599809733555439,1.1857601540106246
-0.20506703999999998,1.5606412181798148,1.1787866230885773
-0.20504096,1.5613014630040851,1.1714810192654903
-0.20501487999999998,1.5622918302404916,1.1648395612444926
-0.20498879999999997,1.5629520750647623,1.1578660303224453
-0.20496272,1.5636123198890328,1.1508924994004044
-0.20493664,1.5646026871254382,1.1445831142804657
-0.20491055999999996,1.5652629319497104,1.1376095833584101
-0.20488447999999998,1.5662532991861158,1.1313001982384712
-0.2048584,1.5669135440103863,1.1243266673164303
-0.20483231999999998,1.5675737888346573,1.1183493550975323
-0.20480623999999997,1.5682340336589282,1.111707897076535
-0.20478016,1.5688942784831987,1.1053985119565932
-0.20475408,1.5698846457196038,1.0990891268366545
-0.20472799999999997,1.5702147681317407,1.092779741716699
-0.20470191999999998,1.570875012956011,1.0868024294978094
-0.20467584,1.5715352577802812,1.0804930443778675
-0.20464976,1.5725256250166877,1.0745157321589698
-0.20462367999999997,1.5731858698409587,1.068538419940072
-0.2045976,1.5738461146652287,1.062229034820133
-0.20457151999999998,1.5745063594895,1.056583795502285
-0.20454543999999997,1.5751666043137709,1.0506064832833875
-0.20451935999999998,1.5761569715501766,1.044961243965545
-0.20449328,1.5768172163744472,1.0389839317466527
-0.2044672,1.5774774611987181,1.033338692428805
-0.20444111999999998,1.5784678284351243,1.0280255260120068
-0.20441504,1.5791280732593946,1.022380286694167
-0.20438895999999998,1.5797883180836656,1.017067120277369
-0.20436287999999997,1.5811088077322073,1.0117539538605709
-0.20433679999999999,1.5817690525564778,1.006440787443778
-0.20431072,1.5827594197928834,1.0011276210269848
-0.20428464,1.5837497870292898,0.9961465275112367
-0.20425855999999998,1.5844100318535614,0.991165433995489
-0.20423248,1.5857305215021014,0.9868484862818466
-0.20420639999999998,1.5867208887385083,0.9818673927660989
-0.20418031999999997,1.5873811335627792,0.9775504450524505
-0.20415424,1.588371500799185,0.9729014244377565
-0.20412816,1.58936186803559,0.9682524038230648
-0.20410208,1.5900221128598615,0.9642675290104656
-0.20407599999999998,1.591012480096268,0.9599505812968177
-0.20404992,1.5920028473326735,0.9559657064842229
-0.20402383999999998,1.5926630921569447,0.9523129045726741
-0.20399775999999997,1.5936534593933513,0.9483280297600759
-0.20397168,1.5949739490418922,0.9446752278485306
-0.2039456,1.5956341938661622,0.9410224259369872
-0.20391951999999997,1.59662456110257,0.9373696240254339
-0.20389343999999998,1.5976149283389751,0.9340488950149397
-0.20386736,1.5986052955753807,0.9303960931033946
-0.20384127999999999,1.5995956628117873,0.9277395098949951
-0.20381519999999997,1.6005860300481938,0.9244187808844967
-0.20378912,1.6015763972845996,0.9214301247750505
-0.20376303999999998,1.6025667645210055,0.9187735415666528
-0.20373695999999997,1.603227009345277,0.9154528125561545
-0.20371087999999998,1.6045474989938175,0.9131283022488076
-0.2036848,1.6055378662302233,0.9108037919414608
-0.20365872,1.6061981110544945,0.9084792816341116
-0.20363263999999998,1.6071884782909007,0.9064868442278122
-0.20360656,1.607848723115171,0.9041623339204664
-0.20358047999999998,1.6088390903515775,0.9025019694152167
-0.20355439999999997,1.609829457587984,0.9005095320089175
-0.20352831999999998,1.6108198248243895,0.8985170946026201
-0.20350224,1.6118101920607952,0.8968567300973723
-0.20347616,1.6124704368850664,0.8955284384931727
-0.20345007999999998,1.6134608041214729,0.8938680739879236
-0.203424,1.614451171357878,0.8925397823837258
-0.20339791999999998,1.6151114161821494,0.8912114907795263
-0.20337183999999997,1.6157716610064203,0.8902152720763767
-0.20334576,1.616762028242826,0.889219053373228
-0.20331968,1.6174222730670962,0.8878907617690304
-0.2032936,1.6184126403035024,0.8872266159669301
-0.20326751999999998,1.6190728851277736,0.8862303972637806
-0.20324144,1.6200632523641791,0.8855662514616816
-0.20321535999999998,1.6210536196005858,0.8852341785606315
-0.20318927999999997,1.6213837420127213,0.8849021056595816
-0.2031632,1.6220439868369918,0.8845700327585321
-0.20313712,1.6233644764855322,0.8845700327585321
-0.20311103999999996,1.6236945988976696,0.8845700327585321
-0.20308495999999998,1.6246849661340748,0.8845700327585321
-0.20305888,1.6253452109583453,0.8849021056595816
-0.20303279999999999,1.6260054557826162,0.8852341785606315
-0.20300671999999997,1.6269958230190225,0.8858983243627313
-0.20298064,1.627656067843293,0.88689454306588
-0.20295455999999998,1.628316312667564,0.8878907617690295
-0.20292847999999997,1.6286464350796999,0.8885549075711302
-0.20290239999999998,1.6296368023161052,0.8902152720763772
-0.20287632,1.6302970471403757,0.8912114907795259
-0.20285024,1.6309572919646467,0.892871855284775
-0.20282415999999998,1.6316175367889174,0.8942001468889746
-0.20279808,1.632277781613188,0.8961925842952712
-0.20277199999999998,1.6332681488495941,0.8981850217015704
-0.20274591999999997,1.6335982712617299,0.8998453862068201
-0.20271983999999998,1.6345886384981356,0.902169896514167
-0.20269376,1.6352488833224061,0.9041623339204644
-0.20266768,1.635909128146677,0.906818917128863
-0.20264159999999998,1.6365693729709478,0.9091434274362121
-0.20261552,1.6372296177952184,0.9114679377435579
-0.20258943999999998,1.637889862619489,0.9144565938530065
-0.20256335999999997,1.6382199850316248,0.9171131770614056
-0.20253728,1.6388802298558953,0.9201018331708517
-0.2025112,1.6395404746801658,0.9234225621813473
-0.20248512,1.639870597092301,0.926411218290795
-0.20245903999999998,1.6402007195044366,0.9293998744002437
-0.20243296,1.6408609643287073,0.9327206034107394
-0.20240687999999998,1.641521209152978,0.9363734053222877
-0.20238079999999997,1.6418513315651138,0.9396941343327866
-0.20235472,1.6421814539772488,0.9433469362443319
-0.20232864,1.642511576389384,0.9473318110569248
-0.20230255999999996,1.6431718212136552,0.9509846129684791
-0.20227647999999998,1.6435019436257903,0.9553015606821216
-0.2022504,1.6438320660379255,0.9592864354947164
-0.20222431999999999,1.6444923108621965,0.9636033832083645
-0.20219823999999997,1.6444923108621967,0.9679203309220129
-0.20217216,1.645152555686467,0.9725693515367069
-0.20214607999999998,1.6454826780986027,0.9768862992503553
-0.20211999999999997,1.6458128005107382,0.9818673927661031
-0.20209391999999998,1.6461429229228732,0.9865164133807949
-0.20206784,1.6461429229228732,0.9914975068965384
-0.20204176,1.646803167747144,0.9964786004122864
-0.20201567999999998,1.6471332901592795,1.0011276210269848
-0.2019896,1.6474634125714145,1.0064407874437755
-0.20196351999999998,1.6474634125714147,1.0117539538605733
-0.20193743999999997,1.6477935349835502,1.0170671202773713
-0.20191135999999998,1.6481236573956854,1.0223802866941643
-0.20188528,1.6484537798078205,1.0280255260120068
-0.2018592,1.6484537798078207,1.033338692428805
