DAQ/testing_accel_4_6/test_full_0012.csv

#Digilent WaveForms Oscilloscope Acquisition
#Device Name: Discovery2
#Serial Number: SN:210321B02866
#Date Time: 2021-04-06 18:57:29.451
#Sample rate: 6275.1Hz
#Samples: 8192
#Trigger: None
#Channel 1: Range: 500 mV/div Offset: -1.8 V Attenuation: 1 X
#Channel 2: Range: 500 mV/div Offset: -1.45 V Attenuation: 1 X
#Power Supplies: ON
#Positive Supply: ON
#Voltage: 3.3 V
#Negative Supply: OFF
#Voltage: -3.3 V

Time (s),Channel 1 (V),Channel 2 (V)
-1.2903379200000002,1.446305003869049,1.0057766416417202
-1.2901785600000002,1.4499363504025398,0.9599505812968385
-1.2900192000000001,1.454227941760299,0.916116958358275
-1.28985984,1.4598400227666022,0.8742757728259908
-1.28970048,1.467102715833584,0.8344270247000077
-1.28954112,1.4756858985491088,0.7969027868813743
-1.2893817600000002,1.4859196933252912,0.7610389135680539
-1.2892224,1.497143855337898,0.7281636963641157
-1.28906304,1.509028262174777,0.7012657913790805
-1.2889036800000002,1.5222331586601734,0.6833338547224203
-1.2887443200000002,1.5364284223819995,0.6750320321961648
-1.2885849600000001,1.5516140533402327,0.6756961779982605
-1.2884256,1.5677900515348726,0.6863225108318607
-1.28826624,1.5839660497295052,0.7069110306969473
-1.28810688,1.5994818030998752,0.736465518890393
-1.2879475200000001,1.6159879237066281,0.7743218296100263
-1.28778816,1.632163921901261,0.8204799628559368
-1.2876288000000002,1.6480097976837438,0.8746078457269914
-1.2874694400000002,1.6641857958783834,0.93604133242121
-1.2873100800000001,1.679041304424482,1.005112495839579
-1.28715072,1.6932365681463026,1.0821534088831133
-1.28699136,1.7067715870438578,1.1651716341455822
-1.286832,1.7183258714686,1.2528388800227463
-1.2866726400000001,1.7292199110690523,1.3398419800976535
-1.28651328,1.7391235834331178,1.423192278261172
-1.2863539200000003,1.7463862765000893,1.5022256287109323
-1.2861945600000002,1.7519983575063944,1.5769420314471565
-1.2860352000000002,1.75662007127629,1.648337705172847
-1.28587584,1.759261050573375,1.7160805769870215
-1.28571648,1.7599212953976457,1.7801706468896448
-1.28555712,1.7599212953976444,1.8416041335838405
-1.28539776,1.7569501936884233,1.8993848183665152
-1.2852384000000001,1.7526586023306676,1.954508919940718
-1.28507904,1.7473766437364986,2.0073085112076456
-1.2849196800000002,1.7401139506695307,2.057119446365035
-1.2847603200000002,1.7312006455418731,2.104605871215168
-1.2846009600000001,1.7216270955899438,2.1500998586590008
-1.2844416,1.7110631784016122,2.1926051899933645
-1.28428224,1.699839016389004,2.2284690633067457
-1.28412288,1.687294364727853,2.2543707495886247
-1.2839635200000001,1.6727689785939102,2.268981957234799
-1.28380416,1.657913470047819,2.272634759146346
-1.2836448000000003,1.641737471853201,2.265993301125358
-1.2834854400000002,1.6252313512464258,2.250385874776022
-1.2833260800000001,1.609385475463928,2.2211634594836536
-1.28316672,1.5935395996814234,2.1796543468524257
-1.28300736,1.5776937238989188,2.1265226826844423
-1.282848,1.5615177257042783,2.0644250501881105
-1.28268864,1.5450116050975111,1.9946897409676632
-1.28252928,1.5294958517271635,1.9173167550231496
-1.28236992,1.5153005880053372,1.8352947484638313
-1.2822105600000002,1.5024258139320756,1.7509482315973184
-1.2820512000000002,1.4912016519194666,1.6682620792359
-1.2818918400000001,1.48063773473113,1.5898928745881293
-1.28173248,1.470073817542794,1.515176471851911
-1.28157312,1.4608303900030046,1.4444449439283231
-1.28141376,1.4529074521117542,1.3770341450152028
-1.2812544000000001,1.446965248693323,1.312944075112666
-1.28109504,1.4426736573355634,1.2518426613195182
-1.2809356800000002,1.4390423108020778,1.1933978307348212
-1.2807763200000002,1.436731453917128,1.1382737291605405
-1.2806169600000001,1.4360712090928562,1.0858062107946602
-1.2804576,1.4373916987413975,1.035663202736153
-1.28029824,1.4400326780384824,0.988176777886023
-1.28013888,1.4443242693962444,0.9430148633432431
-1.2799795200000001,1.4489459831661333,0.9001774591078882
-1.27982016,1.4552183089967072,0.8590004193777039
-1.2796608000000003,1.4634713693000836,0.819815817053873
-1.2795014400000002,1.4730449192520079,0.7829557250373523
-1.2793420800000002,1.4836088364403432,0.7477559975260649
-1.27918272,1.4951631208650857,0.7162090719263259
-1.27902336,1.506717405289829,0.6896432398423407
-1.278864,1.5186018121267026,0.67237544898776
-1.27870464,1.5324669534363955,0.6650698451646714
-1.2785452800000001,1.5476525843946083,0.6670622825709679
-1.27838592,1.5638285825892482,0.6790169070087676
-1.2782265600000002,1.579674458371724,0.7009337184780189
-1.2780672000000002,1.594860089329958,0.7314844253745989
-1.2779078400000001,1.6110360875245977,0.7710011005995291
-1.27774848,1.6265518408949597,0.8184875254496384
-1.27758912,1.6423977166774641,0.8739436999249703
-1.27742976,1.658243592459967,0.9380337698276007
-1.2772704000000001,1.6721087337696332,1.0087652977510937
-1.27711104,1.685313630255054,1.0864703565967595
-1.2769516800000003,1.6981884043283213,1.1708168734633109
-1.2767923200000002,1.709082443928795,1.2584841193404726
-1.2766329600000001,1.7196463611171267,1.3448230736133995
-1.2764736,1.7288897886569217,1.4268450801727186
-1.27631424,1.7361524817239025,1.5055463577215353
-1.27615488,1.742424807554476,1.5802627604577524
-1.27599552,1.7473766437365046,1.6516584341834382
-1.27583616,1.7503477454457201,1.7194013059975188
-1.2756768,1.7519983575063967,1.7838234488011917
-1.2755174400000002,1.7516682350942618,1.8452569354953052
-1.2753580800000002,1.7490272557971798,1.9037017660800846
-1.2751987200000001,1.7450657868515544,1.9591579405554138
-1.27503936,1.7397838282573885,2.011625458921269
-1.27488,1.7325211351904068,2.061768466979798
-1.27472064,1.7242680748870185,2.109586964730977
-1.2745612800000001,1.7153547697593718,2.1554130250757964
-1.27440192,1.7051209749831757,2.1975862835091102
-1.2742425600000002,1.6942269353827186,2.2324539381192987
-1.2740832000000002,1.682342528545841,2.2573594056980477
-1.2739238400000001,1.6688075096482922,2.270974394641091
-1.27376448,1.6542821235143301,2.2732989049484456
-1.27360512,1.63810612531969,2.265329155323244
-1.27344576,1.6219301271250504,2.247065145765488
-1.2732864000000002,1.6064143737547096,2.2145220014626603
-1.27312704,1.591228742796476,2.1700242327219836
-1.27296768,1.5757129894261068,2.1155642769498013
-1.2728083200000002,1.5601972360557663,2.0518062799483427
-1.2726489600000002,1.5443513602732617,1.980410606222628
-1.2724896,1.5298259741392988,1.902705547376962
-1.27233024,1.5169512000660141,1.8210156137186941
-1.27217088,1.5047366708170062,1.7379973884562658
-1.27201152,1.493512508804399,1.6566395276990513
-1.2718521600000001,1.4826184692039421,1.5786023959524391
-1.2716928,1.472384674427746,1.504882211919402
-1.2715334400000002,1.4634713693000994,1.434482756896926
-1.2713740800000002,1.4558785538209813,1.3677361037858997
-1.2712147200000001,1.4502664728146768,1.3039781067843237
-1.27105536,1.4459748814569169,1.2435408387932754
-1.270896,1.442343534923427,1.1854280811095501
-1.27073664,1.4403628004506166,1.1306360524363255
-1.2705772800000001,1.4410230452748864,1.0798288985757882
-1.27041792,1.4436640245719694,1.0313462550225065
-1.2702585600000003,1.447295371105455,0.9851881217766381
-1.2700992000000002,1.4522472072874866,0.9410224259370039
-1.2699398400000002,1.4578592882937875,0.898849167503689
-1.26978048,1.4647918589486326,0.8590004193777039
-1.26962112,1.4730449192520212,0.8204799628559204
-1.26946176,1.483278714028218,0.7842840166415023
-1.2693024,1.494502876040826,0.7504125807344189
-1.2691430400000001,1.506387282877688,0.7198618738378727
-1.26898368,1.5192620569509734,0.6972809165664858
-1.2688243200000002,1.5331271982606398,0.6836659276234661
-1.2686649600000002,1.5476525843946016,0.6790169070087597
-1.2685056000000001,1.5628382153528348,0.6833338547224039
-1.26834624,1.579344335959603,0.6979450623685914
-1.26818688,1.594860089329972,0.7221863841452357
-1.26802752,1.6103758427003416,0.7550616013491804
-1.2678681600000001,1.6265518408949597,0.7965707139803572
-1.2677088,1.6420675942653216,0.8460495762367649
-1.2675494400000002,1.6579134700478046,0.9031661152172642
-1.2673900800000002,1.6727689785939035,0.9679203309219814
-1.2672307200000001,1.6859738750793187,1.039648077548717
-1.26707136,1.6978582819161978,1.1176852092954328
-1.266912,1.7090824439288044,1.2020317261621005
-1.26675264,1.718655993880734,1.2893668991382128
-1.2665932800000002,1.7278994214205114,1.3737134160047257
-1.26643392,1.7354922368996288,1.4537429851577457
-1.26627456,1.741104317905932,1.5297876794981637
-1.2661152000000002,1.745726031675821,1.6025116448279524
-1.2659558400000002,1.7483670109729068,1.6709186624442292
-1.2657964800000001,1.7490272557971787,1.7356728781489548
-1.26563712,1.7483670109729068,1.797438437744229
-1.26547776,1.7460561540879584,1.8565474141310774
-1.2653184,1.7417645627301963,1.9133318802106023
-1.2651590400000001,1.7368127265481703,1.9674597630816568
-1.26499968,1.7305404007175984,2.0192631356454127
-1.2648403200000002,1.7232777076506272,2.068741997901775
-1.2646809600000002,1.714694524935105,2.1158963498508587
-1.2645216000000001,1.7051209749831757,2.1610582643936413
-1.26436224,1.6942269353827086,2.201571158321707
-1.26420288,1.683332895782236,2.233450156822489
-1.26404352,1.6707882441210855,2.254702822489671
-1.2638841600000001,1.656923102811419,2.2656612282242974
-1.2637248,1.642397716677457,2.2649970824222025
-1.2635654400000003,1.6265518408949742,2.25503489539072
-1.2634060800000002,1.611036087524612,2.233782229723549
-1.2632467200000002,1.596180578978513,2.198914575113325
-1.26308736,1.5806648256081444,2.1527564418673983
-1.262928,1.5651490722377757,2.0959719757878674
-1.26276864,1.5499634412795487,2.03055361428107
-1.26260928,1.534447687909181,1.9581617218521925
-1.2624499200000001,1.5205825465995086,1.8787962985013826
-1.26229056,1.5063872828776823,1.7947818545357659
-1.2621312000000002,1.4935125088044208,1.7101032647682037
-1.2619718400000002,1.4819582243796767,1.6287454040109832
-1.2618124800000001,1.4710641847792045,1.5513724180663624
-1.26165312,1.4611605124151437,1.4783163798354246
-1.26149376,1.4522472072874857,1.4082489977139045
-1.2613344,1.4453146366326415,1.3421664904049837
-1.2611750400000001,1.4400326780384805,1.2790726392055949
-1.26101568,1.4360712090928562,1.2186353712145466
-1.2608563200000003,1.4331001073836407,1.161850905135097
-1.2606969600000002,1.4314494953229617,1.1073909493629164
-1.2605376000000001,1.4321097401472316,1.055919649700209
-1.26037824,1.4344205970321795,1.007437006146927
-1.26021888,1.438712188389941,0.9616109458020461
-1.26005952,1.4433339021598395,0.9174452499624158
-1.25990016,1.4492761055782775,0.8756040644301537
-1.2597408,1.456868921057384,0.8360873892052735
-1.25958144,1.466112348597179,0.7985631513866396
-1.2594220800000002,1.477006388197631,0.7636954967764671
-1.2592627200000002,1.4898811622709143,0.7311523524735779
-1.2591033600000001,1.5030860587563346,0.7029261558843373
-1.258944,1.5169512000660264,0.6830017818213497
-1.25878464,1.531806708612118,0.6730395947898622
-1.25862528,1.5476525843946234,0.6717113031856705
-1.2584659200000001,1.5641587050013763,0.6790169070087576
-1.25830656,1.5809949480202798,0.6966167707643927
-1.2581472000000002,1.5971709462148977,0.7238467486504446
-1.2579878400000002,1.6136770668216731,0.7597106219638223
-1.2578284800000001,1.629853065016306,0.8038763178034308
-1.25766912,1.646029063210946,0.8560117632682565
-1.25750976,1.6625351838177211,0.9164490312593357
-1.2573504,1.6780509371880887,0.9845239759745645
-1.2571910400000001,1.691916078497755,1.0592403787106488
-1.25703168,1.704460730158905,1.1399340936657638
-1.2568723200000003,1.7153547697593619,1.2256089021365126
-1.2567129600000002,1.7249283197112886,1.3129440751125865
-1.2565536000000002,1.7341717472510834,1.3962943732761068
-1.25639424,1.7414344403180655,1.4759918695280767
-1.25623488,1.7470465213243684,1.551372418066395
-1.25607552,1.7513381126821275,1.623100164693132
-1.25591616,1.75397909197921,1.691507182309402
-1.2557568000000001,1.7549694592156153,1.756593470915087
-1.25559744,1.7546393368034798,1.8183590305103343
-1.2554380800000002,1.7519983575063993,1.8771359339960805
-1.2552787200000002,1.7477067661486392,1.93358832717456
-1.2551193600000001,1.742754929966607,1.98705206424359
-1.25496,1.7358223593117643,2.0378592181041966
-1.25480064,1.727569299008376,2.0863418616574765
-1.25464128,1.718325871468581,2.1328320678044554
-1.2544819200000001,1.7084221991045336,2.1766656907429582
-1.25432256,1.697198037091927,2.215518220165795
-1.2541632000000003,1.6856437526671997,2.2444085625570938
-1.2540038400000002,1.672438856181781,2.263004645015896
-1.2538444800000001,1.6595640821085016,2.2719706133442426
-1.25368512,1.6453688183866753,2.269646103036899
-1.25352576,1.6298530650163066,2.2583556244011973
-1.2533664,1.6149975564702155,2.2337822297235124
-1.25320704,1.600142047924117,2.1962579919048673
-1.25304768,1.584956416965904,2.1481074212527025
-1.25288832,1.5701009084198059,2.089662590667922
-1.2527289600000002,1.5549152774616,2.0225838646559704
-1.2525696000000002,1.5400597689155018,1.9485316077218569
-1.2524102400000001,1.5265247500179453,1.8678378927667418
-1.25225088,1.5146403431810722,1.7851517404053625
-1.25209152,1.502755936344194,1.7018014422418475
-1.25193216,1.4915317743315875,1.6221039459898827
-1.2517728000000001,1.4812979795554007,1.5460592516495668
-1.25161344,1.4717244296034753,1.4736673592207288
-1.2514540800000002,1.4634713693000987,1.4045961958024507
-1.2512947200000002,1.456868921057387,1.3391778342956233
-1.2511353600000001,1.4519170848753558,1.2770802017993248
-1.250976,1.447955615929729,1.2176391525113974
-1.25081664,1.4449845142205102,1.1608546864318712
-1.25065728,1.4436640245719694,1.1063947306596955
-1.2504979200000002,1.4436640245719694,1.0549234309970597
-1.25033856,1.4453146366326464,1.0057766416416785
-1.2501792,1.4486158607540018,0.9592864354946979
-1.2500198400000002,1.4529074521117555,0.9147886667540968
-1.2498604800000002,1.4585195331180583,0.8726154083207615
-1.24970112,1.4657822261850386,0.8324345872937265
-1.24954176,1.474695531312698,0.7945782765740422
-1.2493824,1.4845992036767595,0.7580502574585749
-1.24922304,1.4958233656893676,0.7245108944525425
-1.2490636800000001,1.5077077725262296,0.6956205520612435
-1.24890432,1.5202524241873734,0.6760282508993102
-1.2487449600000002,1.5344476879091808,0.667062282570976
-1.2485856000000002,1.5496333188674136,0.6667302096699183
-1.2484262400000001,1.5661394394741885,0.6763603238003599
-1.24826688,1.582975682493092,0.6962846978633429
-1.24810752,1.598821558275597,0.7255071131557351
-1.24794816,1.6153276788823718,0.7633634238754275
-1.2477888000000001,1.6311735546648476,0.8095215571212752
-1.24762944,1.647019430447352,0.8636494399923998
-1.2474700800000003,1.662865306229835,0.925414999587591
-1.2473107200000002,1.6773906923637987,0.9938220172038577
-1.2471513600000002,1.690925711261349,1.0695346386431897
-1.246992,1.7031402405103635,1.1518887181035535
-1.24683264,1.7137041576986998,1.2388918181786188
-1.24667328,1.7239379524748952,1.3258949182536428
-1.24651392,1.7328512576025528,1.4089131435161055
-1.2463545600000001,1.740113950669524,1.4876144210648168
-1.2461952,1.745726031675827,1.562662896702085
-1.2460358400000002,1.7496875006214458,1.6340585704276769
-1.2458764800000002,1.7516682350942607,1.7014693693408034
-1.2457171200000001,1.7516682350942616,1.7648952934413298
-1.24555776,1.7493573782093141,1.8243363427292292
-1.2453984,1.7450657868515522,1.8817849546108552
-1.24523904,1.7401139506695187,1.9369090561851305
-1.2450796800000001,1.7341717472510876,1.989376574550938
-1.24492032,1.7262488093598387,2.0395195826094454
-1.2447609600000002,1.717005381820057,2.087338080360561
-1.2446016000000002,1.7074318318681276,2.1328320678043946
-1.2444422400000001,1.6968679146797965,2.175669472039809
-1.24428288,1.685313630255054,2.211865418254248
-1.24412352,1.6734292234181747,2.239095396140332
-1.24396416,1.6595640821084832,2.254702822489666
-1.2438048,1.6456989407987972,2.260015988906452
-1.24364544,1.6308434322527194,2.2547028224896613
-1.24348608,1.61466743405808,2.2410878335466107
-1.2433267200000002,1.599811925512009,2.2135257827595214
-1.2431673600000002,1.5849564169659107,2.173344961732499
-1.2430080000000001,1.5704310308319482,2.122537807871874
-1.24284864,1.5559056446979858,2.0624326127818446
-1.24268928,1.5413802585640302,1.9943576680666495
-1.24252992,1.5278452396664757,1.919309192429375
-1.2423705600000001,1.5159608328296137,1.8392796232764663
-1.2422112,1.504406548404876,1.7569255438161366
-1.2420518400000002,1.493842631216554,1.67556768305903
-1.2418924800000002,1.4836088364403528,1.5971984784112587
-1.2417331200000001,1.4740352864884227,1.5228141485760867
-1.24157376,1.465121981360768,1.452082620652497
-1.2414144,1.458189410705923,1.3846718217393754
-1.24125504,1.4525773296996207,1.3202496789357046
-1.2410956800000001,1.4486158607540016,1.2594803380436892
-1.24093632,1.4456447590447816,1.2013675803599613
-1.2407769600000003,1.4436640245719712,1.146575551686808
-1.2406176000000002,1.4436640245719694,1.0944401062220002
-1.2404582400000002,1.4449845142205102,1.0442970981634685
-1.24029888,1.4476254935175938,0.9964786004122864
-1.24013952,1.4519170848753558,0.9509846129684556
-1.23998016,1.4568689210573869,0.9078151358319932
-1.2398208,1.4631412468879628,0.866306023200762
-1.2396614400000001,1.470734062367069,0.8271214208769311
-1.23950208,1.479977489906864,0.7895971830582972
-1.2393427200000002,1.4908715295073163,0.7543974555470753
-1.2391833600000002,1.5027559363441938,0.722518457046285
-1.2390240000000001,1.515300588005343,0.6969488436654423
-1.23886464,1.5288356069028928,0.6806772715140063
-1.23870528,1.5433609930368555,0.6743678863940625
-1.23854592,1.5585466239950903,0.6763603238003711
-1.2383865600000001,1.5750527446018356,0.6886470211391938
-1.2382272,1.591228742796476,0.7105638326084807
-1.2380678400000003,1.6070746185789588,0.7417786853071257
-1.2379084800000002,1.6232506167735987,0.7819595063341513
-1.2377491200000001,1.6390964925560962,0.8297780040853071
-1.23758976,1.6552724907507361,0.8852341785606315
-1.2374304,1.6707882441211048,0.9486601026611596
-1.23727104,1.6856437526672021,1.0200557763868878
-1.23711168,1.6998390163890216,1.0987570539356757
-1.23695232,1.7127137904622889,1.1831035708022268
-1.23679296,1.7236078300627606,1.2714349624814911
-1.2366336000000002,1.7338416248389428,1.3581059896553487
-1.2364742400000002,1.743085052378738,1.4404600691157194
-1.2363148800000001,1.7496875006214494,1.5181651279613906
-1.23615552,1.7549694592156153,1.5922173848954775
-1.23599616,1.7589309281612404,1.6629489128190973
-1.2358368,1.760911662634052,1.7300276388311673
-1.2356774400000001,1.761241785046187,1.7934535629316055
-1.23551808,1.7595911729855103,1.8538908309226538
-1.2353587200000002,1.7556297040398896,1.9110073699031531
-1.2351993600000002,1.7506778678578578,1.9654673256753337
-1.2350400000000001,1.7444055420272866,2.0176027711401403
-1.23488064,1.7361524817238996,2.0670816333965716
-1.23472128,1.7269090541841048,2.114235985345652
-1.23456192,1.7166752594079033,2.1590658269873813
-1.2344025600000001,1.7057812198074513,2.201239085420638
-1.2342432,1.6938968129705734,2.2351105213277283
-1.23408384,1.6806919164851521,2.2586876973022636
-1.2339244800000002,1.6658364079390813,2.2709743946410863
-1.2337651200000002,1.6506507769808478,2.271970613344246
-1.23360576,1.6338145339619377,2.2636687908180035
-1.2334464,1.6173084133551625,2.2454047812602544
-1.23328704,1.6014625375726652,2.2125295640563274
-1.23312768,1.5856166617901606,2.1683638682166855
-1.2329683200000001,1.5701009084198128,2.113571839543532
-1.23280896,1.5539249102251802,2.0498138425419863
-1.2326496000000002,1.537748912030562,1.978086095915313
-1.2324902400000002,1.522893403484463,1.8990527454654513
-1.2323308800000001,1.509028262174771,1.8157024473019365
-1.23217152,1.4964836105136272,1.7316880033363582
-1.23201216,1.4852594485010202,1.6499980696780927
-1.2318528,1.4746955313126844,1.5722930108324273
-1.2316934400000001,1.464791858948637,1.4985728267994909
