DAQ/testing_accel_4_6/test_full_0065.csv

#Digilent WaveForms Oscilloscope Acquisition
#Device Name: Discovery2
#Serial Number: SN:210321B02866
#Date Time: 2021-04-06 19:03:49.225
#Sample rate: 38343.6Hz
#Samples: 8192
#Trigger: None
#Channel 1: Range: 500 mV/div Offset: -1.15 V Attenuation: 1 X
#Channel 2: Range: 500 mV/div Offset: -1.45 V Attenuation: 1 X
#Power Supplies: ON
#Positive Supply: ON
#Voltage: 3.3 V
#Negative Supply: OFF
#Voltage: -3.3 V

Time (s),Channel 1 (V),Channel 2 (V)
-0.21116975999999998,1.6309572919646467,1.2674500876688548
-0.21114368,1.6306271695525114,1.2747556914919453
-0.2111176,1.6306271695525112,1.2820612953150423
-0.21109151999999998,1.630297047140376,1.289698972039189
-0.21106544,1.630297047140376,1.2966725029612267
-0.21103935999999998,1.6299669247282405,1.3043101796853733
-0.21101327999999997,1.6299669247282402,1.3116157835084707
-0.21098719999999999,1.6296368023161052,1.3192534602326107
-0.21096112,1.62930667990397,1.3268911369567473
-0.21093504,1.6286464350796992,1.333864667878795
-0.21090895999999998,1.6283163126675637,1.3408381988008422
-0.21088288,1.6279861902554285,1.3481438026239325
-0.21085679999999998,1.6273259454311577,1.3554494064470297
-0.21083071999999997,1.6266657006068865,1.3624229373690773
-0.21080464,1.6263355781947515,1.3700606140932172
-0.21077856,1.6253452109583464,1.3767020721142056
-0.21075247999999996,1.6246849661340745,1.3840076759373119
-0.21072639999999998,1.6243548437219393,1.391313279760399
-0.21070032,1.623694598897669,1.3986188835834894
-0.21067423999999998,1.6230343540733978,1.4059244874065866
-0.21064815999999997,1.622704231661262,1.4135621641307332
-0.21062208,1.6217138644248565,1.420535695052774
-0.21059599999999998,1.6213837420127208,1.4278412988758713
-0.21056991999999997,1.6210536196005851,1.4354789756000177
-0.21054383999999998,1.620393374776315,1.4424525065220553
-0.21051776,1.6200632523641798,1.4500901832461952
-0.21049168,1.6194030075399088,1.4573957870692926
-0.21046559999999997,1.618742762715638,1.46436931799134
-0.21043952,1.618412640303503,1.4716749218144272
-0.21041343999999998,1.617752395479232,1.4789805256375241
-0.21038735999999997,1.6170921506549611,1.4859540565595715
-0.21036127999999998,1.616762028242826,1.493259660382662
-0.2103352,1.6164319058306909,1.5005652642057523
-0.21030912,1.6154415385942846,1.50720672222675
-0.21028303999999998,1.6151114161821492,1.5148443989508966
-0.21025696,1.6147812937700141,1.5218179298729344
-0.21023087999999998,1.6141210489457432,1.5287914607949815
-0.21020479999999997,1.6134608041214722,1.5360970646180785
-0.21017871999999999,1.6131306817093372,1.5430705955401194
-0.21015264,1.612470436885067,1.5497120535611077
-0.21012656,1.611810192060796,1.5566855844831546
-0.21010047999999998,1.611149947236525,1.5636591154052017
-0.2100744,1.6104897024122544,1.5699685005251436
-0.21004831999999998,1.610159580000119,1.5769420314471905
-0.21002223999999997,1.6094993351758475,1.5835834894681875
-0.20999616,1.608508967939442,1.5895608016870797
-0.20997008,1.607848723115172,1.596202259708068
-0.20994399999999996,1.6075186007030353,1.6031757906301234
-0.20991791999999998,1.6068583558787652,1.609153102849013
-0.20989184,1.6061981110544947,1.6151304150679051
-0.20986575999999998,1.6055378662302238,1.6221039459899518
-0.20983967999999997,1.6045474989938173,1.6277491853077997
-0.2098136,1.603887254169547,1.6337264975266919
-0.20978751999999998,1.6035571317574113,1.6400358826466395
-0.20976143999999997,1.60289688693314,1.6463452677665862
-0.20973535999999998,1.6019065196967348,1.6519905070844263
-0.20970928,1.6015763972845998,1.6582998922043681
-0.2096832,1.6005860300481933,1.6639451315222162
-0.20965711999999997,1.5995956628117871,1.669590370840064
-0.20963104,1.5989354179875168,1.6752356101579038
-0.20960495999999998,1.5982751731632459,1.6808808494757517
-0.20957887999999997,1.5976149283389747,1.6858619429915
-0.20955279999999998,1.5966245611025691,1.6915071823093426
-0.20952672,1.5959643162782984,1.696488275825086
-0.20950064,1.5949739490418922,1.701469369340834
-0.20947455999999998,1.5943137042176212,1.7067825357576316
-0.20944848,1.593653459393351,1.711763629273373
-0.20942239999999998,1.5929932145690802,1.7164126498880714
-0.20939631999999997,1.5920028473326737,1.7213937434038193
-0.20937023999999999,1.5913426025084032,1.7263748369195628
-0.20934416,1.5906823576841327,1.7310238575342565
-0.20931808,1.5900221128598617,1.7353408052479051
-0.20929199999999998,1.5896919904477265,1.7399898258626012
-0.20926592,1.5887016232113207,1.7443067735762454
-0.20923983999999998,1.5880413783870497,1.748291648388844
-0.20921375999999997,1.5873811335627783,1.7529406690035418
-0.20918768,1.5863907663263728,1.7569255438161366
-0.2091616,1.5857305215021027,1.7602462728266306
-0.20913551999999996,1.5847401542656954,1.7642311476392338
-0.20910943999999998,1.5840799094414253,1.7678839495507774
-0.20908336,1.5830895422050197,1.771204678561273
-0.20905727999999998,1.5824292973807483,1.7745254075717716
-0.20903119999999997,1.5814389301443421,1.7778461365822702
-0.20900512,1.5807786853200716,1.7808347926917163
-0.20897903999999998,1.5801184404958006,1.783823448801165
-0.20895295999999997,1.5794581956715295,1.7868121049106136
-0.20892687999999998,1.5784678284351241,1.789468688119009
-0.2089008,1.5778075836108536,1.7921252713274056
-0.20887471999999999,1.5771473387865826,1.7951139274368542
-0.20884863999999997,1.575826849138041,1.7971063648431536
-0.20882256,1.5754967267259061,1.7994308751504993
-0.20879647999999998,1.5745063594895,1.8017553854578483
-0.20877039999999997,1.5735159922530935,1.8034157499630978
-0.20874431999999998,1.572855747428823,1.8054081873693952
-0.20871824,1.5721955026045524,1.8070685518746432
-0.20869216,1.5715352577802815,1.8087289163798923
-0.20866607999999998,1.5705448905438752,1.810057207984092
-0.20864,1.569884645719605,1.8113854995882894
-0.20861391999999998,1.5688942784831987,1.8123817182914392
-0.20858783999999997,1.5682340336589276,1.8133779369945888
-0.20856175999999998,1.5672436664225218,1.8143741556977375
-0.20853568,1.5665834215982513,1.8150383014998368
-0.2085096,1.5659231767739805,1.8153703744008867
-0.20848351999999998,1.5649328095375739,1.8160345202029864
-0.20845744,1.5639424423011687,1.8163665931040356
-0.20843135999999998,1.5632821974768976,1.8163665931040358
-0.20840527999999997,1.5626219526526266,1.8163665931040358
-0.2083792,1.561961707828356,1.8163665931040358
-0.20835312,1.560971340591951,1.8160345202029864
-0.20832703999999996,1.5606412181798137,1.8160345202029855
-0.20830095999999998,1.5596508509434086,1.8153703744008867
-0.20827488,1.558990606119138,1.8150383014998372
-0.20824879999999998,1.5583303612948671,1.8147062285987874
-0.20822271999999997,1.5576701164705962,1.8137100098956376
-0.20819664,1.5570098716463256,1.8127137911924889
-0.20817056,1.5566797492341904,1.8120496453903903
-0.20814447999999997,1.556019504409919,1.8107213537861897
-0.20811839999999998,1.555359259585649,1.8097251350830414
-0.20809232,1.5550291371735137,1.8083968434788433
-0.20806623999999999,1.5543688923492427,1.8070685518746439
-0.20804015999999997,1.5537086475249717,1.8054081873693946
-0.20801408,1.553378525112837,1.8040798957651971
-0.20798799999999998,1.5530484027007012,1.8027516041609974
-0.20796191999999997,1.5523881578764305,1.8010912396557484
-0.20793583999999998,1.5520580354642952,1.7994308751505004
-0.20790976,1.5513977906400247,1.7971063648431536
-0.20788368,1.5507375458157537,1.7954460003379038
-0.20785759999999998,1.5504074234036183,1.7931214900305548
-0.20783152,1.549747178579348,1.7904649068221592
-0.20780543999999998,1.5494170561672123,1.7878083236137603
-0.20777935999999997,1.5490869337550768,1.785151740405361
-0.20775327999999998,1.5487568113429417,1.7814989384938156
-0.2077272,1.5484266889308065,1.7788423552854191
-0.20770112,1.5477664441065355,1.7755216262749207
-0.20767503999999998,1.5474363216944003,1.772200897264422
-0.20764896,1.5474363216944003,1.7685480953528783
-0.20762287999999998,1.546445954457994,1.7645632205402801
-0.20759679999999997,1.5464459544579938,1.7609104186287317
-0.20757072,1.5457857096337233,1.7572576167171863
-0.20754464,1.5454555872215883,1.752940669003544
-0.20751856,1.5451254648094528,1.7486237212898958
-0.20749247999999998,1.5447953423973173,1.7443067735762474
-0.2074664,1.544465219985182,1.7396577529615538
-0.20744031999999998,1.5438049751609113,1.7353408052479051
-0.20741423999999997,1.5434748527487756,1.7303597117321572
-0.20738816,1.5431447303366403,1.7257106911174633
-0.20736208,1.5431447303366403,1.7210616705027715
-0.20733599999999996,1.5424844855123698,1.715416431184918
-0.20730991999999998,1.5424844855123698,1.7107674105702262
-0.20728384,1.5421543631002346,1.7057863170544825
-0.20725775999999999,1.541824240688099,1.700473150637685
-0.20723167999999997,1.5414941182759634,1.6954920571219365
-0.2072056,1.5411639958638284,1.689846817804094
-0.20717951999999998,1.5411639958638281,1.684533651387296
-0.20715343999999997,1.5408338734516926,1.6788884120694507
-0.20712735999999998,1.5405037510395576,1.6729110998505585
-0.20710128,1.5405037510395576,1.6675979334337654
-0.2070752,1.5401736286274224,1.661620621214868
-0.20704911999999998,1.5401736286274221,1.6559753818970202
-0.20702304,1.539843506215287,1.6499980696781307
-0.20699695999999998,1.5398435062152869,1.6443528303602828
-0.20697087999999997,1.5395133838031512,1.638375518141385
-0.20694479999999998,1.5391832613910161,1.6320661330214434
-0.20691872,1.5395133838031512,1.626088820802551
-0.20689264,1.5391832613910161,1.6197794356826039
-0.20686655999999998,1.538853138978881,1.6134700505626567
-0.20684048,1.539183261391016,1.607492738343767
-0.20681439999999998,1.5388531389788809,1.60085128032277
-0.20678831999999997,1.5388531389788807,1.5945418952028223
-0.20676223999999999,1.5385230165667454,1.587900437181831
-0.20673616,1.5385230165667454,1.5812589791608427
-0.20671008,1.5385230165667454,1.574949594040895
-0.20668399999999998,1.5385230165667454,1.5679760631188482
-0.20665792,1.5385230165667454,1.5616666779989063
-0.20663183999999998,1.5385230165667454,1.5546931470768595
-0.20660575999999997,1.5385230165667456,1.548051689055862
-0.20657968,1.5388531389788809,1.5414102310348707
-0.2065536,1.5385230165667456,1.5341046272117838
-0.20652751999999996,1.5388531389788809,1.5274631691907763
-0.20650143999999998,1.5388531389788809,1.5204896382687387
-0.20647536,1.539183261391016,1.5131840344456482
-0.20644927999999999,1.5391832613910161,1.5065425764246505
-0.20642319999999997,1.5391832613910164,1.4995690455026034
-0.20639712,1.5398435062152869,1.4929275874816121
-0.20637103999999998,1.5398435062152869,1.485954056559565
-0.20634495999999997,1.539843506215287,1.4789805256375177
-0.20631887999999998,1.5401736286274224,1.4720069947154801
-0.2062928,1.5401736286274224,1.4650334637934392
-0.20626672,1.5405037510395576,1.4583920057724418
-0.20624063999999998,1.5408338734516929,1.4507543290482952
-0.20621456,1.5408338734516929,1.444112871027307
-0.20618847999999998,1.5411639958638284,1.43713934010526
-0.20616239999999997,1.5414941182759638,1.4298337362821631
-0.20613631999999998,1.541824240688099,1.423192278261172
-0.20611024,1.5421543631002341,1.4158866744380814
-0.20608416,1.5424844855123698,1.408913143516034
-0.20605807999999998,1.5428146079245053,1.4016075396929368
-0.206032,1.5431447303366401,1.3943019358698499
-0.20600591999999998,1.5438049751609113,1.3876604778488522
-0.20597983999999997,1.5438049751609115,1.3803548740257554
-0.20595375999999999,1.5444652199851818,1.3733813431037143
-0.20592768,1.544795342397317,1.366075739280624
-0.2059016,1.5451254648094526,1.3591022083585766
-0.20587551999999998,1.545455587221588,1.3521286774365326
-0.20584944,1.545785709633723,1.344823073613442
-0.20582335999999998,1.5461158320458588,1.3378495426913948
-0.20579727999999997,1.5464459544579943,1.3305439388682978
-0.2057712,1.5471061992822648,1.323570407946257
-0.20574512,1.5471061992822648,1.3165968770242193
-0.20571903999999996,1.5477664441065355,1.3096233461021625
-0.20569295999999998,1.5477664441065355,1.302649815180125
-0.20566688,1.5487568113429413,1.2953442113570344
-0.20564079999999998,1.549086933755077,1.288370680434987
-0.20561471999999997,1.5497471785793477,1.28139714951294
-0.20558864,1.5497471785793477,1.274423618590899
-0.20556255999999998,1.5504074234036187,1.2674500876688517
-0.20553647999999997,1.5507375458157544,1.2604765567468044
-0.20551039999999998,1.5513977906400245,1.2535030258247668
-0.20548432,1.5517279130521595,1.2468615678037756
-0.20545824,1.5523881578764307,1.2398880368817284
-0.20543215999999997,1.5527182802885662,1.233246578860731
-0.20540608,1.5533785251128365,1.2262730479386932
-0.20537999999999998,1.5540387699371074,1.2196315899176957
-0.20535391999999997,1.554368892349243,1.2129901318966982
-0.20532783999999998,1.5550291371735134,1.206348673875707
-0.20530176,1.555689381997784,1.199375142953666
-0.20527568,1.556349626822055,1.1930657578337185
-0.20524959999999998,1.5566797492341904,1.1867563727137707
-0.20522352,1.557339994058461,1.1801149146927825
-0.20519743999999998,1.5576701164705964,1.173805529572835
-0.20517135999999997,1.5583303612948673,1.1671640715518379
-0.20514527999999999,1.5589906061191379,1.1611867593329457
-0.2051192,1.559320728531273,1.1552094471140535
-0.20509312,1.5603110957676791,1.148900061994106
-0.20506703999999998,1.5609713405919503,1.142590676874159
-0.20504096,1.5613014630040851,1.1366133646552694
-0.20501487999999998,1.561961707828356,1.1306360524363717
-0.20498879999999997,1.562621952652627,1.1243266673164245
-0.20496272,1.5632821974768976,1.118681427998582
-0.20493664,1.5639424423011676,1.113036188680742
-0.20491055999999996,1.5646026871254397,1.1070588764618365
-0.20488447999999998,1.5652629319497096,1.101081564242947
-0.2048584,1.5659231767739803,1.0954363249251045
-0.20483231999999998,1.566583421598251,1.0901231585083064
-0.20480623999999997,1.5672436664225222,1.0844779191904588
-0.20478016,1.568234033658928,1.0791647527736656
-0.20475408,1.568894278483198,1.0738515863568752
-0.20472799999999997,1.5695545233074701,1.0685384199400698
-0.20470191999999998,1.57021476813174,1.0628931806222297
-0.20467584,1.5708750129560107,1.0579120871064862
-0.20464976,1.5715352577802815,1.052930993590738
-0.20462367999999997,1.5721955026045524,1.0476178271739405
-0.2045976,1.5728557474288227,1.0429688065592488
-0.20457151999999998,1.5735159922530937,1.037987713043501
-0.20454543999999997,1.5745063594895001,1.0333386924288028
-0.20451935999999998,1.5751666043137704,1.0286896718141088
-0.20449328,1.575826849138041,1.0240406511994151
-0.2044672,1.576487093962312,1.0190595576836672
-0.20444111999999998,1.5771473387865829,1.0147426099700185
-0.20441504,1.5778075836108532,1.0100935893553271
-0.20438895999999998,1.5784678284351241,1.006108714542728
-0.20436287999999997,1.5794581956715306,1.0021238397301293
-0.20433679999999999,1.5797883180836656,0.9974748191154356
-0.20431072,1.5807786853200712,0.9934899443028407
-0.20428464,1.5814389301443423,0.9898371423912921
-0.20425855999999998,1.5824292973807486,0.9858522675786938
-0.20423248,1.583089542205019,0.9821994656671503
-0.20420639999999998,1.5837497870292898,0.9785466637556017
-0.20418031999999997,1.5847401542656963,0.9748938618440532
-0.20415424,1.5854003990899668,0.9715731328335577
-0.20412816,1.5860606439142368,0.968584476724113
-0.20410208,1.586720888738508,0.9652637477136146
-0.20407599999999998,1.5877112559749142,0.9622750916041656
-0.20404992,1.5883715007991848,0.9592864354947195
-0.20402383999999998,1.5890317456234557,0.9562977793852707
-0.20399775999999997,1.5896919904477267,0.9536411961768717
-0.20397168,1.5903522352719972,0.9509846129684753
-0.2039456,1.5913426025084023,0.94832802976008
-0.20391951999999997,1.5920028473326748,0.9460035194527274
-0.20389343999999998,1.5929932145690802,0.9436790091453815
-0.20386736,1.5939835818054857,0.9413544988380346
-0.20384127999999999,1.594643826629757,0.9393620614317352
-0.20381519999999997,1.5953040714540279,0.937369624025436
-0.20378912,1.5959643162782982,0.9353771866191386
-0.20376303999999998,1.5966245611025691,0.9337168221138901
-0.20373695999999997,1.5976149283389753,0.9320564576086409
-0.20371087999999998,1.5982751731632459,0.9307281660044426
-0.2036848,1.5989354179875164,0.9293998744002443
-0.20365872,1.5995956628117873,0.9280715827960448
-0.20363263999999998,1.6005860300481936,0.9267432911918455
-0.20360656,1.6012462748724638,0.9257470724886973
-0.20358047999999998,1.6019065196967348,0.9247508537855477
-0.20355439999999997,1.602566764521006,0.9237546350823982
-0.20352831999999998,1.6035571317574115,0.9230904892802991
-0.20350224,1.6038872541695468,0.9220942705771504
-0.20347616,1.604877621405953,0.9214301247750505
-0.20345007999999998,1.605537866230224,0.9207659789729508
-0.203424,1.6058679886423588,0.920101833170852
-0.20339791999999998,1.6068583558787652,0.919769760269802
-0.20337183999999997,1.6075186007030362,0.919769760269802
-0.20334576,1.6081788455273067,0.919769760269802
-0.20331968,1.6088390903515768,0.9194376873687525
-0.2032936,1.6094993351758478,0.9197697602698018
-0.20326751999999998,1.6098294575879835,0.919769760269802
-0.20324144,1.610489702412254,0.9201018331708516
-0.20321535999999998,1.6114800696486602,0.9204339060719013
-0.20318927999999997,1.611810192060796,0.9210980518740012
-0.2031632,1.6124704368850664,0.9217621976761002
-0.20313712,1.6131306817093365,0.9224263434781991
-0.20311103999999996,1.6141210489457434,0.9234225621813498
-0.20308495999999998,1.6144511713578784,0.924418780884498
-0.20305888,1.6151114161821492,0.9254149995876467
-0.20303279999999999,1.6154415385942846,0.926743291191846
-0.20300671999999997,1.6164319058306909,0.9280715827960454
-0.20298064,1.616762028242826,0.9293998744002437
-0.20295455999999998,1.617422273067097,0.9310602389054928
-0.20292847999999997,1.618082517891368,0.932388530509693
-0.20290239999999998,1.6187427627156383,0.9343809679159895
-0.20287632,1.6190728851277734,0.9360413324212372
-0.20285024,1.6197331299520443,0.938365842728586
-0.20282415999999998,1.6200632523641798,0.9403582801348855
-0.20279808,1.62072349718845,0.9430148633432809
-0.20277199999999998,1.6210536196005858,0.9450073007495804
-0.20274591999999997,1.6217138644248568,0.9473318110569298
-0.20271983999999998,1.6220439868369918,0.9503204671663759
-0.20269376,1.6227042316612623,0.9526449774737227
-0.20266768,1.6230343540733978,0.9556336335831713
-0.20264159999999998,1.6233644764855335,0.9586222896926201
-0.20261552,1.6240247213098038,0.9616109458020649
-0.20258943999999998,1.6243548437219393,0.9649316748125634
-0.20256335999999997,1.624684966134075,0.9682524038230622
-0.20253728,1.6253452109583455,0.9719052057346074
-0.2025112,1.626005455782616,0.9755580076461526
-0.20248512,1.6266657006068865,0.9795428824587491
-0.20245903999999998,1.6273259454311577,0.9835277572713474
-0.20243296,1.627986190255428,0.9878447049849918
-0.20240687999999998,1.628646435079699,0.9921616526986401
-0.20238079999999997,1.6289765574918347,0.9961465275112387
-0.20235472,1.6296368023161052,1.0004634752248829
-0.20232864,1.6306271695525103,1.0051124958395747
-0.20230255999999996,1.6309572919646473,1.0094294435532296
-0.20227647999999998,1.6316175367889172,1.0140784641679215
-0.2022504,1.6319476592010524,1.018727484782615
-0.20222431999999999,1.6326079040253234,1.0233765053973134
-0.20219823999999997,1.632938026437459,1.0283575989130613
-0.20217216,1.6332681488495941,1.033338692428805
-0.20214607999999998,1.6335982712617296,1.0383197859445532
-0.20211999999999997,1.633928393673865,1.043632952361351
-0.20209391999999998,1.6342585160860001,1.0489461187781415
-0.20206784,1.6349187609102707,1.0542592851949346
-0.20204176,1.6349187609102709,1.0595724516117326
-0.20201567999999998,1.6355790057345416,1.06521769092958
-0.2019896,1.6355790057345416,1.0705308573463708
-0.20196351999999998,1.635909128146677,1.076508169565268
-0.20193743999999997,1.6362392505588124,1.081821335982066
-0.20191135999999998,1.6362392505588124,1.0877986482009585
-0.20188528,1.6365693729709474,1.0934438875188008
-0.2018592,1.6372296177952186,1.0994211997376984
