DAQ/testing_accel_4_6/test_full_0017.csv

#Digilent WaveForms Oscilloscope Acquisition
#Device Name: Discovery2
#Serial Number: SN:210321B02866
#Date Time: 2021-04-06 18:58:14.016
#Sample rate: 6275.1Hz
#Samples: 8192
#Trigger: None
#Channel 1: Range: 500 mV/div Offset: -1.8 V Attenuation: 1 X
#Channel 2: Range: 500 mV/div Offset: -1.45 V Attenuation: 1 X
#Power Supplies: ON
#Positive Supply: ON
#Voltage: 3.3 V
#Negative Supply: OFF
#Voltage: -3.3 V

Time (s),Channel 1 (V),Channel 2 (V)
-1.2903379200000002,0.11062972436938125,-0.0007363214400106609
-1.2901785600000002,0.10963935713297479,-0.0017325401431602572
-1.2900192000000001,0.10864898989656857,-0.0030608317473588896
-1.28985984,0.10798874507229739,-0.0037249775494589965
-1.28970048,0.10765862266016198,-0.0037249775494591474
-1.28954112,0.10732850024802687,-0.004057050450508637
-1.2893817600000002,0.10732850024802687,-0.004057050450508637
-1.2892224,0.10732850024802687,-0.0037249775494589965
-1.28906304,0.10699837783589139,-0.0037249775494589965
-1.2889036800000002,0.10699837783589139,-0.0037249775494589965
-1.2887443200000002,0.10699837783589139,-0.0037249775494589965
-1.2885849600000001,0.10699837783589139,-0.003392904648409356
-1.2884256,0.10699837783589139,-0.003392904648409356
-1.28826624,0.10699837783589139,-0.003392904648409356
-1.28810688,0.10699837783589139,-0.003392904648409356
-1.2879475200000001,0.10699837783589139,-0.003392904648409356
-1.28778816,0.10699837783589139,-0.003392904648409356
-1.2876288000000002,0.10699837783589139,-0.0030608317473597955
-1.2874694400000002,0.10699837783589139,-0.0030608317473594937
-1.2873100800000001,0.10699837783589139,-0.003392904648409356
-1.28715072,0.10699837783589139,-0.003392904648409356
-1.28699136,0.10699837783589124,-0.0030608317473597955
-1.286832,0.10666825542375463,-0.0037249775494608084
-1.2866726400000001,0.10501764336307992,-0.005717414955756377
-1.28651328,0.10336703130240243,-0.007377779461005929
-1.2863539200000003,0.10237666406599734,-0.008041925263104606
-1.2861945600000002,0.101716419241726,-0.00870607106520441
-1.2860352000000002,0.10105617441745526,-0.009370216867303913
-1.28587584,0.10039592959318422,-0.010034362669403718
-1.28571648,0.09973568476891317,-0.01036643557045351
-1.28555712,0.09907543994464243,-0.010698508471503452
-1.28539776,0.0984151951203714,-0.011694727174652142
-1.2852384000000001,0.09775495029610126,-0.011694727174652142
-1.28507904,0.09775495029610111,-0.012026800075702004
-1.2849196800000002,0.09742482788396631,-0.012026800075702004
-1.2847603200000002,0.097424827883966,-0.011694727174652293
-1.2846009600000001,0.097424827883966,-0.011362654273602502
-1.2844416,0.097424827883966,-0.011362654273602502
-1.28428224,0.09709470547183068,-0.0113626542736022
-1.28412288,0.0974248278839666,-0.010698508471502395
-1.2839635200000001,0.09808507270823674,-0.010034362669403718
-1.28380416,0.09874531753250748,-0.009038143966254575
-1.2836448000000003,0.09973568476891258,-0.0077098523620567775
-1.2834854400000002,0.10072605200531903,-0.006713633658906879
-1.2833260800000001,0.10138629682958991,-0.005717414955757736
-1.28316672,0.10237666406599644,-0.00505326915365778
-1.28300736,0.102706786478132,-0.004389123351558348
-1.282848,0.10336703130240274,-0.004057050450508335
-1.28268864,0.103697153714538,-0.0037249775494586947
-1.28252928,0.10402727612667317,-0.003392904648409356
-1.28236992,0.10435739853880859,-0.003060831747359343
-1.2822105600000002,0.10468752095094361,-0.002728758846310155
-1.2820512000000002,0.10534776577521435,-0.0020646130442106524
-1.2818918400000001,0.10600801059948539,-0.0014004672421110698
-1.28173248,0.10666825542375628,-0.0007363214400114159
-1.28157312,0.10699837783589154,-0.0004042485389619266
-1.28141376,0.10732850024802718,-0.0004042485389616246
-1.2812544000000001,0.10765862266016213,-7.217563791206416e-5
-1.28109504,0.10765862266016213,-0.0004042485389619266
-1.2809356800000002,0.10765862266016213,-0.0004042485389619266
-1.2807763200000002,0.10732850024802702,-0.0004042485389619266
-1.2806169600000001,0.10765862266016213,-0.0004042485389619266
-1.2804576,0.10732850024802687,-0.000736321440011567
-1.28029824,0.10765862266016213,-0.000736321440011567
-1.28013888,0.10765862266016213,-0.000736321440011567
-1.2799795200000001,0.10765862266016213,-0.000736321440011567
-1.27982016,0.10765862266016213,-0.000736321440011567
-1.2796608000000003,0.10765862266016213,-0.000736321440011567
-1.2795014400000002,0.10765862266016213,-0.000736321440011567
-1.2793420800000002,0.10765862266016213,-0.0010683943410610564
-1.27918272,0.10765862266016213,-0.000736321440011567
-1.27902336,0.10765862266016213,-0.000736321440011567
-1.278864,0.10765862266016213,-0.000736321440011567
-1.27870464,0.10765862266016213,-0.000736321440011567
-1.2785452800000001,0.10765862266016213,-0.000736321440011567
-1.27838592,0.10798874507229798,-0.0007363214400108119
-1.2782265600000002,0.10930923472083766,0.0009240430652355689
-1.2780672000000002,0.11062972436937975,0.0022523346694352585
-1.2779078400000001,0.11128996919365108,0.0032485533725850058
-1.27774848,0.11195021401792182,0.003580626273634646
-1.27758912,0.112610458842193,0.004244772075734602
-1.27742976,0.11360082607859916,0.005240990778883594
-1.2772704000000001,0.114261070902869,0.005573063679933004
-1.27711104,0.11492131572714004,0.006569282383082298
-1.2769516800000003,0.11558156055141018,0.006901355284131636
-1.2767923200000002,0.1159116829635461,0.0072334281851814276
-1.2766329600000001,0.11624180537568136,0.00756550108623129
-1.2764736,0.11624180537568152,0.0072334281851815785
-1.27631424,0.11624180537568152,0.006901355284131938
-1.27615488,0.11624180537568182,0.006901355284131938
-1.27599552,0.11657192778781669,0.006901355284131334
-1.27583616,0.11624180537568152,0.006237209482032435
-1.2756768,0.11591168296354641,0.005905136580982795
-1.2755174400000002,0.11624180537568121,0.005905136580982795
-1.2753580800000002,0.11591168296354641,0.0055730636799333055
-1.2751987200000001,0.11591168296354626,0.005240990778883292
-1.27503936,0.11525143813927552,0.004576844976783789
-1.27488,0.11459119331500447,0.0035806262736343443
-1.27472064,0.11393094849073344,0.0029164804715347613
-1.2745612800000001,0.1132707036664633,0.0022523346694358626
-1.27440192,0.11294058125432782,0.0015881888673363598
-1.2742425600000002,0.11261045884219287,0.0012561159662870215
-1.2740832000000002,0.11195021401792213,0.00092404306523723
-1.2739238400000001,0.11162009160578672,0.0002598972631378783
-1.27376448,0.11095984678151583,-0.0004042485389619266
-1.27360512,0.1099694795451093,-0.0014004672421115227
-1.27344576,0.10930923472083796,-0.002396685945260817
-1.2732864000000002,0.10831886748443331,-0.003060831747359192
-1.27312704,0.10765862266016213,-0.0037249775494589965
-1.27296768,0.10732850024802687,-0.0037249775494589965
-1.2728083200000002,0.10732850024802687,-0.0037249775494589965
-1.2726489600000002,0.10732850024802687,-0.0037249775494589965
-1.2724896,0.10699837783589139,-0.0037249775494589965
-1.27233024,0.10699837783589139,-0.0037249775494588456
-1.27217088,0.10699837783589139,-0.003392904648409507
-1.27201152,0.10699837783589139,-0.0037249775494586947
-1.2718521600000001,0.10699837783589139,-0.003392904648409356
-1.2716928,0.10699837783589139,-0.003392904648409356
-1.2715334400000002,0.10699837783589139,-0.003392904648409356
-1.2713740800000002,0.10699837783589139,-0.003392904648409356
-1.2712147200000001,0.10699837783589139,-0.003392904648409356
-1.27105536,0.10699837783589139,-0.003392904648409356
-1.270896,0.10699837783589139,-0.003392904648409356
-1.27073664,0.10699837783589139,-0.0033929046484090543
-1.2705772800000001,0.10699837783589139,-0.0030608317473596446
-1.27041792,0.10666825542375613,-0.0030608317473594937
-1.2702585600000003,0.10699837783589108,-0.0030608317473594937
-1.2700992000000002,0.10600801059948584,-0.004389123351557896
-1.2699398400000002,0.10435739853880918,-0.006049487856806169
-1.26978048,0.10303690889026718,-0.007377779461005929
-1.26962112,0.10204654165386065,-0.008373998164155223
-1.26946176,0.10138629682958991,-0.008706071065205014
-1.2693024,0.10072605200531888,-0.009370216867304819
-1.2691430400000001,0.10006580718104874,-0.010034362669403718
-1.26898368,0.0994055623567777,-0.01036643557045366
-1.2688243200000002,0.09874531753250808,-0.011030581372552258
-1.2686649600000002,0.09808507270823705,-0.01169472717465184
-1.2685056000000001,0.09775495029610126,-0.012026800075702004
-1.26834624,0.097424827883966,-0.012026800075702004
-1.26818688,0.09709470547183068,-0.012026800075701853
-1.26802752,0.0974248278839657,-0.01169472717465184
-1.2678681600000001,0.09709470547183052,-0.011362654273602502
-1.2677088,0.09709470547183052,-0.011362654273602502
-1.2675494400000002,0.0974248278839657,-0.011030581372553163
-1.2673900800000002,0.09775495029610111,-0.01036643557045366
-1.2672307200000001,0.0984151951203717,-0.009370216867304668
-1.26707136,0.09907543994464274,-0.008373998164155072
-1.266912,0.10006580718104918,-0.007045706559955765
-1.26675264,0.10105617441745555,-0.006381560757855879
-1.2665932800000002,0.10171641924172539,-0.005385342054708095
-1.26643392,0.1027067864781317,-0.00472119625260814
-1.26627456,0.10303690889026733,-0.004057050450508486
-1.2661152000000002,0.10336703130240213,-0.0037249775494592983
-1.2659558400000002,0.10369715371453754,-0.0037249775494589965
-1.2657964800000001,0.10402727612667317,-0.003392904648409356
-1.26563712,0.10435739853880859,-0.0027287588463097024
-1.26547776,0.10468752095094422,-0.002396685945260062
-1.2653184,0.10534776577521525,-0.0020646130442094446
-1.2651590400000001,0.10600801059948539,-0.0010683943410612073
-1.26499968,0.10699837783589139,-0.0004042485389619266
-1.2648403200000002,0.10732850024802656,-0.0004042485389619266
-1.2646809600000002,0.10732850024802687,-0.0004042485389619266
-1.2645216000000001,0.10732850024802687,-7.217563791206416e-5
-1.26436224,0.10732850024802687,-0.0004042485389619266
-1.26420288,0.10732850024802702,-0.0004042485389619266
-1.26404352,0.10765862266016182,-0.0004042485389619266
-1.2638841600000001,0.10732850024802702,-0.0004042485389619266
-1.2637248,0.10732850024802687,-0.000736321440011567
-1.2635654400000003,0.10765862266016182,-0.000736321440011567
-1.2634060800000002,0.10765862266016213,-0.000736321440011567
-1.2632467200000002,0.10765862266016213,-0.000736321440011567
-1.26308736,0.10765862266016213,-0.000736321440011567
-1.262928,0.10765862266016213,-0.000736321440011567
-1.26276864,0.10765862266016213,-0.000736321440011567
-1.26260928,0.10765862266016213,-0.000736321440011567
-1.2624499200000001,0.10765862266016213,-0.000736321440011567
-1.26229056,0.10765862266016213,-0.000736321440011567
-1.2621312000000002,0.10765862266016213,-0.000736321440011567
-1.2619718400000002,0.10765862266016213,-0.000736321440011567
-1.2618124800000001,0.10765862266016213,-0.000736321440011567
-1.26165312,0.10831886748443287,0.0002598972631375762
-1.26149376,0.10963935713297494,0.001588188867336964
-1.2613344,0.11095984678151642,0.0029164804715359695
-1.2611750400000001,0.11162009160578656,0.003580626273634646
-1.26101568,0.11228033643005708,0.004244772075734149
-1.2608563200000003,0.1132707036664624,0.004908917877833048
-1.2606969600000002,0.11393094849073374,0.005573063679932853
-1.2605376000000001,0.11459119331500447,0.005905136580982644
-1.26037824,0.11525143813927552,0.006901355284131938
-1.26021888,0.11591168296354626,0.006901355284132089
-1.26005952,0.11591168296354656,0.0072334281851815785
-1.25990016,0.11624180537568152,0.007233428185181277
-1.2597408,0.11624180537568152,0.006901355284131938
-1.25958144,0.11624180537568152,0.006569282383082298
-1.2594220800000002,0.11624180537568152,0.006569282383082298
-1.2592627200000002,0.11657192778781685,0.006569282383082298
-1.2591033600000001,0.11591168296354626,0.006237209482032435
-1.258944,0.11591168296354626,0.005905136580982795
-1.25878464,0.1159116829635461,0.005905136580982493
-1.25862528,0.11558156055141078,0.00524099077888299
-1.2584659200000001,0.11558156055141078,0.004908917877833652
-1.25830656,0.11492131572714004,0.004244772075734149
-1.2581472000000002,0.1142610709028699,0.0032485533725859117
-1.2579878400000002,0.11360082607859887,0.002584407570485805
-1.2578284800000001,0.11294058125432813,0.0019202617683865243
-1.25766912,0.11261045884219256,0.0015881888673363598
-1.25750976,0.11195021401792182,0.000924043065236928
-1.2573504,0.11195021401792123,0.0005919701641869145
-1.2571910400000001,0.11128996919365139,0.00025989726313772725
-1.25703168,0.11062972436938034,-0.000736321440011567
-1.2568723200000003,0.10963935713297525,-0.0017325401431598042
-1.2567129600000002,0.1089791123087042,-0.0027287588463089474
-1.2565536000000002,0.10798874507229783,-0.0037249775494585437
-1.25639424,0.10765862266016213,-0.0037249775494589965
-1.25623488,0.10732850024802687,-0.0037249775494589965
-1.25607552,0.10732850024802672,-0.0037249775494589965
-1.25591616,0.10699837783589139,-0.0037249775494589965
-1.2557568000000001,0.10699837783589139,-0.0037249775494589965
-1.25559744,0.10699837783589139,-0.0037249775494589965
-1.2554380800000002,0.10699837783589139,-0.0037249775494589965
-1.2552787200000002,0.10699837783589139,-0.003392904648409507
-1.2551193600000001,0.10699837783589139,-0.003392904648409356
-1.25496,0.10699837783589139,-0.003392904648409356
-1.25480064,0.10699837783589139,-0.003392904648409356
-1.25464128,0.10699837783589139,-0.003392904648409356
-1.2544819200000001,0.10699837783589139,-0.003392904648409356
-1.25432256,0.10699837783589139,-0.003392904648409356
-1.2541632000000003,0.10699837783589139,-0.003392904648409356
-1.2540038400000002,0.10699837783589139,-0.003392904648409356
-1.2538444800000001,0.10699837783589139,-0.003392904648409356
-1.25368512,0.10666825542375613,-0.003392904648409356
-1.25352576,0.10666825542375538,-0.0037249775494597515
-1.2533664,0.10501764336307857,-0.005385342054708246
-1.25320704,0.10369715371453649,-0.0067136336589073324
-1.25304768,0.10237666406599644,-0.007709852362055569
-1.25288832,0.10171641924172539,-0.008706071065204863
-1.2527289600000002,0.10105617441745555,-0.009038143966254273
-1.2525696000000002,0.10039592959318452,-0.009702289768353554
-1.2524102400000001,0.09973568476891348,-0.010366435570453358
-1.25225088,0.09907543994464274,-0.010698508471502999
-1.25209152,0.0984151951203717,-0.011362654273602652
-1.25193216,0.09775495029610126,-0.011694727174652444
-1.2517728000000001,0.09775495029610126,-0.012026800075702004
-1.25161344,0.09709470547183052,-0.012026800075702004
-1.2514540800000002,0.0974248278839657,-0.012026800075702004
-1.2512947200000002,0.097424827883966,-0.011362654273602803
-1.2511353600000001,0.09709470547183068,-0.011362654273602502
-1.250976,0.09709470547183052,-0.011362654273602502
-1.25081664,0.09709470547183097,-0.011030581372552408
-1.25065728,0.09808507270823734,-0.010034362669402812
-1.2504979200000002,0.09874531753250718,-0.009038143966255028
-1.25033856,0.099405562356778,-0.00804192526310521
-1.2501792,0.10039592959318466,-0.006713633658906124
-1.2500198400000002,0.10138629682958931,-0.006049487856807527
-1.2498604800000002,0.10204654165386065,-0.005053269153658233
-1.24970112,0.1027067864781317,-0.004389123351558499
-1.24954176,0.10303690889026748,-0.004057050450508486
-1.2493824,0.1036971537145377,-0.0037249775494588456
-1.24922304,0.10369715371453829,-0.0033929046484090543
-1.2490636800000001,0.10435739853880843,-0.0030608317473594937
-1.24890432,0.10468752095094391,-0.0027287588463098533
-1.2487449600000002,0.10501764336307887,-0.0020646130442109546
-1.2485856000000002,0.1056778881873496,-0.001732540143160861
-1.2484262400000001,0.10633813301162065,-0.0010683943410612073
-1.24826688,0.10699837783589139,-0.0004042485389619266
-1.24810752,0.10732850024802687,-0.0004042485389619266
-1.24794816,0.10732850024802687,-0.0004042485389619266
-1.2477888000000001,0.10732850024802687,-0.0004042485389619266
-1.24762944,0.10732850024802687,-0.0004042485389619266
-1.2474700800000003,0.10732850024802687,-0.0007363214400112649
-1.2473107200000002,0.10765862266016198,-0.0004042485389620776
-1.2471513600000002,0.10765862266016213,-0.0007363214400114159
-1.246992,0.10732850024802687,-0.000736321440011567
-1.24683264,0.10765862266016213,-0.000736321440011567
-1.24667328,0.10765862266016213,-0.000736321440011567
-1.24651392,0.10765862266016213,-0.000736321440011567
-1.2463545600000001,0.10765862266016213,-0.000736321440011567
-1.2461952,0.10765862266016213,-0.000736321440011567
-1.2460358400000002,0.10765862266016213,-0.000736321440011567
-1.2458764800000002,0.10765862266016213,-0.000736321440011567
-1.2457171200000001,0.10765862266016213,-0.000736321440011567
-1.24555776,0.10765862266016213,-0.000736321440011567
-1.2453984,0.10765862266016213,-0.0010683943410610564
-1.24523904,0.10765862266016213,-0.000736321440011567
-1.2450796800000001,0.10765862266016213,-0.000736321440011567
-1.24492032,0.10897911230870361,0.000924043065237079
-1.2447609600000002,0.11029960195724388,0.0022523346694346543
-1.2446016000000002,0.11095984678151552,0.0029164804715350635
-1.2444422400000001,0.11195021401792138,0.0035806262736343443
-1.24428288,0.11261045884219256,0.004244772075734149
-1.24412352,0.11360082607859871,0.005240990778883443
-1.24396416,0.11393094849073464,0.005573063679933758
-1.2438048,0.11459119331500568,0.006237209482033039
-1.24364544,0.11558156055141078,0.006901355284131938
-1.24348608,0.11591168296354641,0.007233428185181729
-1.2433267200000002,0.11624180537568121,0.007565501086231139
-1.2431673600000002,0.11624180537568152,0.007233428185181729
-1.2430080000000001,0.11624180537568152,0.006901355284131938
-1.24284864,0.11624180537568152,0.006569282383082298
-1.24268928,0.11624180537568152,0.006569282383082298
-1.24252992,0.11624180537568121,0.006569282383081694
-1.2423705600000001,0.11591168296354626,0.005905136580982795
-1.2422112,0.11591168296354626,0.005905136580982795
-1.2420518400000002,0.11591168296354626,0.005573063679933456
-1.2418924800000002,0.11558156055141093,0.005240990778883443
-1.2417331200000001,0.11525143813927552,0.004576844976783789
-1.24157376,0.11459119331500478,0.0039126991746845086
-1.2414144,0.11393094849073374,0.0029164804715350635
-1.24125504,0.113270703666463,0.0022523346694352585
-1.2410956800000001,0.11294058125432797,0.0015881888673366618
-1.24093632,0.11228033643005708,0.0012561159662867194
-1.2407769600000003,0.11195021401792213,0.0009240430652373811
-1.2406176000000002,0.11162009160578687,0.0002598972631381802
-1.2404582400000002,0.11095984678151613,-0.0004042485389616245
-1.24029888,0.11029960195724509,-0.0010683943410612073
-1.24013952,0.10930923472083842,-0.0020646130442108037
-1.23998016,0.10831886748443256,-0.0030608317473597955
-1.2398208,0.10765862266016182,-0.0037249775494589965
-1.2396614400000001,0.10732850024802687,-0.0037249775494589965
-1.23950208,0.10732850024802672,-0.004057050450508486
-1.2393427200000002,0.1069983778358917,-0.0037249775494592983
-1.2391833600000002,0.10699837783589139,-0.0037249775494589965
-1.2390240000000001,0.10699837783589139,-0.0037249775494589965
-1.23886464,0.10699837783589139,-0.0037249775494589965
-1.23870528,0.10699837783589139,-0.0037249775494588456
-1.23854592,0.10699837783589139,-0.003392904648409356
-1.2383865600000001,0.10699837783589139,-0.003392904648409356
-1.2382272,0.10699837783589139,-0.003392904648409356
-1.2380678400000003,0.10699837783589139,-0.003392904648409356
-1.2379084800000002,0.10699837783589139,-0.0030608317473596446
-1.2377491200000001,0.10666825542375628,-0.0030608317473594937
-1.23758976,0.10699837783589139,-0.003392904648409356
-1.2374304,0.10699837783589139,-0.0030608317473594937
-1.23727104,0.10699837783589108,-0.0030608317473594937
-1.23711168,0.10666825542375644,-0.0030608317473594937
-1.23695232,0.10699837783589139,-0.0030608317473594937
-1.23679296,0.10666825542375538,-0.0037249775494597515
-1.2366336000000002,0.10501764336308067,-0.005385342054706132
-1.2364742400000002,0.10369715371453829,-0.006713633658905822
-1.2363148800000001,0.1027067864781317,-0.007709852362055569
