DAQ/testing_accel_4_6/test_full_0041.csv

#Digilent WaveForms Oscilloscope Acquisition
#Device Name: Discovery2
#Serial Number: SN:210321B02866
#Date Time: 2021-04-06 19:02:55.326
#Sample rate: 38343.6Hz
#Samples: 8192
#Trigger: None
#Channel 1: Range: 500 mV/div Offset: -1.15 V Attenuation: 1 X
#Channel 2: Range: 500 mV/div Offset: -1.45 V Attenuation: 1 X
#Power Supplies: ON
#Positive Supply: ON
#Voltage: 3.3 V
#Negative Supply: OFF
#Voltage: -3.3 V

Time (s),Channel 1 (V),Channel 2 (V)
-0.21116975999999998,1.65703696252334,0.9327206034107409
-0.21114368,1.6573670849354751,0.9367054782233357
-0.2111176,1.6580273297597463,0.9406903530359341
-0.21109151999999998,1.658687574584017,0.9450073007495822
-0.21106544,1.659017696996152,0.9489921755621752
-0.21103935999999998,1.659677941820423,0.9536411961768729
-0.21101327999999997,1.6600080642325585,0.958290216791571
-0.21098719999999999,1.6603381866446938,0.9626071645052153
-0.21096112,1.660668309056829,0.9675882580209566
-0.21093504,1.660998431468964,0.972237278635655
-0.21090895999999998,1.6616586762932353,0.9772183721514028
-0.21088288,1.6616586762932353,0.9821994656671464
-0.21085679999999998,1.6619887987053705,0.987512632083944
-0.21083071999999997,1.6623189211175058,0.992825798500742
-0.21080464,1.6623189211175058,0.998138964917535
-0.21077856,1.662649043529641,1.003784204235375
-0.21075247999999996,1.6629791659417767,1.0094294435532307
-0.21072639999999998,1.6629791659417767,1.0154067557721203
-0.21070032,1.6629791659417767,1.0213840679910124
-0.21067423999999998,1.663309288353912,1.02736138020991
-0.21064815999999997,1.663309288353912,1.033338692428808
-0.21062208,1.663309288353912,1.0396480775487495
-0.21059599999999998,1.663309288353912,1.045957462668697
-0.21056991999999997,1.663309288353912,1.0522668477886445
-0.21054383999999998,1.663309288353912,1.0585762329085833
-0.21051776,1.663639410766047,1.0655497638306244
-0.21049168,1.6636394107660473,1.071859148950572
-0.21046559999999997,1.6636394107660473,1.0785006069715695
-0.21043952,1.6636394107660473,1.0854741378936072
-0.21041343999999998,1.6636394107660473,1.0921155959146047
-0.21038735999999997,1.6639695331781825,1.0990891268366518
-0.21036127999999998,1.6636394107660473,1.1060626577586927
-0.2103352,1.6636394107660473,1.1130361886807338
-0.21030912,1.6636394107660473,1.120009719602781
-0.21028303999999998,1.6636394107660473,1.1269832505248285
-0.21025696,1.6636394107660473,1.134620927248965
-0.21023087999999998,1.6636394107660473,1.1415944581710125
-0.21020479999999997,1.6636394107660473,1.1489000619941097
-0.21017871999999999,1.6636394107660473,1.1565377387182496
-0.21015264,1.6633092883539122,1.1638433425413368
-0.21012656,1.663309288353912,1.171813092166533
-0.21010047999999998,1.663309288353912,1.1791186959896303
-0.2100744,1.662979165941777,1.1867563727137702
-0.21004831999999998,1.6629791659417767,1.1947261223389671
-0.21002223999999997,1.6626490435296413,1.2020317261620643
-0.20999616,1.6626490435296413,1.210001475787254
-0.20997008,1.662318921117506,1.2179712254124397
-0.20994399999999996,1.6623189211175056,1.226273047938697
-0.20991791999999998,1.6619887987053705,1.2339107246628336
-0.20989184,1.6616586762932355,1.2415484013869735
-0.20986575999999998,1.6613285538810998,1.2498502239132199
-0.20983967999999997,1.6606683090568293,1.2574879006373672
-0.2098136,1.6606683090568293,1.2657897231636064
-0.20978751999999998,1.6603381866446936,1.2734273998877539
-0.20976143999999997,1.6600080642325576,1.2820612953150492
-0.20973535999999998,1.6593478194082878,1.2896989720391858
-0.20970928,1.6590176969961525,1.2976687216643756
-0.2096832,1.6586875745840168,1.3063026170916716
-0.20965711999999997,1.658027329759746,1.3139402938158191
-0.20963104,1.657697207347611,1.3225741892431038
-0.20960495999999998,1.6567068401112048,1.330543938868301
-0.20957887999999997,1.6563767176990691,1.3388457613945477
-0.20955279999999998,1.656046595286934,1.3471475839207867
-0.20952672,1.6553863504626636,1.3551173335459765
-0.20950064,1.6547261056383926,1.3634191560722229
-0.20947455999999998,1.653405615989851,1.3717209785984696
-0.20944848,1.6527453711655806,1.3800228011247049
-0.20942239999999998,1.6520851263413097,1.3879925507499018
-0.20939631999999997,1.6510947591049032,1.3962943732761486
-0.20937023999999999,1.6501043918684974,1.4045961958023878
-0.20934416,1.6494441470442271,1.4125659454275774
-0.20931808,1.648783902219956,1.420535695052774
-0.20929199999999998,1.64779353498355,1.4285054446779673
-0.20926592,1.6471332901592795,1.4368072672042065
-0.20923983999999998,1.6461429229228732,1.4447770168294034
-0.20921375999999997,1.645482678098602,1.4530788393556497
-0.20918768,1.6444923108621965,1.4607165160797897
-0.2091616,1.6435019436257912,1.4686862657049755
-0.20913551999999996,1.6425115763893836,1.4769880882312332
-0.20910943999999998,1.6418513315651135,1.484957837856419
-0.20908336,1.640860964328708,1.4929275874816086
-0.20905727999999998,1.639540474680166,1.5005652642057556
-0.20903119999999997,1.6388802298558947,1.5088670867320022
-0.20900512,1.6375597402073538,1.5165047634561422
-0.20897903999999998,1.6365693729709472,1.5241424401802892
-0.20895295999999997,1.6355790057345407,1.5321121898054857
-0.20892687999999998,1.6345886384981356,1.5397498665296223
-0.2089008,1.6335982712617299,1.547387543253762
-0.20887471999999999,1.6326079040253234,1.555025219977909
-0.20884863999999997,1.6316175367889165,1.562662896702056
-0.20882256,1.6302970471403766,1.5699685005251431
-0.20879647999999998,1.6296368023161052,1.5779382501503396
-0.20877039999999997,1.6279861902554278,1.5852438539734368
-0.20874431999999998,1.6269958230190222,1.5925494577965271
-0.20871824,1.6260054557826167,1.5998550616196174
-0.20869216,1.62501508854621,1.6071606654427146
-0.20866607999999998,1.6240247213098034,1.6144662692658116
-0.20864,1.6227042316612632,1.6214398001878494
-0.20861391999999998,1.6217138644248565,1.629077476911996
-0.20858783999999997,1.6203933747763148,1.635386862031944
-0.20856175999999998,1.6197331299520443,1.643024538756084
-0.20853568,1.6184126403035035,1.6496659967770753
-0.2085096,1.6174222730670968,1.6566395276991224
-0.20848351999999998,1.616101783418555,1.6632809857201198
-0.20845744,1.6151114161821498,1.669922443741108
-0.20843135999999998,1.6141210489457432,1.6765639017621052
-0.20840527999999997,1.6128005592972012,1.6832053597831027
-0.2083792,1.6118101920607957,1.6901788907051438
-0.20835312,1.6104897024122553,1.6961562029240334
-0.20832703999999996,1.6098294575879823,1.7027976609450386
-0.20830095999999998,1.608508967939442,1.7091070460649775
-0.20827488,1.6071884782909012,1.7154164311849194
-0.20824879999999998,1.6061981110544945,1.7210616705027673
-0.20822271999999997,1.6052077438180878,1.7273710556227146
-0.20819664,1.603887254169547,1.7333483678416068
-0.20817056,1.6025667645210067,1.7393256800604964
-0.20814447999999997,1.6012462748724632,1.7446388464773026
-0.20811839999999998,1.600255907636058,1.7506161586961921
-0.20809232,1.5992655403996523,1.755929325112985
-0.20806623999999999,1.5979450507511104,1.7615745644308327
-0.20804015999999997,1.5966245611025685,1.7665556579465806
-0.20801408,1.5953040714540283,1.771536751462322
-0.20798799999999998,1.5939835818054862,1.7765178449780699
-0.20796191999999997,1.592663092156944,1.7811668655927682
-0.20793583999999998,1.5913426025084032,1.785815886207462
-0.20790976,1.5900221128598624,1.7904649068221559
-0.20788368,1.5887016232113202,1.7951139274368542
-0.20785759999999998,1.587381133562778,1.7990988022494527
-0.20783152,1.5860606439142382,1.803415749963095
-0.20780543999999998,1.584740154265696,1.8074006247756935
-0.20777935999999997,1.5837497870292891,1.8113854995882919
-0.20775327999999998,1.5824292973807483,1.8153703744008867
-0.2077272,1.5811088077322077,1.8186911034113824
-0.20770112,1.5797883180836656,1.822011832421881
-0.20767503999999998,1.5781377060229884,1.8253325614323797
-0.20764896,1.577147338786583,1.8283212175418244
-0.20762287999999998,1.5758268491380412,1.8316419465523228
-0.20759679999999997,1.5745063594894992,1.8342985297607217
-0.20757072,1.5731858698409584,1.8369551129691182
-0.20754464,1.571865380192418,1.839279623276464
-0.20751856,1.5705448905438761,1.8416041335838131
-0.20749247999999998,1.569224400895334,1.8439286438911624
-0.2074664,1.5679039112467932,1.8455890083964104
-0.20744031999999998,1.566583421598251,1.8475814458027093
-0.20741423999999997,1.565262931949709,1.8495738832090083
-0.20738816,1.5639424423011683,1.851234247714256
-0.20736208,1.562621952652628,1.8528946122195031
-0.20733599999999996,1.5616315854162195,1.8542229038237046
-0.20730991999999998,1.5603110957676791,1.8555511954279025
-0.20728384,1.5589906061191385,1.8565474141310512
-0.20725775999999999,1.5576701164705964,1.8575436328342008
-0.20723167999999997,1.5566797492341895,1.8582077786363003
-0.2072056,1.555359259585649,1.8588719244383995
-0.20717951999999998,1.554038769937107,1.8595360702404993
-0.20715343999999997,1.5530484027007005,1.859868143141549
-0.20712735999999998,1.5517279130521597,1.8602002160425983
-0.20710128,1.5507375458157542,1.8602002160425983
-0.2070752,1.5494170561672123,1.8602002160425983
-0.20704911999999998,1.5484266889308058,1.860200216042598
-0.20702304,1.5474363216944007,1.859868143141549
-0.20699695999999998,1.5461158320458588,1.8598681431415487
-0.20697087999999997,1.5454555872215874,1.859203997339449
-0.20694479999999998,1.5441350975730466,1.85853985153735
-0.20691872,1.5428146079245058,1.8578757057352506
-0.20689264,1.5421543631002343,1.857211559933151
-0.20686655999999998,1.5411639958638277,1.8558832683289517
-0.20684048,1.5398435062152875,1.8548870496258034
-0.20681439999999998,1.5388531389788809,1.8538908309226538
-0.20678831999999997,1.5378627717424742,1.8522304664174045
-0.20676223999999999,1.5368724045060687,1.8509021748132064
-0.20673616,1.5358820372696633,1.8492418103079593
-0.20671008,1.5348916700332569,1.84758144580271
-0.20668399999999998,1.5339013027968504,1.8462531541985103
-0.20665792,1.5329109355604447,1.8445927896932626
-0.20663183999999998,1.5322506907361735,1.8426003522869634
-0.20660575999999997,1.531260323499767,1.8406079148806642
-0.20657968,1.5302699562633615,1.8386154774743668
-0.2065536,1.5296097114390912,1.8362909671670211
-0.20652751999999996,1.5286193442026836,1.8336343839586187
-0.20650143999999998,1.5276289769662785,1.8309778007502233
-0.20647536,1.526968732142008,1.8279891446407772
-0.20644927999999999,1.5259783649056016,1.8250004885313285
-0.20642319999999997,1.5253181200813308,1.8216797595208298
-0.20639712,1.5246578752570603,1.8183590305103343
-0.20637103999999998,1.5239976304327894,1.8147062285987858
-0.20634495999999997,1.5233373856085182,1.811053426687237
-0.20631887999999998,1.522677140784248,1.8070685518746439
-0.2062928,1.5223470183721128,1.803083677062049
-0.20626672,1.521686773547842,1.7987667293484009
-0.20624063999999998,1.521026528723571,1.7947818545358023
-0.20621456,1.5203662838993008,1.79046490682216
-0.20618847999999998,1.5200361614871651,1.785815886207462
-0.20616239999999997,1.5193759166628942,1.7811668655927637
-0.20613631999999998,1.5190457942507591,1.7765178449780699
-0.20611024,1.5183855494264886,1.7715367514623264
-0.20608416,1.5180554270143531,1.7665556579465784
-0.20605807999999998,1.5173951821900822,1.7615745644308303
-0.206032,1.5173951821900822,1.7562613980140396
-0.20600591999999998,1.5167349373658117,1.7509482315972418
-0.20597983999999997,1.516404814953676,1.7456350651804438
-0.20595375999999999,1.5160746925415407,1.7399898258626012
-0.20592768,1.5157445701294057,1.734676659445808
-0.2059016,1.5154144477172702,1.7286993472269108
-0.20587551999999998,1.5154144477172702,1.7230541079090655
-0.20584944,1.515084325305135,1.7170767956901734
-0.20582335999999998,1.5147542028929994,1.7110994834712758
-0.20579727999999997,1.514424080480864,1.7047900983513284
-0.2057712,1.514424080480864,1.6988127861324362
-0.20574512,1.514424080480864,1.6925034010124975
-0.20571903999999996,1.5140939580687287,1.6861940158925413
-0.20569295999999998,1.5140939580687287,1.6798846307726025
-0.20566688,1.5137638356565934,1.6732431727516113
-0.20564079999999998,1.5140939580687287,1.6669337876316637
-0.20561471999999997,1.5140939580687287,1.6606244025117158
-0.20558864,1.5140939580687287,1.6539829444907246
-0.20556255999999998,1.5140939580687287,1.6473414864697271
-0.20553647999999997,1.5140939580687287,1.6407000284487296
-0.20551039999999998,1.5140939580687287,1.6337264975266919
-0.20548432,1.5144240804808637,1.6270850395057006
-0.20545824,1.514424080480864,1.6201115085836535
-0.20543215999999997,1.5144240804808642,1.6131379776616064
-0.20540608,1.5147542028929992,1.6061644467395686
-0.20537999999999998,1.5147542028929994,1.5991909158175215
-0.20535391999999997,1.5147542028929997,1.5918853119944245
-0.20532783999999998,1.5150843253051347,1.5849117810723836
-0.20530176,1.51541444771727,1.5779382501503427
-0.20527568,1.5157445701294054,1.5706326463272458
-0.20524959999999998,1.516074692541541,1.5636591154051982
-0.20522352,1.516404814953676,1.5560214386810618
-0.20519743999999998,1.5167349373658117,1.5483837619569147
-0.20517135999999997,1.5170650597779471,1.5410781581338178
-0.20514527999999999,1.5173951821900822,1.5337725543107275
-0.2051192,1.518055427014353,1.526466950487637
-0.20509312,1.5183855494264884,1.51882927376349
-0.20506703999999998,1.5190457942507594,1.511191597039343
-0.20504096,1.5193759166628942,1.5035539203152066
-0.20501487999999998,1.5200361614871651,1.4962483164921094
-0.20498879999999997,1.5203662838993008,1.488278566866913
-0.20496272,1.5210265287235711,1.4809729630438224
-0.20493664,1.5213566511357064,1.4730032134186366
-0.20491055999999996,1.522016895959978,1.4653655366944789
-0.20488447999999998,1.522677140784248,1.4577278599703423
-0.2048584,1.5233373856085186,1.4500901832462023
-0.20483231999999998,1.5239976304327896,1.4421204336210056
-0.20480623999999997,1.5249879976691958,1.4348148297979084
-0.20478016,1.525318120081331,1.4271771530737685
-0.20475408,1.5263084873177362,1.4195394763496318
-0.20472799999999997,1.527298854554144,1.4122338725265242
-0.20470191999999998,1.5282892217905493,1.4045961958023878
-0.20467584,1.5292795890269548,1.3969585190782479
-0.20464976,1.5302699562633615,1.3893208423541008
-0.20462367999999997,1.531590445911903,1.3816831656299537
-0.2045976,1.5322506907361733,1.3740454889058173
-0.20457151999999998,1.533571180384715,1.3667398850827202
-0.20454543999999997,1.5345615476211214,1.3587701354575235
-0.20451935999999998,1.5355519148575272,1.3514645316344331
-0.20449328,1.5362121596817977,1.3434947820092435
-0.2044672,1.5375326493303394,1.3361891781861461
-0.20444111999999998,1.5381928941546106,1.3282194285609497
-0.20441504,1.5395133838031507,1.3209138247378625
-0.20438895999999998,1.5405037510395576,1.312944075112666
-0.20436287999999997,1.541494118275964,1.3056384712895688
-0.20433679999999999,1.5424844855123698,1.2980007945654288
-0.20431072,1.5434748527487754,1.2903631178412889
-0.20428464,1.5444652199851818,1.2830575140181915
-0.20425855999999998,1.5454555872215885,1.2757519101950943
-0.20423248,1.5464459544579936,1.2681142334709579
-0.20420639999999998,1.5474363216944003,1.2604765567468108
-0.20418031999999997,1.548426688930807,1.2531709529237138
-0.20415424,1.5497471785793477,1.2458653491006233
-0.20412816,1.5507375458157528,1.2388918181785857
-0.20410208,1.5517279130521593,1.2312541414544393
-0.20407599999999998,1.5530484027007012,1.2246126834334414
-0.20404992,1.554038769937107,1.2169750067093015
-0.20402383999999998,1.555359259585649,1.210001475787254
-0.20399775999999997,1.5563496268220556,1.2030279448652068
-0.20397168,1.5576701164705964,1.196054413943166
-0.2039456,1.5583303612948665,1.1887488101200787
-0.20391951999999997,1.5596508509434097,1.1821073520990713
-0.20389343999999998,1.56097134059195,1.1751338211770337
-0.20386736,1.5619617078283556,1.1681602902549928
-0.20384127999999999,1.5632821974768976,1.1615188322339953
-0.20381519999999997,1.5642725647133042,1.1548773742129979
-0.20378912,1.565593054361845,1.1482359161920068
-0.20376303999999998,1.566583421598251,1.1415944581710125
-0.20373695999999997,1.567903911246793,1.134953000150015
-0.20371087999999998,1.5688942784831987,1.1283115421290237
-0.2036848,1.5702147681317393,1.1223342299101315
-0.20365872,1.5712051353681462,1.1156927718891345
-0.20363263999999998,1.5728557474288234,1.109383386769187
-0.20360656,1.5738461146652285,1.1027419287481988
-0.20358047999999998,1.5751666043137704,1.0967646165293008
-0.20355439999999997,1.5761569715501773,1.0904552314093534
-0.20352831999999998,1.5774774611987181,1.0848099920915109
-0.20350224,1.5791280732593942,1.0785006069715692
-0.20347616,1.5801184404958009,1.0728553676537211
-0.20345007999999998,1.5814389301443428,1.0668780554348236
-0.203424,1.582429297380748,1.060900743215934
-0.20339791999999998,1.5837497870292898,1.0555875767991358
-0.20337183999999997,1.5847401542656967,1.0496102645802383
-0.20334576,1.5860606439142375,1.0439650252623958
-0.20331968,1.5870510111506426,1.0379877130435062
-0.2032936,1.5883715007991843,1.0323424737256583
-0.20326751999999998,1.589361868035591,1.0270293073088603
-0.20324144,1.5903522352719968,1.0210519950899681
-0.20321535999999998,1.592002847332674,1.0164029744752694
-0.20318927999999997,1.5926630921569453,1.010757735157422
-0.2031632,1.5943137042176214,1.0057766416416785
-0.20313712,1.5953040714540268,1.0007955481259372
-0.20311103999999996,1.5966245611025702,0.9958144546101828
-0.20308495999999998,1.5979450507511104,0.991165433995491
-0.20305888,1.5992655403996512,0.986516413380797
-0.20303279999999999,1.6005860300481933,0.9815353198650492
-0.20300671999999997,1.6015763972846002,0.9768862992503511
-0.20298064,1.6028968869331408,0.9725693515367069
-0.20295455999999998,1.6038872541695477,0.967920330922009
-0.20292847999999997,1.6052077438180894,0.96393545610941
-0.20290239999999998,1.6061981110544945,0.9592864354947181
-0.20287632,1.6075186007030353,0.955633633583173
-0.20285024,1.608508967939442,0.9509846129684753
-0.20282415999999998,1.609829457587984,0.9476638839579764
-0.20279808,1.610819824824389,0.9440110820464329
-0.20277199999999998,1.6118101920607957,0.9400262072338347
-0.20274591999999997,1.6134608041214729,0.9363734053222861
-0.20271983999999998,1.6144511713578784,0.9327206034107409
-0.20269376,1.6157716610064192,0.9297319473012947
-0.20266768,1.616762028242826,0.9260791453897466
-0.20264159999999998,1.6180825178913678,0.9234225621813476
-0.20261552,1.6190728851277731,0.9204339060719027
-0.20258943999999998,1.620393374776315,0.9177773228635037
-0.20256335999999997,1.6213837420127213,0.9151207396551047
-0.20253728,1.6220439868369918,0.9124641564467082
-0.2025112,1.623694598897668,0.9101396461393613
-0.20248512,1.6246849661340743,0.9078151358320132
-0.20245903999999998,1.6260054557826162,0.9058226984257138
-0.20243296,1.6269958230190218,0.9034981881183669
-0.20240687999999998,1.6279861902554282,0.9018378236131173
-0.20238079999999997,1.6293066799039702,0.8998453862068182
-0.20235472,1.630297047140376,0.8981850217015704
-0.20232864,1.631617536788916,0.8965246571963233
-0.20230255999999996,1.6326079040253245,0.8945322197900223
-0.20227647999999998,1.6339283936738649,0.8932039281858246
-0.2022504,1.6349187609102704,0.8915435636805769
-0.20222431999999999,1.635909128146677,0.8902152720763772
-0.20219823999999997,1.6368994953830835,0.8892190533732276
-0.20217216,1.637889862619489,0.8882228346700789
-0.20214607999999998,1.6392103522680308,0.8872266159669293
-0.20211999999999997,1.6398705970923022,0.8862303972637801
-0.20209391999999998,1.6408609643287075,0.8855662514616812
-0.20206784,1.6421814539772481,0.884902105659582
-0.20204176,1.6428416988015195,0.8845700327585321
-0.20201567999999998,1.6438320660379262,0.8842379598574823
-0.2019896,1.6448224332743313,0.8842379598574823
-0.20196351999999998,1.645812800510738,0.8842379598574823
-0.20193743999999997,1.6468031677471442,0.8842379598574827
-0.20191135999999998,1.6474634125714147,0.8849021056595817
-0.20188528,1.6484537798078203,0.8852341785606314
-0.2018592,1.6491140246320914,0.8858983243627309
