DAQ/testing_accel_4_6/test_full_0040.csv

#Digilent WaveForms Oscilloscope Acquisition
#Device Name: Discovery2
#Serial Number: SN:210321B02866
#Date Time: 2021-04-06 19:02:55.104
#Sample rate: 38343.6Hz
#Samples: 8192
#Trigger: None
#Channel 1: Range: 500 mV/div Offset: -1.15 V Attenuation: 1 X
#Channel 2: Range: 500 mV/div Offset: -1.45 V Attenuation: 1 X
#Power Supplies: ON
#Positive Supply: ON
#Voltage: 3.3 V
#Negative Supply: OFF
#Voltage: -3.3 V

Time (s),Channel 1 (V),Channel 2 (V)
-0.21116975999999998,1.6768443072514618,1.0369914943403518
-0.21114368,1.6771744296635969,1.0433008794602936
-0.2111176,1.6768443072514618,1.049610264580241
-0.21109151999999998,1.676844307251462,1.0559196497001886
-0.21106544,1.6771744296635969,1.0622290348201273
-0.21103935999999998,1.6768443072514618,1.0688704928411246
-0.21101327999999997,1.6768443072514618,1.075511950862122
-0.21098719999999999,1.6768443072514618,1.0821534088831133
-0.21096112,1.6765141848393268,1.0887948669041017
-0.21093504,1.6765141848393266,1.0957683978261485
-0.21090895999999998,1.676184062427191,1.1024098558471458
-0.21088288,1.676184062427191,1.109383386769187
-0.21085679999999998,1.6758539400150556,1.1166889905922837
-0.21083071999999997,1.6758539400150554,1.1233304486132814
-0.21080464,1.6755238176029204,1.1306360524363717
-0.21077856,1.6751936951907853,1.1379416562594589
-0.21075247999999996,1.6748635727786494,1.145247260082566
-0.21072639999999998,1.6745334503665141,1.152552863905653
-0.21070032,1.674203327954379,1.1598584677287433
-0.21067423999999998,1.6738732055422436,1.1671640715518405
-0.21064815999999997,1.673543083130108,1.1751338211770372
-0.21062208,1.6732129607179729,1.1827714979011772
-0.21059599999999998,1.6725527158937021,1.1904091746253243
-0.21056991999999997,1.6725527158937012,1.1980468513494715
-0.21054383999999998,1.6715623486572961,1.2060166009746573
-0.21051776,1.6709021038330254,1.2133222047977479
-0.21049168,1.6702418590087547,1.2212919544229444
-0.21046559999999997,1.6695816141844835,1.2285975582460416
-0.21043952,1.6689213693602134,1.2365673078712278
-0.21041343999999998,1.6679310021238072,1.2442049845953747
-0.21038735999999997,1.6672707572995358,1.251510588418472
-0.21036127999999998,1.6662803900631302,1.2594803380436617
-0.2103352,1.6656201452388597,1.2674500876688513
-0.21030912,1.6646297780024535,1.2750877643929983
-0.21028303999999998,1.663639410766047,1.2833895869192449
-0.21025696,1.662979165941777,1.2910272636433813
-0.21023087999999998,1.6619887987053705,1.298997013268578
-0.21020479999999997,1.6613285538810993,1.3072988357948243
-0.21017871999999999,1.6603381866446938,1.3149365125189643
-0.21015264,1.6596779418204237,1.3232383350451997
-0.21012656,1.6586875745840173,1.3312080846703969
-0.21010047999999998,1.6576972073476108,1.3391778342955936
-0.2100744,1.6570369625233403,1.3474796568218328
-0.21004831999999998,1.656046595286934,1.3557814793480794
-0.21002223999999997,1.655386350462663,1.3637512289732763
-0.20999616,1.6543959832262574,1.3720530514995155
-0.20997008,1.653075493577717,1.3800228011247013
-0.20994399999999996,1.6524152487534443,1.388324623650959
-0.20991791999999998,1.6517550039291744,1.3962943732761448
-0.20989184,1.6507646366927688,1.404596195802384
-0.20986575999999998,1.6497742694563622,1.412565945427581
-0.20983967999999997,1.6487839022199555,1.4208677679538273
-0.2098136,1.64779353498355,1.4285054446779673
-0.20978751999999998,1.6468031677471435,1.4368072672042138
-0.20976143999999997,1.6458128005107373,1.444777016829411
-0.20973535999999998,1.645152555686467,1.4530788393556462
-0.20970928,1.6438320660379264,1.4607165160797861
-0.2096832,1.6428416988015195,1.4686862657049828
-0.20965711999999997,1.6421814539772481,1.4766560153301798
-0.20963104,1.6408609643287082,1.4846257649553658
-0.20960495999999998,1.639540474680166,1.491931368778463
-0.20957887999999997,1.6385501074437594,1.4999011184036597
-0.20955279999999998,1.6375597402073538,1.50720672222675
-0.20952672,1.636569372970948,1.5155085447529892
-0.20950064,1.6352488833224064,1.5228141485760867
-0.20947455999999998,1.634588638498135,1.5307838982012834
-0.20944848,1.6329380264374593,1.5384215749254198
-0.20942239999999998,1.6322777816131882,1.5460592516495668
-0.20939631999999997,1.6309572919646462,1.5533648554726642
-0.20937023999999999,1.6299669247282405,1.5613346050978538
-0.20934416,1.628976557491835,1.5686402089209441
-0.20931808,1.6279861902554282,1.576277885645091
-0.20929199999999998,1.6266657006068868,1.5835834894681848
-0.20926592,1.6253452109583462,1.5908890932912751
-0.20923983999999998,1.6243548437219393,1.5981946971143723
-0.20921375999999997,1.6230343540733971,1.605500300937469
-0.20918768,1.6217138644248565,1.6124738318595102
-0.2091616,1.6207234971884512,1.6197794356825972
-0.20913551999999996,1.6194030075399077,1.6267529666046543
-0.20910943999999998,1.6180825178913674,1.6337264975266919
-0.20908336,1.6167620282428268,1.640700028448733
-0.20905727999999998,1.6154415385942846,1.6473414864697302
-0.20903119999999997,1.6137909265336077,1.6543150173917773
-0.20900512,1.6131306817093372,1.6609564754127686
-0.20897903999999998,1.611810192060795,1.667597933433766
-0.20895295999999997,1.610489702412253,1.674239391454763
-0.20892687999999998,1.6091692127637127,1.6805487765747018
-0.2089008,1.6081788455273072,1.687190234595693
-0.20887471999999999,1.6068583558787652,1.693499619715641
-0.20884863999999997,1.605537866230223,1.7001410777366381
-0.20882256,1.604217376581683,1.7064504628565769
-0.20879647999999998,1.6035571317574115,1.7127598479765245
-0.20877039999999997,1.6019065196967341,1.7184050872943726
-0.20874431999999998,1.6005860300481933,1.7247144724143142
-0.20871824,1.5995956628117878,1.7303597117321567
-0.20869216,1.5982751731632459,1.7363370239510543
-0.20866607999999998,1.597284805926839,1.7416501903678525
-0.20864,1.5959643162782988,1.7472954296856922
-0.20861391999999998,1.594643826629757,1.7526085961024904
-0.20858783999999997,1.59365345939335,1.7579217625192882
-0.20856175999999998,1.5923329697448092,1.7632349289360814
-0.20853568,1.5910124800962686,1.7685480953528743
-0.2085096,1.5896919904477265,1.7735291888686224
-0.20848351999999998,1.5887016232113196,1.7785102823843704
-0.20845744,1.5873811335627794,1.783159302999062
-0.20843135999999998,1.5863907663263728,1.7878083236137603
-0.20840527999999997,1.5850702766778308,1.7924573442284586
-0.2083792,1.5840799094414253,1.7971063648431524
-0.20835312,1.5824292973807499,1.8007591667546958
-0.20832703999999996,1.5814389301443412,1.8050761144683491
-0.20830095999999998,1.5801184404958009,1.8090609892809422
-0.20827488,1.57879795084726,1.813045864093537
-0.20824879999999998,1.5774774611987181,1.8163665931040358
-0.20822271999999997,1.576156971550176,1.820019395015584
-0.20819664,1.5748364819016352,1.8230080511250302
-0.20817056,1.5735159922530948,1.8263287801355244
-0.20814447999999997,1.572195502604551,1.8289853633439277
-0.20811839999999998,1.570875012956011,1.8319740194533725
-0.20809232,1.5695545233074701,1.8342985297607195
-0.20806623999999999,1.568234033658928,1.837287185870168
-0.20804015999999997,1.567243666422521,1.8392796232764674
-0.20801408,1.5659231767739812,1.841936206484863
-0.20798799999999998,1.564602687125439,1.8439286438911624
-0.20796191999999997,1.5632821974768971,1.8459210812974614
-0.20793583999999998,1.5622918302404916,1.8475814458027093
-0.20790976,1.5609713405919508,1.8495738832090067
-0.20788368,1.5599809733555439,1.8509021748132064
-0.20785759999999998,1.5589906061191374,1.8522304664174059
-0.20783152,1.558000238882732,1.8538908309226532
-0.20780543999999998,1.5566797492341902,1.854887049625803
-0.20777935999999997,1.5556893819977835,1.856215341230002
-0.20775327999999998,1.5543688923492427,1.8568794870321013
-0.2077272,1.5533785251128371,1.8582077786362994
-0.20770112,1.5520580354642952,1.85853985153735
-0.20767503999999998,1.5510676682278886,1.8592039973394492
-0.20764896,1.5497471785793484,1.8592039973394492
-0.20762287999999998,1.549086933755077,1.8598681431415487
-0.20759679999999997,1.5477664441065353,1.859536070240499
-0.20757072,1.5471061992822648,1.859536070240499
-0.20754464,1.5457857096337244,1.859536070240499
-0.20751856,1.5451254648094528,1.859536070240499
-0.20749247999999998,1.5441350975730466,1.8588719244383995
-0.2074664,1.5431447303366408,1.8585398515373501
-0.20744031999999998,1.5421543631002343,1.8575436328342008
-0.20741423999999997,1.5414941182759632,1.8572115599331505
-0.20738816,1.5405037510395576,1.8562153412300018
-0.20736208,1.5395133838031523,1.854887049625804
-0.20733599999999996,1.53885313897888,1.8538908309226527
-0.20730991999999998,1.5378627717424747,1.852562539318455
-0.20728384,1.5372025269182041,1.8512342477142567
-0.20725775999999999,1.536212159681798,1.8495738832090076
-0.20723167999999997,1.5355519148575267,1.8485776645058576
-0.2072056,1.534561547621121,1.8465852270995602
-0.20717951999999998,1.5342314252089853,1.84558900839641
-0.20715343999999997,1.5332410579725795,1.8432644980890622
-0.20712735999999998,1.532580813148309,1.8416041335838143
-0.20710128,1.5315904459119032,1.8392796232764674
-0.2070752,1.530930201087632,1.837287185870168
-0.20704911999999998,1.5302699562633613,1.8342985297607195
-0.20702304,1.5296097114390907,1.8319740194533736
-0.20699695999999998,1.5292795890269553,1.828985363343925
-0.20697087999999997,1.528289221790549,1.8256646343334266
-0.20694479999999998,1.5276289769662785,1.8226759782239805
-0.20691872,1.526968732142008,1.8190231763124352
-0.20689264,1.5266386097298725,1.8157024473019365
-0.20686655999999998,1.5259783649056013,1.812049645390388
-0.20684048,1.5256482424934665,1.8083968434788442
-0.20681439999999998,1.5246578752570603,1.8040798957651965
-0.20678831999999997,1.52465787525706,1.8004270938536475
-0.20676223999999999,1.5239976304327896,1.7961101461400033
-0.20673616,1.5236675080206543,1.7914611255253114
-0.20671008,1.5230072631963836,1.7868121049106134
-0.20668399999999998,1.522677140784248,1.7824951571969647
-0.20665792,1.5220168959599776,1.7775140636812212
-0.20663183999999998,1.521686773547842,1.7728650430665231
-0.20660575999999997,1.5213566511357064,1.767883949550775
-0.20657968,1.5206964063114359,1.7625707831339819
-0.2065536,1.5203662838993008,1.7572576167171912
-0.20652751999999996,1.520036161487165,1.7519444503003865
-0.20650143999999998,1.5197060390750299,1.7469633567846452
-0.20647536,1.5193759166628946,1.740986044565753
-0.20644927999999999,1.5193759166628944,1.7356728781489548
-0.20642319999999997,1.5190457942507591,1.7296955659300572
-0.20639712,1.5190457942507591,1.7240503266122147
-0.20637103999999998,1.5187156718386237,1.7177409414922677
-0.20634495999999997,1.5187156718386234,1.7124277750754686
-0.20631887999999998,1.5183855494264884,1.7057863170544803
-0.2062928,1.5187156718386234,1.699809004835588
-0.20626672,1.5183855494264884,1.6938316926166905
-0.20624063999999998,1.5183855494264884,1.6871902345956935
-0.20621456,1.5183855494264884,1.681212922376804
-0.20618847999999998,1.5183855494264884,1.674571464355807
-0.20616239999999997,1.5183855494264884,1.6682620792358593
-0.20613631999999998,1.5183855494264884,1.661620621214868
-0.20611024,1.5183855494264884,1.6553112360949265
-0.20608416,1.5183855494264884,1.6483377051728794
-0.20605807999999998,1.5187156718386237,1.6416962471518821
-0.206032,1.5187156718386237,1.634722716229844
-0.20600591999999998,1.5190457942507591,1.6280812582088466
-0.20597983999999997,1.5193759166628944,1.6211077272867993
-0.20595375999999999,1.5193759166628944,1.613802123463709
-0.20592768,1.5197060390750297,1.6071606654427177
-0.2059016,1.5200361614871651,1.5998550616196208
-0.20587551999999998,1.5203662838993006,1.5928815306975768
-0.20584944,1.5203662838993006,1.5855759268744865
-0.20582335999999998,1.5210265287235711,1.5786023959524391
-0.20579727999999997,1.5213566511357068,1.571296792129342
-0.2057712,1.521686773547842,1.5639911883062516
-0.20574512,1.5220168959599771,1.5570176573842138
-0.20571903999999996,1.5223470183721133,1.5493799806600574
-0.20569295999999998,1.5230072631963834,1.5420743768369702
-0.20566688,1.5233373856085186,1.5344367001128303
-0.20564079999999998,1.5239976304327896,1.527131096289733
-0.20561471999999997,1.524327752844925,1.5194934195655863
-0.20558864,1.5249879976691956,1.5121878157424957
-0.20556255999999998,1.5253181200813313,1.5045501390183487
-0.20553647999999997,1.5259783649056022,1.4969124622942023
-0.20551039999999998,1.5266386097298725,1.489606858471115
-0.20548432,1.5272988545541428,1.4816371088459255
-0.20545824,1.5279590993784138,1.474331505022828
-0.20543215999999997,1.5286193442026847,1.466693828298681
-0.20540608,1.529279589026955,1.4590561515745448
-0.20537999999999998,1.529939833851226,1.451086401949348
-0.20535391999999997,1.5306000786754972,1.4431166523241512
-0.20532783999999998,1.5315904459119027,1.4354789756000113
-0.20530176,1.5322506907361733,1.4278412988758713
-0.20527568,1.5329109355604442,1.4198715492506746
-0.20524959999999998,1.5335711803847152,1.4122338725265275
-0.20522352,1.5342314252089855,1.4042641229013415
-0.20519743999999998,1.535221792445392,1.3962943732761448
-0.20517135999999997,1.5358820372696627,1.388324623650948
-0.20514527999999999,1.536212159681798,1.3803548740257585
-0.2051192,1.5372025269182035,1.3727171973016186
-0.20509312,1.53819289415461,1.3650795205774715
-0.20506703999999998,1.5388531389788813,1.356777698051225
-0.20504096,1.5398435062152864,1.3491400213270885
-0.20501487999999998,1.5405037510395576,1.3415023446029417
-0.20498879999999997,1.541494118275964,1.3335325949777448
-0.20496272,1.5424844855123698,1.3255628453525552
-0.20493664,1.5431447303366397,1.3179251686284186
-0.20491055999999996,1.5441350975730475,1.3102874919042609
-0.20488447999999998,1.5451254648094526,1.302317742279075
-0.2048584,1.5461158320458583,1.294680065554935
-0.20483231999999998,1.5471061992822648,1.2867103159297384
-0.20480623999999997,1.5480965665186712,1.2794047121066412
-0.20478016,1.549086933755077,1.2717670353825012
-0.20475408,1.550077300991482,1.2641293586583646
-0.20472799999999997,1.55106766822789,1.2564916819342073
-0.20470191999999998,1.5520580354642952,1.2488540052100707
-0.20467584,1.5530484027007008,1.2412163284859308
-0.20464976,1.5543688923492427,1.2335786517617837
-0.20462367999999997,1.5550291371735139,1.2266051208397362
-0.2045976,1.5560195044099192,1.2189674441156
-0.20457151999999998,1.5573399940584611,1.2116618402925026
-0.20454543999999997,1.5583303612948676,1.2043562364694056
-0.20451935999999998,1.5593207285312731,1.1973827055473647
-0.20449328,1.5603110957676787,1.1904091746253238
-0.2044672,1.5616315854162206,1.1831035708022268
-0.20444111999999998,1.5626219526526273,1.1761300398801797
-0.20441504,1.5636123198890324,1.169156508958142
-0.20438895999999998,1.5649328095375743,1.1621829780360948
-0.20436287999999997,1.5659231767739812,1.1552094471140477
-0.20433679999999999,1.5672436664225218,1.1485679890930565
-0.20431072,1.5682340336589276,1.1419265310720652
-0.20428464,1.5695545233074695,1.134953000150018
-0.20425855999999998,1.5708750129560114,1.1283115421290206
-0.20423248,1.5718653801924165,1.1216700841080325
-0.20420639999999998,1.5731858698409584,1.1153606989880849
-0.20418031999999997,1.5745063594895004,1.1087192409670874
-0.20415424,1.575496726725906,1.1020777829460962
-0.20412816,1.5768172163744463,1.0957683978261574
-0.20410208,1.5781377060229882,1.0897910856072595
-0.20407599999999998,1.5794581956715303,1.0831496275862624
-0.20404992,1.580778685320071,1.07717231536737
-0.20402383999999998,1.5817690525564778,1.0708629302474229
-0.20399775999999997,1.5827594197928845,1.0645535451274757
-0.20397168,1.5840799094414253,1.0585762329085833
-0.2039456,1.5854003990899657,1.0525989206896937
-0.20391951999999997,1.5867208887385091,1.0466216084707884
-0.20389343999999998,1.5877112559749142,1.0409763691529483
-0.20386736,1.589031745623455,1.0349990569340561
-0.20384127999999999,1.5900221128598617,1.0293538176162083
-0.20381519999999997,1.5913426025084039,1.0237085782983604
-0.20378912,1.5926630921569447,1.018063338980518
-0.20376303999999998,1.5936534593933507,1.0127501725637225
-0.20373695999999997,1.5949739490418928,1.007769079047974
-0.20371087999999998,1.5962944386904336,1.0021238397301315
-0.2036848,1.5972848059268392,0.997142746214388
-0.20365872,1.5986052955753811,0.9918295797975905
-0.20363263999999998,1.5999257852239233,0.9868484862818425
-0.20360656,1.6012462748724634,0.9821994656671508
-0.20358047999999998,1.6025667645210055,0.9772183721514028
-0.20355439999999997,1.6035571317574122,0.9729014244377544
-0.20352831999999998,1.604877621405953,0.9682524038230605
-0.20350224,1.6065282334666293,0.9636033832083666
-0.20347616,1.607518600703036,0.9589543625936685
-0.20345007999999998,1.6088390903515781,0.9546374148800202
-0.203424,1.6101595800001183,0.9503204671663779
-0.20339791999999998,1.611149947236525,0.9463355923537793
-0.20337183999999997,1.6128005592972021,0.9423507175411808
-0.20334576,1.613790926533608,0.938365842728586
-0.20331968,1.6151114161821483,0.9347130408170425
-0.2032936,1.616101783418555,0.9310602389054939
-0.20326751999999998,1.6174222730670968,0.9280715827960448
-0.20324144,1.6187427627156377,0.9247508537855492
-0.20321535999999998,1.6197331299520443,0.9214301247750505
-0.20318927999999997,1.6210536196005865,0.9181093957645521
-0.2031632,1.6223741092491273,0.9151207396551059
-0.20313712,1.6233644764855324,0.9124641564467106
-0.20311103999999996,1.6246849661340759,0.9098075732383083
-0.20308495999999998,1.6260054557826162,0.9074830629309625
-0.20305888,1.6269958230190218,0.9048264797225659
-0.20303279999999999,1.6283163126675637,0.9025019694152167
-0.20300671999999997,1.6293066799039704,0.9001774591078678
-0.20298064,1.6306271695525112,0.8981850217015704
-0.20295455999999998,1.6319476592010531,0.8961925842952712
-0.20292847999999997,1.6329380264374598,0.8942001468889722
-0.20290239999999998,1.6342585160860001,0.8925397823837252
-0.20287632,1.635248883322406,0.8908794178784775
-0.20285024,1.6365693729709476,0.8895511262742778
-0.20282415999999998,1.6375597402073545,0.8882228346700783
-0.20279808,1.6388802298558947,0.8868945430658806
-0.20277199999999998,1.6398705970923013,0.8858983243627309
-0.20274591999999997,1.6411910867408432,0.8842379598574819
-0.20271983999999998,1.6421814539772488,0.8832417411543332
-0.20269376,1.6431718212136546,0.882577595352234
-0.20266768,1.644162188450061,0.8815813766490845
-0.20264159999999998,1.6451525556864677,0.8805851579459351
-0.20261552,1.6464730453350078,0.8799210121438363
-0.20258943999999998,1.6474634125714147,0.8792568663417366
-0.20256335999999997,1.6484537798078212,0.8789247934406867
-0.20253728,1.649444147044227,0.8785927205396371
-0.2025112,1.6504345142806325,0.8782606476385876
-0.20248512,1.6514248815170385,0.8782606476385875
-0.20245903999999998,1.652415248753445,0.8782606476385875
-0.20243296,1.6530754935777157,0.8782606476385875
-0.20240687999999998,1.6540658608141219,0.8789247934406869
-0.20238079999999997,1.6550562280505283,0.8792568663417369
-0.20235472,1.656046595286934,0.879921012143836
-0.20232864,1.6567068401112042,0.8805851579459348
-0.20230255999999996,1.6573670849354765,0.8812493037480361
-0.20227647999999998,1.6586875745840168,0.8825775953522337
-0.2022504,1.6593478194082876,0.8835738140553824
-0.20222431999999999,1.6603381866446938,0.8849021056595817
-0.20219823999999997,1.6609984314689648,0.8865624701648311
-0.20217216,1.6619887987053705,0.8882228346700789
-0.20214607999999998,1.6626490435296417,0.8898831991753282
-0.20211999999999997,1.663639410766048,0.8915435636805779
-0.20209391999999998,1.6642996555903182,0.8935360010868744
-0.20206784,1.6652900228267238,0.8961925842952708
-0.20204176,1.6662803900631302,0.8985170946026201
-0.20201567999999998,1.6669406348874014,0.9011736778110192
-0.2019896,1.6679310021238067,0.904162333920464
-0.20196351999999998,1.6689213693602132,0.906818917128863
-0.20193743999999997,1.6695816141844841,0.909807573238312
-0.20191135999999998,1.67057198142089,0.9131283022488076
-0.20188528,1.6712322262451604,0.9161169583582537
-0.2018592,1.6722225934815667,0.919769760269802
