DAQ/testing_accel_4_6/test_full_0061.csv

#Digilent WaveForms Oscilloscope Acquisition
#Device Name: Discovery2
#Serial Number: SN:210321B02866
#Date Time: 2021-04-06 19:02:59.724
#Sample rate: 38343.6Hz
#Samples: 8192
#Trigger: None
#Channel 1: Range: 500 mV/div Offset: -1.15 V Attenuation: 1 X
#Channel 2: Range: 500 mV/div Offset: -1.45 V Attenuation: 1 X
#Power Supplies: ON
#Positive Supply: ON
#Voltage: 3.3 V
#Negative Supply: OFF
#Voltage: -3.3 V

Time (s),Channel 1 (V),Channel 2 (V)
-0.21116975999999998,1.6481236573956854,0.9572939980884199
-0.21114368,1.6484537798078205,0.9612788729010147
-0.2111176,1.648783902219956,0.9659278935157125
-0.21109151999999998,1.6491140246320917,0.9702448412293609
-0.21106544,1.649774269456362,0.9748938618440527
-0.21103935999999998,1.6501043918684974,0.9795428824587509
-0.21101327999999997,1.6504345142806331,0.9841919030734492
-0.21098719999999999,1.6507646366927684,0.9891729965891927
-0.21096112,1.6510947591049034,0.9938220172038845
-0.21093504,1.6517550039291742,0.9988031107196322
-0.21090895999999998,1.651424881517039,1.0037842042353802
-0.21088288,1.6517550039291742,1.0094294435532227
-0.21085679999999998,1.6520851263413097,1.014410537068971
-0.21083071999999997,1.6524152487534451,1.020055776386819
-0.21080464,1.6527453711655804,1.0257010157046613
-0.21077856,1.6527453711655804,1.031014182121452
-0.21075247999999996,1.6530754935777159,1.0366594214393072
-0.21072639999999998,1.6530754935777159,1.0423046607571473
-0.21070032,1.653405615989851,1.0482819729760395
-0.21067423999999998,1.6530754935777159,1.054259285194937
-0.21064815999999997,1.6534056159898511,1.0605686703148844
-0.21062208,1.6534056159898511,1.0665459825337766
-0.21059599999999998,1.6534056159898511,1.0731874405547734
-0.21056991999999997,1.6534056159898514,1.0788326798726224
-0.21054383999999998,1.6537357384019864,1.0858062107946602
-0.21051776,1.6537357384019864,1.0921155959146018
-0.21049168,1.6537357384019864,1.098757053935599
-0.21046559999999997,1.6537357384019866,1.1053985119565963
-0.21043952,1.6540658608141217,1.1123720428786343
-0.21041343999999998,1.6537357384019864,1.1190135008996318
-0.21038735999999997,1.6537357384019862,1.1256549589206293
-0.21036127999999998,1.6534056159898511,1.1329605627437198
-0.2103352,1.6534056159898511,1.139602020764711
-0.21030912,1.6534056159898511,1.1472396974888577
-0.21028303999999998,1.6534056159898511,1.1538811555098554
-0.21025696,1.6534056159898511,1.1615188322339918
-0.21023087999999998,1.6530754935777159,1.1681602902549897
-0.21020479999999997,1.6530754935777157,1.1761300398801862
-0.21017871999999999,1.6527453711655804,1.1834356437032767
-0.21015264,1.6527453711655804,1.1910733204274133
-0.21012656,1.6524152487534451,1.1983789242505105
-0.21010047999999998,1.652415248753445,1.2060166009746573
-0.2100744,1.6520851263413099,1.2136542776987973
-0.21004831999999998,1.6517550039291744,1.2212919544229444
-0.21002223999999997,1.6517550039291742,1.2289296311470914
-0.20999616,1.651424881517039,1.2365673078712314
-0.20997008,1.6510947591049039,1.2445370574964172
-0.20994399999999996,1.650434514280633,1.2521747342205753
-0.20991791999999998,1.650434514280633,1.2601444838457612
-0.20989184,1.6501043918684977,1.2674500876688515
-0.20986575999999998,1.6497742694563622,1.2754198372940482
-0.20983967999999997,1.6494441470442267,1.2830575140181952
-0.2098136,1.6491140246320914,1.2913593365444345
-0.20978751999999998,1.6484537798078205,1.2986649403675319
-0.20976143999999997,1.6481236573956848,1.3066346899927284
-0.20973535999999998,1.6474634125714147,1.3142723667168648
-0.20970928,1.6471332901592795,1.322574189243104
-0.2096832,1.6464730453350085,1.3298797930662016
-0.20965711999999997,1.6458128005107378,1.3378495426913983
-0.20963104,1.6454826780986027,1.3454872194155347
-0.20960495999999998,1.645152555686467,1.353789041941781
-0.20957887999999997,1.6444923108621963,1.3614267186659283
-0.20955279999999998,1.644162188450061,1.3697285411921676
-0.20952672,1.6435019436257905,1.3773662179163075
-0.20950064,1.6428416988015195,1.3853359675415042
-0.20947455999999998,1.642511576389384,1.393305717166701
-0.20944848,1.6418513315651138,1.4009433938908373
-0.20942239999999998,1.641521209152978,1.4092452164170837
-0.20939631999999997,1.6408609643287073,1.4168828931412307
-0.20937023999999999,1.6402007195044366,1.4248526427664203
-0.20934416,1.6395404746801663,1.4324903194905603
-0.20931808,1.6388802298558953,1.440460069115757
-0.20929199999999998,1.6382199850316246,1.4480977458399005
-0.20926592,1.6378898626194893,1.45606749546509
-0.20923983999999998,1.6372296177952186,1.4633730992881875
-0.20921375999999997,1.6365693729709474,1.4713428489133842
-0.20918768,1.635909128146677,1.4793125985385738
-0.2091616,1.635248883322407,1.4872823481637598
-0.20913551999999996,1.634258516086,1.4945879519868683
-0.20910943999999998,1.6339283936738649,1.5028897745131038
-0.20908336,1.6329380264374591,1.510195378336194
-0.20905727999999998,1.6326079040253234,1.5181651279613906
-0.20903119999999997,1.631617536788917,1.5258028046855376
-0.20900512,1.631287414376782,1.5337725543107275
-0.20897903999999998,1.6302970471403757,1.5410781581338246
-0.20895295999999997,1.6296368023161043,1.5487158348579713
-0.20892687999999998,1.628646435079699,1.5560214386810582
-0.2089008,1.6279861902554285,1.5636591154051982
-0.20887471999999999,1.6266657006068868,1.5706326463272458
-0.20884863999999997,1.626335578194751,1.5786023959524422
-0.20882256,1.625345210958346,1.5852438539734304
-0.20879647999999998,1.6243548437219393,1.5925494577965271
-0.20877039999999997,1.6236945988976685,1.599855061619624
-0.20874431999999998,1.6233644764855333,1.6071606654427146
-0.20871824,1.6220439868369925,1.6138021234637059
-0.20869216,1.621383742012721,1.6214398001878525
-0.20866607999999998,1.6203933747763146,1.6280812582088497
-0.20864,1.6194030075399093,1.6350547891308878
-0.20861391999999998,1.6184126403035028,1.6416962471518852
-0.20858783999999997,1.6177523954792317,1.6490018509749815
-0.20856175999999998,1.616762028242826,1.6549791631938737
-0.20853568,1.6161017834185556,1.6619526941159146
-0.2085096,1.614781293770014,1.668594152136912
-0.20848351999999998,1.6141210489457427,1.67490353725686
-0.20845744,1.6131306817093376,1.681544995277848
-0.20843135999999998,1.612140314472931,1.6878543803977957
-0.20840527999999997,1.6111499472365245,1.6941637655177433
-0.2083792,1.610159580000119,1.700473150637685
-0.20835312,1.6091692127637136,1.7064504628565744
-0.20832703999999996,1.6081788455273056,1.7124277750754797
-0.20830095999999998,1.6068583558787652,1.7180730143933198
-0.20827488,1.6061981110544947,1.724050326612212
-0.20824879999999998,1.604877621405953,1.72969556593006
-0.20822271999999997,1.6038872541695466,1.7356728781489572
-0.20819664,1.6028968869331408,1.7409860445657503
-0.20817056,1.6019065196967357,1.7466312838835905
-0.20814447999999997,1.6009161524603275,1.7519444503003954
-0.20811839999999998,1.5995956628117873,1.7569255438161366
-0.20809232,1.5986052955753816,1.7615745644308305
-0.20806623999999999,1.5972848059268396,1.7668877308476283
-0.20804015999999997,1.596294438690433,1.7712046785612767
-0.20801408,1.5949739490418928,1.776185772077018
-0.20798799999999998,1.5939835818054862,1.7805027197906664
-0.20796191999999997,1.5929932145690795,1.7848196675043146
-0.20793583999999998,1.5916727249205387,1.7888045423169094
-0.20790976,1.590682357684133,1.7931214900305539
-0.20788368,1.589361868035591,1.7971063648431524
-0.20785759999999998,1.5883715007991843,1.8010912396557506
-0.20783152,1.5870510111506442,1.8044119686662445
-0.20780543999999998,1.5860606439142375,1.8083968434788427
-0.20777935999999997,1.5847401542656956,1.8117175724893413
-0.20775327999999998,1.5837497870292898,1.8153703744008867
-0.2077272,1.582429297380749,1.818359030510333
-0.20770112,1.5814389301443423,1.8213476866197817
-0.20767503999999998,1.5801184404958004,1.8240042698281806
-0.20764896,1.5791280732593953,1.8269929259376254
-0.20762287999999998,1.5778075836108534,1.829317436244975
-0.20759679999999997,1.5764870939623115,1.8323060923544232
-0.20757072,1.575496726725906,1.8342985297607206
-0.20754464,1.5741762370773655,1.8369551129691157
-0.20751856,1.5728557474288236,1.8386154774743662
-0.20749247999999998,1.571865380192417,1.840607914880665
-0.2074664,1.5705448905438761,1.842268279385913
-0.20744031999999998,1.5698846457196047,1.844260716792212
-0.20741423999999997,1.5682340336589278,1.845589008396412
-0.20738816,1.5675737888346573,1.8475814458027093
-0.20736208,1.5662532991861169,1.848245591604808
-0.20733599999999996,1.5652629319497084,1.8495738832090083
-0.20730991999999998,1.5639424423011683,1.850238029011107
-0.20728384,1.5629520750647625,1.8512342477142556
-0.20725775999999999,1.5616315854162206,1.8518983935163555
-0.20723167999999997,1.5609713405919494,1.8525625393184553
-0.2072056,1.5596508509434086,1.8528946122195047
-0.20717951999999998,1.5589906061191372,1.8535587580216042
-0.20715343999999997,1.557670116470596,1.8535587580216042
-0.20712735999999998,1.5566797492341902,1.8535587580216042
-0.20710128,1.5556893819977846,1.8532266851205546
-0.2070752,1.5543688923492427,1.8528946122195047
-0.20704911999999998,1.5533785251128363,1.852230466417405
-0.20702304,1.5523881578764311,1.8515663206153061
-0.20699695999999998,1.5513977906400245,1.8509021748132064
-0.20697087999999997,1.550407423403618,1.8499059561100568
-0.20694479999999998,1.5494170561672123,1.8489097374069081
-0.20691872,1.5484266889308067,1.8479135187037594
-0.20689264,1.5474363216944003,1.8465852270995602
-0.20686655999999998,1.5464459544579936,1.8449248625943109
-0.20684048,1.5454555872215885,1.8435965709901132
-0.20681439999999998,1.5444652199851818,1.8419362064848641
-0.20678831999999997,1.5438049751609109,1.8406079148806644
-0.20676223999999999,1.542814607924505,1.8389475503754165
-0.20673616,1.5418242406881,1.8372871858701696
-0.20671008,1.5408338734516933,1.8352947484638706
-0.20668399999999998,1.5401736286274224,1.833634383958621
-0.20665792,1.5391832613910166,1.8313098736512743
-0.20663183999999998,1.53819289415461,1.8286532904428754
-0.20660575999999997,1.5372025269182037,1.8259967072344765
-0.20657968,1.5365422820939332,1.82334012402608
-0.2065536,1.535882037269663,1.8203514679166353
-0.20652751999999996,1.5348916700332558,1.8170307389061322
-0.20650143999999998,1.5342314252089857,1.813710009895638
-0.20647536,1.5332410579725801,1.8103892808851425
-0.20644927999999999,1.532580813148309,1.8064044060725444
-0.20642319999999997,1.5315904459119025,1.8027516041609957
-0.20639712,1.5312603234997675,1.7987667293484009
-0.20637103999999998,1.5302699562633613,1.7947818545358023
-0.20634495999999997,1.5299398338512251,1.790464906822154
-0.20631887999999998,1.52894946661482,1.7861479591085117
-0.2062928,1.5282892217905495,1.7818310113948674
-0.20626672,1.5276289769662785,1.7771819907801694
-0.20624063999999998,1.5269687321420076,1.772532970165471
-0.20621456,1.5266386097298728,1.7678839495507797
-0.20618847999999998,1.5259783649056016,1.7629028560350315
-0.20616239999999997,1.5253181200813308,1.7579217625192836
-0.20613631999999998,1.5246578752570603,1.75294066900354
-0.20611024,1.5239976304327898,1.7476275025867472
-0.20608416,1.523667508020654,1.7419822632688995
-0.20605807999999998,1.5230072631963831,1.7366690968521012
-0.206032,1.5226771407842483,1.7310238575342614
-0.20600591999999998,1.5220168959599774,1.7257106911174633
-0.20597983999999997,1.5216867735478419,1.7197333788985658
-0.20595375999999999,1.5210265287235711,1.7140881395807233
-0.20592768,1.520696406311436,1.7084429002628807
-0.2059016,1.5203662838993006,1.7024655880439832
-0.20587551999999998,1.5200361614871651,1.6964882758250883
-0.20584944,1.51970603907503,1.6905109636061961
-0.20582335999999998,1.5193759166628944,1.6842015784862487
-0.20579727999999997,1.5190457942507591,1.6778921933663014
-0.2057712,1.5190457942507591,1.6715828082463595
-0.20574512,1.5187156718386239,1.6652734231264208
-0.20571903999999996,1.5187156718386234,1.6589640380064645
-0.20569295999999998,1.5183855494264884,1.6526546528865258
-0.20566688,1.5180554270143534,1.6460131948655345
-0.20564079999999998,1.5180554270143531,1.639371736844537
-0.20561471999999997,1.5180554270143531,1.6327302788235396
-0.20558864,1.5180554270143531,1.6260888208025484
-0.20556255999999998,1.5180554270143531,1.619447362781551
-0.20553647999999997,1.518055427014353,1.6124738318595042
-0.20551039999999998,1.5177253046022177,1.6058323738385158
-0.20548432,1.5177253046022177,1.5988588429164747
-0.20545824,1.5177253046022177,1.5918853119944276
-0.20543215999999997,1.5177253046022179,1.5849117810723803
-0.20540608,1.518055427014353,1.5776061772492933
-0.20537999999999998,1.5177253046022177,1.5709647192282956
-0.20535391999999997,1.5177253046022179,1.5639911883062483
-0.20532783999999998,1.5180554270143531,1.5566855844831577
-0.20530176,1.5183855494264882,1.5497120535611169
-0.20527568,1.5183855494264884,1.5424064497380199
-0.20524959999999998,1.5187156718386237,1.535100845914923
-0.20522352,1.5187156718386237,1.5277952420918357
-0.20519743999999998,1.5190457942507591,1.5204896382687387
-0.20517135999999997,1.5193759166628946,1.5131840344456415
-0.20514527999999999,1.5197060390750299,1.5058784306225512
-0.2051192,1.520036161487165,1.4982407538984113
-0.20509312,1.5203662838993006,1.4909351500753139
-0.20506703999999998,1.5203662838993008,1.4836295462522169
-0.20504096,1.5206964063114357,1.4763239424291297
-0.20501487999999998,1.5213566511357066,1.4690183386060327
-0.20498879999999997,1.5216867735478423,1.4613806618818859
-0.20496272,1.5223470183721126,1.4540750580587953
-0.20493664,1.5226771407842479,1.446437381334659
-0.20491055999999996,1.523007263196384,1.4387997046105019
-0.20488447999999998,1.523667508020654,1.4314941007874147
-0.2048584,1.5239976304327894,1.4241884969643244
-0.20483231999999998,1.5246578752570603,1.4162187473391277
-0.20480623999999997,1.5249879976691958,1.4089131435160305
-0.20478016,1.5256482424934663,1.4012754667918905
-0.20475408,1.5263084873177364,1.393637790067754
-0.20472799999999997,1.5269687321420085,1.3860001133435969
-0.20470191999999998,1.5276289769662785,1.3786945095205099
-0.20467584,1.528289221790549,1.37105683279637
-0.20464976,1.52894946661482,1.3634191560722229
-0.20462367999999997,1.5296097114390907,1.355781479348076
-0.2045976,1.5302699562633613,1.348475875524989
-0.20457151999999998,1.530930201087632,1.3408381988008422
-0.20454543999999997,1.5315904459119032,1.3332005220766954
-0.20451935999999998,1.532580813148309,1.325894918253605
-0.20449328,1.5332410579725795,1.3185893144305145
-0.2044672,1.5339013027968504,1.3112837106074173
-0.20444111999999998,1.5345615476211214,1.3036460338832705
-0.20441504,1.5355519148575267,1.296008357159134
-0.20438895999999998,1.5358820372696624,1.2890348262370865
-0.20436287999999997,1.536872404506069,1.2813971495129397
-0.20433679999999999,1.5378627717424747,1.2740915456898492
-0.20431072,1.5385230165667452,1.2671180147678083
-0.20428464,1.5395133838031514,1.2598124109447113
-0.20425855999999998,1.5401736286274228,1.252174734220565
-0.20423248,1.541163995863828,1.2452012032985271
-0.20420639999999998,1.5421543631002343,1.2378955994754302
-0.20418031999999997,1.5428146079245055,1.2309220685533828
-0.20415424,1.5438049751609113,1.2236164647302923
-0.20412816,1.5444652199851812,1.2166429338082547
-0.20410208,1.5454555872215876,1.2093373299851577
-0.20407599999999998,1.5467760768701295,1.2026958719641603
-0.20404992,1.5474363216944,1.1953902681410697
-0.20402383999999998,1.5487568113429417,1.1884167372190224
-0.20399775999999997,1.5497471785793482,1.181775279198025
-0.20397168,1.5507375458157537,1.174801748275984
-0.2039456,1.5517279130521588,1.1678282173539465
-0.20391951999999997,1.5523881578764318,1.1611867593329397
-0.20389343999999998,1.553708647524972,1.1545453013119513
-0.20386736,1.5546990147613777,1.14790384329096
-0.20384127999999999,1.5556893819977842,1.1412623852699628
-0.20381519999999997,1.557009871646326,1.1346209272489653
-0.20378912,1.5580002388827316,1.127979469227974
-0.20376303999999998,1.5589906061191379,1.1216700841080294
-0.20373695999999997,1.5603110957676796,1.1156927718891316
-0.20371087999999998,1.5613014630040853,1.10938338676919
-0.2036848,1.5629520750647614,1.1034060745502976
-0.20365872,1.5639424423011683,1.0974287623314
-0.20363263999999998,1.5655930543618455,1.0917835230135524
-0.20360656,1.5665834215982506,1.0861382836957125
-0.20358047999999998,1.5679039112467925,1.0801609714768148
-0.20355439999999997,1.5692244008953344,1.0745157321589671
-0.20352831999999998,1.57021476813174,1.068538419940075
-0.20350224,1.5715352577802808,1.0628931806222324
-0.20347616,1.5725256250166877,1.0572479413043845
-0.20345007999999998,1.5738461146652296,1.0516027019865368
-0.203424,1.5751666043137698,1.0462895355697464
-0.20339791999999998,1.576487093962312,1.040312223350849
-0.20337183999999997,1.5778075836108538,1.035331129835101
-0.20334576,1.5787979508472594,1.0300179634183078
-0.20331968,1.5804485629079348,1.024704797001517
-0.2032936,1.581438930144342,1.0193916305847193
-0.20326751999999998,1.5824292973807483,1.014410537068971
-0.20324144,1.5837497870292891,1.0097615164542773
-0.20321535999999998,1.584740154265696,1.005112495839579
-0.20318927999999997,1.586060643914238,1.000131402323831
-0.2031632,1.5870510111506435,0.9954823817091373
-0.20313712,1.5883715007991839,0.9908333610944455
-0.20311103999999996,1.589361868035592,0.9861843404797414
-0.20308495999999998,1.5906823576841325,0.9818673927660989
-0.20305888,1.5916727249205382,0.977218372151405
-0.20303279999999999,1.5929932145690802,0.9732334973388063
-0.20300671999999997,1.5939835818054868,0.9692486225262079
-0.20298064,1.5953040714540276,0.965263747713613
-0.20295455999999998,1.5969546835147048,0.9616109458020644
-0.20292847999999997,1.5979450507511115,0.9576260709894666
-0.20290239999999998,1.5992655403996519,0.9543053419789724
-0.20287632,1.6005860300481927,0.9506525400674272
-0.20285024,1.6015763972845996,0.9469997381558787
-0.20282415999999998,1.6028968869331415,0.9443431549474794
-0.20279808,1.6042173765816816,0.9410224259369854
-0.20277199999999998,1.6052077438180885,0.9380337698275364
-0.20274591999999997,1.6065282334666304,0.9350451137180875
-0.20271983999999998,1.607518600703036,0.9320564576086414
-0.20269376,1.6088390903515768,0.929399874400245
-0.20266768,1.610159580000119,0.9270753640928957
-0.20264159999999998,1.6108198248243901,0.9240867079834474
-0.20261552,1.6121403144729303,0.9220942705771509
-0.20258943999999998,1.6134608041214724,0.919769760269802
-0.20256335999999997,1.614451171357879,0.917445249962453
-0.20253728,1.61577166100642,0.9154528125561556
-0.2025112,1.6167620282428257,0.9134603751498582
-0.20248512,1.6180825178913667,0.9118000106446096
-0.20245903999999998,1.6190728851277736,0.9104717190404099
-0.20243296,1.6203933747763144,0.908811354535162
-0.20240687999999998,1.621383742012721,0.9074830629309625
-0.20238079999999997,1.6227042316612632,0.9064868442278128
-0.20235472,1.624024721309804,0.9051585526236144
-0.20232864,1.6253452109583444,0.9041623339204662
-0.20230255999999996,1.6263355781947524,0.9031661152173153
-0.20227647999999998,1.6273259454311577,0.902169896514167
-0.2022504,1.6286464350796983,0.9015057507120678
-0.20222431999999999,1.6296368023161052,0.9005095320089184
-0.20219823999999997,1.6306271695525116,0.8998453862068186
-0.20217216,1.6316175367889172,0.8991812404047196
-0.20214607999999998,1.6326079040253239,0.89851709460262
-0.20211999999999997,1.6335982712617303,0.8981850217015704
-0.20209391999999998,1.6345886384981356,0.8981850217015704
-0.20206784,1.6355790057345412,0.8978529488005208
-0.20204176,1.6365693729709476,0.8981850217015704
-0.20201567999999998,1.6375597402073543,0.8985170946026201
-0.2019896,1.6385501074437594,0.8985170946026201
-0.20196351999999998,1.6398705970923013,0.8991812404047196
-0.20193743999999997,1.6405308419165723,0.8998453862068193
-0.20191135999999998,1.6411910867408428,0.9005095320089184
-0.20188528,1.6425115763893836,0.9011736778110175
-0.2018592,1.6428416988015195,0.902169896514167
