DAQ/testing_accel_4_6/test_full_0034.csv

#Digilent WaveForms Oscilloscope Acquisition
#Device Name: Discovery2
#Serial Number: SN:210321B02866
#Date Time: 2021-04-06 19:02:53.784
#Sample rate: 38343.6Hz
#Samples: 8192
#Trigger: None
#Channel 1: Range: 500 mV/div Offset: -1.15 V Attenuation: 1 X
#Channel 2: Range: 500 mV/div Offset: -1.45 V Attenuation: 1 X
#Power Supplies: ON
#Positive Supply: ON
#Voltage: 3.3 V
#Negative Supply: OFF
#Voltage: -3.3 V

Time (s),Channel 1 (V),Channel 2 (V)
-0.21116975999999998,1.6679310021238072,0.9649316748125634
-0.21114368,1.6682611245359422,0.9699127683283069
-0.2111176,1.6685912469480777,0.9752259347451046
-0.21109151999999998,1.668591246948078,0.9798749553598031
-0.21106544,1.668921369360213,0.9855201946776432
-0.21103935999999998,1.6685912469480777,0.9908333610944413
-0.21101327999999997,1.6692514917723484,0.9961465275112391
-0.21098719999999999,1.6689213693602132,1.001459693928032
-0.21096112,1.6692514917723484,1.007769079047971
-0.21093504,1.6689213693602134,1.0127501725637202
-0.21090895999999998,1.6692514917723487,1.0190595576836672
-0.21088288,1.6689213693602134,1.0247047970015095
-0.21085679999999998,1.6689213693602132,1.031014182121457
-0.21083071999999997,1.6689213693602132,1.036659421439305
-0.21080464,1.6689213693602132,1.0429688065592466
-0.21077856,1.668591246948078,1.0492781916791856
-0.21075247999999996,1.6682611245359424,1.0555875767991416
-0.21072639999999998,1.6682611245359424,1.0618969619190806
-0.21070032,1.6679310021238074,1.0682063470390222
-0.21067423999999998,1.6679310021238072,1.075179877961069
-0.21064815999999997,1.6676008797116717,1.0814892630810171
-0.21062208,1.6676008797116717,1.0887948669041076
-0.21059599999999998,1.667270757299536,1.095436324925105
-0.21056991999999997,1.6669406348874007,1.1024098558471522
-0.21054383999999998,1.6666105124752657,1.10938338676919
-0.21051776,1.6662803900631304,1.116356917691231
-0.21049168,1.6659502676509947,1.123330448613278
-0.21046559999999997,1.6656201452388593,1.130636052436375
-0.21043952,1.664959900414589,1.1379416562594622
-0.21041343999999998,1.6646297780024535,1.1452472600825594
-0.21038735999999997,1.664299655590318,1.152884936806706
-0.21036127999999998,1.6639695331781827,1.1601905406297965
-0.2103352,1.6633092883539122,1.1678282173539365
-0.21030912,1.663309288353912,1.1754658940780836
-0.21028303999999998,1.662649043529641,1.1834356437032802
-0.21025696,1.6619887987053708,1.1910733204274166
-0.21023087999999998,1.6616586762932353,1.1987109971515637
-0.21020479999999997,1.660998431468964,1.2066807467767604
-0.21017871999999999,1.6603381866446938,1.21465049640195
-0.21015264,1.6600080642325585,1.2229523189281855
-0.21012656,1.659347819408288,1.2309220685533826
-0.21010047999999998,1.6590176969961523,1.2388918181785793
-0.2100744,1.6583574521718818,1.2468615678037689
-0.21004831999999998,1.6576972073476108,1.2551633903300154
-0.21002223999999997,1.6573670849354751,1.263465212856262
-0.20999616,1.6567068401112048,1.2717670353825012
-0.20997008,1.6560465952869348,1.2800688579087365
-0.20994399999999996,1.6553863504626627,1.2883706804349946
-0.20991791999999998,1.6547261056383926,1.2966725029612298
-0.20989184,1.654065860814122,1.304974325487469
-0.20986575999999998,1.6537357384019864,1.3136082209147655
-0.20983967999999997,1.6527453711655802,1.321910043441012
-0.2098136,1.652415248753445,1.3302118659672513
-0.20978751999999998,1.6517550039291742,1.338513688493498
-0.20976143999999997,1.651094759104903,1.3471475839207943
-0.20973535999999998,1.650434514280633,1.3554494064470297
-0.20970928,1.6494441470442274,1.3640833018743184
-0.2096832,1.648783902219956,1.3723851244005651
-0.20965711999999997,1.648123657395685,1.3806869469268122
-0.20963104,1.6471332901592797,1.3893208423540968
-0.20960495999999998,1.6464730453350085,1.3976226648803436
-0.20957887999999997,1.6458128005107375,1.4059244874065904
-0.20955279999999998,1.6448224332743318,1.4142263099328294
-0.20952672,1.6441621884500612,1.422860205360118
-0.20950064,1.643171821213655,1.4308299549853154
-0.20947455999999998,1.6421814539772484,1.439131777511562
-0.20944848,1.6411910867408432,1.4474336000377974
-0.20942239999999998,1.640530841916572,1.4560674954650936
-0.20939631999999997,1.6395404746801656,1.4640372450902905
-0.20937023999999999,1.6385501074437598,1.4720069947154801
-0.20934416,1.6375597402073543,1.4806408901427688
-0.20931808,1.6365693729709476,1.488610639767966
-0.20929199999999998,1.6352488833224064,1.496912462294209
-0.20926592,1.6345886384981358,1.5048822119193985
-0.20923983999999998,1.6335982712617294,1.5128519615445952
-0.20921375999999997,1.632607904025323,1.520821711169792
-0.20918768,1.6316175367889172,1.5284593878939319
-0.2091616,1.630627169552512,1.5367612104201673
-0.20913551999999996,1.6293066799039688,1.544730960045375
-0.20910943999999998,1.6283163126675637,1.5523686367695115
-0.20908336,1.6273259454311582,1.5600063134936515
-0.20905727999999998,1.6263355781947515,1.5676439902177983
-0.20903119999999997,1.6250150885462096,1.5752816669419454
-0.20900512,1.624024721309804,1.583251416567135
-0.20897903999999998,1.6233644764855326,1.5905570203902324
-0.20895295999999997,1.622043986836991,1.5981946971143792
-0.20892687999999998,1.6210536196005858,1.6058323738385158
-0.2089008,1.62006325236418,1.6131379776616062
-0.20887471999999999,1.6187427627156383,1.6204435814847034
-0.20884863999999997,1.6177523954792314,1.6280812582088497
-0.20882256,1.6164319058306913,1.6350547891308878
-0.20879647999999998,1.6154415385942846,1.6423603929539845
-0.20877039999999997,1.6141210489457427,1.6496659967770815
-0.20874431999999998,1.6131306817093372,1.6566395276991224
-0.20871824,1.6118101920607963,1.6636130586211633
-0.20869216,1.6108198248243895,1.6702545166421607
-0.20866607999999998,1.6094993351758473,1.6772280475642078
-0.20864,1.6081788455273074,1.683869505585196
-0.20861391999999998,1.6071884782909005,1.6905109636061935
-0.20858783999999997,1.6058679886423584,1.697152421627191
-0.20856175999999998,1.6045474989938175,1.703793879648182
-0.20853568,1.603557131757412,1.7101032647681238
-0.2085096,1.6025667645210055,1.7164126498880714
-0.20848351999999998,1.6009161524603284,1.7223899621069692
-0.20845744,1.6002559076360583,1.7286993472269079
-0.20843135999999998,1.5989354179875166,1.7346766594458056
-0.20840527999999997,1.5976149283389744,1.7406539716647034
-0.2083792,1.5962944386904336,1.7466312838835956
-0.20835312,1.5953040714540285,1.7522765232014355
-0.20832703999999996,1.593983581805485,1.7579217625192907
-0.20830095999999998,1.5926630921569447,1.7632349289360814
-0.20827488,1.5913426025084039,1.7685480953528743
-0.20824879999999998,1.5903522352719972,1.7738612617696723
-0.20822271999999997,1.5890317456234553,1.7788423552854202
-0.20819664,1.5880413783870497,1.7838234488011637
-0.20817056,1.5867208887385094,1.788804542316905
-0.20814447999999997,1.5854003990899657,1.7934535629316097
-0.20811839999999998,1.5840799094414253,1.7981025835463016
-0.20809232,1.5830895422050197,1.8024195312599458
-0.20806623999999999,1.5817690525564778,1.8070685518746439
-0.20804015999999997,1.580778685320071,1.8113854995882919
-0.20801408,1.579458195671531,1.815370374400885
-0.20798799999999998,1.5784678284351241,1.8193552492134835
-0.20796191999999997,1.5774774611987175,1.823008051125032
-0.20793583999999998,1.5761569715501766,1.8269929259376267
-0.20790976,1.5748364819016358,1.8303136549481225
-0.20788368,1.573846114665229,1.833634383958621
-0.20785759999999998,1.572525625016687,1.8372871858701694
-0.20783152,1.5708750129560116,1.8402758419796141
-0.20780543999999998,1.5698846457196047,1.843264498089063
-0.20777935999999997,1.5685641560710626,1.8459210812974618
-0.20775327999999998,1.5672436664225218,1.8485776645058585
-0.2077272,1.5662532991861162,1.8515663206153046
-0.20770112,1.5649328095375743,1.8538908309226538
-0.20767503999999998,1.5636123198890322,1.855883268328953
-0.20764896,1.5622918302404922,1.8578757057352495
-0.20762287999999998,1.5613014630040853,1.8602002160425983
-0.20759679999999997,1.5599809733555434,1.8615285076467982
-0.20757072,1.5589906061191379,1.8635209450530956
-0.20754464,1.5576701164705975,1.8648492366572933
-0.20751856,1.5563496268220556,1.8661775282614925
-0.20749247999999998,1.5550291371735134,1.8671737469646426
-0.2074664,1.5537086475249726,1.8681699656677913
-0.20744031999999998,1.552718280288566,1.8691661843709408
-0.20741423999999997,1.551397790640024,1.8701624030740902
-0.20738816,1.5504074234036185,1.8708265488761895
-0.20736208,1.549086933755078,1.871158621777239
-0.20733599999999996,1.5480965665186697,1.8714906946782894
-0.20730991999999998,1.5467760768701295,1.8721548404803883
-0.20728384,1.5457857096337237,1.8718227675793389
-0.20725775999999999,1.5444652199851818,1.8718227675793386
-0.20723167999999997,1.5434748527487752,1.8714906946782883
-0.2072056,1.541824240688099,1.8704944759751396
-0.20717951999999998,1.5408338734516922,1.8701624030740895
-0.20715343999999997,1.5391832613910155,1.8691661843709402
-0.20712735999999998,1.5378627717424747,1.8678378927667418
-0.20710128,1.536872404506069,1.8668416740635931
-0.2070752,1.5355519148575272,1.865181309558344
-0.20704911999999998,1.534231425208985,1.8638530179541446
-0.20702304,1.5329109355604449,1.8621926534488973
-0.20699695999999998,1.5319205683240382,1.8605322889436482
-0.20697087999999997,1.530600078675496,1.8588719244383989
-0.20694479999999998,1.5292795890269553,1.857211559933151
-0.20691872,1.5286193442026847,1.8555511954279031
-0.20689264,1.527298854554143,1.8535587580216042
-0.20686655999999998,1.5263084873177366,1.8518983935163547
-0.20684048,1.5253181200813315,1.8499059561100581
-0.20681439999999998,1.5243277528449248,1.847913518703759
-0.20678831999999997,1.5236675080206536,1.8459210812974596
-0.20676223999999999,1.522677140784248,1.843264498089063
-0.20673616,1.521686773547843,1.8409399877817172
-0.20671008,1.5206964063114363,1.8379513316722687
-0.20668399999999998,1.5200361614871651,1.8346306026617702
-0.20665792,1.5193759166628946,1.8319740194533736
-0.20663183999999998,1.5180554270143531,1.8283212175418257
-0.20660575999999997,1.5177253046022172,1.8246684156302773
-0.20657968,1.5167349373658117,1.8210156137187319
-0.2065536,1.5160746925415414,1.8170307389061389
-0.20652751999999996,1.51541444771727,1.8130458640935347
-0.20650143999999998,1.5150843253051347,1.8087289163798923
-0.20647536,1.5144240804808642,1.804411968666248
-0.20644927999999999,1.5140939580687287,1.8000950209525999
-0.20642319999999997,1.5134337132444577,1.7957780732389512
-0.20639712,1.5131035908323227,1.7911290526242574
-0.20637103999999998,1.5124433460080515,1.7864800320095588
-0.20634495999999997,1.511783101183781,1.781166865592761
-0.20631887999999998,1.5114529787716457,1.7758536991759706
-0.2062928,1.5107927339473752,1.770872605660227
-0.20626672,1.5104626115352398,1.7655594392434293
-0.20624063999999998,1.510132489123104,1.760246272826631
-0.20621456,1.5094722442988338,1.7546010335087914
-0.20618847999999998,1.5094722442988335,1.749619939993043
-0.20616239999999997,1.509142121886698,1.7436426277741455
-0.20613631999999998,1.5088119994745628,1.737997388456303
-0.20611024,1.5084818770624278,1.7326842220395098
-0.20608416,1.5084818770624275,1.7267069098206125
-0.20605807999999998,1.5084818770624273,1.7203975247006653
-0.206032,1.5081517546502925,1.7144202124817758
-0.20600591999999998,1.5081517546502923,1.708442900262878
-0.20597983999999997,1.5078216322381568,1.7021335151429307
-0.20595375999999999,1.5078216322381568,1.6958241300229888
-0.20592768,1.5074915098260215,1.6891826720019976
-0.2059016,1.5078216322381568,1.68287328688205
-0.20587551999999998,1.5078216322381568,1.675899755960006
-0.20584944,1.5074915098260215,1.6692582979390147
-0.20582335999999998,1.5078216322381568,1.6626168399180172
-0.20579727999999997,1.5074915098260215,1.6553112360949205
-0.2057712,1.5078216322381568,1.6486697780739292
-0.20574512,1.5078216322381568,1.6416962471518917
-0.20571903999999996,1.5078216322381575,1.6343906433287854
-0.20569295999999998,1.5084818770624275,1.627749185307797
-0.20566688,1.5084818770624275,1.6204435814847067
-0.20564079999999998,1.5088119994745628,1.6134700505626594
-0.20561471999999997,1.5091421218866983,1.6064965196406118
-0.20558864,1.5091421218866983,1.5991909158175215
-0.20556255999999998,1.5094722442988338,1.5918853119944245
-0.20553647999999997,1.5101324891231043,1.584911781072377
-0.20551039999999998,1.5101324891231043,1.57760617724929
-0.20548432,1.5104626115352395,1.5703005734261994
-0.20545824,1.510792733947375,1.5626628967020526
-0.20543215999999997,1.5111228563595107,1.5550252199779055
-0.20540608,1.511783101183781,1.5473875432537691
-0.20537999999999998,1.5121132235959165,1.5397498665296223
-0.20535391999999997,1.5127734684201875,1.532444262706525
-0.20532783999999998,1.5131035908323227,1.524806585982385
-0.20530176,1.5134337132444577,1.5168368363571954
-0.20527568,1.5140939580687287,1.5091991596330483
-0.20524959999999998,1.515084325305135,1.5015614829089012
-0.20522352,1.51541444771727,1.4935917332837152
-0.20519743999999998,1.5160746925415407,1.486286129460618
-0.20517135999999997,1.5167349373658119,1.4786484527364707
-0.20514527999999999,1.5173951821900822,1.4703466302102315
-0.2051192,1.518385549426488,1.4627089534860915
-0.20509312,1.5187156718386237,1.4547392038608948
-0.20506703999999998,1.51970603907503,1.4471015271367478
-0.20504096,1.5203662838993004,1.4391317775115617
-0.20501487999999998,1.5210265287235711,1.431162027886365
-0.20498879999999997,1.5216867735478425,1.4231922782611683
-0.20496272,1.522677140784248,1.4155546015370284
-0.20493664,1.5233373856085182,1.4075848519118426
-0.20491055999999996,1.5243277528449255,1.3996151022866345
-0.20488447999999998,1.5249879976691956,1.3916453526614487
-0.2048584,1.5259783649056011,1.3840076759373088
-0.20483231999999998,1.5269687321420078,1.376037926312112
-0.20480623999999997,1.527628976966279,1.3680681766869154
-0.20478016,1.5286193442026845,1.3604304999627754
-0.20475408,1.5296097114390896,1.3524607503375896
-0.20472799999999997,1.5302699562633624,1.3441589278113324
-0.20470191999999998,1.5312603234997675,1.3365212510871958
-0.20467584,1.532250690736173,1.328883574363056
-0.20464976,1.5332410579725797,1.3205817518368095
-0.20462367999999997,1.5342314252089861,1.3129440751126624
-0.2045976,1.5352217924453915,1.305306398388526
-0.20457151999999998,1.536212159681798,1.2973366487633293
-0.20454543999999997,1.5372025269182046,1.2896989720391825
-0.20451935999999998,1.5385230165667454,1.2823933682160922
-0.20449328,1.539513383803151,1.2744236185909026
-0.2044672,1.5405037510395576,1.2667859418667555
-0.20444111999999998,1.5418242406880995,1.259480338043658
-0.20441504,1.5428146079245046,1.2518426613195217
-0.20438895999999998,1.5438049751609113,1.2442049845953747
-0.20436287999999997,1.5451254648094532,1.2368993807722775
-0.20433679999999999,1.546445954457994,1.2292617040481375
-0.20431072,1.5474363216943998,1.2219561002250472
-0.20428464,1.5484266889308063,1.21465049640195
-0.20425855999999998,1.5500773009914834,1.2073448925788528
-0.20423248,1.5510676682278888,1.2000392887557658
-0.20420639999999998,1.5523881578764307,1.1930657578337185
-0.20418031999999997,1.5537086475249726,1.186092226911671
-0.20415424,1.5550291371735134,1.1787866230885806
-0.20412816,1.5563496268220538,1.1721451650675923
-0.20410208,1.5576701164705957,1.1651716341455454
-0.20407599999999998,1.5589906061191379,1.158530176124548
-0.20404992,1.5603110957676785,1.151556645202507
-0.20402383999999998,1.5616315854162206,1.14458311428046
-0.20399775999999997,1.5626219526526275,1.1379416562594624
-0.20397168,1.5639424423011683,1.1313001982384712
-0.2039456,1.5655930543618435,1.1246587402174828
-0.20391951999999997,1.5665834215982521,1.118017282196477
-0.20389343999999998,1.5679039112467925,1.111707897076538
-0.20386736,1.5692244008953333,1.105398511956596
-0.20384127999999999,1.5705448905438755,1.0990891268366487
-0.20381519999999997,1.5718653801924176,1.0927797417167013
-0.20378912,1.5735159922530937,1.0864703565967595
-0.20376303999999998,1.5745063594895,1.0801609714768148
-0.20373695999999997,1.5758268491380418,1.0741836592579173
-0.20371087999999998,1.5771473387865826,1.068206347039025
-0.2036848,1.5784678284351235,1.0618969619190834
-0.20365872,1.5797883180836656,1.0562517226012353
-0.20363263999999998,1.5811088077322077,1.0502744103823378
-0.20360656,1.5824292973807477,1.0442970981634483
-0.20358047999999998,1.5837497870292898,1.0386518588456004
-0.20355439999999997,1.585070276677832,1.0333386924288024
-0.20352831999999998,1.5863907663263728,1.02736138020991
-0.20350224,1.5877112559749136,1.0217161408920674
-0.20347616,1.5887016232113202,1.0164029744752694
-0.20345007999999998,1.5900221128598624,1.0110898080584716
-0.203424,1.5913426025084025,1.005776641641681
-0.20339791999999998,1.5929932145690802,1.0004634752248829
-0.20337183999999997,1.5939835818054868,0.9954823817091351
-0.20334576,1.5953040714540276,0.9905012881933914
-0.20331968,1.596624561102568,0.985188121776601
-0.2032936,1.5976149283389747,0.9805391011619021
-0.20326751999999998,1.5992655403996519,0.9758900805472039
-0.20324144,1.6002559076360576,0.9709089870314604
-0.20321535999999998,1.6015763972845996,0.9662599664167622
-0.20318927999999997,1.6028968869331415,0.9619430187031139
-0.2031632,1.6042173765816823,0.9576260709894696
-0.20313712,1.6052077438180876,0.9533091232758272
-0.20311103999999996,1.606528233466631,0.949324248463223
-0.20308495999999998,1.6078487231151712,0.9453393736506301
-0.20305888,1.609169212763712,0.9413544988380352
-0.20303279999999999,1.6104897024122542,0.9377016969264866
-0.20300671999999997,1.6114800696486609,0.9333847492128388
-0.20298064,1.6128005592972017,0.9300640202023431
-0.20295455999999998,1.6137909265336083,0.9264112182907946
-0.20292847999999997,1.6147812937700154,0.9227584163792464
-0.20290239999999998,1.6164319058306906,0.9194376873687522
-0.20287632,1.6174222730670964,0.9164490312593061
-0.20285024,1.6187427627156383,0.9134603751498573
-0.20282415999999998,1.6200632523641803,0.9104717190404086
-0.20279808,1.6213837420127204,0.9074830629309638
-0.20277199999999998,1.6227042316612625,0.9048264797225647
-0.20274591999999997,1.6240247213098042,0.9025019694152154
-0.20271983999999998,1.6246849661340748,0.899845386206819
-0.20269376,1.6263355781947508,0.8978529488005216
-0.20266768,1.6273259454311577,0.8958605113942224
-0.20264159999999998,1.6286464350796994,0.8935360010868736
-0.20261552,1.6296368023161047,0.8918756365816266
-0.20258943999999998,1.6306271695525112,0.8898831991753274
-0.20256335999999997,1.6319476592010531,0.8882228346700785
-0.20253728,1.6329380264374587,0.8872266159669298
-0.2025112,1.6339283936738644,0.8852341785606324
-0.20248512,1.6349187609102704,0.8842379598574828
-0.20245903999999998,1.635909128146677,0.8829096682532834
-0.20243296,1.637229617795218,0.8819134495501347
-0.20240687999999998,1.6382199850316246,0.8812493037480349
-0.20238079999999997,1.6392103522680312,0.8802530850448854
-0.20235472,1.640530841916572,0.8795889392427862
-0.20232864,1.6415212091529772,0.8789247934406874
-0.20230255999999996,1.6425115763893854,0.8782606476385871
-0.20227647999999998,1.6438320660379258,0.8779285747375377
-0.2022504,1.6448224332743313,0.8772644289354385
-0.20222431999999999,1.645812800510738,0.8769323560343886
-0.20219823999999997,1.646473045335009,0.8769323560343886
-0.20217216,1.6474634125714147,0.8769323560343886
-0.20214607999999998,1.6484537798078212,0.8769323560343887
-0.20211999999999997,1.6494441470442278,0.8772644289354385
-0.20209391999999998,1.650434514280633,0.877596501836488
-0.20206784,1.6514248815170385,0.8782606476385871
-0.20204176,1.6520851263413097,0.8785927205396371
-0.20201567999999998,1.6530754935777163,0.8795889392427866
-0.2019896,1.6540658608141214,0.8802530850448854
-0.20196351999999998,1.6547261056383926,0.8815813766490845
-0.20193743999999997,1.655716472874799,0.8825775953522342
-0.20191135999999998,1.6563767176990694,0.8839058869564326
-0.20188528,1.657367084935475,0.8852341785606309
-0.2018592,1.6576972073476108,0.8865624701648304
