DAQ/testing_accel_4_6/test_full_0028.csv

#Digilent WaveForms Oscilloscope Acquisition
#Device Name: Discovery2
#Serial Number: SN:210321B02866
#Date Time: 2021-04-06 19:02:52.464
#Sample rate: 38343.6Hz
#Samples: 8192
#Trigger: None
#Channel 1: Range: 500 mV/div Offset: -1.15 V Attenuation: 1 X
#Channel 2: Range: 500 mV/div Offset: -1.45 V Attenuation: 1 X
#Power Supplies: ON
#Positive Supply: ON
#Voltage: 3.3 V
#Negative Supply: OFF
#Voltage: -3.3 V

Time (s),Channel 1 (V),Channel 2 (V)
-0.21116975999999998,1.6666105124752657,1.1100475325712893
-0.21114368,1.6666105124752657,1.1173531363943798
-0.2111176,1.6659502676509947,1.1239945944153775
-0.21109151999999998,1.6659502676509945,1.1309681253374249
-0.21106544,1.6656201452388597,1.138273729160512
-0.21103935999999998,1.6652900228267242,1.145579332983609
-0.21101327999999997,1.665290022826724,1.152884936806706
-0.21098719999999999,1.6646297780024535,1.1601905406297965
-0.21096112,1.6649599004145885,1.1678282173539332
-0.21093504,1.6642996555903184,1.1751338211770304
-0.21090895999999998,1.6639695331781827,1.1834356437032767
-0.21088288,1.6633092883539122,1.1910733204274166
-0.21085679999999998,1.663309288353912,1.1990430700526133
-0.21083071999999997,1.6629791659417765,1.2066807467767604
-0.21080464,1.6626490435296413,1.21465049640195
-0.21077856,1.662318921117506,1.2226202460271358
-0.21075247999999996,1.661658676293235,1.2305899956523438
-0.21072639999999998,1.6613285538810998,1.2388918181785793
-0.21070032,1.6606683090568295,1.2465294949027192
-0.21067423999999998,1.6603381866446938,1.2548313174289656
-0.21064815999999997,1.6596779418204228,1.262801067054163
-0.21062208,1.6593478194082878,1.2714349624814516
-0.21059599999999998,1.6586875745840166,1.2790726392055989
-0.21056991999999997,1.658027329759746,1.2877065346328949
-0.21054383999999998,1.6576972073476108,1.2956762842580807
-0.21051776,1.6570369625233403,1.30397810678432
-0.21049168,1.656046595286934,1.3122799293105665
-0.21046559999999997,1.6553863504626631,1.3202496789357638
-0.21043952,1.6547261056383928,1.3288835743630485
-0.21041343999999998,1.6540658608141219,1.3365212510871958
-0.21038735999999997,1.653405615989851,1.345155146514492
-0.21036127999999998,1.6527453711655804,1.3531248961396818
-0.2103352,1.6520851263413099,1.3614267186659208
-0.21030912,1.6510947591049037,1.3697285411921676
-0.21028303999999998,1.6504345142806327,1.3776982908173647
-0.21025696,1.6497742694563624,1.3863321862446494
-0.21023087999999998,1.648783902219956,1.3943019358698465
-0.21020479999999997,1.648123657395685,1.402935831297143
-0.21017871999999999,1.6471332901592792,1.411237653823382
-0.21015264,1.6464730453350092,1.4195394763496174
-0.21012656,1.645482678098603,1.4275092259748146
-0.21010047999999998,1.6444923108621965,1.4354789756000113
-0.2100744,1.643832066037926,1.4437807981262505
-0.21004831999999998,1.6428416988015195,1.4517505477514474
-0.21002223999999997,1.6421814539772481,1.460052370277694
-0.20999616,1.6408609643287075,1.4676900470018337
-0.20997008,1.6402007195044372,1.4756597966270197
-0.20994399999999996,1.6392103522680295,1.4836295462522275
-0.20991791999999998,1.637889862619489,1.4915992958774134
-0.20989184,1.6368994953830835,1.499569045502603
-0.20986575999999998,1.635909128146677,1.50720672222675
-0.20983967999999997,1.6349187609102704,1.5155085447529966
-0.2098136,1.6339283936738649,1.5231462214771365
-0.20978751999999998,1.632938026437458,1.5311159711023332
-0.20976143999999997,1.6316175367889163,1.53875364782648
-0.20973535999999998,1.6306271695525112,1.5463913245506165
-0.20970928,1.6296368023161056,1.5540290012747564
-0.2096832,1.628646435079699,1.5616666779989035
-0.20965711999999997,1.6276560678432923,1.5693043547230503
-0.20963104,1.6263355781947522,1.5766099585461375
-0.20960495999999998,1.6253452109583455,1.5842476352702841
-0.20957887999999997,1.6240247213098036,1.591221166192332
-0.20955279999999998,1.6230343540733978,1.5991909158175215
-0.20952672,1.6217138644248572,1.6061644467395624
-0.20950064,1.620393374776315,1.6134700505626594
-0.20947455999999998,1.6190728851277731,1.6204435814847067
-0.20944848,1.6180825178913678,1.6277491853077937
-0.20942239999999998,1.6170921506549614,1.634722716229841
-0.20939631999999997,1.6157716610064194,1.6416962471518886
-0.20937023999999999,1.614781293770014,1.6490018509749789
-0.20934416,1.6137909265336083,1.6553112360949207
-0.20931808,1.6124704368850664,1.6622847670169676
-0.20929199999999998,1.611149947236525,1.6692582979390116
-0.20926592,1.6101595800001194,1.6755676830589532
-0.20923983999999998,1.6091692127637127,1.6825412139810003
-0.20921375999999997,1.6078487231151708,1.6888505991009477
-0.20918768,1.6068583558787652,1.6951599842208895
-0.2091616,1.6055378662302249,1.7014693693408283
-0.20913551999999996,1.6045474989938164,1.7077787544607839
-0.20910943999999998,1.6032270093452763,1.7137560666796736
-0.20908336,1.6022366421088705,1.7200654517996152
-0.20905727999999998,1.6009161524603286,1.7263748369195628
-0.20903119999999997,1.599595662811787,1.7320200762374107
-0.20900512,1.5986052955753811,1.7383294613573526
-0.20897903999999998,1.597284805926839,1.7439747006752004
-0.20895295999999997,1.5959643162782973,1.7499520128940975
-0.20892687999999998,1.5949739490418922,1.755265179310888
-0.2089008,1.593323336981216,1.7609104186287305
-0.20887471999999999,1.5923329697448092,1.7665556579465784
-0.20884863999999997,1.5910124800962675,1.7712046785612772
-0.20882256,1.5900221128598622,1.776849917879117
-0.20879647999999998,1.5887016232113202,1.781166865592766
-0.20877039999999997,1.587381133562778,1.7864800320095635
-0.20874431999999998,1.5860606439142375,1.7911290526242574
-0.20871824,1.5847401542656967,1.7954460003379018
-0.20869216,1.5837497870292898,1.8000950209525999
-0.20866607999999998,1.5824292973807477,1.8040798957651984
-0.20864,1.5811088077322077,1.8083968434788407
-0.20861391999999998,1.5801184404958009,1.8123817182914392
-0.20858783999999997,1.5787979508472587,1.8160345202029877
-0.20856175999999998,1.5774774611987181,1.819687322114533
-0.20853568,1.5761569715501773,1.8230080511250286
-0.2085096,1.5751666043137704,1.8263287801355275
-0.20848351999999998,1.573515992253093,1.8296495091460259
-0.20845744,1.5721955026045529,1.8326381652554706
-0.20843135999999998,1.570875012956011,1.8356268213649194
-0.20840527999999997,1.569554523307469,1.8382834045733183
-0.2083792,1.5685641560710633,1.840939987781715
-0.20835312,1.566913544010388,1.8432644980890607
-0.20832703999999996,1.5659231767739794,1.8459210812974625
-0.20830095999999998,1.564602687125439,1.847913518703759
-0.20827488,1.5632821974768982,1.8499059561100564
-0.20824879999999998,1.561961707828356,1.8518983935163555
-0.20822271999999997,1.560641218179814,1.8535587580216049
-0.20819664,1.5593207285312731,1.8552191225268526
-0.20817056,1.5580002388827328,1.8565474141310505
-0.20814447999999997,1.5566797492341893,1.8578757057352513
-0.20811839999999998,1.5556893819977842,1.8588719244383995
-0.20809232,1.554038769937108,1.8598681431415482
-0.20806623999999999,1.5530484027007012,1.8608643618446978
-0.20804015999999997,1.5517279130521593,1.8615285076467976
-0.20801408,1.5507375458157542,1.8621926534488964
-0.20798799999999998,1.5494170561672123,1.8625247263499465
-0.20796191999999997,1.5480965665186703,1.8628567992509963
-0.20793583999999998,1.5471061992822648,1.8635209450530956
-0.20790976,1.5461158320458592,1.8635209450530956
-0.20788368,1.5447953423973173,1.8635209450530956
-0.20785759999999998,1.5438049751609109,1.8635209450530954
-0.20783152,1.5428146079245055,1.863188872152046
-0.20780543999999998,1.5414941182759636,1.8628567992509961
-0.20777935999999997,1.5405037510395572,1.8621926534488964
-0.20775327999999998,1.5395133838031514,1.8615285076467973
-0.2077272,1.5385230165667458,1.8611964347457477
-0.20770112,1.5375326493303394,1.8602002160425983
-0.20767503999999998,1.5365422820939327,1.8592039973394487
-0.20764896,1.5355519148575276,1.8582077786363005
-0.20762287999999998,1.534561547621121,1.8568794870321013
-0.20759679999999997,1.5335711803847143,1.855219122526852
-0.20757072,1.5322506907361735,1.8538908309226538
-0.20754464,1.5315904459119034,1.8525625393184562
-0.20751856,1.5306000786754972,1.850902174813207
-0.20749247999999998,1.5296097114390905,1.8492418103079578
-0.2074664,1.528619344202685,1.84758144580271
-0.20744031999999998,1.5276289769662785,1.8459210812974607
-0.20741423999999997,1.5269687321420076,1.8439286438911613
-0.20738816,1.526308487317737,1.8416041335838143
-0.20736208,1.525318120081332,1.8396116961775177
-0.20733599999999996,1.5243277528449242,1.8369551129691155
-0.20730991999999998,1.523667508020654,1.8339664568596707
-0.20728384,1.5230072631963836,1.8309778007502246
-0.20725775999999999,1.5220168959599774,1.8276570717397262
-0.20723167999999997,1.5213566511357062,1.8243363427292276
-0.2072056,1.5203662838993006,1.8206835408176822
-0.20717951999999998,1.5197060390750297,1.8170307389061335
-0.20715343999999997,1.519045794250759,1.813045864093537
-0.20712735999999998,1.5183855494264884,1.8090609892809422
-0.20710128,1.5177253046022179,1.8047440415672977
-0.2070752,1.517065059777947,1.8007591667546992
-0.20704911999999998,1.5167349373658114,1.7964422190410507
-0.20702304,1.516074692541541,1.791793198426359
-0.20699695999999998,1.5154144477172702,1.7871441778116608
-0.20697087999999997,1.5147542028929992,1.7821630842959129
-0.20694479999999998,1.514424080480864,1.777514063681219
-0.20691872,1.514093958068729,1.7725329701654755
-0.20689264,1.513433713244458,1.7675518766497276
-0.20686655999999998,1.5131035908323225,1.7625707831339792
-0.20684048,1.5127734684201875,1.7569255438161393
-0.20681439999999998,1.5121132235959165,1.751944450300391
-0.20678831999999997,1.511783101183781,1.746299210982543
-0.20676223999999999,1.5111228563595105,1.7406539716647007
-0.20673616,1.5111228563595105,1.7350087323468604
-0.20671008,1.51046261153524,1.729031420127963
-0.20668399999999998,1.5104626115352398,1.7233861808101154
-0.20665792,1.5101324891231045,1.7174088685912232
-0.20663183999999998,1.509802366710969,1.7114315563723255
-0.20660575999999997,1.5098023667109688,1.7051221712523783
-0.20657968,1.5094722442988335,1.699144859033486
-0.2065536,1.5091421218866985,1.6928354739135472
-0.20652751999999996,1.509142121886698,1.6865260887935911
-0.20650143999999998,1.5088119994745628,1.6802167036736522
-0.20647536,1.5088119994745628,1.6739073185537106
-0.20644927999999999,1.5084818770624275,1.6672658605327133
-0.20642319999999997,1.5081517546502923,1.6606244025117158
-0.20639712,1.5081517546502923,1.653650871589675
-0.20637103999999998,1.5081517546502923,1.6470094135686775
-0.20634495999999997,1.508151754650292,1.6403679555476796
-0.20631887999999998,1.5078216322381568,1.6330623517245926
-0.2062928,1.5078216322381568,1.6264208937036013
-0.20626672,1.5081517546502923,1.6194473627815542
-0.20624063999999998,1.5081517546502923,1.612141758958457
-0.20621456,1.5081517546502923,1.60483615513537
-0.20618847999999998,1.5084818770624275,1.5978626242133225
-0.20616239999999997,1.5081517546502925,1.5905570203902255
-0.20613631999999998,1.5088119994745628,1.583251416567135
-0.20611024,1.5088119994745628,1.5759458127440447
-0.20608416,1.5088119994745628,1.5683081360198978
-0.20605807999999998,1.5091421218866985,1.5610025321968006
-0.206032,1.5094722442988333,1.5533648554726642
-0.20600591999999998,1.509802366710969,1.5460592516495668
-0.20597983999999997,1.5098023667109692,1.53842157492542
-0.20595375999999999,1.5101324891231043,1.5311159711023297
-0.20592768,1.5104626115352395,1.52314622147714
-0.2059016,1.510792733947375,1.515508544752993
-0.20587551999999998,1.5111228563595105,1.5075387951277996
-0.20584944,1.5114529787716455,1.49990111840366
-0.20582335999999998,1.5117831011837812,1.491931368778463
-0.20579727999999997,1.5121132235959167,1.4839616191532663
-0.2057712,1.5127734684201872,1.4763239424291263
-0.20574512,1.5134337132444573,1.4683541928039405
-0.20571903999999996,1.513763835656594,1.4603844431787332
-0.20569295999999998,1.514424080480864,1.4527467664545965
-0.20566688,1.5147542028929992,1.444777016829407
-0.20564079999999998,1.5154144477172702,1.4368072672042103
-0.20561471999999997,1.516074692541541,1.4285054446779637
-0.20558864,1.5164048149536762,1.420535695052774
-0.20556255999999998,1.5170650597779471,1.412898018328627
-0.20553647999999997,1.5177253046022179,1.4049282687034301
-0.20551039999999998,1.5180554270143531,1.3969585190782443
-0.20548432,1.5190457942507587,1.388656696552005
-0.20545824,1.5193759166628944,1.3806869469268082
-0.20543215999999997,1.5200361614871656,1.3727171973016115
-0.20540608,1.5210265287235707,1.3647474476764252
-0.20537999999999998,1.521686773547842,1.3567776980512285
-0.20535391999999997,1.522347018372113,1.3488079484260318
-0.20532783999999998,1.5233373856085188,1.3411702717018918
-0.20530176,1.5239976304327894,1.3332005220767023
-0.20527568,1.5249879976691956,1.3252307724515056
-0.20524959999999998,1.5256482424934668,1.3175930957273585
-0.20522352,1.526638609729872,1.3096233461021725
-0.20519743999999998,1.527298854554143,1.3019856693780254
-0.20517135999999997,1.5279590993784142,1.2940159197528287
-0.20514527999999999,1.52894946661482,1.2863782430286888
-0.2051192,1.5296097114390903,1.2787405663045488
-0.20509312,1.5306000786754967,1.2711028895804017
-0.20506703999999998,1.5315904459119032,1.2634652128562547
-0.20504096,1.5325808131483085,1.2554954632310686
-0.20501487999999998,1.5332410579725797,1.2478577865069216
-0.20498879999999997,1.5342314252089861,1.2402201097827747
-0.20496272,1.535221792445392,1.2329145059596844
-0.20493664,1.536212159681797,1.2249447563344986
-0.20491055999999996,1.5372025269182048,1.2176391525113905
-0.20488447999999998,1.53819289415461,1.210001475787254
-0.2048584,1.5388531389788807,1.2020317261620643
-0.20483231999999998,1.5398435062152869,1.1947261223389671
-0.20480623999999997,1.5405037510395578,1.18708844561482
-0.20478016,1.5408338734516929,1.1791186959896303
-0.20475408,1.5421543631002332,1.1718130921665433
-0.20472799999999997,1.5424844855123707,1.1641754154423865
-0.20470191999999998,1.5434748527487758,1.1568698116192992
-0.20467584,1.5444652199851814,1.149564207796209
-0.20464976,1.5451254648094526,1.142258603973112
-0.20462367999999997,1.5461158320458592,1.134953000150015
-0.2045976,1.5471061992822643,1.1279794692279772
-0.20457151999999998,1.5477664441065355,1.12100593830593
-0.20454543999999997,1.548756811342942,1.114032407383883
-0.20451935999999998,1.5494170561672123,1.1070588764618419
-0.20449328,1.550407423403618,1.1004174184408506
-0.2044672,1.5513977906400245,1.0937759604198534
-0.20444111999999998,1.5523881578764314,1.0868024294978065
-0.20441504,1.5537086475249713,1.0804930443778675
-0.20438895999999998,1.5546990147613782,1.0738515863568703
-0.20436287999999997,1.5556893819977848,1.0672101283358733
-0.20433679999999999,1.5570098716463256,1.061232816116981
-0.20431072,1.5576701164705962,1.0545913580959898
-0.20428464,1.5589906061191379,1.0482819729760422
-0.20425855999999998,1.5603110957676793,1.0423046607571445
-0.20423248,1.5609713405919499,1.0359952756372055
-0.20420639999999998,1.561961707828356,1.0300179634183078
-0.20418031999999997,1.563282197476898,1.0240406511994102
-0.20415424,1.5642725647133036,1.018063338980518
-0.20412816,1.5652629319497087,1.012418099662678
-0.20410208,1.5665834215982504,1.0067728603448303
-0.20407599999999998,1.5675737888346573,1.0011276210269824
-0.20404992,1.5685641560710628,0.9951503088080902
-0.20402383999999998,1.5698846457196047,0.9901692152923418
-0.20399775999999997,1.5708750129560114,0.9845239759744941
-0.20397168,1.571865380192417,0.9792108095577012
-0.2039456,1.5731858698409573,0.97422971604196
-0.20391951999999997,1.5741762370773653,0.968916549625155
-0.20389343999999998,1.5751666043137704,0.9636033832083645
-0.20386736,1.5764870939623112,0.958622289692621
-0.20384127999999999,1.5778075836108534,0.9539732690779228
-0.20381519999999997,1.57879795084726,0.9493242484632247
-0.20378912,1.5801184404958009,0.9450073007495804
-0.20376303999999998,1.5814389301443423,0.9403582801348843
-0.20373695999999997,1.582429297380749,0.936041332421236
-0.20371087999999998,1.5837497870292898,0.9317243847075918
-0.2036848,1.5847401542656956,0.9277395098949969
-0.20365872,1.5860606439142375,0.9237546350823985
-0.20363263999999998,1.5873811335627792,0.9197697602698002
-0.20360656,1.5883715007991845,0.9157848854572072
-0.20358047999999998,1.589361868035591,0.9121320835456584
-0.20355439999999997,1.590682357684133,0.9088113545351597
-0.20352831999999998,1.5916727249205387,0.9054906255246642
-0.20350224,1.5929932145690795,0.9021698965141686
-0.20347616,1.5939835818054862,0.8988491675036698
-0.20345007999999998,1.595304071454028,0.8955284384931713
-0.203424,1.5962944386904332,0.8925397823837266
-0.20339791999999998,1.5972848059268396,0.8898831991753274
-0.20337183999999997,1.5986052955753818,0.8868945430658789
-0.20334576,1.5999257852239226,0.8845700327585321
-0.20331968,1.6009161524603277,0.8822455224511861
-0.2032936,1.6019065196967344,0.8799210121438371
-0.20326751999999998,1.6035571317574115,0.877596501836488
-0.20324144,1.6048776214059524,0.8759361373312402
-0.20321535999999998,1.605867988642359,0.8739436999249411
-0.20318927999999997,1.6071884782909012,0.8722833354196916
-0.2031632,1.608508967939442,0.8702908980133942
-0.20313712,1.609499335175847,0.8689626064091965
-0.20311103999999996,1.6108198248243903,0.8676343148049953
-0.20308495999999998,1.6118101920607957,0.8663060232007976
-0.20305888,1.6128005592972012,0.8649777315965993
-0.20303279999999999,1.6141210489457432,0.8639815128934496
-0.20300671999999997,1.6151114161821498,0.8626532212892503
-0.20298064,1.6161017834185554,0.8616570025861016
-0.20295455999999998,1.6174222730670973,0.8609928567840017
-0.20292847999999997,1.6184126403035037,0.8599966380808525
-0.20290239999999998,1.6194030075399088,0.8593324922787536
-0.20287632,1.6207234971884497,0.859000419377704
-0.20285024,1.6217138644248565,0.8586683464766541
-0.20282415999999998,1.622704231661263,0.8583362735756045
-0.20279808,1.6236945988976683,0.8583362735756045
-0.20277199999999998,1.6246849661340748,0.8580042006745547
-0.20274591999999997,1.6260054557826167,0.8583362735756046
-0.20271983999999998,1.6269958230190222,0.8586683464766541
-0.20269376,1.6279861902554278,0.8590004193777038
-0.20266768,1.6293066799039697,0.8593324922787536
-0.20264159999999998,1.6299669247282411,0.8599966380808535
-0.20261552,1.6312874143767813,0.8609928567840017
-0.20258943999999998,1.6322777816131882,0.8616570025861016
-0.20256335999999997,1.6329380264374591,0.8626532212892515
-0.20253728,1.6339283936738649,0.8643135857944994
-0.2025112,1.6345886384981354,0.8649777315965984
-0.20248512,1.6355790057345412,0.8666380961018466
-0.20245903999999998,1.6365693729709476,0.8679663877060462
-0.20243296,1.6372296177952184,0.8699588251123436
-0.20240687999999998,1.6382199850316246,0.8719512625186429
-0.20238079999999997,1.6392103522680308,0.873943699924942
-0.20235472,1.6398705970923013,0.8759361373312394
-0.20232864,1.6405308419165714,0.8782606476385854
-0.20230255999999996,1.6415212091529787,0.8805851579459375
-0.20227647999999998,1.6421814539772488,0.8829096682532834
-0.2022504,1.6431718212136546,0.8858983243627295
-0.20222431999999999,1.6438320660379258,0.8882228346700789
-0.20219823999999997,1.644822433274332,0.8915435636805776
-0.20217216,1.6454826780986025,0.8948642926910733
-0.20214607999999998,1.6461429229228737,0.8981850217015721
-0.20211999999999997,1.64713329015928,0.9018378236131203
-0.20209391999999998,1.64779353498355,0.9051585526236144
-0.20206784,1.6484537798078205,0.9088113545351596
-0.20204176,1.6491140246320914,0.9124641564467082
-0.20201567999999998,1.6497742694563624,0.9164490312593068
-0.2019896,1.6504345142806327,0.9207659789729491
-0.20196351999999998,1.6507646366927684,0.9247508537855477
-0.20193743999999997,1.6517550039291744,0.9293998744002457
-0.20191135999999998,1.6517550039291744,0.9337168221138901
-0.20188528,1.65274537116558,0.9383658427285839
-0.2018592,1.6530754935777159,0.9433469362443319
