DAQ/testing_accel_4_6/test_full_0005.csv

#Digilent WaveForms Oscilloscope Acquisition
#Device Name: Discovery2
#Serial Number: SN:210321B02866
#Date Time: 2021-04-06 18:55:37.967
#Sample rate: 6275.1Hz
#Samples: 8192
#Trigger: Source: Channel 1 Type: Edge Condition: Rising Level: 0 V Hyst.: Auto HoldOff: 0 s
#Channel 1: Range: 500 mV/div Offset: -1.8 V Attenuation: 1 X
#Channel 2: Range: 500 mV/div Offset: -1.45 V Attenuation: 1 X
#Power Supplies: ON
#Positive Supply: ON
#Voltage: 3.3 V
#Negative Supply: OFF
#Voltage: -3.3 V

Time (s),Channel 1 (V),Channel 2 (V)
-1.2903379200000002,1.486579938149569,1.201699653261062
-1.2901785600000002,1.4836088364403495,1.145911405884684
-1.2900192000000001,1.4812979795554018,1.0934438875188273
-1.28985984,1.4812979795554007,1.0439650252623958
-1.28970048,1.4826184692039432,0.9971427462143656
-1.28954112,1.4849293260888923,0.9526449774736852
-1.2893817600000002,1.4879004277981065,0.9101396461393795
-1.2892224,1.4915317743315968,0.8696267522112948
-1.28906304,1.4954932432772237,0.8307742227884614
-1.2889036800000002,1.5011053242835173,0.7942462036730424
-1.2887443200000002,1.5077077725262265,0.7610389135680526
-1.2885849600000001,1.515300588005343,0.7341410085830106
-1.2884256,1.5235536483087309,0.7152128532231719
-1.28826624,1.5321368310242507,0.7045865203895842
-1.28810688,1.5417103809761814,0.7012657913790923
-1.2879475200000001,1.5522742981645035,0.7052506661916852
-1.28778816,1.5634984601771056,0.7178694364315744
-1.2876288000000002,1.5753828670139678,0.7384579562966381
-1.2874694400000002,1.586937151438711,0.7653558612816717
-1.2873100800000001,1.5981613134513186,0.799227297188755
-1.28715072,1.609385475463921,0.8397401911168203
-1.28699136,1.620609637476528,0.8862303972638044
-1.286832,1.6315036770770004,0.9383658427286385
-1.2866726400000001,1.6427278390895872,0.9961465275112104
-1.28651328,1.6529616338657886,1.0599045245127823
-1.2863539200000003,1.6631954286419754,1.1293077608321098
-1.2861945600000002,1.6727689785939057,1.2033600177662258
-1.2860352000000002,1.681682283721561,1.281729222413957
-1.28587584,1.6896052216128137,1.3627550102701234
-1.28571648,1.6968679146797938,1.44344872522524
-1.28555712,1.7018197508618238,1.5211537840708713
-1.28539776,1.7057812198074496,1.5942098223018393
-1.2852384000000001,1.7090824439288,1.6639451315222162
-1.28507904,1.7110631784016124,1.730359711732188
-1.2849196800000002,1.7117234232258822,1.7931214900304988
-1.2847603200000002,1.7110631784016124,1.8535587580215767
-1.2846009600000001,1.7090824439288,1.9106752970021552
-1.2844416,1.7077619542802585,1.9661314714774578
-1.28428224,1.7057812198074447,2.0192631356454354
-1.28412288,1.7018197508618176,2.069074070802909
-1.2839635200000001,1.6968679146797916,2.1122435479393333
-1.28380416,1.6912558336734904,2.1477753483516526
-1.2836448000000003,1.6839931406065192,2.1746732533366555
-1.2834854400000002,1.677060569951673,2.1926051899933565
-1.2833260800000001,1.6691376320604248,2.2022353041238016
-1.28316672,1.6605544493449018,2.2032315228269552
-1.28300736,1.650650776980836,2.195261773201755
-1.282848,1.6400868597924996,2.1796543468524012
-1.28268864,1.629192820192033,2.152756441867365
-1.28252928,1.618628903003711,2.11589634985088
-1.28236992,1.6080649858153746,2.071066508209144
-1.2822105600000002,1.5975010686270574,2.0185989898433605
-1.2820512000000002,1.5862769066144506,1.959157940555441
-1.2818918400000001,1.5743924997775727,1.8934075061475701
-1.28173248,1.5638285825892366,1.8230080511249966
-1.28157312,1.5539249102251758,1.7492878670919583
-1.28141376,1.5440212378611107,1.672579026949439
-1.2812544000000001,1.5344476879091937,1.5958701868070242
-1.28109504,1.5252042603694038,1.5204896382687387
-1.2809356800000002,1.5166210776538922,1.4487618916420653
-1.2807763200000002,1.5086981397626391,1.3803548740257896
-1.2806169600000001,1.5027559363441991,1.3156006583210638
-1.2804576,1.4974739777500334,1.2535030258247668
-1.28029824,1.4935125088044074,1.1947261223389418
-1.28013888,1.4902112846830522,1.1389378749625663
-1.2799795200000001,1.4869100605617034,1.0858062107946844
-1.27982016,1.485259448501025,1.0349990569340535
-1.2796608000000003,1.484599203676755,0.9861843404797896
-1.2795014400000002,1.4852594485010244,0.9400262072338766
-1.2793420800000002,1.4869100605617012,0.8965246571963416
-1.27918272,1.4895510398587848,0.855347617466157
-1.27902336,1.4935125088044114,0.8161630151422742
-1.278864,1.499124589810713,0.7802991418289066
-1.27870464,1.5053969156412887,0.7484201433281253
-1.2785452800000001,1.51265960870826,0.7231826028483699
-1.27838592,1.5209126690116477,0.7065789577958798
-1.2782265600000002,1.5291657293150205,0.6969488436654511
-1.2780672000000002,1.5387392792669492,0.6949564062591449
-1.2779078400000001,1.5489730740431498,0.7002695726759395
-1.27774848,1.5601972360557521,0.7138845616189778
-1.27758912,1.5714213980683593,0.7354693001872226
-1.27742976,1.5826455600809668,0.7643596425785674
-1.2772704000000001,1.5938697220935538,0.8002235158918878
-1.27711104,1.6054240065182965,0.8423967743252181
-1.2769516800000003,1.6166481685308887,0.8908794178784326
-1.2767923200000002,1.6282024529556312,0.9450073007495557
-1.2766329600000001,1.6394266149682337,1.0051124958395516
-1.2764736,1.649660409744435,1.0708629302474229
-1.27631424,1.6595640821084996,1.141594458171046
-1.27615488,1.6678171424118868,1.21531464220412
-1.27599552,1.6754099578909993,1.2930197010497562
-1.27583616,1.6823425285458358,1.3733813431037143
-1.2756768,1.6886148543764097,1.4534109122567305
-1.2755174400000002,1.6929064457341634,1.5291235336959625
-1.2753580800000002,1.6962076698555193,1.601183353223787
-1.2751987200000001,1.6988486491526038,1.669922443741111
-1.27503936,1.7001691388011453,1.7350087323468553
-1.27488,1.7004992612132803,1.7967742919421297
-1.27472064,1.699839016389008,1.856215341230053
-1.2745612800000001,1.6978582819161978,1.9126677344084535
-1.27440192,1.6958775474433856,1.967127690180607
-1.2742425600000002,1.692576323322035,2.0189310627443158
-1.2740832000000002,1.6876244871400037,2.06708163339655
-1.2739238400000001,1.6820124061337027,2.108258673126718
-1.27376448,1.6750798354788579,2.141465963231708
-1.27360512,1.6678171424118768,2.1670355766125438
-1.27344576,1.6608845717570304,2.18363922166503
-1.2732864000000002,1.6532917562779275,2.1922731170923107
-1.27312704,1.6450386959745398,2.1916089712902154
-1.27296768,1.6364555132590162,2.1829750758629145
-1.2728083200000002,1.627212085719239,2.1657072850083527
-1.2726489600000002,1.617308413355174,2.137149015518075
-1.2724896,1.6080649858153795,2.099624777699444
-1.27233024,1.5978311910391783,2.053466644453509
-1.27217088,1.5872672738508469,1.9996708344834517
-1.27201152,1.5767033566625106,1.938901493591321
-1.2718521600000001,1.5661394394741885,1.8728189862824878
-1.2716928,1.5562357671101277,1.8017553854578483
-1.2715334400000002,1.546992339570346,1.7280352014248783
-1.2713740800000002,1.538079034442687,1.6529867257876096
-1.2712147200000001,1.5298259741392988,1.5779382501503396
-1.27105536,1.5215729138359149,1.504882211919402
-1.270896,1.5139800983567986,1.4348148297978816
-1.27073664,1.5077077725262245,1.3677361037858113
-1.2705772800000001,1.5020956915199308,1.3039781067843528
-1.27041792,1.497143855337898,1.2432087658922255
-1.2702585600000003,1.4935125088044123,1.1854280811096276
-1.2700992000000002,1.4902112846830569,1.1303039795353471
-1.2699398400000002,1.487900427798109,1.07850060697159
-1.26978048,1.4872401829738373,1.0286896718141088
-1.26962112,1.4879004277981085,0.9818673927660785
-1.26946176,1.4892209174466504,0.9370375511243678
-1.2693024,1.4915317743315994,0.8942001468889369
-1.2691430400000001,1.4945028760408152,0.8536872529609084
-1.26898368,1.4984643449864419,0.8151667964391252
-1.2688243200000002,1.5040764259927355,0.779634996026854
-1.2686649600000002,1.5106788742354447,0.7487522162292122
-1.2685056000000001,1.5182716897145612,0.7255071131557179
-1.26834624,1.5261946276058098,0.710231759707431
-1.26818688,1.5344476879091982,0.7022620100822373
-1.26802752,1.5440212378611293,0.7012657913790953
-1.2678681600000001,1.5549152774615862,0.7085713952021824
-1.2677088,1.5671298067105945,0.7255071131557179
-1.2675494400000002,1.579674458371727,0.7494163620312757
-1.2673900800000002,1.5915588652086061,0.7806312147299567
-1.2672307200000001,1.6031131496333437,0.8184875254496212
-1.26707136,1.6156578012944927,0.8629852941903005
-1.266912,1.6272120857192358,0.9134603751498828
-1.26675264,1.6390964925561136,0.9692486225262662
-1.2665932800000002,1.6503206545687006,1.0313462550224783
-1.26643392,1.6612146941691726,1.0984249810345492
-1.26627456,1.6711183665332379,1.1708168734634226
-1.2661152000000002,1.6810220388972852,1.248189859407901
-1.2659558400000002,1.6892750992006746,1.3275552827588173
-1.2657964800000001,1.6962076698555208,1.408913143516034
-1.26563712,1.7021498732739595,1.4882785668669505
-1.26547776,1.7064414646317185,1.5633270425041845
-1.2653184,1.7094125663409374,1.6343906433288526
-1.2651590400000001,1.711723423225883,1.7018014422418837
-1.26499968,1.7133740352865596,1.7665556579465784
-1.2648403200000002,1.7130439128744246,1.8276570717396707
-1.2646809600000002,1.7113933008137483,1.8857698294234002
-1.2645216000000001,1.7090824439288,1.9412260038987292
-1.26436224,1.7057812198074465,1.9936935222645844
-1.26420288,1.7011595060375488,2.043504457422063
-1.26404352,1.6955474250312443,2.088998444865888
-1.2638841600000001,1.6892750992006813,2.1275189013876026
-1.2637248,1.6813521613094295,2.157737535383144
-1.2635654400000003,1.6730991010060532,2.1796543468524057
-1.2634060800000002,1.6655062855269391,2.1929372628944024
-1.2632467200000002,1.6562628579871463,2.1965900648059593
-1.26308736,1.6456989407988107,2.1916089712902154
-1.262928,1.634474778786203,2.1793222739513656
-1.26276864,1.6229204943614655,2.1570733895810297
-1.26260928,1.6116963323488593,2.1241981723770857
-1.2624499200000001,1.6017926599848076,2.0833532055480077
-1.26229056,1.591228742796471,2.0352026348957737
-1.2621312000000002,1.580664825608154,1.9797464604205468
-1.2619718400000002,1.5701009084198176,1.917980900825277
-1.2618124800000001,1.559206868819346,1.850238029011107
-1.26165312,1.549303196455285,1.7781782094833185
-1.26149376,1.53939952409122,1.7031297338460483
-1.2613344,1.530156096551426,1.6274171124066792
-1.2611750400000001,1.5212427914237794,1.5523686367695115
-1.26101568,1.5129897311203955,1.4796446714396236
-1.2608563200000003,1.505727038053424,1.4102414351202959
-1.2606969600000002,1.5001149570471186,1.3444910007124191
-1.2605376000000001,1.4954932432772232,1.2817292224140213
-1.26037824,1.4912016519194615,1.2219561002250439
-1.26021888,1.488230550210242,1.1651716341455178
-1.26005952,1.4852594485010233,1.1113758241754415
-1.25990016,1.4832787140282129,1.059904524512738
-1.2597408,1.4832787140282129,1.0114218809595237
-1.25958144,1.483278714028213,0.9639354561093934
-1.2594220800000002,1.483938958852483,0.918109395764595
-1.2592627200000002,1.4855895709131597,0.8752719915291594
-1.2591033600000001,1.4882305502102433,0.8347590976010746
-1.258944,1.4925221415680054,0.7965707139803413
-1.25878464,1.4978041001621718,0.7617030593701236
-1.25862528,1.5044065484048827,0.7321485711766926
-1.2584659200000001,1.511669241471854,0.7105638326084807
-1.25830656,1.5192620569509672,0.6966167707643927
-1.2581472000000002,1.5275151172543437,0.6906394585455031
-1.2579878400000002,1.5377489120305428,0.6916356772486464
-1.2578284800000001,1.5486429516310096,0.7002695726759356
-1.25766912,1.5601972360557521,0.7182015093326242
-1.25750976,1.5720816428926303,0.7437711227134673
-1.2573504,1.5836359273173735,0.7766463399174098
-1.2571910400000001,1.5955203341542303,0.8158309422412229
-1.25703168,1.6080649858153795,0.8616570025861016
-1.2568723200000003,1.6202795150643767,0.914124520951909
-1.2567129600000002,1.63216392190125,0.9722372786356043
-1.2565536000000002,1.6437182063259932,1.0369914943403222
-1.25639424,1.6559327355750069,1.1067268035607922
-1.25623488,1.6671568975876134,1.1811111333959643
-1.25607552,1.6770605699516739,1.2598124109447486
-1.25591616,1.6859738750793318,1.3418344175040657
-1.2557568000000001,1.6938968129705734,1.4235243511622215
-1.25559744,1.6998390163890098,1.5022256287110043
-1.2554380800000002,1.7044607301589008,1.5769420314471225
-1.2552787200000002,1.7080920766923924,1.6480056322717973
-1.2551193600000001,1.710733055989477,1.7154164311849223
-1.25496,1.7123836680501536,1.7795065010875173
-1.25480064,1.7127137904622887,1.8409399877817416
-1.25464128,1.7123836680501527,1.8997168912675657
-1.2544819200000001,1.711393300813748,1.9558372115448912
-1.25432256,1.7090824439288,2.0086368028118216
-1.2541632000000003,1.7051209749831793,2.058447737969234
-1.2540038400000002,1.699508893976877,2.1029455067099208
-1.2538444800000001,1.6932365681463055,2.1401376716274925
-1.25368512,1.6856437526671892,2.1690280140188345
-1.25352576,1.6780509371880725,2.1892844609828725
-1.2533664,1.6704581217089585,2.200907012519609
-1.25320704,1.6612146941691635,2.2035635957279993
-1.25304768,1.6513110218051117,2.1972542106080604
-1.25288832,1.6407471046167754,2.1836392216650116
-1.2527289600000002,1.6298530650163232,2.159729972789464
-1.2525696000000002,1.6196192702401218,2.125526463981337
-1.2524102400000001,1.609385475463921,2.0826890597459085
-1.25225088,1.5984914358634539,2.032546051687401
-1.25209152,1.5872672738508466,1.975429512706821
-1.25193216,1.5760431118382394,1.9120035886062916
-1.2517728000000001,1.5651490722377825,1.843264498089063
-1.25161344,1.5552453998737217,1.770540532759175
-1.2514540800000002,1.54534172750967,1.6951599842209581
-1.2512947200000002,1.5357681775577396,1.619115289880539
-1.2511353600000001,1.5271849948422198,1.5447309600454018
-1.250976,1.519922301775238,1.4739994321217784
-1.25081664,1.5133198535325285,1.4062565603076067
-1.25065728,1.5083680173504963,1.3411702717018357
-1.2504979200000002,1.5040764259927426,1.2794047121066727
-1.25033856,1.5001149570471162,1.2209598815218947
-1.2501792,1.4968137329257616,1.1648395612444686
-1.2500198400000002,1.4941727536286822,1.1120399699776358
-1.2498604800000002,1.4935125088044092,1.0618969619191034
-1.24970112,1.4938426312165445,1.013414318365822
-1.24954176,1.4948329984529511,0.9675882580209414
-1.2493824,1.4964836105136283,0.9240867079834291
-1.24922304,1.4987944673985774,0.8819134495500981
-1.2490636800000001,1.5017655691077931,0.8420647014241683
-1.24890432,1.5067174052898236,0.8048725365066001
-1.2487449600000002,1.5126596087082547,0.7710011005995598
-1.2485856000000002,1.5186018121266938,0.7431069769113655
-1.2484262400000001,1.525534382781539,0.7235146757494196
-1.24826688,1.5331271982606525,0.7115600513116298
-1.24810752,1.5420405033883113,0.706578957795885
-1.24794816,1.5512839309281066,0.7085713952021915
-1.2477888000000001,1.5615177257042887,0.7185335822336694
-1.24762944,1.572081642892625,0.7361334459893089
-1.2474700800000003,1.582975682493082,0.7613709864690643
-1.2473107200000002,1.594199844505689,0.7939141307719447
-1.2471513600000002,1.6057541289304265,0.8334308059968577
-1.246992,1.6166481685308989,0.8792568663417366
-1.24683264,1.6275422081313706,0.9317243847076179
-1.24667328,1.6381061253197018,0.9891729965892213
-1.24651392,1.6476796752716312,1.0522668477887014
-1.2463545600000001,1.6569231028114129,1.12100593830593
-1.2461952,1.666166530351207,1.1943940494379524
-1.2460358400000002,1.6747497130667146,1.2717670353824309
-1.2458764800000002,1.6826726509579675,1.352792823238595
-1.2457171200000001,1.6899353440249492,1.4338186110947628
-1.24555776,1.6948871802069794,1.5115236699403964
-1.2453984,1.699508893976876,1.5852438539734652
-1.24523904,1.703140240510366,1.6553112360949847
-1.2450796800000001,1.7057812198074465,1.7223899621069663
-1.24492032,1.7067715870438525,1.7854838133064121
-1.2447609600000002,1.7064414646317174,1.8459210812974056
-1.2446016000000002,1.7051209749831764,1.9033696931790354
-1.2444422400000001,1.7034703629224994,1.9584937947532894
-1.24428288,1.7004992612132805,2.01062924021812
-1.24412352,1.6962076698555184,2.059776029573498
-1.24396416,1.6909257112613494,2.103609652512073
-1.2438048,1.6846533854307764,2.1391414529243846
-1.24364544,1.6770605699516699,2.166039357909387
-1.24348608,1.6697978768846884,2.184303367467126
-1.2433267200000002,1.6622050614055857,2.193933481597554
-1.2431673600000002,1.6529616338657929,2.1945976273996624
-1.2430080000000001,1.6430579615017278,2.18629580487342
-1.24284864,1.6315036770769848,2.1693600869198715
-1.24268928,1.6196192702401122,2.141465963231691
-1.24252992,1.6087252306396402,2.1046058712151487
-1.2423705600000001,1.5978311910391831,2.059776029573478
-1.2422112,1.5869371514387163,2.0076405841086724
-1.2420518400000002,1.575382867013989,1.9481995348208272
-1.2418924800000002,1.5638285825892464,1.882781173314009
-1.2417331200000001,1.552934542988774,1.8127137911924889
-1.24157376,1.5423706258004426,1.7383294613573526
-1.2414144,1.5327970758485128,1.6622847670169332
-1.24125504,1.523553648308719,1.5865721455775643
-1.2410956800000001,1.5149704655932115,1.51185574284148
-1.24093632,1.5070475277019588,1.4411242149178565
-1.2407769600000003,1.5004450794592576,1.3740454889058749
-1.2406176000000002,1.4951631208650906,1.3092912732011779
-1.2404582400000002,1.4908715295073283,1.2481898594079992
-1.24029888,1.4872401829738373,1.1904091746253207
-1.24013952,1.4842690812646182,1.1356171459520943
-1.23998016,1.4826184692039424,1.0841458462893894
-1.2398208,1.4829485916160785,1.0353311298350611
-1.2396614400000001,1.4842690812646189,0.9888409236881429
-1.23950208,1.4862498157374322,0.944343154947462
-1.2393427200000002,1.4888907950345116,0.9025019694152547
-1.2391833600000002,1.4925221415680014,0.8619890754871697
-1.2390240000000001,1.4968137329257627,0.8234686189653843
-1.23886464,1.5020956915199284,0.7879368185530646
-1.23870528,1.5090282621747744,0.7560578200522804
-1.23854592,1.5162909552417565,0.730820279572498
-1.2383865600000001,1.5245440155451293,0.7138845616189855
-1.2382272,1.5331271982606525,0.7045865203895858
-1.2380678400000003,1.543030870624704,0.7025940829832893
-1.2379084800000002,1.5542550326373104,0.7082393223011302
-1.2377491200000001,1.5654791946499127,0.7218543112441649
-1.23758976,1.5767033566625202,0.7434390498124026
-1.2374304,1.5879275186751274,0.7719973193026944
-1.23727104,1.5988215582755998,0.8075291197150359
-1.23711168,1.6103758427003372,0.8493703052473056
-1.23695232,1.6216000047129293,0.8971888029984212
-1.23679296,1.6331542891376718,0.9506525400674525
-1.2366336000000002,1.6440483287381238,1.010093589355271
-1.2364742400000002,1.6546122459264605,1.0755119508620892
-1.2363148800000001,1.6648460407026615,1.1462434787857085
-1.23615552,1.6747497130667224,1.2212919544229444
-1.23599616,1.6836630181943808,1.2999932319717642
-1.2358368,1.6912558336734962,1.3813510927289807
-1.2356774400000001,1.6975281595040623,1.4617127347829388
-1.23551808,1.7021498732739575,1.5380895020243737
-1.2353587200000002,1.7061113422195782,1.6104813944531458
-1.2351993600000002,1.7090824439287986,1.6792204849704717
-1.2350400000000001,1.7110631784016113,1.7446388464772675
-1.23488064,1.711723423225883,1.8074006247756935
-1.23472128,1.7107330559894762,1.8668416740636185
-1.23456192,1.709082443928799,1.9236261401431445
-1.2344025600000001,1.7080920766923944,1.9787502417173222
-1.2342432,1.705451097395311,2.0312177600832024
-1.23408384,1.7014896284496843,2.0800324765375295
-1.2339244800000002,1.6958775474433907,2.1222057349707866
-1.2337651200000002,1.6892750992006815,2.1557450979768307
-1.23360576,1.6823425285458358,2.180318492654525
-1.2334464,1.6747497130667188,2.1965900648059646
-1.23328704,1.6668267751754697,2.204559814431154
-1.23312768,1.65791347004781,2.203231522826947
-1.2329683200000001,1.6480097976837582,2.193933481597563
-1.23280896,1.6371157580832914,2.1756694720398286
-1.2326496000000002,1.6262217184828343,2.1461149838464313
-1.2324902400000002,1.6156578012944975,2.107926600225704
-1.2323308800000001,1.6050938841061613,2.0614363940787266
-1.23217152,1.5941998445056942,2.0076405841086724
-1.23201216,1.5826455600809515,1.9465391703154944
