DAQ/testing_accel_4_6/test_full_0055.csv

#Digilent WaveForms Oscilloscope Acquisition
#Device Name: Discovery2
#Serial Number: SN:210321B02866
#Date Time: 2021-04-06 19:02:58.404
#Sample rate: 38343.6Hz
#Samples: 8192
#Trigger: None
#Channel 1: Range: 500 mV/div Offset: -1.15 V Attenuation: 1 X
#Channel 2: Range: 500 mV/div Offset: -1.45 V Attenuation: 1 X
#Power Supplies: ON
#Positive Supply: ON
#Voltage: 3.3 V
#Negative Supply: OFF
#Voltage: -3.3 V

Time (s),Channel 1 (V),Channel 2 (V)
-0.21116975999999998,1.6316175367889172,1.130303979535322
-0.21114368,1.6316175367889172,1.137277510457363
-0.2111176,1.6319476592010527,1.14458311428046
-0.21109151999999998,1.6322777816131882,1.1515566452025072
-0.21106544,1.6322777816131882,1.1588622490255942
-0.21103935999999998,1.6326079040253234,1.1658357799476418
-0.21101327999999997,1.6326079040253236,1.1734734566717888
-0.21098719999999999,1.6329380264374587,1.1811111333959285
-0.21096112,1.6329380264374587,1.1887488101200652
-0.21093504,1.633268148849594,1.1960544139431626
-0.21090895999999998,1.6332681488495941,1.204024163568359
-0.21088288,1.6332681488495941,1.2113297673914496
-0.21085679999999998,1.6335982712617294,1.219299517016646
-0.21083071999999997,1.6335982712617294,1.2272692666418428
-0.21080464,1.6335982712617294,1.2352390162670324
-0.21077856,1.6335982712617294,1.2432087658922182
-0.21075247999999996,1.6339283936738649,1.2508464426163763
-0.21072639999999998,1.6339283936738649,1.2588161922415622
-0.21070032,1.6339283936738649,1.266785941866752
-0.21067423999999998,1.6339283936738649,1.2747556914919487
-0.21064815999999997,1.6339283936738649,1.2827254411171454
-0.21062208,1.6339283936738649,1.290695190742335
-0.21059599999999998,1.6339283936738649,1.298664940367532
-0.21056991999999997,1.6339283936738649,1.3069667628937784
-0.21054383999999998,1.6339283936738649,1.3149365125189643
-0.21051776,1.6335982712617296,1.3232383350452035
-0.21049168,1.6339283936738649,1.3312080846704004
-0.21046559999999997,1.6335982712617294,1.3391778342955971
-0.21043952,1.6335982712617294,1.3471475839207832
-0.21041343999999998,1.6335982712617294,1.3554494064470297
-0.21038735999999997,1.6335982712617292,1.363751228973276
-0.21036127999999998,1.6332681488495941,1.3717209785984659
-0.2103352,1.6332681488495941,1.3796907282236555
-0.21030912,1.6329380264374587,1.3876604778488522
-0.21028303999999998,1.6329380264374584,1.3956302274740489
-0.21025696,1.6326079040253236,1.4035999770992351
-0.21023087999999998,1.6326079040253234,1.4119017996254815
-0.21020479999999997,1.6322777816131882,1.4198715492506782
-0.21017871999999999,1.6322777816131882,1.4278412988758677
-0.21015264,1.631947659201053,1.4358110485010538
-0.21012656,1.6316175367889174,1.4441128710273001
-0.21010047999999998,1.6316175367889172,1.4517505477514474
-0.2100744,1.6316175367889172,1.459720297376637
-0.21004831999999998,1.631287414376782,1.467357974100784
-0.21002223999999997,1.6309572919646464,1.4753277237259808
-0.20999616,1.6306271695525112,1.4832974733511706
-0.20997008,1.6302970471403762,1.490935150075307
-0.20994399999999996,1.6296368023161045,1.4982407538984142
-0.20991791999999998,1.6289765574918345,1.5052142848204517
-0.20989184,1.6286464350796992,1.5131840344456413
-0.20986575999999998,1.6279861902554282,1.5201575653676889
-0.20983967999999997,1.6273259454311575,1.5274631691907858
-0.2098136,1.6266657006068868,1.5344367001128267
-0.20978751999999998,1.6263355781947513,1.5417423039359237
-0.20976143999999997,1.62567533337048,1.5487158348579713
-0.20973535999999998,1.62501508854621,1.5560214386810582
-0.20970928,1.6243548437219395,1.5633270425041488
-0.2096832,1.6236945988976688,1.5703005734261961
-0.20965711999999997,1.623364476485533,1.577606177249293
-0.20963104,1.6227042316612628,1.584247635270281
-0.20960495999999998,1.6223741092491273,1.591553239093378
-0.20957887999999997,1.6217138644248563,1.5981946971143757
-0.20955279999999998,1.621383742012721,1.605500300937466
-0.20952672,1.6207234971884505,1.6121417589584572
-0.20950064,1.620393374776315,1.6191152898805043
-0.20947455999999998,1.619733129952044,1.6257567479015018
-0.20944848,1.619403007539909,1.63239820592249
-0.20942239999999998,1.6187427627156383,1.6390396639434874
-0.20939631999999997,1.6180825178913671,1.645681121964485
-0.20937023999999999,1.617752395479232,1.652322579985476
-0.20934416,1.6167620282428266,1.6589640380064672
-0.20931808,1.6164319058306906,1.6656054960274647
-0.20929199999999998,1.6154415385942846,1.6715828082463595
-0.20926592,1.6154415385942846,1.6782242662673508
-0.20923983999999998,1.614781293770014,1.6842015784862487
-0.20921375999999997,1.614121048945743,1.6905109636061961
-0.20918768,1.613790926533608,1.6964882758250883
-0.2091616,1.6131306817093378,1.7024655880439779
-0.20913551999999996,1.6128005592972008,1.7084429002628831
-0.20910943999999998,1.6118101920607957,1.7140881395807233
-0.20908336,1.6114800696486604,1.7197333788985658
-0.20905727999999998,1.6108198248243895,1.7250465453153638
-0.20903119999999997,1.6101595800001187,1.731023857534261
-0.20900512,1.609499335175848,1.7360049510500046
-0.20897903999999998,1.6088390903515772,1.741650190367852
-0.20895295999999997,1.6081788455273058,1.7466312838836004
-0.20892687999999998,1.6071884782909005,1.751944450300391
-0.2089008,1.6065282334666302,1.7565934709150848
-0.20887471999999999,1.605867988642359,1.7615745644308327
-0.20884863999999997,1.6055378662302235,1.766223585045531
-0.20882256,1.6048776214059532,1.7708726056602226
-0.20879647999999998,1.6045474989938175,1.7755216262749207
-0.20877039999999997,1.6035571317574113,1.7795065010875195
-0.20874431999999998,1.6032270093452763,1.7841555217022134
-0.20871824,1.6022366421088705,1.7881403965148082
-0.20869216,1.6015763972845996,1.7924573442284564
-0.20866607999999998,1.6009161524603281,1.7964422190410545
-0.20864,1.599925785223923,1.8000950209525983
-0.20861391999999998,1.5992655403996519,1.8037478228641466
-0.20858783999999997,1.598605295575381,1.8070685518746454
-0.20856175999999998,1.5979450507511104,1.8107213537861906
-0.20853568,1.5969546835147048,1.8133779369945873
-0.2085096,1.5962944386904336,1.8166986660050857
-0.20848351999999998,1.5953040714540274,1.819023176312435
-0.20845744,1.5946438266297571,1.8220118324218797
-0.20843135999999998,1.5939835818054862,1.8246684156302788
-0.20840527999999997,1.5933233369812152,1.826992925937628
-0.2083792,1.5926630921569447,1.8299815820470742
-0.20835312,1.5920028473326746,1.8319740194533707
-0.20832703999999996,1.5913426025084025,1.834630602661772
-0.20830095999999998,1.5906823576841325,1.8366230400680685
-0.20827488,1.589691990447727,1.838615477474366
-0.20824879999999998,1.5890317456234557,1.8402758419796155
-0.20822271999999997,1.5883715007991848,1.841604133583815
-0.20819664,1.5877112559749142,1.8429324251880133
-0.20817056,1.5867208887385091,1.844260716792211
-0.20814447999999997,1.5860606439142368,1.8452569354953618
-0.20811839999999998,1.5854003990899668,1.8459210812974607
-0.20809232,1.5847401542656963,1.8469173000006094
-0.20806623999999999,1.5840799094414253,1.8475814458027093
-0.20804015999999997,1.5834196646171543,1.8479135187037592
-0.20801408,1.582759419792884,1.8485776645058583
-0.20798799999999998,1.5817690525564778,1.8485776645058585
-0.20796191999999997,1.5814389301443421,1.8492418103079578
-0.20793583999999998,1.5807786853200716,1.8492418103079578
-0.20790976,1.580118440495801,1.8492418103079578
-0.20788368,1.5791280732593949,1.8489097374069081
-0.20785759999999998,1.578467828435124,1.8482455916048086
-0.20783152,1.578137706022989,1.8482455916048086
-0.20780543999999998,1.5771473387865826,1.8472493729016595
-0.20777935999999997,1.5764870939623115,1.8469173000006092
-0.20775327999999998,1.575496726725906,1.845589008396411
-0.2077272,1.5748364819016354,1.8449248625943118
-0.20770112,1.5741762370773644,1.8435965709901125
-0.20767503999999998,1.5735159922530935,1.842268279385913
-0.20764896,1.5728557474288232,1.8409399877817156
-0.20762287999999998,1.571865380192417,1.8389475503754165
-0.20759679999999997,1.571535257780281,1.8379513316722664
-0.20757072,1.5705448905438755,1.835958894265969
-0.20754464,1.5702147681317402,1.8346306026617714
-0.20751856,1.5692244008953344,1.8326381652554729
-0.20749247999999998,1.5685641560710633,1.8306457278491737
-0.2074664,1.5679039112467927,1.8286532904428763
-0.20744031999999998,1.5669135440103865,1.8263287801355275
-0.20741423999999997,1.5665834215982506,1.8240042698281782
-0.20738816,1.565593054361845,1.8213476866197817
-0.20736208,1.5652629319497098,1.818359030510337
-0.20733599999999996,1.563942442301168,1.8153703744008836
-0.20730991999999998,1.5636123198890328,1.8120496453903896
-0.20728384,1.5632821974768978,1.8087289163798939
-0.20725775999999999,1.5622918302404916,1.8050761144683456
-0.20723167999999997,1.5619617078283559,1.8017553854578465
-0.2072056,1.5616315854162206,1.7977705106452517
-0.20717951999999998,1.5613014630040851,1.794117708733703
-0.20715343999999997,1.5606412181798144,1.7898007610200566
-0.20712735999999998,1.5599809733555439,1.7854838133064121
-0.20710128,1.5596508509434088,1.781166865592768
-0.2070752,1.5589906061191379,1.7768499178791197
-0.20704911999999998,1.558330361294867,1.772532970165471
-0.20702304,1.5580002388827319,1.7678839495507797
-0.20699695999999998,1.5573399940584611,1.7632349289360814
-0.20697087999999997,1.5570098716463254,1.758585908321383
-0.20694479999999998,1.556349626822055,1.7536048148056396
-0.20691872,1.556349626822055,1.7489557941909457
-0.20689264,1.5556893819977842,1.7436426277741481
-0.20686655999999998,1.5553592595856487,1.7383294613573503
-0.20684048,1.5550291371735137,1.733348367841609
-0.20681439999999998,1.5546990147613782,1.7277031285237616
-0.20678831999999997,1.554699014761378,1.7220578892059137
-0.20676223999999999,1.5543688923492427,1.7164126498880714
-0.20673616,1.5540387699371077,1.7107674105702313
-0.20671008,1.5540387699371074,1.7051221712523836
-0.20668399999999998,1.553708647524972,1.699144859033486
-0.20665792,1.553708647524972,1.6934996197156436
-0.20663183999999998,1.5530484027007012,1.6871902345956962
-0.20660575999999997,1.553048402700701,1.6812129223767984
-0.20657968,1.552718280288566,1.6749035372568568
-0.2065536,1.552718280288566,1.6685941521369179
-0.20652751999999996,1.5527182802885657,1.6622847670169616
-0.20650143999999998,1.5523881578764307,1.6556433089959732
-0.20647536,1.5523881578764307,1.649665996777081
-0.20644927999999999,1.5523881578764307,1.6426924658550344
-0.20642319999999997,1.5523881578764307,1.636051007834037
-0.20639712,1.5523881578764307,1.6294095498130456
-0.20637103999999998,1.55172791305216,1.6227680917920482
-0.20634495999999997,1.5520580354642952,1.6161266337710505
-0.20631887999999998,1.5520580354642952,1.609153102849013
-0.2062928,1.55172791305216,1.602179571926972
-0.20626672,1.5517279130521597,1.5955381139059746
-0.20624063999999998,1.5513977906400245,1.588232510082878
-0.20621456,1.5513977906400245,1.581923124962939
-0.20618847999999998,1.5513977906400245,1.5746175211398423
-0.20616239999999997,1.5510676682278892,1.5673119173167456
-0.20613631999999998,1.5510676682278892,1.5603383863947047
-0.20611024,1.5510676682278892,1.5530327825716141
-0.20608416,1.5510676682278892,1.5457271787485172
-0.20605807999999998,1.5510676682278892,1.5387536478264696
-0.206032,1.5510676682278892,1.5311159711023332
-0.20600591999999998,1.5510676682278892,1.5238103672792358
-0.20597983999999997,1.5507375458157537,1.5165047634561386
-0.20595375999999999,1.5507375458157537,1.5088670867319987
-0.20592768,1.551067668227889,1.5018935558099578
-0.2059016,1.5507375458157537,1.4939238061847613
-0.20587551999999998,1.5507375458157537,1.4866182023616676
-0.20584944,1.551067668227889,1.4796446714396267
-0.20582335999999998,1.5507375458157537,1.4713428489133806
-0.20579727999999997,1.5513977906400245,1.4640372450902834
-0.2057712,1.5513977906400245,1.4563995683661435
-0.20574512,1.5513977906400245,1.4487618916420069
-0.20571903999999996,1.5517279130521597,1.4411242149178491
-0.20569295999999998,1.5517279130521597,1.4331544652926633
-0.20566688,1.5517279130521597,1.4258488614695728
-0.20564079999999998,1.5520580354642952,1.4182111847454262
-0.20561471999999997,1.552388157876431,1.4105735080212791
-0.20558864,1.552718280288566,1.4029358312971392
-0.20556255999999998,1.552388157876431,1.3949660816719425
-0.20553647999999997,1.5530484027007012,1.3869963320467458
-0.20551039999999998,1.5530484027007012,1.3793586553226094
-0.20548432,1.5530484027007012,1.3717209785984694
-0.20545824,1.553708647524972,1.3637512289732725
-0.20543215999999997,1.5540387699371074,1.3561135522491257
-0.20540608,1.5540387699371074,1.3481438026239394
-0.20537999999999998,1.5543688923492427,1.3405061258997926
-0.20535391999999997,1.5546990147613782,1.3325363762745956
-0.20532783999999998,1.5546990147613782,1.324898699550456
-0.20530176,1.5553592595856487,1.317261022826316
-0.20527568,1.555359259585649,1.309291273201119
-0.20524959999999998,1.5556893819977844,1.3019856693780218
-0.20522352,1.5560195044099194,1.2943479926538854
-0.20519743999999998,1.556349626822055,1.2867103159297384
-0.20517135999999997,1.5566797492341904,1.2794047121066412
-0.20514527999999999,1.5570098716463256,1.2717670353825012
-0.2051192,1.557339994058461,1.2641293586583613
-0.20509312,1.5580002388827316,1.2568237548352639
-0.20506703999999998,1.5583303612948673,1.2491860781111175
-0.20504096,1.5586604837070022,1.2422125471890795
-0.20501487999999998,1.5589906061191379,1.2349069433659827
-0.20498879999999997,1.5596508509434088,1.2276013395428855
-0.20496272,1.5599809733555439,1.2202957357197952
-0.20493664,1.560311095767679,1.212990131896708
-0.20491055999999996,1.5609713405919508,1.2056845280736017
-0.20488447999999998,1.5616315854162206,1.1990430700526133
-0.2048584,1.5616315854162206,1.191737466229523
-0.20483231999999998,1.561961707828356,1.1850960082085251
-0.20480623999999997,1.562621952652627,1.178122477286478
-0.20478016,1.562952075064762,1.1711489463644371
-0.20475408,1.5636123198890322,1.1641754154423996
-0.20472799999999997,1.563942442301169,1.1575339574213923
-0.20470191999999998,1.564602687125439,1.1505604264993547
-0.20467584,1.564932809537574,1.1442510413794131
-0.20464976,1.5652629319497096,1.1376095833584159
-0.20462367999999997,1.5659231767739807,1.1309681253374186
-0.2045976,1.5662532991861156,1.1246587402174797
-0.20457151999999998,1.5669135440103865,1.1183493550975323
-0.20454543999999997,1.5672436664225222,1.111707897076535
-0.20451935999999998,1.568234033658928,1.1053985119565932
-0.20449328,1.568564156071063,1.0990891268366516
-0.2044672,1.569224400895334,1.0927797417167042
-0.20444111999999998,1.5695545233074697,1.0864703565967568
-0.20441504,1.5698846457196045,1.0804930443778673
-0.20438895999999998,1.5705448905438755,1.0745157321589698
-0.20436287999999997,1.5712051353681464,1.0685384199400723
-0.20433679999999999,1.571865380192417,1.06256110772118
-0.20431072,1.5725256250166875,1.0569158684033375
-0.20428464,1.572855747428823,1.0509385561844398
-0.20425855999999998,1.573515992253094,1.045293316866592
-0.20423248,1.5738461146652287,1.0396480775487522
-0.20420639999999998,1.5745063594895,1.0340028382309043
-0.20418031999999997,1.5751666043137706,1.0283575989130567
-0.20415424,1.5758268491380412,1.0230444324962638
-0.20412816,1.5761569715501764,1.017731266079473
-0.20410208,1.5768172163744472,1.0124180996626753
-0.20407599999999998,1.5771473387865826,1.0071049332458775
-0.20404992,1.5778075836108532,1.0021238397301337
-0.20402383999999998,1.5784678284351241,0.9971427462143858
-0.20399775999999997,1.5791280732593953,0.9924937255996875
-0.20397168,1.5801184404958009,0.987512632083944
-0.2039456,1.5804485629079361,0.9825315385682029
-0.20391951999999997,1.5811088077322077,0.9782145908545479
-0.20389343999999998,1.5817690525564778,0.973565570239856
-0.20386736,1.5824292973807481,0.9692486225262117
-0.20384127999999999,1.5830895422050193,0.9645996019115137
-0.20381519999999997,1.58374978702929,0.960614727098915
-0.20378912,1.5840799094414253,0.9562977793852707
-0.20376303999999998,1.5850702766778313,0.9523129045726741
-0.20373695999999997,1.5857305215021023,0.9486601026611254
-0.20371087999999998,1.5860606439142375,0.9446752278485306
-0.2036848,1.586720888738508,0.9410224259369855
-0.20365872,1.5873811335627788,0.9373696240254369
-0.20363263999999998,1.5880413783870502,0.9337168221138887
-0.20360656,1.5890317456234553,0.930728166004444
-0.20358047999999998,1.589361868035591,0.9274074369939455
-0.20355439999999997,1.590022112859862,0.9244187808844967
-0.20352831999999998,1.5906823576841325,0.9214301247750505
-0.20350224,1.5916727249205382,0.9184414686656044
-0.20347616,1.5923329697448092,0.9154528125561556
-0.20345007999999998,1.5929932145690804,0.9127962293477567
-0.203424,1.5936534593933505,0.9101396461393614
-0.20339791999999998,1.5943137042176214,0.9081472087330619
-0.20337183999999997,1.5953040714540279,0.9058226984257127
-0.20334576,1.5959643162782982,0.9034981881183658
-0.20331968,1.5966245611025685,0.9015057507120693
-0.2032936,1.5972848059268394,0.8998453862068198
-0.20326751999999998,1.5979450507511104,0.8978529488005207
-0.20324144,1.5982751731632456,0.8961925842952728
-0.20321535999999998,1.5989354179875166,0.8945322197900235
-0.20318927999999997,1.5995956628117878,0.8928718552847744
-0.2031632,1.6005860300481933,0.8915435636805761
-0.20313712,1.6009161524603284,0.8902152720763784
-0.20311103999999996,1.6015763972846002,0.8892190533732272
-0.20308495999999998,1.60223664210887,0.8882228346700789
-0.20305888,1.6028968869331406,0.8872266159669302
-0.20303279999999999,1.6035571317574115,0.8865624701648304
-0.20300671999999997,1.6038872541695472,0.8858983243627305
-0.20298064,1.6045474989938175,0.8852341785606315
-0.20295455999999998,1.605537866230224,0.8845700327585317
-0.20292847999999997,1.6058679886423597,0.8839058869564326
-0.20290239999999998,1.60652823346663,0.8839058869564326
-0.20287632,1.6075186007030355,0.8832417411543335
-0.20285024,1.6078487231151712,0.8832417411543332
-0.20282415999999998,1.6081788455273072,0.8835738140553828
-0.20279808,1.6091692127637123,0.8835738140553828
-0.20277199999999998,1.6098294575879835,0.8839058869564326
-0.20274591999999997,1.6101595800001192,0.8845700327585324
-0.20271983999999998,1.6108198248243895,0.8852341785606315
-0.20269376,1.61148006964866,0.8858983243627305
-0.20266768,1.612140314472931,0.8865624701648304
-0.20264159999999998,1.6124704368850666,0.88755868886798
-0.20261552,1.613130681709337,0.8885549075711282
-0.20258943999999998,1.613790926533608,0.8898831991753274
-0.20256335999999997,1.6144511713578786,0.8912114907795269
-0.20253728,1.6151114161821494,0.8925397823837252
-0.2025112,1.6157716610064197,0.8945322197900226
-0.20248512,1.6161017834185551,0.8961925842952713
-0.20245903999999998,1.616762028242826,0.8981850217015704
-0.20243296,1.6174222730670966,0.9001774591078678
-0.20240687999999998,1.617752395479232,0.902169896514167
-0.20238079999999997,1.6180825178913676,0.9044944068215163
-0.20235472,1.6187427627156383,0.9071509900299127
-0.20232864,1.6194030075399082,0.9094755003372587
-0.20230255999999996,1.6200632523641798,0.9121320835456609
-0.20227647999999998,1.620393374776315,0.9147886667540562
-0.2022504,1.6210536196005856,0.9177773228635023
-0.20222431999999999,1.621383742012721,0.9210980518740008
-0.20219823999999997,1.622043986836992,0.9240867079834499
-0.20217216,1.6223741092491273,0.9277395098949951
-0.20214607999999998,1.6227042316612628,0.9307281660044443
-0.20211999999999997,1.6233644764855335,0.9343809679159928
-0.20209391999999998,1.6236945988976688,0.9380337698275364
-0.20206784,1.624354843721939,0.9416865717390815
-0.20204176,1.6246849661340748,0.9456714465516798
-0.20201567999999998,1.6250150885462102,0.9496563213642782
-0.2019896,1.6256753333704805,0.9536411961768712
-0.20196351999999998,1.6260054557826162,0.958290216791569
-0.20193743999999997,1.626665700606887,0.9626071645052174
-0.20191135999999998,1.6269958230190222,0.9672561851199113
-0.20188528,1.6273259454311575,0.9719052057346053
-0.2018592,1.6279861902554282,0.9762221534482537
