DAQ/testing_accel_4_6/test_full_0048.csv

#Digilent WaveForms Oscilloscope Acquisition
#Device Name: Discovery2
#Serial Number: SN:210321B02866
#Date Time: 2021-04-06 19:02:56.864
#Sample rate: 38343.6Hz
#Samples: 8192
#Trigger: None
#Channel 1: Range: 500 mV/div Offset: -1.15 V Attenuation: 1 X
#Channel 2: Range: 500 mV/div Offset: -1.45 V Attenuation: 1 X
#Power Supplies: ON
#Positive Supply: ON
#Voltage: 3.3 V
#Negative Supply: OFF
#Voltage: -3.3 V

Time (s),Channel 1 (V),Channel 2 (V)
-0.21116975999999998,1.6659502676509947,0.9423507175411826
-0.21114368,1.66628039006313,0.9460035194527279
-0.2111176,1.6666105124752657,0.9496563213642765
-0.21109151999999998,1.6672707572995364,0.9543053419789744
-0.21106544,1.667931002123807,0.9586222896926168
-0.21103935999999998,1.6685912469480777,0.9632713103073147
-0.21101327999999997,1.6692514917723489,0.9682524038230628
-0.21098719999999999,1.6695816141844837,0.9732334973388063
-0.21096112,1.670241859008754,0.9782145908545475
-0.21093504,1.670902103833025,0.983527757271345
-0.21090895999999998,1.6712322262451607,0.9885088507870932
-0.21088288,1.671562348657296,0.9938220172038863
-0.21085679999999998,1.6722225934815667,0.9991351836206841
-0.21083071999999997,1.6722225934815669,1.0044483500374823
-0.21080464,1.6728828383058376,1.0104256622563745
-0.21077856,1.6728828383058376,1.015738828673165
-0.21075247999999996,1.6735430831301084,1.0213840679910202
-0.21072639999999998,1.6738732055422436,1.0270293073088603
-0.21070032,1.6738732055422436,1.0330066195277525
-0.21067423999999998,1.6742033279543789,1.03898393174665
-0.21064815999999997,1.674203327954379,1.0446291710644982
-0.21062208,1.6745334503665141,1.0509385561844398
-0.21059599999999998,1.6745334503665141,1.0572479413043872
-0.21056991999999997,1.6745334503665141,1.0632252535232853
-0.21054383999999998,1.6745334503665141,1.0698667115442737
-0.21051776,1.6745334503665141,1.0761760966642153
-0.21049168,1.6745334503665141,1.082485481784163
-0.21046559999999997,1.674533450366514,1.0891269398051604
-0.21043952,1.674203327954379,1.0957683978261485
-0.21041343999999998,1.6745334503665141,1.1027419287481957
-0.21038735999999997,1.6742033279543789,1.1093833867691931
-0.21036127999999998,1.6742033279543789,1.116356917691234
-0.2103352,1.6738732055422438,1.123330448613275
-0.21030912,1.6738732055422436,1.130303979535322
-0.21028303999999998,1.6735430831301081,1.1379416562594686
-0.21025696,1.6735430831301081,1.1449151871815064
-0.21023087999999998,1.6732129607179729,1.152552863905653
-0.21020479999999997,1.6732129607179727,1.1601905406297996
-0.21017871999999999,1.6725527158937021,1.1671640715518405
-0.21015264,1.6725527158937021,1.1751338211770264
-0.21012656,1.6718924710694316,1.1824394250001242
-0.21010047999999998,1.6718924710694314,1.190077101724271
-0.2100744,1.6715623486572964,1.1980468513494607
-0.21004831999999998,1.6709021038330252,1.2053524551725578
-0.21002223999999997,1.6705719814208897,1.2133222047977548
-0.20999616,1.6702418590087547,1.2209598815218947
-0.20997008,1.6695816141844844,1.2285975582460311
-0.20994399999999996,1.669251491772348,1.2365673078712383
-0.20991791999999998,1.6685912469480777,1.2442049845953747
-0.20989184,1.6682611245359427,1.2521747342205645
-0.20986575999999998,1.6679310021238072,1.2601444838457612
-0.20983967999999997,1.667270757299536,1.2677821605699084
-0.2098136,1.666940634887401,1.2760839830961475
-0.20978751999999998,1.66628039006313,1.2840537327213444
-0.20976143999999997,1.6656201452388593,1.2923555552475914
-0.20973535999999998,1.6652900228267242,1.3009894506748763
-0.20970928,1.6646297780024537,1.3086271273990162
-0.2096832,1.6642996555903182,1.3169289499252625
-0.20965711999999997,1.663639410766047,1.3248986995504595
-0.20963104,1.662979165941777,1.3328684491756455
-0.20960495999999998,1.6626490435296413,1.3411702717018918
-0.20957887999999997,1.6613285538810996,1.3491400213270888
-0.20955279999999998,1.6606683090568293,1.357441843853328
-0.20952672,1.6600080642325585,1.3654115934785176
-0.20950064,1.6590176969961523,1.3733813431037143
-0.20947455999999998,1.6583574521718811,1.381683165629961
-0.20944848,1.6573670849354758,1.3899849881561963
-0.20942239999999998,1.6563767176990694,1.3979547377813935
-0.20939631999999997,1.6560465952869337,1.4065886332086897
-0.20937023999999999,1.6550562280505279,1.4142263099328294
-0.20934416,1.6540658608141223,1.4225281324590686
-0.20931808,1.6534056159898511,1.4304978820842655
-0.20929199999999998,1.652415248753445,1.4384676317094587
-0.20926592,1.6517550039291746,1.4471015271367473
-0.20923983999999998,1.6507646366927684,1.4550712767619445
-0.20921375999999997,1.6494441470442267,1.4627089534860915
-0.20918768,1.648783902219956,1.4706787031112813
-0.2091616,1.6477935349835509,1.4783163798354177
-0.20913551999999996,1.6464730453350076,1.4862861294606253
-0.20910943999999998,1.6454826780986025,1.4942558790858111
-0.20908336,1.644492310862197,1.5015614829089015
-0.20905727999999998,1.6435019436257903,1.5095312325340982
-0.20903119999999997,1.6425115763893838,1.517168909258245
-0.20900512,1.641521209152978,1.524806585982385
-0.20897903999999998,1.6405308419165716,1.532444262706532
-0.20895295999999997,1.6395404746801652,1.5400819394306786
-0.20892687999999998,1.6385501074437598,1.5473875432537656
-0.2089008,1.6378898626194893,1.5553572928789554
-0.20887471999999999,1.6365693729709476,1.5626628967020526
-0.20884863999999997,1.6359091281466764,1.56996850052515
-0.20882256,1.6345886384981363,1.5776061772492864
-0.20879647999999998,1.6335982712617294,1.5849117810723836
-0.20877039999999997,1.6326079040253232,1.5925494577965305
-0.20874431999999998,1.6319476592010527,1.5998550616196208
-0.20871824,1.6306271695525119,1.6068285925416619
-0.20869216,1.6296368023161052,1.6141341963647586
-0.20866607999999998,1.6286464350796983,1.6214398001878556
-0.20864,1.6273259454311584,1.6284133311098934
-0.20861391999999998,1.6263355781947515,1.6353868620319405
-0.20858783999999997,1.6250150885462094,1.6423603929539876
-0.20856175999999998,1.6236945988976688,1.6490018509749789
-0.20853568,1.623034354073398,1.6559753818970198
-0.2085096,1.6217138644248565,1.6622847670169676
-0.20848351999999998,1.6203933747763146,1.668926225037965
-0.20845744,1.6194030075399093,1.675567683058953
-0.20843135999999998,1.6180825178913674,1.6818770681789008
-0.20840527999999997,1.6167620282428257,1.6881864532988484
-0.2083792,1.61577166100642,1.6948279113198397
-0.20835312,1.6144511713578795,1.7008052235387292
-0.20832703999999996,1.6134608041214715,1.707114608658685
-0.20830095999999998,1.6124704368850664,1.713423993778624
-0.20827488,1.6114800696486606,1.7194013059975162
-0.20824879999999998,1.610159580000119,1.7253786182164137
-0.20822271999999997,1.609169212763712,1.7313559304353112
-0.20819664,1.6078487231151712,1.7370011697531538
-0.20817056,1.6068583558787661,1.7429784819720433
-0.20814447999999997,1.605867988642358,1.7486237212898987
-0.20811839999999998,1.6045474989938175,1.7539368877066892
-0.20809232,1.603227009345277,1.7592500541234821
-0.20806623999999999,1.60223664210887,1.7645632205402801
-0.20804015999999997,1.6009161524603281,1.7695443140560283
-0.20801408,1.599925785223923,1.774857480472819
-0.20798799999999998,1.5986052955753811,1.7798385739885672
-0.20796191999999997,1.5972848059268392,1.7841555217022156
-0.20793583999999998,1.5962944386904336,1.789136615217959
-0.20790976,1.5949739490418928,1.7934535629316035
-0.20788368,1.5933233369812154,1.7977705106452517
-0.20785759999999998,1.5923329697448085,1.8020874583589
-0.20783152,1.5910124800962686,1.806072333171493
-0.20780543999999998,1.5896919904477265,1.8097251350830414
-0.20777935999999997,1.5883715007991843,1.8140420827966894
-0.20775327999999998,1.5870510111506435,1.8176948847082348
-0.2077272,1.5857305215021027,1.8210156137187303
-0.20770112,1.584740154265696,1.8243363427292292
-0.20767503999999998,1.5834196646171539,1.8276570717397276
-0.20764896,1.5817690525564785,1.8306457278491723
-0.20762287999999998,1.5807786853200716,1.833634383958621
-0.20759679999999997,1.5794581956715297,1.8366230400680696
-0.20757072,1.5781377060229889,1.8389475503754165
-0.20754464,1.5768172163744485,1.8416041335838118
-0.20751856,1.5758268491380416,1.8439286438911613
-0.20749247999999998,1.5741762370773644,1.8459210812974607
-0.2074664,1.5731858698409589,1.847913518703758
-0.20744031999999998,1.571865380192417,1.850238029011107
-0.20741423999999997,1.5702147681317395,1.8515663206153068
-0.20738816,1.569224400895334,1.8535587580216042
-0.20736208,1.5679039112467936,1.855219122526851
-0.20733599999999996,1.5665834215982501,1.8562153412300033
-0.20730991999999998,1.565593054361845,1.8578757057352504
-0.20728384,1.5642725647133042,1.858871924438399
-0.20725775999999999,1.562952075064762,1.859536070240499
-0.20723167999999997,1.5619617078283554,1.8605322889436484
-0.2072056,1.5606412181798146,1.8611964347457475
-0.20717951999999998,1.5593207285312727,1.8615285076467976
-0.20715343999999997,1.5583303612948667,1.8618605805478472
-0.20712735999999998,1.5573399940584611,1.8621926534488966
-0.20710128,1.5560195044099203,1.8621926534488966
-0.2070752,1.5550291371735134,1.8621926534488966
-0.20704911999999998,1.554038769937107,1.8621926534488964
-0.20702304,1.5530484027007017,1.8618605805478472
-0.20699695999999998,1.5517279130521597,1.8615285076467973
-0.20697087999999997,1.5507375458157533,1.8608643618446976
-0.20694479999999998,1.5497471785793477,1.8602002160425983
-0.20691872,1.5487568113429422,1.8592039973394496
-0.20689264,1.5477664441065355,1.85853985153735
-0.20686655999999998,1.5464459544579936,1.8572115599331502
-0.20684048,1.5454555872215885,1.8558832683289528
-0.20681439999999998,1.5447953423973173,1.8545549767247533
-0.20678831999999997,1.5434748527487754,1.8532266851205534
-0.20676223999999999,1.5424844855123698,1.851234247714256
-0.20673616,1.5414941182759645,1.8499059561100584
-0.20671008,1.540503751039558,1.8482455916048093
-0.20668399999999998,1.5395133838031514,1.8465852270995602
-0.20665792,1.538853138978881,1.8445927896932628
-0.20663183999999998,1.5378627717424747,1.843264498089063
-0.20660575999999997,1.5368724045060684,1.8406079148806642
-0.20657968,1.536212159681798,1.8386154774743668
-0.2065536,1.5355519148575278,1.8362909671670211
-0.20652751999999996,1.5345615476211203,1.833302311057569
-0.20650143999999998,1.5339013027968504,1.8306457278491737
-0.20647536,1.53324105797258,1.8276570717397276
-0.20644927999999999,1.5322506907361735,1.8240042698281793
-0.20642319999999997,1.5315904459119023,1.8206835408176807
-0.20639712,1.5306000786754967,1.8170307389061353
-0.20637103999999998,1.5299398338512258,1.8130458640935372
-0.20634495999999997,1.5292795890269546,1.8093930621819883
-0.20631887999999998,1.5286193442026845,1.8054081873693952
-0.2062928,1.527628976966279,1.8007591667547014
-0.20626672,1.527298854554143,1.7967742919421026
-0.20624063999999998,1.5266386097298723,1.7924573442284542
-0.20621456,1.5263084873177373,1.7878083236137625
-0.20618847999999998,1.5256482424934663,1.7831593029990642
-0.20616239999999997,1.5253181200813308,1.778510282384366
-0.20613631999999998,1.5246578752570603,1.7738612617696723
-0.20611024,1.5239976304327898,1.7688801682539288
-0.20608416,1.5233373856085188,1.7638990747381806
-0.20605807999999998,1.5230072631963831,1.7582538354203332
-0.206032,1.5223470183721128,1.753272741904592
-0.20600591999999998,1.521686773547842,1.7479595754877943
-0.20597983999999997,1.5213566511357066,1.7423143361699465
-0.20595375999999999,1.5213566511357066,1.736669096852104
-0.20592768,1.520696406311436,1.731355930435311
-0.2059016,1.5206964063114359,1.7257106911174633
-0.20587551999999998,1.5203662838993006,1.7197333788985685
-0.20584944,1.5200361614871654,1.7137560666796763
-0.20582335999999998,1.5200361614871651,1.7081108273618284
-0.20579727999999997,1.5197060390750299,1.701801442241881
-0.2057712,1.5197060390750299,1.6958241300229888
-0.20574512,1.5197060390750299,1.68951474490305
-0.20571903999999996,1.5193759166628944,1.6835374326841441
-0.20569295999999998,1.5193759166628944,1.6775601204652544
-0.20566688,1.5193759166628944,1.6709186624442633
-0.20564079999999998,1.5193759166628944,1.6646092773243155
-0.20561471999999997,1.5193759166628942,1.6579678193033183
-0.20558864,1.5190457942507591,1.6516584341833767
-0.20556255999999998,1.5193759166628944,1.6446849032613295
-0.20553647999999997,1.5193759166628946,1.6377113723392827
-0.20551039999999998,1.5197060390750299,1.6310699143182943
-0.20548432,1.5197060390750299,1.6240963833962532
-0.20545824,1.5200361614871651,1.617454925375256
-0.20543215999999997,1.5200361614871654,1.6104813944532084
-0.20540608,1.5203662838993004,1.6031757906301214
-0.20537999999999998,1.5203662838993006,1.596202259708074
-0.20535391999999997,1.520696406311436,1.589228728786027
-0.20532783999999998,1.5210265287235711,1.5822551978639858
-0.20530176,1.5213566511357064,1.5749495940408955
-0.20527568,1.521686773547842,1.5676439902177983
-0.20524959999999998,1.5220168959599776,1.560670459295751
-0.20522352,1.5223470183721124,1.553364855472664
-0.20519743999999998,1.522677140784248,1.5457271787485172
-0.20517135999999997,1.5230072631963836,1.5387536478264696
-0.20514527999999999,1.5233373856085188,1.5311159711023297
-0.2051192,1.5236675080206539,1.5238103672792391
-0.20509312,1.5243277528449248,1.5161726905550923
-0.20506703999999998,1.5246578752570605,1.508867086731995
-0.20504096,1.5253181200813308,1.5012294100078587
-0.20501487999999998,1.5259783649056016,1.4939238061847613
-0.20498879999999997,1.5263084873177373,1.4862861294606144
-0.20496272,1.5269687321420078,1.4786484527364745
-0.20493664,1.5276289769662779,1.4710107760123379
-0.20491055999999996,1.52828922179055,1.4633730992881808
-0.20488447999999998,1.52894946661482,1.4560674954650936
-0.2048584,1.5296097114390903,1.448429818740954
-0.20483231999999998,1.5302699562633615,1.4407921420168068
-0.20480623999999997,1.5309302010876322,1.4331544652926598
-0.20478016,1.5315904459119027,1.4255167885685198
-0.20475408,1.5322506907361728,1.4178791118443832
-0.20472799999999997,1.532910935560445,1.4102414351202255
-0.20470191999999998,1.5339013027968504,1.4022716854950397
-0.20467584,1.5345615476211207,1.3946340087708997
-0.20464976,1.5355519148575272,1.3869963320467527
-0.20462367999999997,1.5362121596817981,1.379026582421556
-0.2045976,1.5368724045060684,1.3713889056974196
-0.20457151999999998,1.5378627717424747,1.3637512289732725
-0.20454543999999997,1.5385230165667456,1.3561135522491257
-0.20451935999999998,1.5391832613910161,1.3484758755249857
-0.20449328,1.540173628627422,1.3405061258997961
-0.2044672,1.5411639958638284,1.332868449175649
-0.20444111999999998,1.5421543631002346,1.325230772451502
-0.20441504,1.5428146079245049,1.3175930957273656
-0.20438895999999998,1.5438049751609113,1.309623346102169
-0.20436287999999997,1.5444652199851825,1.3019856693780218
-0.20433679999999999,1.5457857096337233,1.294347992653882
-0.20431072,1.5464459544579938,1.2870423888307914
-0.20428464,1.5474363216944003,1.2794047121066447
-0.20425855999999998,1.5484266889308067,1.271767035382498
-0.20423248,1.5494170561672118,1.2644614315594107
-0.20420639999999998,1.5504074234036185,1.2564916819342142
-0.20418031999999997,1.551397790640025,1.2491860781111173
-0.20415424,1.5523881578764307,1.2418804742880267
-0.20412816,1.5537086475249708,1.2345748704649395
-0.20410208,1.5546990147613777,1.2272692666418425
-0.20407599999999998,1.5556893819977842,1.2196315899176957
-0.20404992,1.5566797492341897,1.2126580589956548
-0.20402383999999998,1.5576701164705964,1.2053524551725578
-0.20399775999999997,1.558660483707003,1.198046851349461
-0.20397168,1.5599809733555439,1.1910733204274202
-0.2039456,1.5609713405919492,1.1840997895053824
-0.20391951999999997,1.561961707828357,1.176794185682276
-0.20389343999999998,1.562952075064762,1.1698206547602383
-0.20386736,1.5639424423011679,1.1628471238381974
-0.20384127999999999,1.5652629319497096,1.1562056658172
-0.20381519999999997,1.5662532991861164,1.1492321348951529
-0.20378912,1.5675737888346573,1.1425906768741616
-0.20376303999999998,1.568234033658928,1.1359492188531672
-0.20373695999999997,1.5695545233074701,1.1293077608321698
-0.20371087999999998,1.570875012956011,1.1226663028111785
-0.2036848,1.5718653801924165,1.116356917691237
-0.20365872,1.5731858698409584,1.1097154596702397
-0.20363263999999998,1.574176237077365,1.1030740016492426
-0.20360656,1.5754967267259052,1.097096689430353
-0.20358047999999998,1.576487093962312,1.090455231409356
-0.20355439999999997,1.5774774611987188,1.084145846289409
-0.20352831999999998,1.5787979508472594,1.0781685340705165
-0.20350224,1.5797883180836652,1.0718591489505749
-0.20347616,1.581108807732207,1.0658818367316771
-0.20345007999999998,1.5820991749686135,1.0599045245127796
-0.203424,1.5830895422050189,1.0539272122938899
-0.20339791999999998,1.5844100318535608,1.0479499000749923
-0.20337183999999997,1.5854003990899672,1.0423046607571447
-0.20334576,1.5863907663263728,1.0366594214393021
-0.20331968,1.5877112559749131,1.031014182121462
-0.2032936,1.5887016232113198,1.0253689428036143
-0.20326751999999998,1.5900221128598617,1.0197237034857665
-0.20324144,1.5906823576841322,1.0144105370689736
-0.20321535999999998,1.592002847332674,1.0090973706521758
-0.20318927999999997,1.5929932145690808,1.0041162771364274
-0.2031632,1.5943137042176214,0.9988031107196345
-0.20313712,1.5956341938661618,0.9938220172038933
-0.20311103999999996,1.5966245611025702,0.9891729965891881
-0.20308495999999998,1.5979450507511104,0.984191903073447
-0.20305888,1.5992655403996512,0.979542882458753
-0.20303279999999999,1.600255907636058,0.9748938618440548
-0.20300671999999997,1.6015763972846002,0.9702448412293567
-0.20298064,1.6028968869331408,0.9655958206146629
-0.20295455999999998,1.6038872541695477,0.9612788729010144
-0.20292847999999997,1.6052077438180896,0.9569619251873663
-0.20290239999999998,1.60652823346663,0.9526449774737238
-0.20287632,1.6075186007030355,0.948660102661129
-0.20285024,1.6088390903515775,0.944343154947481
-0.20282415999999998,1.6094993351758484,0.9400262072338329
-0.20279808,1.6104897024122538,0.9360413324212398
-0.20277199999999998,1.6114800696486602,0.9317243847075918
-0.20274591999999997,1.6124704368850669,0.9284036556970928
-0.20271983999999998,1.6134608041214724,0.924418780884498
-0.20269376,1.614451171357878,0.9207659789729528
-0.20266768,1.6154415385942846,0.9171131770614043
-0.20264159999999998,1.616431905830691,0.9137924480509058
-0.20261552,1.6174222730670964,0.910803791941461
-0.20258943999999998,1.6184126403035028,0.9074830629309625
-0.20256335999999997,1.6197331299520445,0.9051585526236129
-0.20253728,1.620393374776315,0.9018378236131173
-0.2025112,1.6217138644248559,0.8991812404047208
-0.20248512,1.622704231661262,0.8968567300973727
-0.20245903999999998,1.6236945988976688,0.8942001468889738
-0.20243296,1.6250150885462094,0.8922077094826764
-0.20240687999999998,1.6260054557826162,0.8898831991753274
-0.20238079999999997,1.6269958230190227,0.8882228346700781
-0.20235472,1.6279861902554282,0.8865624701648304
-0.20232864,1.6289765574918336,0.8849021056595833
-0.20230255999999996,1.6302970471403768,0.8832417411543316
-0.20227647999999998,1.631287414376782,0.8815813766490845
-0.2022504,1.6322777816131877,0.8805851579459358
-0.20222431999999999,1.6332681488495941,0.8792568663417366
-0.20219823999999997,1.634588638498136,0.878260647638587
-0.20217216,1.6355790057345416,0.8772644289354382
-0.20214607999999998,1.636239250558813,0.876268210232289
-0.20211999999999997,1.6375597402073545,0.8759361373312385
-0.20209391999999998,1.6382199850316246,0.8749399186280903
-0.20206784,1.6395404746801654,0.8746078457270406
-0.20204176,1.6402007195044366,0.8739436999249411
-0.20201567999999998,1.6411910867408432,0.8739436999249411
-0.2019896,1.6421814539772484,0.8739436999249411
-0.20196351999999998,1.6428416988015195,0.8739436999249411
-0.20193743999999997,1.643832066037926,0.8742757728259908
-0.20191135999999998,1.6444923108621965,0.8742757728259908
-0.20188528,1.645482678098602,0.87493991862809
-0.2018592,1.645812800510738,0.8749399186280903
