DAQ/testing_accel_4_6/test_full_0044.csv

#Digilent WaveForms Oscilloscope Acquisition
#Device Name: Discovery2
#Serial Number: SN:210321B02866
#Date Time: 2021-04-06 19:02:55.985
#Sample rate: 38343.6Hz
#Samples: 8192
#Trigger: None
#Channel 1: Range: 500 mV/div Offset: -1.15 V Attenuation: 1 X
#Channel 2: Range: 500 mV/div Offset: -1.45 V Attenuation: 1 X
#Power Supplies: ON
#Positive Supply: ON
#Voltage: 3.3 V
#Negative Supply: OFF
#Voltage: -3.3 V

Time (s),Channel 1 (V),Channel 2 (V)
-0.21116975999999998,1.6616586762932353,1.1724772379686361
-0.21114368,1.6609984314689645,1.1801149146927759
-0.2111176,1.6606683090568293,1.187752591416923
-0.21109151999999998,1.6596779418204228,1.19539026814107
-0.21106544,1.659347819408288,1.2030279448652064
-0.21103935999999998,1.6586875745840168,1.2106656215893534
-0.21101327999999997,1.658027329759746,1.2183032983135007
-0.21098719999999999,1.6576972073476108,1.2266051208397397
-0.21096112,1.6567068401112057,1.233910724662827
-0.21093504,1.6560465952869343,1.2422125471890726
-0.21090895999999998,1.6550562280505279,1.2498502239132199
-0.21088288,1.6547261056383928,1.258152046439459
-0.21085679999999998,1.6537357384019864,1.266121796064656
-0.21083071999999997,1.6530754935777157,1.274091545689853
-0.21080464,1.652415248753445,1.2823933682160922
-0.21077856,1.6514248815170398,1.290363117841278
-0.21075247999999996,1.6507646366927677,1.2983328674664858
-0.21072639999999998,1.6501043918684974,1.3063026170916716
-0.21070032,1.649114024632092,1.3142723667168612
-0.21067423999999998,1.6484537798078207,1.3225741892431078
-0.21064815999999997,1.6474634125714143,1.330211865967255
-0.21062208,1.6464730453350085,1.338513688493494
-0.21059599999999998,1.6458128005107375,1.3468155110197406
-0.21056991999999997,1.644822433274331,1.3547852606449375
-0.21054383999999998,1.644162188450061,1.3627550102701234
-0.21051776,1.6435019436257905,1.371388905697412
-0.21049168,1.6425115763893843,1.3790265824215595
-0.21046559999999997,1.6415212091529778,1.387328404947806
-0.21043952,1.6408609643287078,1.395298154572992
-0.21041343999999998,1.6398705970923013,1.4032679041981888
-0.21038735999999997,1.63921035226803,1.4115697267244354
-0.21036127999999998,1.637889862619489,1.419539476349625
-0.2103352,1.6372296177952188,1.4275092259748146
-0.21030912,1.6362392505588124,1.4358110485010611
-0.21028303999999998,1.6352488833224061,1.4434487252252084
-0.21025696,1.6345886384981358,1.4517505477514436
-0.21023087999999998,1.6335982712617294,1.459388224475591
-0.21020479999999997,1.6329380264374582,1.4676900470018373
-0.21017871999999999,1.6319476592010527,1.475659796627027
-0.21015264,1.6309572919646476,1.4836295462522129
-0.21012656,1.629966924728241,1.4915992958774098
-0.21010047999999998,1.6293066799039697,1.4992369726015569
-0.2100744,1.627986190255429,1.5072067222267465
-0.21004831999999998,1.6269958230190222,1.5151764718519432
-0.21002223999999997,1.626335578194751,1.5228141485760902
-0.20999616,1.6253452109583455,1.5307838982012798
-0.20997008,1.6243548437219402,1.5384215749254164
-0.20994399999999996,1.6233644764855322,1.5460592516495737
-0.20991791999999998,1.6220439868369918,1.5536969283737103
-0.20989184,1.6210536196005862,1.5613346050978503
-0.20986575999999998,1.6200632523641796,1.5689722818219973
-0.20983967999999997,1.6190728851277731,1.5766099585461442
-0.2098136,1.6180825178913674,1.5839155623692345
-0.20978751999999998,1.6167620282428257,1.5915532390933813
-0.20976143999999997,1.6157716610064188,1.5988588429164783
-0.20973535999999998,1.6144511713578784,1.6061644467395655
-0.20970928,1.6134608041214729,1.6131379776616064
-0.2096832,1.6124704368850664,1.620775654385753
-0.20965711999999997,1.6114800696486598,1.6277491853078
-0.20963104,1.6104897024122546,1.634722716229838
-0.20960495999999998,1.6091692127637127,1.6420283200529349
-0.20957887999999997,1.608178845527306,1.649001850974982
-0.20955279999999998,1.6068583558787652,1.6556433089959732
-0.20952672,1.6058679886423595,1.6626168399180141
-0.20950064,1.604877621405953,1.6695903708400612
-0.20947455999999998,1.603557131757411,1.6762318288610587
-0.20944848,1.602566764521006,1.6828732868820468
-0.20942239999999998,1.6015763972845996,1.6891826720019945
-0.20939631999999997,1.6002559076360574,1.6958241300229915
-0.20937023999999999,1.5989354179875166,1.7018014422418837
-0.20934416,1.5979450507511108,1.708442900262875
-0.20931808,1.5966245611025691,1.7144202124817731
-0.20929199999999998,1.595634193866163,1.720397524700668
-0.20926592,1.594313704217622,1.7263748369195602
-0.20923983999999998,1.5933233369812154,1.7326842220395073
-0.20921375999999997,1.5920028473326735,1.7379973884563056
-0.20918768,1.591012480096268,1.7436426277741481
-0.2091616,1.5896919904477276,1.7496199399930377
-0.20913551999999996,1.588371500799184,1.7549331064098432
-0.20910943999999998,1.5873811335627788,1.7602462728266337
-0.20908336,1.5860606439142382,1.7655594392434268
-0.20905727999999998,1.5850702766778313,1.770540532759175
-0.20903119999999997,1.5840799094414246,1.775521626274923
-0.20900512,1.5827594197928838,1.7805027197906664
-0.20897903999999998,1.5814389301443417,1.7851517404053647
-0.20895295999999997,1.5801184404957997,1.7898007610200626
-0.20892687999999998,1.5787979508472594,1.794117708733705
-0.2089008,1.5778075836108538,1.7984346564473492
-0.20887471999999999,1.576487093962312,1.8020874583588982
-0.20884863999999997,1.5754967267259052,1.8064044060725462
-0.20882256,1.574176237077365,1.8103892808851392
-0.20879647999999998,1.572855747428823,1.8140420827966879
-0.20877039999999997,1.5715352577802808,1.8173628118071865
-0.20874431999999998,1.57021476813174,1.8210156137187319
-0.20871824,1.5692244008953344,1.824004269828178
-0.20869216,1.5679039112467925,1.8269929259376267
-0.20866607999999998,1.5665834215982504,1.8303136549481254
-0.20864,1.5652629319497102,1.8333023110575701
-0.20861391999999998,1.5642725647133036,1.835958894265969
-0.20858783999999997,1.5626219526526264,1.838615477474368
-0.20856175999999998,1.5616315854162206,1.840939987781715
-0.20853568,1.5603110957676798,1.8429324251880124
-0.2085096,1.5589906061191379,1.8452569354953612
-0.20848351999999998,1.558000238882731,1.8469173000006107
-0.20845744,1.5566797492341908,1.8489097374069072
-0.20843135999999998,1.555359259585649,1.8505701019121568
-0.20840527999999997,1.554368892349242,1.8522304664174059
-0.2083792,1.5530484027007012,1.8535587580216042
-0.20835312,1.5517279130521608,1.8548870496258019
-0.20832703999999996,1.5507375458157528,1.8562153412300026
-0.20830095999999998,1.5497471785793477,1.857211559933151
-0.20827488,1.548426688930807,1.8582077786362996
-0.20824879999999998,1.5471061992822648,1.8592039973394492
-0.20822271999999997,1.5461158320458581,1.8595360702404993
-0.20819664,1.5447953423973173,1.8598681431415487
-0.20817056,1.5438049751609122,1.860200216042598
-0.20814447999999997,1.5428146079245042,1.8605322889436482
-0.20811839999999998,1.541824240688099,1.8605322889436482
-0.20809232,1.5405037510395583,1.8602002160425986
-0.20806623999999999,1.5395133838031514,1.8602002160425983
-0.20804015999999997,1.5385230165667447,1.8595360702404988
-0.20801408,1.5372025269182046,1.8592039973394494
-0.20798799999999998,1.536212159681798,1.8582077786363
-0.20796191999999997,1.5352217924453913,1.8578757057352497
-0.20793583999999998,1.5339013027968504,1.8565474141310516
-0.20790976,1.53324105797258,1.855551195427903
-0.20788368,1.5319205683240382,1.8545549767247533
-0.20785759999999998,1.5312603234997668,1.8532266851205537
-0.20783152,1.5299398338512267,1.8515663206153066
-0.20780543999999998,1.52894946661482,1.850238029011107
-0.20777935999999997,1.5279590993784136,1.8485776645058578
-0.20775327999999998,1.527298854554143,1.8469173000006098
-0.2077272,1.5263084873177375,1.8449248625943124
-0.20770112,1.525318120081331,1.8435965709901125
-0.20767503999999998,1.5246578752570599,1.8419362064848632
-0.20764896,1.5236675080206545,1.8399437690785665
-0.20762287999999998,1.522677140784248,1.8376192587712177
-0.20759679999999997,1.5220168959599771,1.8352947484638686
-0.20757072,1.5213566511357066,1.832638165255472
-0.20754464,1.5206964063114365,1.8296495091460272
-0.20751856,1.5200361614871654,1.8266608530365784
-0.20749247999999998,1.5190457942507591,1.82334012402608
-0.2074664,1.5183855494264886,1.8196873221145347
-0.20744031999999998,1.5173951821900822,1.8160345202029862
-0.20741423999999997,1.5167349373658112,1.8120496453903874
-0.20738816,1.5157445701294054,1.8074006247756935
-0.20736208,1.5147542028930003,1.8034157499631005
-0.20733599999999996,1.5140939580687278,1.7987667293483969
-0.20730991999999998,1.5131035908323227,1.7944497816347547
-0.20728384,1.512443346008052,1.7894686881190112
-0.20725775999999999,1.5117831011837812,1.7848196675043129
-0.20723167999999997,1.5111228563595103,1.779838573988565
-0.2072056,1.5104626115352398,1.775189553373871
-0.20717951999999998,1.5098023667109688,1.7698763869570733
-0.20715343999999997,1.509142121886698,1.7645632205402777
-0.20712735999999998,1.5084818770624275,1.7592500541234846
-0.20710128,1.5081517546502925,1.754268960607741
-0.2070752,1.5074915098260213,1.7486237212898939
-0.20704911999999998,1.5071613874138858,1.7436426277741455
-0.20702304,1.506831265001751,1.7376653155552557
-0.20699695999999998,1.5065011425896153,1.7326842220395073
-0.20697087999999997,1.5061710201774798,1.7263748369195602
-0.20694479999999998,1.5058408977653446,1.7207295976017176
-0.20691872,1.5055107753532095,1.7147522853828254
-0.20689264,1.5055107753532093,1.7091070460649775
-0.20686655999999998,1.5051806529410738,1.7027976609450302
-0.20684048,1.5051806529410738,1.6968203487261406
-0.20681439999999998,1.5045204081168033,1.6901788907051438
-0.20678831999999997,1.504520408116803,1.6842015784862456
-0.20676223999999999,1.5041902857046678,1.6775601204652544
-0.20673616,1.5041902857046678,1.6715828082463648
-0.20671008,1.5038601632925326,1.6649413502253685
-0.20668399999999998,1.5041902857046678,1.6586319651054207
-0.20665792,1.5038601632925326,1.6516584341833798
-0.20663183999999998,1.5041902857046678,1.6450169761623823
-0.20660575999999997,1.5038601632925326,1.6380434452403352
-0.20657968,1.5041902857046678,1.631401987219344
-0.2065536,1.5038601632925326,1.6240963833962567
-0.20652751999999996,1.504520408116803,1.617454925375249
-0.20650143999999998,1.5041902857046678,1.6098172486511124
-0.20647536,1.504520408116803,1.6028437177290715
-0.20644927999999999,1.5045204081168033,1.5955381139059746
-0.20642319999999997,1.5048505305289386,1.5885645829839272
-0.20639712,1.5048505305289386,1.5812589791608367
-0.20637103999999998,1.505180652941074,1.5742854482387891
-0.20634495999999997,1.5055107753532095,1.566315698613593
-0.20631887999999998,1.5058408977653446,1.5593421676915555
-0.2062928,1.5058408977653446,1.5517044909674156
-0.20626672,1.5068312650017508,1.5443988871443182
-0.20624063999999998,1.506831265001751,1.537093283321221
-0.20621456,1.507491509826021,1.5294556065970846
-0.20618847999999998,1.5074915098260213,1.5218179298729375
-0.20616239999999997,1.5081517546502925,1.5145123260498403
-0.20613631999999998,1.5084818770624275,1.5065425764246505
-0.20611024,1.509142121886698,1.4992369726015602
-0.20608416,1.5091421218866983,1.4912672229763637
-0.20605807999999998,1.5098023667109692,1.483297473351167
-0.206032,1.510132489123104,1.4756597966270306
-0.20600591999999998,1.510792733947375,1.4676900470018337
-0.20597983999999997,1.5111228563595107,1.459720297376637
-0.20595375999999999,1.5117831011837812,1.452082620652497
-0.20592768,1.5124433460080515,1.4441128710273075
-0.2059016,1.5131035908323227,1.4364751943031604
-0.20587551999999998,1.5137638356565932,1.428837517579017
-0.20584944,1.5144240804808637,1.4208677679538273
-0.20582335999999998,1.5150843253051347,1.4132300912296802
-0.20579727999999997,1.5160746925415411,1.4052603416044835
-0.2057712,1.517065059777947,1.3976226648803436
-0.20574512,1.517725304602217,1.389984988156207
-0.20571903999999996,1.518385549426489,1.3820152385309996
-0.20569295999999998,1.5190457942507591,1.3740454889058138
-0.20566688,1.5200361614871647,1.3664078121816738
-0.20564079999999998,1.5206964063114359,1.3584380625564771
-0.20561471999999997,1.5220168959599776,1.35080038583233
-0.20558864,1.5223470183721126,1.3428306362071405
-0.20556255999999998,1.523337385608519,1.3351929594829934
-0.20553647999999997,1.5239976304327907,1.3272232098577972
-0.20551039999999998,1.525318120081331,1.31991760603471
-0.20548432,1.5259783649056013,1.3119478564095204
-0.20545824,1.527298854554143,1.3043101796853733
-0.20543215999999997,1.5282892217905497,1.2966725029612267
-0.20540608,1.5292795890269548,1.289698972039189
-0.20537999999999998,1.5306000786754967,1.2820612953150423
-0.20535391999999997,1.5315904459119032,1.2744236185908957
-0.20532783999999998,1.532580813148309,1.2671180147678052
-0.20530176,1.5339013027968498,1.2594803380436652
-0.20527568,1.5348916700332564,1.252174734220568
-0.20524959999999998,1.535882037269663,1.2448691303974708
-0.20522352,1.5372025269182032,1.2375635265743838
-0.20519743999999998,1.53819289415461,1.229925849850237
-0.20517135999999997,1.5395133838031518,1.2229523189281897
-0.20514527999999999,1.5405037510395576,1.2156467151050991
-0.2051192,1.5414941182759632,1.2083411112820086
-0.20509312,1.5424844855123698,1.2010355074589116
-0.20506703999999998,1.5438049751609118,1.194061976536864
-0.20504096,1.5447953423973169,1.1864242998127277
-0.20501487999999998,1.5457857096337233,1.1797828417917298
-0.20498879999999997,1.5467760768701302,1.172477237968633
-0.20496272,1.5480965665186708,1.1655037070465921
-0.20493664,1.5494170561672111,1.1585301761245543
-0.20491055999999996,1.5504074234036196,1.151556645202498
-0.20488447999999998,1.5517279130521597,1.1449151871815095
-0.2048584,1.5527182802885655,1.1379416562594686
-0.20483231999999998,1.5543688923492427,1.1316322711395208
-0.20480623999999997,1.5556893819977848,1.124658740217474
-0.20478016,1.5570098716463256,1.1183493550975323
-0.20475408,1.5580002388827308,1.111707897076544
-0.20472799999999997,1.5596508509434095,1.105730584857637
-0.20470191999999998,1.5606412181798146,1.0990891268366487
-0.20467584,1.5619617078283554,1.0931118146177565
-0.20464976,1.5632821974768976,1.0868024294978094
-0.20462367999999997,1.5646026871254397,1.080493044377862
-0.2045976,1.5659231767739799,1.0745157321589724
-0.20457151999999998,1.5669135440103865,1.068538419940075
-0.20454543999999997,1.5685641560710637,1.0625611077211774
-0.20451935999999998,1.5695545233074695,1.056583795502285
-0.20449328,1.5712051353681455,1.0506064832833928
-0.2044672,1.5721955026045522,1.0446291710644953
-0.20444111999999998,1.5738461146652296,1.0389839317466474
-0.20441504,1.5751666043137698,1.0333386924288077
-0.20438895999999998,1.576487093962312,1.0276934531109596
-0.20436287999999997,1.577807583610854,1.0223802866941616
-0.20433679999999999,1.5791280732593949,1.016735047376319
-0.20431072,1.5804485629079357,1.0117539538605755
-0.20428464,1.5817690525564778,1.006440787443778
-0.20425855999999998,1.583419664617155,1.0014596939280294
-0.20423248,1.5844100318535603,0.9958144546101896
-0.20420639999999998,1.5863907663263728,0.9914975068965406
-0.20418031999999997,1.5873811335627794,0.9861843404797431
-0.20415424,1.5887016232113202,0.9815353198650492
-0.20412816,1.5900221128598606,0.976554226349308
-0.20410208,1.5910124800962675,0.9722372786356591
-0.20407599999999998,1.5923329697448092,0.9679203309220108
-0.20404992,1.59365345939335,0.9632713103073168
-0.20402383999999998,1.5953040714540276,0.9592864354947181
-0.20399775999999997,1.5966245611025698,0.9546374148800205
-0.20397168,1.5979450507511104,0.9509846129684753
-0.2039456,1.5989354179875157,0.9469997381558823
-0.20391951999999997,1.6005860300481942,0.943346936244328
-0.20389343999999998,1.6015763972845996,0.9390299885306855
-0.20386736,1.6032270093452756,0.9357092595201899
-0.20384127999999999,1.6042173765816823,0.9320564576086414
-0.20381519999999997,1.6055378662302244,0.9284036556970933
-0.20378912,1.6071884782909005,0.9254149995876472
-0.20376303999999998,1.6081788455273067,0.9217621976761002
-0.20373695999999997,1.609829457587984,0.9187735415666511
-0.20371087999999998,1.6108198248243895,0.9151207396551059
-0.2036848,1.6121403144729303,0.9127962293477591
-0.20365872,1.6131306817093372,0.9094755003372608
-0.20363263999999998,1.6147812937700143,0.9071509900299115
-0.20360656,1.6157716610064194,0.9044944068215163
-0.20358047999999998,1.6170921506549614,0.902169896514167
-0.20355439999999997,1.6184126403035035,0.8998453862068181
-0.20352831999999998,1.6197331299520443,0.8978529488005207
-0.20350224,1.6207234971884499,0.8958605113942233
-0.20347616,1.6220439868369918,0.8935360010868744
-0.20345007999999998,1.6233644764855337,0.891875636581625
-0.203424,1.6243548437219388,0.890215272076378
-0.20339791999999998,1.6260054557826162,0.8888869804721783
-0.20337183999999997,1.6269958230190227,0.8872266159669292
-0.20334576,1.6279861902554282,0.8858983243627309
-0.20331968,1.6293066799039686,0.8845700327585333
-0.2032936,1.6306271695525105,0.8832417411543337
-0.20326751999999998,1.6316175367889172,0.8825775953522337
-0.20324144,1.632607904025323,0.881581376649085
-0.20321535999999998,1.6339283936738649,0.8809172308469851
-0.20318927999999997,1.6349187609102713,0.8795889392427861
-0.2031632,1.635909128146677,0.8792568663417366
-0.20313712,1.6368994953830822,0.8782606476385884
-0.20311103999999996,1.6378898626194902,0.8779285747375377
-0.20308495999999998,1.6392103522680306,0.8779285747375377
-0.20305888,1.6402007195044361,0.8772644289354385
-0.20303279999999999,1.6411910867408428,0.8772644289354382
-0.20300671999999997,1.6421814539772492,0.8772644289354383
-0.20298064,1.643171821213655,0.877596501836488
-0.20295455999999998,1.6441621884500615,0.8772644289354385
-0.20292847999999997,1.645152555686468,0.877928574737538
-0.20290239999999998,1.6461429229228732,0.8782606476385875
-0.20287632,1.6471332901592788,0.8792568663417362
-0.20285024,1.6481236573956854,0.879921012143836
-0.20282415999999998,1.6487839022199564,0.8805851579459362
-0.20279808,1.6497742694563617,0.8822455224511833
-0.20277199999999998,1.6507646366927684,0.8832417411543332
-0.20274591999999997,1.6514248815170394,0.8845700327585329
-0.20271983999999998,1.652415248753445,0.8862303972637806
-0.20269376,1.6530754935777157,0.887558688867979
-0.20266768,1.6540658608141219,0.8895511262742778
-0.20264159999999998,1.654726105638393,0.8912114907795274
-0.20261552,1.6557164728747984,0.8935360010868733
-0.20258943999999998,1.656046595286934,0.8955284384931727
-0.20256335999999997,1.6573670849354756,0.8975208758994722
-0.20253728,1.6576972073476108,0.9001774591078687
-0.2025112,1.6583574521718814,0.9028340423162652
-0.20248512,1.6593478194082874,0.905490625524663
-0.20245903999999998,1.659677941820423,0.9081472087330619
-0.20243296,1.6606683090568288,0.911135864842508
-0.20240687999999998,1.6613285538810998,0.9141245209519567
-0.20238079999999997,1.6619887987053708,0.9174452499624555
-0.20235472,1.6626490435296413,0.9207659789729511
-0.20232864,1.6629791659417765,0.9240867079834453
-0.20230255999999996,1.6636394107660475,0.9274074369939488
-0.20227647999999998,1.6639695331781827,0.9310602389054923
-0.2022504,1.6646297780024533,0.9347130408170375
-0.20222431999999999,1.6652900228267242,0.938365842728586
-0.20219823999999997,1.665950267650995,0.9423507175411846
-0.20217216,1.6662803900631302,0.9466676652548289
-0.20214607999999998,1.666610512475266,0.950320467166378
-0.20211999999999997,1.6672707572995362,0.9549694877810758
-0.20209391999999998,1.6672707572995362,0.9592864354947181
-0.20206784,1.6676008797116715,0.9636033832083625
-0.20204176,1.6679310021238072,0.9679203309220108
-0.20201567999999998,1.6682611245359427,0.9729014244377586
-0.2019896,1.6685912469480775,0.9775504450524505
-0.20196351999999998,1.6689213693602132,0.9825315385681983
-0.20193743999999997,1.6692514917723487,0.9875126320839462
-0.20191135999999998,1.6692514917723487,0.9924937255996897
-0.20188528,1.6695816141844835,0.9978068920164829
-0.2018592,1.6695816141844837,1.0031200584332807
