DAQ/testing_accel_4_6/test_full_0024.csv

#Digilent WaveForms Oscilloscope Acquisition
#Device Name: Discovery2
#Serial Number: SN:210321B02866
#Date Time: 2021-04-06 18:58:56.529
#Sample rate: 6275.1Hz
#Samples: 8192
#Trigger: Source: Channel 1 Type: Edge Condition: Rising Level: 0 V Hyst.: Auto HoldOff: 0 s
#Channel 1: Range: 500 mV/div Offset: -1.8 V Attenuation: 1 X
#Channel 2: Range: 500 mV/div Offset: -1.45 V Attenuation: 1 X
#Power Supplies: ON
#Positive Supply: ON
#Voltage: 3.3 V
#Negative Supply: OFF
#Voltage: -3.3 V

Time (s),Channel 1 (V),Channel 2 (V)
-1.2903379200000002,0.09676458305969557,-0.011362654273602502
-1.2901785600000002,0.09643446064755994,-0.011362654273602502
-1.2900192000000001,0.09610433823542468,-0.011694727174651991
-1.28985984,0.09577421582328904,-0.012026800075702004
-1.28970048,0.09577421582328904,-0.011694727174651991
-1.28954112,0.09577421582328904,-0.0113626542736022
-1.2893817600000002,0.09577421582328904,-0.011030581372553012
-1.2892224,0.09577421582328904,-0.011030581372552861
-1.28906304,0.09610433823542483,-0.010034362669403416
-1.2889036800000002,0.09676458305969467,-0.009370216867304819
-1.2887443200000002,0.0974248278839657,-0.008373998164155525
-1.2885849600000001,0.098415195120372,-0.007377779461005929
-1.2884256,0.09907543994464318,-0.006381560757856333
-1.28826624,0.10006580718104904,-0.005385342054707341
-1.28810688,0.10072605200532007,-0.004721196252607536
-1.2879475200000001,0.10138629682959022,-0.004057050450508637
-1.28778816,0.1017164192417257,-0.0037249775494589965
-1.2876288000000002,0.10204654165386065,-0.003392904648409658
-1.2874694400000002,0.10237666406599628,-0.0030608317473596446
-1.2873100800000001,0.1027067864781317,-0.0030608317473594937
-1.28715072,0.10336703130240243,-0.002396685945260213
-1.28699136,0.10369715371453785,-0.0020646130442100487
-1.286832,0.10402727612667408,-0.0014004672421104656
-1.2866726400000001,0.10501764336307873,-0.000736321440011869
-1.28651328,0.10534776577521465,-0.0004042485389619266
-1.2863539200000003,0.1056778881873496,-0.0004042485389619266
-1.2861945600000002,0.10567788818734991,-0.0004042485389619266
-1.2860352000000002,0.10567788818734991,-0.0004042485389619266
-1.28587584,0.10567788818734991,-0.0004042485389619266
-1.28571648,0.10567788818734991,-0.000736321440011567
-1.28555712,0.10567788818734991,-0.000736321440011567
-1.28539776,0.10567788818735022,-0.000736321440011567
-1.2852384000000001,0.10600801059948539,-0.000736321440011567
-1.28507904,0.10567788818734991,-0.000736321440011567
-1.2849196800000002,0.10567788818734991,-0.000736321440011567
-1.2847603200000002,0.10567788818734991,-0.0010683943410610564
-1.2846009600000001,0.10600801059948539,-0.0010683943410612073
-1.2844416,0.10600801059948539,-0.0010683943410612073
-1.28428224,0.10600801059948539,-0.0010683943410610564
-1.28412288,0.10600801059948539,-0.000736321440011869
-1.2839635200000001,0.10600801059948539,-0.0010683943410612073
-1.28380416,0.10600801059948539,-0.0010683943410612073
-1.2836448000000003,0.10600801059948539,-0.0010683943410612073
-1.2834854400000002,0.10600801059948539,-0.000736321440011718
-1.2833260800000001,0.1063381330116205,-0.0004042485389620776
-1.28316672,0.10765862266016213,0.0012561159662867194
-1.28300736,0.10864898989656857,0.0022523346694363158
-1.282848,0.10963935713297494,0.00324855337258561
-1.28268864,0.11029960195724599,0.003912699174685112
-1.28252928,0.11128996919365108,0.004576844976783789
-1.28236992,0.11195021401792198,0.005240990778883443
-1.2822105600000002,0.11228033643005678,0.005573063679932853
-1.2820512000000002,0.11294058125432752,0.0062372094820321335
-1.2818918400000001,0.11360082607859856,0.006569282383082298
-1.28173248,0.1139309484907342,0.006901355284131938
-1.28157312,0.1142610709028693,0.006901355284131787
-1.28141376,0.1142610709028693,0.006569282383081996
-1.2812544000000001,0.1142610709028693,0.006237209482032435
-1.28109504,0.1142610709028693,0.006237209482032435
-1.2809356800000002,0.1142610709028693,0.006237209482032435
-1.2807763200000002,0.1139309484907342,0.005573063679933456
-1.2806169600000001,0.11393094849073404,0.0055730636799331545
-1.2804576,0.11393094849073404,0.0055730636799331545
-1.28029824,0.11393094849073389,0.00524099077888299
-1.28013888,0.11360082607859796,0.0045768449767834875
-1.2799795200000001,0.11294058125432813,0.0042447720757343
-1.27982016,0.11228033643005708,0.0032485533725850058
-1.2796608000000003,0.11162009160578716,0.0022523346694367685
-1.2795014400000002,0.11128996919365139,0.0019202617683865243
-1.2793420800000002,0.11062972436938065,0.0012561159662870215
-1.27918272,0.11029960195724509,0.000924043065237079
-1.27902336,0.10996947954510945,0.0002598972631374252
-1.278864,0.10963935713297404,-7.217563791236618e-5
-1.27870464,0.10897911230870301,-0.000736321440012473
-1.2785452800000001,0.10831886748443287,-0.0017325401431607101
-1.27838592,0.10732850024802643,-0.002728758846310155
-1.2782265600000002,0.10633813301162155,-0.003392904648408752
-1.2780672000000002,0.10567788818735022,-0.0037249775494588456
-1.2779078400000001,0.10567788818734991,-0.004057050450508637
-1.27774848,0.10534776577521465,-0.004057050450508637
-1.27758912,0.10534776577521465,-0.004057050450508637
-1.27742976,0.10534776577521465,-0.004057050450508335
-1.2772704000000001,0.10534776577521465,-0.0037249775494591474
-1.27711104,0.10534776577521465,-0.0037249775494589965
-1.2769516800000003,0.10534776577521465,-0.0037249775494589965
-1.2767923200000002,0.10534776577521465,-0.003392904648409507
-1.2766329600000001,0.10501764336307932,-0.0037249775494588456
-1.2764736,0.10534776577521465,-0.003392904648409356
-1.27631424,0.10534776577521465,-0.003392904648409356
-1.27615488,0.10534776577521435,-0.003392904648409356
-1.27599552,0.10501764336307948,-0.003392904648409356
-1.27583616,0.10534776577521465,-0.003392904648409356
-1.2756768,0.1053477657752145,-0.003392904648409356
-1.2755174400000002,0.10501764336307948,-0.003392904648409356
-1.2753580800000002,0.10501764336307917,-0.003392904648409356
-1.2751987200000001,0.10501764336307917,-0.003392904648409356
-1.27503936,0.10402727612667317,-0.00505326915365778
-1.27488,0.10237666406599584,-0.00671363365890703
-1.27472064,0.10105617441745436,-0.008041925263105813
-1.2745612800000001,0.10039592959318422,-0.008706071065204712
-1.27440192,0.099405562356778,-0.009038143966254575
-1.2742425600000002,0.09907543994464305,-0.009702289768353252
-1.2740832000000002,0.0984151951203723,-0.010366435570453057
-1.2739238400000001,0.09775495029610157,-0.010698508471502848
-1.27376448,0.09709470547183052,-0.011030581372552861
-1.27360512,0.09643446064755978,-0.011694727174652142
-1.27344576,0.09643446064755919,-0.011694727174652142
-1.2732864000000002,0.09577421582328935,-0.011694727174652142
-1.27312704,0.09577421582328904,-0.011694727174652142
-1.27296768,0.09577421582328904,-0.011362654273602502
-1.2728083200000002,0.09577421582328904,-0.011362654273602502
-1.2726489600000002,0.09577421582328904,-0.011362654273602502
-1.2724896,0.09610433823542452,-0.010698508471502999
-1.27233024,0.09643446064756009,-0.010034362669403265
-1.27217088,0.09709470547183083,-0.009038143966254122
-1.27201152,0.09775495029610216,-0.008041925263104304
-1.2718521600000001,0.09874531753250748,-0.007045706559956066
-1.2716928,0.099405562356778,-0.006049487856806923
-1.2715334400000002,0.10039592959318332,-0.005053269153658686
-1.2713740800000002,0.10105617441745465,-0.004721196252608291
-1.2712147200000001,0.1017164192417257,-0.004057050450508637
-1.27105536,0.10204654165386096,-0.0037249775494589965
-1.270896,0.10237666406599659,-0.003392904648409205
-1.27073664,0.102706786478132,-0.003060831747359192
-1.2705772800000001,0.10303690889026702,-0.0027287588463100042
-1.27041792,0.10336703130240243,-0.002396685945260213
-1.2702585600000003,0.10369715371453739,-0.0017325401431613143
-1.2700992000000002,0.10435739853880813,-0.0014004672421112207
-1.2699398400000002,0.10501764336307887,-0.000736321440011869
-1.26978048,0.10534776577521465,-0.0004042485389619266
-1.26962112,0.10567788818734991,-0.0004042485389619266
-1.26946176,0.10567788818734991,-0.0004042485389620776
-1.2693024,0.10567788818734991,-0.0007363214400112649
-1.2691430400000001,0.10567788818734991,-0.0004042485389619266
-1.26898368,0.10567788818734991,-0.000736321440011567
-1.2688243200000002,0.10567788818734991,-0.000736321440011567
-1.2686649600000002,0.10567788818734991,-0.000736321440011567
-1.2685056000000001,0.10567788818734991,-0.000736321440011567
-1.26834624,0.10567788818734991,-0.000736321440011567
-1.26818688,0.10567788818734991,-0.0010683943410612073
-1.26802752,0.10567788818735022,-0.0010683943410612073
-1.2678681600000001,0.10600801059948539,-0.0010683943410612073
-1.2677088,0.10567788818734991,-0.0010683943410612073
-1.2675494400000002,0.10600801059948509,-0.0010683943410612073
-1.2673900800000002,0.10567788818735006,-0.0010683943410612073
-1.2672307200000001,0.10567788818734991,-0.0010683943410612073
-1.26707136,0.10600801059948539,-0.0010683943410612073
-1.266912,0.10600801059948539,-0.0010683943410612073
-1.26675264,0.10600801059948599,-0.0010683943410599993
-1.2665932800000002,0.10666825542375583,0.0002598972631369721
-1.26643392,0.10798874507229739,0.0015881888673363598
-1.26627456,0.10897911230870405,0.002584407570485956
-1.2661152000000002,0.1099694795451087,0.00358062627363374
-1.2659558400000002,0.11029960195724493,0.003912699174684358
-1.2657964800000001,0.11128996919365108,0.004908917877833652
-1.26563712,0.11195021401792213,0.005240990778883594
-1.26547776,0.11261045884219287,0.005905136580983097
-1.2653184,0.1132707036664639,0.0065692823830826
-1.2651590400000001,0.11393094849073404,0.006901355284131938
-1.26499968,0.11393094849073404,0.006569282383082298
-1.2648403200000002,0.114261070902869,0.006901355284131636
-1.2646809600000002,0.1142610709028693,0.006569282383082449
-1.2645216000000001,0.1142610709028693,0.006237209482032435
-1.26436224,0.1142610709028693,0.006237209482032435
-1.26420288,0.1142610709028693,0.0062372094820321335
-1.26404352,0.114261070902869,0.005573063679932853
-1.2638841600000001,0.1139309484907342,0.005240990778883443
-1.2637248,0.11393094849073404,0.005240990778883292
-1.2635654400000003,0.11393094849073404,0.004908917877833954
-1.2634060800000002,0.1132707036664639,0.004576844976784091
-1.2632467200000002,0.11294058125432797,0.003580626273635099
-1.26308736,0.11228033643005708,0.002584407570485503
-1.262928,0.11162009160578626,0.0022523346694355607
-1.26276864,0.11095984678151567,0.0015881888673360577
-1.26260928,0.11062972436938004,0.000924043065236777
-1.2624499200000001,0.11029960195724509,0.0005919701641872166
-1.26229056,0.1096393571329742,0.0002598972631372742
-1.2621312000000002,0.10930923472083917,-0.0004042485389613226
-1.2619718400000002,0.10864898989656843,-0.0010683943410609053
-1.2618124800000001,0.10765862266016213,-0.0017325401431607101
-1.26165312,0.10699837783589139,-0.0030608317473594937
-1.26149376,0.10633813301162034,-0.0037249775494589965
-1.2613344,0.10567788818734991,-0.0037249775494592983
-1.2611750400000001,0.10567788818734991,-0.004057050450508637
-1.26101568,0.10567788818734991,-0.004057050450508637
-1.2608563200000003,0.10534776577521496,-0.0037249775494592983
-1.2606969600000002,0.10534776577521465,-0.0037249775494589965
-1.2605376000000001,0.10534776577521465,-0.0037249775494589965
-1.26037824,0.10534776577521465,-0.003392904648409356
-1.26021888,0.10534776577521465,-0.0037249775494588456
-1.26005952,0.10534776577521465,-0.003392904648409356
-1.25990016,0.10534776577521465,-0.003392904648409356
-1.2597408,0.10534776577521465,-0.003392904648409356
-1.25958144,0.1053477657752145,-0.003392904648409356
-1.2594220800000002,0.10501764336307948,-0.003392904648409356
-1.2592627200000002,0.1053477657752145,-0.003392904648409356
-1.2591033600000001,0.10501764336307917,-0.003392904648409356
-1.258944,0.10501764336307917,-0.003392904648409356
-1.25878464,0.10501764336307917,-0.003392904648409356
-1.25862528,0.10501764336307887,-0.003392904648409658
-1.2584659200000001,0.10468752095094391,-0.0037249775494589965
-1.25830656,0.10303690889026718,-0.005717414955757283
-1.2581472000000002,0.1017164192417269,-0.007045706559954858
-1.2579878400000002,0.10072605200531992,-0.008041925263104757
-1.2578284800000001,0.10006580718104904,-0.00870607106520441
-1.25766912,0.099405562356778,-0.009038143966254575
-1.25750976,0.09874531753250718,-0.010034362669403869
-1.2573504,0.09808507270823615,-0.01036643557045366
-1.2571910400000001,0.09742482788396631,-0.010698508471502848
-1.25703168,0.09676458305969526,-0.011362654273602502
-1.2568723200000003,0.09643446064756009,-0.01169472717465184
-1.2567129600000002,0.09610433823542483,-0.011694727174652142
-1.2565536000000002,0.0957742158232892,-0.012026800075701853
-1.25639424,0.09577421582328904,-0.011694727174652142
-1.25623488,0.09577421582328904,-0.011362654273602502
-1.25607552,0.09577421582328904,-0.011362654273602502
-1.25591616,0.09577421582328935,-0.011362654273601596
-1.2557568000000001,0.09610433823542452,-0.010366435570453358
-1.25559744,0.09643446064755978,-0.009702289768353856
-1.2554380800000002,0.09709470547182993,-0.009038143966255179
-1.2552787200000002,0.0980850727082363,-0.007709852362056173
-1.2551193600000001,0.09907543994464274,-0.006713633658906426
-1.25496,0.09973568476891348,-0.005717414955757283
-1.25480064,0.10072605200531978,-0.005053269153657478
-1.25464128,0.10138629682959052,-0.0043891233515581975
-1.2544819200000001,0.10171641924172554,-0.004057050450508788
-1.25432256,0.10204654165386096,-0.0037249775494589965
-1.2541632000000003,0.10237666406599613,-0.003392904648409658
-1.2540038400000002,0.10270678647813154,-0.0030608317473596446
-1.2538444800000001,0.10303690889026702,-0.0027287588463100042
-1.25368512,0.10336703130240243,-0.002396685945260213
-1.25352576,0.10402727612667348,-0.001732540143160408
-1.2533664,0.10468752095094422,-0.0010683943410609053
-1.25320704,0.10534776577521496,-0.0004042485389619266
-1.25304768,0.10567788818734991,-0.0004042485389619266
-1.25288832,0.10567788818734991,-0.0004042485389620776
-1.2527289600000002,0.10567788818734991,-0.0007363214400112649
-1.2525696000000002,0.10567788818734991,-0.0004042485389620776
-1.2524102400000001,0.10567788818734991,-0.000736321440011567
-1.25225088,0.10567788818734991,-0.000736321440011567
-1.25209152,0.10567788818734991,-0.000736321440011567
-1.25193216,0.10567788818734991,-0.000736321440011567
-1.2517728000000001,0.10567788818734991,-0.000736321440011567
-1.25161344,0.10567788818734991,-0.000736321440011567
-1.2514540800000002,0.10600801059948509,-0.000736321440011567
-1.2512947200000002,0.10600801059948539,-0.000736321440011567
-1.2511353600000001,0.10567788818735006,-0.0010683943410610564
-1.250976,0.10600801059948539,-0.0010683943410612073
-1.25081664,0.10600801059948539,-0.0010683943410612073
-1.25065728,0.10600801059948539,-0.0010683943410612073
-1.2504979200000002,0.10600801059948539,-0.0010683943410612073
-1.25033856,0.10600801059948539,-0.0010683943410612073
-1.2501792,0.10600801059948539,-0.0010683943410610564
-1.2500198400000002,0.10600801059948539,-0.000736321440011869
-1.2498604800000002,0.10732850024802627,0.000924043065236324
-1.24970112,0.10864898989656813,0.0022523346694358626
-1.24954176,0.10930923472083917,0.0029164804715356672
-1.2493824,0.10996947954511005,0.003580626273634948
-1.24922304,0.11095984678151642,0.004244772075735055
-1.2490636800000001,0.11162009160578656,0.005240990778883292
-1.24890432,0.11228033643005708,0.0055730636799331545
-1.2487449600000002,0.11294058125432722,0.006237209482031832
-1.2485856000000002,0.11360082607859825,0.006569282383082147
-1.2484262400000001,0.11360082607859856,0.006569282383082298
-1.24826688,0.1142610709028693,0.006901355284131938
-1.24810752,0.1142610709028693,0.006901355284131787
-1.24794816,0.1142610709028693,0.006569282383081996
-1.2477888000000001,0.1142610709028693,0.006237209482032586
-1.24762944,0.1142610709028693,0.006237209482032435
-1.2474700800000003,0.1142610709028693,0.005905136580983097
-1.2473107200000002,0.1139309484907342,0.0055730636799333055
-1.2471513600000002,0.11393094849073404,0.0055730636799331545
-1.246992,0.11393094849073404,0.005240990778883292
-1.24683264,0.11360082607859841,0.004576844976783638
-1.24667328,0.113270703666463,0.004244772075733696
-1.24651392,0.11261045884219197,0.0032485533725844016
-1.2463545600000001,0.11195021401792182,0.002584407570485503
-1.2461952,0.11128996919365078,0.0019202617683859201
-1.2460358400000002,0.11062972436938094,0.0012561159662873235
-1.2458764800000002,0.11029960195724524,0.00092404306523723
-1.2457171200000001,0.1099694795451096,0.0005919701641872166
-1.24555776,0.10963935713297435,-7.217563791206416e-5
-1.2453984,0.10930923472083842,-0.000736321440011869
-1.24523904,0.10831886748443227,-0.0014004672421119757
-1.2450796800000001,0.10765862266016213,-0.002396685945260213
-1.24492032,0.10666825542375613,-0.003392904648409356
-1.2447609600000002,0.10600801059948599,-0.0037249775494586947
-1.2446016000000002,0.10567788818735006,-0.004057050450508486
-1.2444422400000001,0.1053477657752148,-0.004057050450508637
-1.24428288,0.10534776577521465,-0.004057050450508637
-1.24412352,0.10534776577521465,-0.0037249775494589965
-1.24396416,0.10534776577521465,-0.0037249775494589965
-1.2438048,0.10534776577521465,-0.0037249775494589965
-1.24364544,0.10534776577521465,-0.0037249775494589965
-1.24348608,0.10534776577521465,-0.0037249775494589965
-1.2433267200000002,0.10534776577521465,-0.0037249775494589965
-1.2431673600000002,0.10501764336307932,-0.0037249775494589965
-1.2430080000000001,0.10501764336307917,-0.003392904648409356
-1.24284864,0.1053477657752145,-0.003392904648409356
-1.24268928,0.10501764336307932,-0.003392904648409356
-1.24252992,0.10534776577521435,-0.003392904648409356
-1.2423705600000001,0.10501764336307917,-0.003392904648409356
-1.2422112,0.10501764336307917,-0.003392904648409356
-1.2420518400000002,0.10501764336307917,-0.003392904648409356
-1.2418924800000002,0.10501764336307917,-0.003392904648409356
-1.2417331200000001,0.10468752095094391,-0.004057050450508637
-1.24157376,0.10303690889026718,-0.006049487856806923
-1.2414144,0.10171641924172525,-0.007377779461006382
-1.24125504,0.10072605200531888,-0.008373998164155374
-1.2410956800000001,0.10006580718104904,-0.008706071065204561
-1.24093632,0.099405562356778,-0.009038143966254575
-1.2407769600000003,0.09874531753250808,-0.010034362669402812
-1.2406176000000002,0.09808507270823734,-0.010366435570453057
-1.2404582400000002,0.09775495029610141,-0.01103058137255256
-1.24029888,0.09709470547183052,-0.011362654273602502
-1.24013952,0.09643446064755963,-0.011694727174652142
-1.23998016,0.09610433823542452,-0.011694727174652142
-1.2398208,0.09610433823542452,-0.01169472717465184
-1.2396614400000001,0.09610433823542452,-0.011362654273602502
-1.23950208,0.09610433823542437,-0.011030581372552861
-1.2393427200000002,0.09577421582328935,-0.011030581372552861
-1.2391833600000002,0.09577421582328904,-0.011030581372552861
-1.2390240000000001,0.09610433823542452,-0.010366435570453358
-1.23886464,0.09676458305969526,-0.009702289768353856
-1.23870528,0.09742482788396645,-0.00837399816415477
-1.23854592,0.0984151951203726,-0.007709852362054663
-1.2383865600000001,0.09907543994464243,-0.006713633658906879
-1.2382272,0.09973568476891348,-0.005717414955757283
-1.2380678400000003,0.10072605200531858,-0.004721196252609045
-1.2379084800000002,0.10138629682958991,-0.00438912335155865
-1.2377491200000001,0.10171641924172554,-0.004057050450508788
-1.23758976,0.10204654165386096,-0.0037249775494589965
-1.2374304,0.10237666406599659,-0.003392904648409205
-1.23727104,0.10270678647813229,-0.003060831747359192
-1.23711168,0.10336703130240274,-0.0027287588463095515
-1.23695232,0.1036971537145377,-0.002396685945260213
-1.23679296,0.10435739853880874,-0.0014004672421107677
-1.2366336000000002,0.10501764336307857,-0.000736321440012171
-1.2364742400000002,0.1053477657752145,-0.000736321440011567
