DAQ/testing_accel_4_6/test_full_0043.csv

#Digilent WaveForms Oscilloscope Acquisition
#Device Name: Discovery2
#Serial Number: SN:210321B02866
#Date Time: 2021-04-06 19:02:55.764
#Sample rate: 38343.6Hz
#Samples: 8192
#Trigger: None
#Channel 1: Range: 500 mV/div Offset: -1.15 V Attenuation: 1 X
#Channel 2: Range: 500 mV/div Offset: -1.45 V Attenuation: 1 X
#Power Supplies: ON
#Positive Supply: ON
#Voltage: 3.3 V
#Negative Supply: OFF
#Voltage: -3.3 V

Time (s),Channel 1 (V),Channel 2 (V)
-0.21116975999999998,1.677834674487868,1.064885618028528
-0.21114368,1.678164796900003,1.0718591489505689
-0.2111176,1.6781647969000033,1.0785006069715664
-0.21109151999999998,1.677834674487868,1.0851420649925638
-0.21106544,1.677834674487868,1.091783523013552
-0.21103935999999998,1.677834674487868,1.0984249810345492
-0.21101327999999997,1.6778346744878678,1.1057305848576462
-0.21098719999999999,1.6775045520757326,1.112704115779687
-0.21096112,1.6771744296635973,1.1193455738006755
-0.21093504,1.677174429663597,1.1266511776237718
-0.21090895999999998,1.6768443072514618,1.133624708545819
-0.21088288,1.6768443072514618,1.1412623852699593
-0.21085679999999998,1.676184062427191,1.1482359161920068
-0.21083071999999997,1.6758539400150556,1.1555415200151038
-0.21080464,1.6758539400150556,1.1628471238381943
-0.21077856,1.6751936951907858,1.1701527276612813
-0.21075247999999996,1.6751936951907849,1.1781224772864878
-0.21072639999999998,1.6748635727786496,1.185428081109575
-0.21070032,1.6745334503665144,1.1933978307347646
-0.21067423999999998,1.6745334503665141,1.2013675803599613
-0.21064815999999997,1.6738732055422436,1.208673184183059
-0.21062208,1.6738732055422436,1.216975006709298
-0.21059599999999998,1.6732129607179729,1.2246126834334452
-0.21056991999999997,1.6732129607179722,1.2329145059596913
-0.21054383999999998,1.6725527158937021,1.240552182683828
-0.21051776,1.6718924710694316,1.2485219323090175
-0.21049168,1.6715623486572961,1.2564916819342142
-0.21046559999999997,1.670902103833025,1.2644614315594112
-0.21043952,1.6705719814208901,1.2727632540856466
-0.21041343999999998,1.6695816141844837,1.2807330037108435
-0.21038735999999997,1.668921369360213,1.2890348262370903
-0.21036127999999998,1.6685912469480777,1.2973366487633293
-0.2103352,1.6676008797116721,1.305306398388519
-0.21030912,1.666940634887401,1.3136082209147655
-0.21028303999999998,1.6659502676509945,1.3219100434410123
-0.21025696,1.6652900228267244,1.330543938868297
-0.21023087999999998,1.6642996555903182,1.338513688493494
-0.21020479999999997,1.6636394107660468,1.3471475839207903
-0.21017871999999999,1.6626490435296413,1.35511733354598
-0.21015264,1.6619887987053712,1.3634191560722153
-0.21012656,1.6609984314689648,1.3720530514995115
-0.21010047999999998,1.6600080642325583,1.3800228011247087
-0.2100744,1.6590176969961528,1.3879925507498982
-0.21004831999999998,1.6583574521718816,1.3959623003750952
-0.21002223999999997,1.6573670849354751,1.4039320500002923
-0.20999616,1.6567068401112048,1.412565945427581
-0.20997008,1.6557164728747997,1.4202036221517176
-0.20994399999999996,1.6547261056383917,1.4285054446779741
-0.20991791999999998,1.6537357384019864,1.4361431214021108
-0.20989184,1.653075493577716,1.44444494392835
-0.20986575999999998,1.6517550039291744,1.452414693553547
-0.20983967999999997,1.650764636692768,1.4607165160797932
-0.2098136,1.6497742694563622,1.4686862657049828
-0.20978751999999998,1.6487839022199555,1.47665601533018
-0.20976143999999997,1.6477935349835489,1.4849578378564259
-0.20973535999999998,1.6464730453350085,1.4925955145805625
-0.20970928,1.6458128005107382,1.500565264205752
-0.2096832,1.6444923108621965,1.5082029409298991
-0.20965711999999997,1.643832066037925,1.5161726905550958
-0.20963104,1.642511576389385,1.524142440180282
-0.20960495999999998,1.641521209152978,1.531780116904429
-0.20957887999999997,1.6402007195044361,1.5394177936285758
-0.20955279999999998,1.6392103522680306,1.5467233974516663
-0.20952672,1.638219985031625,1.5543610741758063
-0.20950064,1.6365693729709476,1.5619987508999533
-0.20947455999999998,1.635579005734541,1.5699685005251496
-0.20944848,1.6342585160860008,1.5769420314471874
-0.20942239999999998,1.6329380264374587,1.5849117810723836
-0.20939631999999997,1.6316175367889167,1.5922173848954808
-0.20937023999999999,1.6306271695525112,1.5995229887185711
-0.20934416,1.6293066799039704,1.6068285925416617
-0.20931808,1.6279861902554282,1.613802123463709
-0.20929199999999998,1.6269958230190222,1.6214398001878525
-0.20926592,1.6253452109583462,1.6280812582088435
-0.20923983999999998,1.6243548437219393,1.6353868620319405
-0.20921375999999997,1.6230343540733971,1.6423603929539878
-0.20918768,1.6217138644248565,1.6496659967770784
-0.2091616,1.6207234971884512,1.656639527699116
-0.20913551999999996,1.6194030075399077,1.6636130586211724
-0.20910943999999998,1.6180825178913674,1.6702545166421607
-0.20908336,1.6167620282428268,1.676895974663152
-0.20905727999999998,1.61577166100642,1.6842015784862487
-0.20903119999999997,1.6144511713578777,1.690178890705147
-0.20900512,1.6131306817093372,1.696820348726138
-0.20897903999999998,1.6118101920607952,1.7031297338460858
-0.20895295999999997,1.6108198248243883,1.7097711918670822
-0.20892687999999998,1.609499335175848,1.7154164311849223
-0.2089008,1.6081788455273074,1.7220578892059133
-0.20887471999999999,1.60652823346663,1.7277031285237616
-0.20884863999999997,1.605537866230223,1.7333483678416095
-0.20882256,1.604217376581683,1.739325680060499
-0.20879647999999998,1.6028968869331408,1.744970919378347
-0.20877039999999997,1.6015763972845989,1.7509482315972442
-0.20874431999999998,1.600255907636058,1.7562613980140371
-0.20871824,1.5989354179875173,1.7615745644308303
-0.20869216,1.5976149283389751,1.7665556579465784
-0.20866607999999998,1.5966245611025685,1.7718688243633762
-0.20864,1.5949739490418928,1.7765178449780676
-0.20861391999999998,1.5939835818054862,1.7818310113948654
-0.20858783999999997,1.5923329697448088,1.7864800320095635
-0.20856175999999998,1.5913426025084032,1.7911290526242574
-0.20853568,1.5896919904477271,1.7954460003379018
-0.2085096,1.588371500799185,1.79976294805155
-0.20848351999999998,1.5870510111506428,1.8037478228641486
-0.20845744,1.5854003990899674,1.808064770577791
-0.20843135999999998,1.5840799094414253,1.8120496453903896
-0.20840527999999997,1.5827594197928831,1.815702447301938
-0.2083792,1.5814389301443423,1.8193552492134835
-0.20835312,1.580118440495802,1.8230080511250268
-0.20832703999999996,1.5787979508472583,1.8263287801355301
-0.20830095999999998,1.5774774611987181,1.829317436244975
-0.20827488,1.5758268491380418,1.8326381652554704
-0.20824879999999998,1.5741762370773644,1.8356268213649194
-0.20822271999999997,1.5731858698409578,1.838615477474368
-0.20819664,1.5715352577802815,1.840939987781715
-0.20817056,1.5705448905438764,1.84359657099011
-0.20814447999999997,1.5692244008953329,1.8459210812974631
-0.20811839999999998,1.5679039112467925,1.8485776645058585
-0.20809232,1.5665834215982517,1.8505701019121559
-0.20806623999999999,1.5652629319497096,1.8528946122195047
-0.20804015999999997,1.5636123198890324,1.8545549767247542
-0.20801408,1.5626219526526273,1.8565474141310507
-0.20798799999999998,1.56097134059195,1.8578757057352504
-0.20796191999999997,1.5599809733555432,1.8595360702404995
-0.20793583999999998,1.5583303612948671,1.8605322889436482
-0.20790976,1.5576701164705966,1.8618605805478463
-0.20788368,1.5560195044099197,1.8625247263499465
-0.20785759999999998,1.5550291371735128,1.8635209450530958
-0.20783152,1.5537086475249726,1.8641850908551947
-0.20780543999999998,1.5523881578764307,1.8648492366572944
-0.20777935999999997,1.5510676682278886,1.8648492366572946
-0.20775327999999998,1.5497471785793477,1.865513382459394
-0.2077272,1.548426688930807,1.865513382459394
-0.20770112,1.5474363216944003,1.8658454553604435
-0.20767503999999998,1.5461158320458583,1.865513382459394
-0.20764896,1.545125464809453,1.865513382459394
-0.20762287999999998,1.5441350975730466,1.8648492366572944
-0.20759679999999997,1.5428146079245044,1.8645171637562445
-0.20757072,1.5414941182759636,1.8638530179541453
-0.20754464,1.5405037510395585,1.8631888721520464
-0.20751856,1.5391832613910168,1.8618605805478476
-0.20749247999999998,1.53819289415461,1.8611964347457475
-0.2074664,1.5372025269182044,1.8598681431415494
-0.20744031999999998,1.536212159681798,1.85853985153735
-0.20741423999999997,1.534891670033256,1.8568794870321006
-0.20738816,1.5339013027968504,1.8555511954279025
-0.20736208,1.532910935560445,1.8538908309226554
-0.20733599999999996,1.5319205683240371,1.8522304664174036
-0.20730991999999998,1.5306000786754967,1.8505701019121568
-0.20728384,1.5299398338512262,1.8489097374069088
-0.20725775999999999,1.5286193442026845,1.8465852270995602
-0.20723167999999997,1.5279590993784133,1.844592789693261
-0.2072056,1.5269687321420078,1.8426003522869634
-0.20717951999999998,1.5259783649056011,1.8399437690785645
-0.20715343999999997,1.5249879976691953,1.8372871858701667
-0.20712735999999998,1.5243277528449248,1.8342985297607206
-0.20710128,1.5233373856085193,1.8309778007502249
-0.2070752,1.522677140784248,1.8279891446407759
-0.20704911999999998,1.5216867735478419,1.8240042698281778
-0.20702304,1.5210265287235714,1.8206835408176838
-0.20699695999999998,1.5200361614871651,1.8166986660050857
-0.20697087999999997,1.5197060390750294,1.8130458640935367
-0.20694479999999998,1.5187156718386237,1.8087289163798923
-0.20691872,1.5180554270143534,1.804411968666248
-0.20689264,1.5173951821900822,1.8004270938536495
-0.20686655999999998,1.5167349373658114,1.796110146140001
-0.20684048,1.5164048149536764,1.7914611255253095
-0.20681439999999998,1.5157445701294054,1.7868121049106112
-0.20678831999999997,1.5150843253051345,1.7821630842959129
-0.20676223999999999,1.5147542028929994,1.7771819907801694
-0.20673616,1.5140939580687294,1.7725329701654775
-0.20671008,1.5137638356565934,1.7672198037486804
-0.20668399999999998,1.5131035908323227,1.7622387102329322
-0.20665792,1.5131035908323227,1.756925543816139
-0.20663183999999998,1.5124433460080517,1.7516123773993413
-0.20660575999999997,1.5121132235959165,1.746299210982543
-0.20657968,1.5121132235959165,1.7406539716647007
-0.2065536,1.5117831011837815,1.7350087323468604
-0.20652751999999996,1.5111228563595105,1.729363493029005
-0.20650143999999998,1.5111228563595105,1.7233861808101154
-0.20647536,1.5107927339473752,1.7174088685912232
-0.20644927999999999,1.510792733947375,1.7114315563723255
-0.20642319999999997,1.5104626115352398,1.7051221712523783
-0.20639712,1.5104626115352398,1.699144859033486
-0.20637103999999998,1.5101324891231043,1.6928354739135387
-0.20634495999999997,1.510132489123104,1.6868581616946405
-0.20631887999999998,1.509802366710969,1.6802167036736522
-0.2062928,1.509802366710969,1.6739073185537106
-0.20626672,1.509802366710969,1.6672658605327133
-0.20624063999999998,1.509802366710969,1.6609564754127655
-0.20621456,1.509802366710969,1.6543150173917773
-0.20618847999999998,1.5101324891231043,1.64767355937078
-0.20616239999999997,1.5101324891231043,1.640700028448733
-0.20613631999999998,1.5101324891231043,1.6337264975266919
-0.20611024,1.5101324891231043,1.626752966604651
-0.20608416,1.5104626115352398,1.6201115085836535
-0.20605807999999998,1.51046261153524,1.6128059047605567
-0.206032,1.5107927339473748,1.605832373838519
-0.20600591999999998,1.510792733947375,1.5988588429164716
-0.20597983999999997,1.5111228563595107,1.5915532390933746
-0.20595375999999999,1.5114529787716457,1.5842476352702841
-0.20592768,1.511783101183781,1.5772741043482432
-0.2059016,1.5121132235959165,1.5696364276240966
-0.20587551999999998,1.5124433460080517,1.562330823801003
-0.20584944,1.512773468420187,1.554693147076863
-0.20582335999999998,1.5131035908323227,1.5473875432537656
-0.20579727999999997,1.5134337132444582,1.539749866529619
-0.2057712,1.5140939580687287,1.5324442627065284
-0.20574512,1.5147542028929988,1.5244745130813426
-0.20571903999999996,1.515084325305135,1.517168909258234
-0.20569295999999998,1.5154144477172702,1.5091991596330483
-0.20566688,1.5160746925415405,1.5015614829089083
-0.20564079999999998,1.5167349373658117,1.4939238061847613
-0.20561471999999997,1.5173951821900824,1.4862861294606144
-0.20558864,1.5177253046022177,1.4786484527364745
-0.20556255999999998,1.5183855494264886,1.4706787031112778
-0.20553647999999997,1.5187156718386243,1.462708953486081
-0.20551039999999998,1.5193759166628944,1.4550712767619445
-0.20548432,1.520036161487165,1.4471015271367549
-0.20545824,1.5210265287235711,1.4394638504126078
-0.20543215999999997,1.521356651135707,1.4314941007874111
-0.20540608,1.5223470183721122,1.423524351162225
-0.20537999999999998,1.5230072631963834,1.415886674438078
-0.20535391999999997,1.5236675080206543,1.4079169248128813
-0.20532783999999998,1.5243277528449248,1.3999471751876917
-0.20530176,1.5253181200813306,1.3923094984635518
-0.20527568,1.5259783649056016,1.384339748838355
-0.20524959999999998,1.526638609729873,1.3763699992131582
-0.20522352,1.527628976966278,1.3684002495879721
-0.20519743999999998,1.5282892217905493,1.360762572863825
-0.20517135999999997,1.5292795890269557,1.3527928232386284
-0.20514527999999999,1.5302699562633615,1.3451551465144884
-0.2051192,1.5309302010876318,1.3371853968892988
-0.20509312,1.5315904459119027,1.3295477201651518
-0.20506703999999998,1.5329109355604447,1.3219100434410047
-0.20504096,1.53390130279685,1.3139402938158187
-0.20501487999999998,1.5348916700332564,1.3063026170916716
-0.20498879999999997,1.5358820372696627,1.2989970132685744
-0.20496272,1.5365422820939332,1.2910272636433848
-0.20493664,1.5375326493303385,1.2837216598202976
-0.20491055999999996,1.5385230165667465,1.2760839830961406
-0.20488447999999998,1.5398435062152869,1.268446306372004
-0.2048584,1.5408338734516924,1.2611407025489136
-0.20483231999999998,1.5414941182759636,1.2535030258247668
-0.20480623999999997,1.5424844855123705,1.2461974220016698
-0.20478016,1.5438049751609113,1.2388918181785793
-0.20475408,1.5444652199851812,1.2312541414544427
-0.20472799999999997,1.5454555872215892,1.2242806105323851
-0.20470191999999998,1.5467760768701295,1.216975006709298
-0.20467584,1.547766444106535,1.209337329985158
-0.20464976,1.549086933755077,1.2023637990631104
-0.20462367999999997,1.5497471785793484,1.1950581952400137
-0.2045976,1.5510676682278886,1.1880846643179759
-0.20457151999999998,1.5520580354642952,1.1811111333959285
-0.20454543999999997,1.5530484027007019,1.1741376024738812
-0.20451935999999998,1.5543688923492427,1.166831998650791
-0.20449328,1.5556893819977835,1.1601905406297996
-0.2044672,1.5570098716463256,1.1528849368067027
-0.20444111999999998,1.5580002388827323,1.1462434787857054
-0.20441504,1.5593207285312725,1.1396020207647173
-0.20438895999999998,1.5603110957676791,1.13262848984267
-0.20436287999999997,1.561631585416221,1.1259870318216727
-0.20433679999999999,1.5626219526526268,1.1190135008996318
-0.20431072,1.5639424423011676,1.11270411577969
-0.20428464,1.5649328095375743,1.1060626577586927
-0.20425855999999998,1.5662532991861164,1.0994211997376953
-0.20423248,1.5675737888346566,1.0927797417167073
-0.20420639999999998,1.5685641560710633,1.0864703565967595
-0.20418031999999997,1.5698846457196054,1.080160971476812
-0.20415424,1.5712051353681462,1.0738515863568703
-0.20412816,1.5721955026045513,1.0675422012369316
-0.20410208,1.573185869840958,1.061232816116984
-0.20407599999999998,1.5741762370773644,1.0552555038980862
-0.20404992,1.5758268491380405,1.049278191679194
-0.20402383999999998,1.5771473387865826,1.0433008794602965
-0.20399775999999997,1.5781377060229895,1.0376556401424486
-0.20397168,1.5794581956715303,1.0316783279235564
-0.2039456,1.5807786853200705,1.0263651615067657
-0.20391951999999997,1.581769052556479,1.0203878492878609
-0.20389343999999998,1.5830895422050193,1.0147426099700207
-0.20386736,1.58441003185356,1.0094294435532278
-0.20384127999999999,1.5854003990899668,1.0041162771364298
-0.20381519999999997,1.5867208887385087,0.9988031107196322
-0.20378912,1.5877112559749142,0.9938220172038887
-0.20376303999999998,1.5887016232113202,0.9888409236881429
-0.20373695999999997,1.5900221128598622,0.9828636114692458
-0.20371087999999998,1.591012480096268,0.9778825179535022
-0.2036848,1.5916727249205385,0.9725693515367093
-0.20365872,1.5926630921569447,0.9675882580209612
-0.20363263999999998,1.5936534593933511,0.9622750916041635
-0.20360656,1.5946438266297565,0.9576260709894717
-0.20358047999999998,1.595634193866163,0.9526449774737238
-0.20355439999999997,1.5966245611025696,0.9483280297600755
-0.20352831999999998,1.5976149283389751,0.9436790091453815
-0.20350224,1.598935417987516,0.9393620614317372
-0.20347616,1.5999257852239226,0.9350451137180888
-0.20345007999999998,1.6009161524603293,0.9310602389054906
-0.203424,1.6022366421088694,0.9274074369939471
-0.20339791999999998,1.6032270093452763,0.9234225621813489
-0.20337183999999997,1.604217376581683,0.9197697602698003
-0.20334576,1.6055378662302238,0.916116958358255
-0.20331968,1.606528233466629,0.912796229347761
-0.2032936,1.6078487231151706,0.9094755003372623
-0.20326751999999998,1.6088390903515775,0.9064868442278133
-0.20324144,1.6101595800001183,0.9034981881183671
-0.20321535999999998,1.611149947236525,0.9008416049099681
-0.20318927999999997,1.6121403144729316,0.8978529488005196
-0.2031632,1.6134608041214724,0.8955284384931727
-0.20313712,1.6144511713578775,0.8928718552847774
-0.20311103999999996,1.6157716610064208,0.8902152720763754
-0.20308495999999998,1.616762028242826,0.8882228346700789
-0.20305888,1.6180825178913667,0.885898324362732
-0.20303279999999999,1.6190728851277736,0.8842379598574823
-0.20300671999999997,1.6200632523641803,0.8819134495501337
-0.20298064,1.621383742012721,0.8805851579459354
-0.20295455999999998,1.6220439868369925,0.8785927205396367
-0.20292847999999997,1.6236945988976694,0.8775965018364862
-0.20290239999999998,1.6243548437219393,0.8756040644301897
-0.20287632,1.625345210958345,0.8742757728259913
-0.20285024,1.6263355781947515,0.8732795541228416
-0.20282415999999998,1.6273259454311584,0.8716191896175927
-0.20279808,1.6286464350796983,0.8706229709144444
-0.20277199999999998,1.6293066799039697,0.8696267522112948
-0.20274591999999997,1.6306271695525114,0.8689626064091948
-0.20271983999999998,1.631287414376782,0.8676343148049965
-0.20269376,1.6326079040253227,0.8673022419039469
-0.20266768,1.6335982712617294,0.8666380961018474
-0.20264159999999998,1.634918760910271,0.8663060232007973
-0.20261552,1.6355790057345414,0.8656418773986986
-0.20258943999999998,1.6365693729709476,0.8656418773986982
-0.20256335999999997,1.637559740207354,0.8656418773986982
-0.20253728,1.6382199850316246,0.8656418773986982
-0.2025112,1.6395404746801654,0.8659739502997478
-0.20248512,1.6402007195044364,0.8659739502997479
-0.20245903999999998,1.6411910867408428,0.866970169002897
-0.20243296,1.6418513315651133,0.8673022419039467
-0.20240687999999998,1.6428416988015195,0.8679663877060462
-0.20238079999999997,1.643832066037926,0.8686305335081461
-0.20235472,1.6444923108621965,0.8696267522112948
-0.20232864,1.6458128005107369,0.8706229709144431
-0.20230255999999996,1.6464730453350094,0.8716191896175947
-0.20227647999999998,1.6474634125714147,0.8732795541228416
-0.2022504,1.6481236573956852,0.87460784572704
-0.20222431999999999,1.6491140246320914,0.8762682102322891
-0.20219823999999997,1.6497742694563624,0.8782606476385884
-0.20217216,1.650434514280633,0.8802530850448858
-0.20214607999999998,1.6514248815170391,0.8829096682532843
-0.20211999999999997,1.6520851263413103,0.8849021056595842
-0.20209391999999998,1.6527453711655804,0.8875586888679795
-0.20206784,1.653405615989851,0.8898831991753263
-0.20204176,1.6540658608141219,0.8925397823837252
-0.20201567999999998,1.6547261056383928,0.8955284384931739
-0.2019896,1.6553863504626631,0.8981850217015692
-0.20196351999999998,1.656046595286934,0.9018378236131173
-0.20193743999999997,1.6563767176990696,0.9048264797225662
-0.20191135999999998,1.65703696252334,0.9081472087330619
-0.20188528,1.6573670849354751,0.9118000106446071
-0.2018592,1.6576972073476108,0.9151207396551059
