DAQ/testing_accel_4_6/test_full_0029.csv

#Digilent WaveForms Oscilloscope Acquisition
#Device Name: Discovery2
#Serial Number: SN:210321B02866
#Date Time: 2021-04-06 19:02:52.684
#Sample rate: 38343.6Hz
#Samples: 8192
#Trigger: None
#Channel 1: Range: 500 mV/div Offset: -1.15 V Attenuation: 1 X
#Channel 2: Range: 500 mV/div Offset: -1.45 V Attenuation: 1 X
#Power Supplies: ON
#Positive Supply: ON
#Voltage: 3.3 V
#Negative Supply: OFF
#Voltage: -3.3 V

Time (s),Channel 1 (V),Channel 2 (V)
-0.21116975999999998,1.6629791659417767,1.094108033320903
-0.21114368,1.6626490435296415,1.1007494913418943
-0.2111176,1.6623189211175058,1.108055095164991
-0.21109151999999998,1.6623189211175058,1.1150286260870386
-0.21106544,1.6623189211175058,1.1223342299101255
-0.21103935999999998,1.6623189211175058,1.1296398337332225
-0.21101327999999997,1.6619887987053703,1.1372775104573694
-0.21098719999999999,1.6616586762932353,1.14458311428046
-0.21096112,1.6613285538811,1.1522207910045965
-0.21093504,1.6613285538810998,1.1595263948276937
-0.21090895999999998,1.6609984314689643,1.1671640715518405
-0.21088288,1.6606683090568295,1.1751338211770301
-0.21085679999999998,1.6606683090568293,1.1831035708022268
-0.21083071999999997,1.6603381866446936,1.1907412475263741
-0.21080464,1.6600080642325583,1.1987109971515637
-0.21077856,1.6596779418204233,1.2066807467767495
-0.21075247999999996,1.6593478194082876,1.2146504964019575
-0.21072639999999998,1.6590176969961523,1.222952318928193
-0.21070032,1.6583574521718818,1.2309220685533826
-0.21067423999999998,1.6580273297597463,1.2388918181785793
-0.21064815999999997,1.6576972073476106,1.2471936407048259
-0.21062208,1.65703696252334,1.2551633903300154
-0.21059599999999998,1.6563767176990691,1.263465212856262
-0.21056991999999997,1.6560465952869334,1.2717670353825088
-0.21054383999999998,1.6553863504626634,1.280068857908744
-0.21051776,1.6547261056383928,1.2883706804349833
-0.21049168,1.6543959832262574,1.2966725029612298
-0.21046559999999997,1.6537357384019862,1.3049743254874768
-0.21043952,1.6534056159898514,1.3136082209147615
-0.21041343999999998,1.652415248753445,1.3222421163420581
-0.21038735999999997,1.6517550039291742,1.3305439388683047
-0.21036127999999998,1.6510947591049037,1.338845761394544
-0.2103352,1.6504345142806331,1.3478117297228822
-0.21030912,1.6501043918684974,1.3557814793480794
-0.21028303999999998,1.6494441470442265,1.3647474476764254
-0.21025696,1.6484537798078212,1.3730492702026609
-0.21023087999999998,1.64779353498355,1.3813510927289077
-0.21020479999999997,1.647463412571414,1.3899849881562039
-0.21017871999999999,1.6461429229228732,1.398286810682443
-0.21015264,1.6454826780986032,1.406920706109728
-0.21012656,1.6451525556864672,1.4152225286359748
-0.21010047999999998,1.644162188450061,1.4235243511622215
-0.2100744,1.6435019436257905,1.4318261736884608
-0.21004831999999998,1.6425115763893843,1.4401279962147073
-0.21002223999999997,1.641851331565113,1.4484298187409541
-0.20999616,1.6408609643287075,1.4567316412671931
-0.20997008,1.6398705970923022,1.464701390892379
-0.20994399999999996,1.6392103522680297,1.4730032134186368
-0.20991791999999998,1.6382199850316246,1.481305035944872
-0.20989184,1.637229617795219,1.4892747855700619
-0.20986575999999998,1.6365693729709476,1.4975766080963082
-0.20983967999999997,1.6355790057345412,1.5055463577215051
-0.2098136,1.6345886384981356,1.5138481802477444
-0.20978751999999998,1.6335982712617292,1.521817929872941
-0.20976143999999997,1.6329380264374578,1.529787679498138
-0.20973535999999998,1.6319476592010527,1.537757429123324
-0.20970928,1.6309572919646471,1.5453951058474638
-0.2096832,1.6299669247282405,1.5533648554726607
-0.20965711999999997,1.6289765574918342,1.5610025321968077
-0.20963104,1.628316312667564,1.568640208920944
-0.20960495999999998,1.6269958230190222,1.5766099585461408
-0.20957887999999997,1.6260054557826158,1.5842476352702874
-0.20955279999999998,1.62501508854621,1.591553239093378
-0.20952672,1.6240247213098045,1.599190915817518
-0.20950064,1.6233644764855333,1.606828592541665
-0.20947455999999998,1.6220439868369914,1.614134196364762
-0.20944848,1.6210536196005862,1.6214398001878492
-0.20942239999999998,1.6200632523641796,1.6284133311098965
-0.20939631999999997,1.6190728851277731,1.6360510078340433
-0.20937023999999999,1.6180825178913674,1.6433566116571336
-0.20934416,1.6170921506549618,1.6503301425791745
-0.20931808,1.6161017834185554,1.6573036735012219
-0.20929199999999998,1.6151114161821494,1.6642772044232659
-0.20926592,1.6141210489457436,1.6712507353453068
-0.20923983999999998,1.6128005592972017,1.6782242662673539
-0.20921375999999997,1.6118101920607952,1.6848657242883514
-0.20918768,1.6108198248243895,1.6918392552103922
-0.2091616,1.609499335175849,1.6984807132313806
-0.20913551999999996,1.608508967939441,1.704790098351337
-0.20910943999999998,1.607518600703036,1.7114315563723255
-0.20908336,1.6065282334666304,1.7177409414922673
-0.20905727999999998,1.6055378662302238,1.7240503266122147
-0.20903119999999997,1.6042173765816818,1.730359711732162
-0.20900512,1.6032270093452763,1.7363370239510543
-0.20897903999999998,1.6022366421088696,1.742314336169952
-0.20895295999999997,1.6012462748724632,1.748623721289899
-0.20892687999999998,1.600255907636058,1.7542689606077388
-0.2089008,1.5992655403996523,1.7599141999255814
-0.20887471999999999,1.5982751731632459,1.7652273663423796
-0.20884863999999997,1.597284805926839,1.7708726056602273
-0.20882256,1.5959643162782988,1.7761857720770178
-0.20879647999999998,1.5949739490418922,1.7814989384938156
-0.20877039999999997,1.5939835818054855,1.7864800320095637
-0.20874431999999998,1.5926630921569447,1.7917931984263569
-0.20871824,1.5916727249205391,1.7964422190410507
-0.20869216,1.5903522352719972,1.801091239655749
-0.20866607999999998,1.5893618680355905,1.8057402602704469
-0.20864,1.5883715007991854,1.8100572079840893
-0.20861391999999998,1.5870510111506435,1.8147062285987874
-0.20858783999999997,1.5857305215021016,1.8186911034113857
-0.20856175999999998,1.584740154265696,1.8226759782239805
-0.20853568,1.5834196646171552,1.8266608530365753
-0.2085096,1.5824292973807483,1.830313654948124
-0.20848351999999998,1.5811088077322064,1.8339664568596723
-0.20845744,1.5797883180836663,1.8372871858701665
-0.20843135999999998,1.5787979508472594,1.840607914880665
-0.20840527999999997,1.5774774611987177,1.8439286438911637
-0.2083792,1.576487093962312,1.8469173000006098
-0.20835312,1.5751666043137715,1.8499059561100546
-0.20832703999999996,1.5741762370773633,1.852894612219507
-0.20830095999999998,1.572855747428823,1.8552191225268526
-0.20827488,1.5718653801924174,1.8578757057352493
-0.20824879999999998,1.5705448905438755,1.8598681431415487
-0.20822271999999997,1.5695545233074688,1.8621926534488973
-0.20819664,1.568234033658928,1.8638530179541453
-0.20817056,1.5672436664225227,1.8655133824593924
-0.20814447999999997,1.5659231767739794,1.8671737469646437
-0.20811839999999998,1.564602687125439,1.8685020385688413
-0.20809232,1.5632821974768982,1.86949825727199
-0.20806623999999999,1.5616315854162206,1.8704944759751396
-0.20804015999999997,1.5603110957676785,1.8711586217772394
-0.20801408,1.5589906061191385,1.8718227675793384
-0.20798799999999998,1.5573399940584611,1.8721548404803883
-0.20796191999999997,1.556019504409919,1.8728189862824878
-0.20793583999999998,1.5546990147613782,1.8728189862824878
-0.20790976,1.5533785251128374,1.8731510591835372
-0.20788368,1.5517279130521597,1.8728189862824878
-0.20785759999999998,1.550407423403618,1.8728189862824876
-0.20783152,1.5494170561672127,1.8724869133814381
-0.20780543999999998,1.5477664441065355,1.8718227675793386
-0.20777935999999997,1.5467760768701289,1.8714906946782885
-0.20775327999999998,1.545455587221588,1.8708265488761895
-0.2077272,1.5444652199851823,1.8701624030740902
-0.20770112,1.5434748527487758,1.8694982572719905
-0.20767503999999998,1.542154363100234,1.8681699656677913
-0.20764896,1.5411639958638288,1.867173746964643
-0.20762287999999998,1.5398435062152869,1.8658454553604435
-0.20759679999999997,1.5385230165667452,1.8645171637562443
-0.20757072,1.5378627717424747,1.8635209450530956
-0.20754464,1.5365422820939343,1.8618605805478485
-0.20751856,1.5358820372696627,1.860200216042599
-0.20749247999999998,1.5348916700332564,1.85853985153735
-0.2074664,1.5339013027968509,1.8565474141310525
-0.20744031999999998,1.5329109355604442,1.854887049625803
-0.20741423999999997,1.531920568324038,1.8528946122195038
-0.20738816,1.5312603234997675,1.8509021748132064
-0.20736208,1.5306000786754974,1.848245591604811
-0.20733599999999996,1.5296097114390899,1.8455890083964086
-0.20730991999999998,1.52894946661482,1.8429324251880133
-0.20728384,1.5276289769662792,1.8396116961775175
-0.20725775999999999,1.5269687321420078,1.8366230400680685
-0.20723167999999997,1.5259783649056013,1.83297023815652
-0.2072056,1.525318120081331,1.829317436244975
-0.20717951999999998,1.5243277528449246,1.8256646343334262
-0.20715343999999997,1.5236675080206539,1.8216797595208296
-0.20712735999999998,1.5230072631963834,1.8176948847082348
-0.20710128,1.5220168959599778,1.8137100098956398
-0.2070752,1.5213566511357066,1.8090609892809422
-0.20704911999999998,1.5206964063114357,1.8047440415672935
-0.20702304,1.5203662838993008,1.800095020952602
-0.20699695999999998,1.5197060390750299,1.7954460003379038
-0.20697087999999997,1.519045794250759,1.7907969797232055
-0.20694479999999998,1.5183855494264884,1.7861479591085117
-0.20691872,1.5180554270143534,1.7811668655927682
-0.20689264,1.5177253046022177,1.7758536991759706
-0.20686655999999998,1.5170650597779467,1.7705405327591726
-0.20684048,1.5164048149536764,1.765227366342382
-0.20681439999999998,1.5164048149536762,1.759914199925584
-0.20678831999999997,1.5154144477172702,1.7542689606077364
-0.20676223999999999,1.5154144477172702,1.7489557941909435
-0.20673616,1.515084325305135,1.7433105548731034
-0.20671008,1.5144240804808642,1.7370011697531567
-0.20668399999999998,1.5140939580687287,1.7310238575342587
-0.20665792,1.5137638356565934,1.7250465453153665
-0.20663183999999998,1.5131035908323227,1.7187371601954193
-0.20660575999999997,1.5131035908323225,1.7127598479765214
-0.20657968,1.5127734684201872,1.7061183899555301
-0.2065536,1.512443346008052,1.7001410777366406
-0.20652751999999996,1.5124433460080515,1.6938316926166845
-0.20650143999999998,1.5121132235959165,1.6871902345956962
-0.20647536,1.5124433460080515,1.6808808494757546
-0.20644927999999999,1.5121132235959165,1.6742393914547573
-0.20642319999999997,1.5121132235959165,1.6675979334337598
-0.20639712,1.5121132235959165,1.6609564754127686
-0.20637103999999998,1.5121132235959163,1.6539829444907215
-0.20634495999999997,1.5117831011837812,1.6470094135686741
-0.20631887999999998,1.5117831011837812,1.6400358826466366
-0.2062928,1.5117831011837812,1.632730278823546
-0.20626672,1.5117831011837812,1.6260888208025484
-0.20624063999999998,1.5121132235959165,1.6191152898805008
-0.20621456,1.5121132235959165,1.6114776131563646
-0.20618847999999998,1.5124433460080517,1.6045040822343168
-0.20616239999999997,1.5124433460080517,1.5971984784112199
-0.20613631999999998,1.5124433460080517,1.5898928745881293
-0.20611024,1.5131035908323225,1.5829193436660884
-0.20608416,1.513433713244458,1.5756137398429915
-0.20605807999999998,1.5134337132444582,1.5679760631188449
-0.206032,1.5140939580687285,1.5606704592957577
-0.20600591999999998,1.514424080480864,1.5533648554726607
-0.20597983999999997,1.5147542028929997,1.545395105847464
-0.20595375999999999,1.5150843253051347,1.5380895020243737
-0.20592768,1.51541444771727,1.5304518253002337
-0.2059016,1.5157445701294054,1.522482075675037
-0.20587551999999998,1.5160746925415407,1.5151764718519432
-0.20584944,1.516404814953676,1.5072067222267536
-0.20582335999999998,1.5167349373658117,1.4995690455026065
-0.20579727999999997,1.5173951821900824,1.4919313687784594
-0.2057712,1.5177253046022177,1.4839616191532699
-0.20574512,1.5183855494264877,1.475991869528084
-0.20571903999999996,1.5187156718386239,1.468022119902876
-0.20569295999999998,1.5190457942507591,1.4597202973766406
-0.20566688,1.5197060390750297,1.4520826206525006
-0.20564079999999998,1.5206964063114359,1.444112871027304
-0.20561471999999997,1.5210265287235714,1.4358110485010576
-0.20558864,1.5213566511357066,1.4281733717769176
-0.20556255999999998,1.5220168959599776,1.419871549250671
-0.20553647999999997,1.522677140784249,1.4119017996254741
-0.20551039999999998,1.523667508020654,1.4039320500002883
-0.20548432,1.5243277528449246,1.3959623003750987
-0.20545824,1.5246578752570603,1.3876604778488522
-0.20543215999999997,1.525978364905602,1.380022801124705
-0.20540608,1.5269687321420073,1.3723851244005687
-0.20537999999999998,1.5276289769662785,1.3640833018743224
-0.20535391999999997,1.5289494666148202,1.3564456251501753
-0.20532783999999998,1.5292795890269553,1.3484758755249857
-0.20530176,1.530269956263361,1.3401740529987465
-0.20527568,1.5312603234997675,1.332868449175649
-0.20524959999999998,1.532250690736174,1.3248986995504524
-0.20522352,1.5332410579725793,1.316928949925266
-0.20519743999999998,1.5342314252089857,1.309623346102169
-0.20517135999999997,1.5352217924453924,1.3016535964769722
-0.20514527999999999,1.536212159681798,1.2940159197528323
-0.2051192,1.5372025269182035,1.2863782430286923
-0.20509312,1.5385230165667454,1.2787405663045452
-0.20506703999999998,1.539513383803152,1.2711028895803984
-0.20504096,1.5408338734516922,1.2637972857573114
-0.20501487999999998,1.5414941182759636,1.2561596090331646
-0.20498879999999997,1.5428146079245058,1.2485219323090178
-0.20496272,1.5441350975730466,1.2412163284859272
-0.20493664,1.5447953423973166,1.2332465788607414
-0.20491055999999996,1.5461158320458597,1.2259409750376338
-0.20488447999999998,1.5471061992822648,1.2186353712145466
-0.2048584,1.5480965665186703,1.2113297673914563
-0.20483231999999998,1.5494170561672123,1.204024163568359
-0.20480623999999997,1.550737545815754,1.196718559745262
-0.20478016,1.5513977906400245,1.1894129559221716
-0.20475408,1.5530484027006997,1.1827714979011832
-0.20472799999999997,1.5543688923492436,1.175465894078077
-0.20470191999999998,1.555359259585649,1.1681602902549897
-0.20467584,1.5563496268220545,1.1615188322339984
-0.20464976,1.5576701164705964,1.1542132284109017
-0.20462367999999997,1.5589906061191383,1.1472396974888548
-0.2045976,1.5599809733555434,1.1409303123689158
-0.20457151999999998,1.56097134059195,1.133956781446869
-0.20454543999999997,1.5622918302404922,1.126983250524822
-0.20451935999999998,1.5639424423011683,1.1206738654048802
-0.20449328,1.5649328095375739,1.1140324073838892
-0.2044672,1.5662532991861158,1.1073909493628915
-0.20444111999999998,1.5675737888346577,1.101081564242944
-0.20441504,1.5685641560710628,1.0944401062219558
-0.20438895999999998,1.5698846457196047,1.0881307211020081
-0.20436287999999997,1.5712051353681467,1.0818213359820605
-0.20433679999999999,1.5721955026045522,1.075511950862119
-0.20431072,1.573185869840958,1.069202565742177
-0.20428464,1.5745063594895,1.0632252535232793
-0.20425855999999998,1.5754967267259066,1.0565837955022823
-0.20423248,1.577147338786582,1.0509385561844424
-0.20420639999999998,1.5781377060229889,1.0446291710644953
-0.20418031999999997,1.5791280732593955,1.0389839317466474
-0.20415424,1.5807786853200716,1.0330066195277552
-0.20412816,1.581769052556477,1.027361380209915
-0.20410208,1.5830895422050186,1.0213840679910178
-0.20407599999999998,1.5844100318535608,1.01573882867317
-0.20404992,1.585070276677831,1.0100935893553276
-0.20402383999999998,1.5867208887385083,1.005112495839579
-0.20399775999999997,1.5880413783870502,0.9994672565217313
-0.20397168,1.5890317456234557,0.9938220172038887
-0.2039456,1.590352235271996,0.9888409236881475
-0.20391951999999997,1.5916727249205396,0.9838598301723923
-0.20389343999999998,1.5926630921569447,0.9785466637556017
-0.20386736,1.5939835818054855,0.9738976431409078
-0.20384127999999999,1.5949739490418922,0.9689165496251599
-0.20381519999999997,1.5962944386904343,0.9642675290104618
-0.20378912,1.5976149283389751,0.9596185083957679
-0.20376303999999998,1.5986052955753811,0.9546374148800222
-0.20373695999999997,1.5999257852239233,0.9503204671663741
-0.20371087999999998,1.601246274872464,0.9463355923537793
-0.2036848,1.6022366421088696,0.9416865717390853
-0.20365872,1.603887254169547,0.9380337698275364
-0.20363263999999998,1.605207743818089,0.9337168221138884
-0.20360656,1.606198111054494,0.9300640202023448
-0.20358047999999998,1.607518600703036,0.9264112182907963
-0.20355439999999997,1.6085089679394426,0.9224263434781981
-0.20352831999999998,1.6098294575879835,0.9191056144677026
-0.20350224,1.6111499472365243,0.9157848854572069
-0.20347616,1.612140314472931,0.9121320835456584
-0.20345007999999998,1.613460804121473,0.9091434274362098
-0.203424,1.6147812937700132,0.9064868442278146
-0.20339791999999998,1.61577166100642,0.9031661152173162
-0.20337183999999997,1.6174222730670973,0.9005095320089171
-0.20334576,1.6184126403035028,0.8978529488005207
-0.20331968,1.6197331299520432,0.8951963655921253
-0.2032936,1.6213837420127204,0.8932039281858255
-0.20326751999999998,1.6220439868369918,0.8902152720763772
-0.20324144,1.623694598897668,0.8885549075711294
-0.20321535999999998,1.6246849661340748,0.8865624701648304
-0.20318927999999997,1.626005455782617,0.8849021056595808
-0.2031632,1.6273259454311577,0.8829096682532834
-0.20313712,1.6283163126675628,0.8812493037480364
-0.20311103999999996,1.629636802316106,0.879588939242785
-0.20308495999999998,1.6306271695525112,0.8782606476385875
-0.20305888,1.631947659201052,0.8769323560343891
-0.20303279999999999,1.6329380264374587,0.8756040644301897
-0.20300671999999997,1.6342585160860004,0.8746078457270401
-0.20298064,1.6349187609102709,0.8736116270238914
-0.20295455999999998,1.6362392505588128,0.8726154083207418
-0.20292847999999997,1.6372296177952195,0.8716191896175925
-0.20290239999999998,1.6382199850316246,0.8709550438154936
-0.20287632,1.6392103522680301,0.8702908980133945
-0.20285024,1.640530841916572,0.8696267522112948
-0.20282415999999998,1.6415212091529785,0.869294679310245
-0.20279808,1.6425115763893838,0.8689626064091954
-0.20277199999999998,1.6435019436257903,0.8689626064091953
-0.20274591999999997,1.6444923108621967,0.8686305335081457
-0.20271983999999998,1.645152555686467,0.8686305335081457
-0.20269376,1.6461429229228728,0.8686305335081457
-0.20266768,1.646803167747144,0.8689626064091953
-0.20264159999999998,1.6477935349835504,0.8696267522112949
-0.20261552,1.6487839022199555,0.8699588251123443
-0.20258943999999998,1.649444147044227,0.8709550438154936
-0.20256335999999997,1.6504345142806334,0.8719512625186433
-0.20253728,1.651424881517039,0.872947481221792
-0.2025112,1.6524152487534445,0.8739436999249407
-0.20248512,1.6530754935777157,0.8752719915291394
-0.20245903999999998,1.6537357384019864,0.8766002831333388
-0.20243296,1.6547261056383922,0.8779285747375372
-0.20240687999999998,1.6553863504626634,0.8795889392427862
-0.20238079999999997,1.6563767176990696,0.8815813766490853
-0.20235472,1.65703696252334,0.8832417411543332
-0.20232864,1.6576972073476102,0.8852341785606297
-0.20230255999999996,1.6586875745840175,0.8875586888679813
-0.20227647999999998,1.6593478194082878,0.8895511262742778
-0.2022504,1.6596779418204228,0.8922077094826742
-0.20222431999999999,1.6603381866446938,0.8948642926910733
-0.20219823999999997,1.6613285538811,0.8975208758994722
-0.20217216,1.6616586762932353,0.9001774591078687
-0.20214607999999998,1.662318921117506,0.9034981881183671
-0.20211999999999997,1.662979165941777,0.906486844227816
-0.20209391999999998,1.663309288353912,0.9094755003372608
-0.20206784,1.6639695331781825,0.9127962293477564
-0.20204176,1.6646297780024535,0.9164490312593048
-0.20201567999999998,1.664959900414589,0.9201018331708535
-0.2019896,1.665290022826724,0.9240867079834465
-0.20196351999999998,1.6659502676509947,0.9277395098949951
-0.20193743999999997,1.6662803900631304,0.9317243847075936
-0.20191135999999998,1.6666105124752657,0.9357092595201884
-0.20188528,1.6669406348874007,0.9400262072338327
-0.2018592,1.6676008797116717,0.9446752278485306
