DAQ/testing_accel_4_6/test_full_0015.csv

#Digilent WaveForms Oscilloscope Acquisition
#Device Name: Discovery2
#Serial Number: SN:210321B02866
#Date Time: 2021-04-06 18:58:11.386
#Sample rate: 6275.1Hz
#Samples: 8192
#Trigger: None
#Channel 1: Range: 500 mV/div Offset: -1.8 V Attenuation: 1 X
#Channel 2: Range: 500 mV/div Offset: -1.45 V Attenuation: 1 X
#Power Supplies: ON
#Positive Supply: ON
#Voltage: 3.3 V
#Negative Supply: OFF
#Voltage: -3.3 V

Time (s),Channel 1 (V),Channel 2 (V)
-1.2903379200000002,0.10765862266016213,-0.0004042485389622286
-1.2901785600000002,0.10765862266016213,-7.217563791221519e-5
-1.2900192000000001,0.10765862266016213,-0.00040424853896177556
-1.28985984,0.10765862266016213,-0.0004042485389619266
-1.28970048,0.10765862266016213,-0.0007363214400114159
-1.28954112,0.10765862266016213,-0.0004042485389619266
-1.2893817600000002,0.10765862266016213,-0.0004042485389619266
-1.2892224,0.10765862266016213,-0.000736321440011567
-1.28906304,0.10765862266016213,-0.000736321440011567
-1.2889036800000002,0.10765862266016213,-0.000736321440011567
-1.2887443200000002,0.10765862266016213,-0.000736321440011567
-1.2885849600000001,0.10765862266016213,-0.000736321440011567
-1.2884256,0.10765862266016213,-0.000736321440011567
-1.28826624,0.10765862266016213,-0.000736321440011567
-1.28810688,0.10765862266016213,-0.000736321440011567
-1.2879475200000001,0.10765862266016213,-0.000736321440011567
-1.28778816,0.10765862266016213,-0.000736321440011567
-1.2876288000000002,0.10765862266016213,-0.000736321440011567
-1.2874694400000002,0.10798874507229723,-0.000736321440011567
-1.2873100800000001,0.10897911230870361,0.000924043065237079
-1.28715072,0.11029960195724509,0.0022523346694358626
-1.28699136,0.11128996919365139,0.0032485533725853076
-1.286832,0.11195021401792273,0.003912699174685112
-1.2866726400000001,0.11294058125432738,0.0045768449767834875
-1.28651328,0.11360082607859856,0.005240990778883292
-1.2863539200000003,0.1142610709028687,0.005573063679932853
-1.2861945600000002,0.11492131572713973,0.006569282383081845
-1.2860352000000002,0.11558156055141047,0.006901355284131787
-1.28587584,0.11591168296354626,0.0072334281851815785
-1.28571648,0.11624180537568167,0.00756550108623129
-1.28555712,0.11657192778781685,0.0072334281851814276
-1.28539776,0.11624180537568152,0.006901355284131938
-1.2852384000000001,0.11624180537568152,0.006901355284131938
-1.28507904,0.11657192778781685,0.006901355284131787
-1.2849196800000002,0.11624180537568182,0.0065692823830826
-1.2847603200000002,0.11591168296354641,0.005905136580983097
-1.2846009600000001,0.11591168296354626,0.005905136580982795
-1.2844416,0.11591168296354626,0.005905136580982795
-1.28428224,0.11591168296354595,0.005240990778883141
-1.28412288,0.11525143813927521,0.004908917877832745
-1.2839635200000001,0.11492131572714004,0.0039126991746845086
-1.28380416,0.1142610709028693,0.0032485533725850058
-1.2836448000000003,0.11360082607859916,0.002584407570486107
-1.2834854400000002,0.11294058125432813,0.0015881888673368128
-1.2833260800000001,0.11261045884219271,0.0012561159662868703
-1.28316672,0.11195021401792182,0.000924043065237079
-1.28300736,0.11162009160578641,0.0005919701641869145
-1.282848,0.11128996919365018,-7.217563791297022e-5
-1.28268864,0.11029960195724418,-0.0010683943410621133
-1.28252928,0.10930923472083887,-0.0020646130442103505
-1.28236992,0.10864898989656768,-0.0030608317473597955
-1.2822105600000002,0.10765862266016303,-0.0037249775494583924
-1.2820512000000002,0.10732850024802702,-0.0037249775494589965
-1.2818918400000001,0.10732850024802687,-0.0037249775494589965
-1.28173248,0.10732850024802672,-0.0037249775494589965
-1.28157312,0.10699837783589154,-0.0037249775494589965
-1.28141376,0.10732850024802687,-0.0037249775494586947
-1.2812544000000001,0.10732850024802687,-0.003392904648409356
-1.28109504,0.10699837783589139,-0.003392904648409356
-1.2809356800000002,0.10699837783589139,-0.003392904648409356
-1.2807763200000002,0.10699837783589139,-0.003392904648409356
-1.2806169600000001,0.10699837783589139,-0.003392904648409356
-1.2804576,0.10699837783589139,-0.003392904648409356
-1.28029824,0.10699837783589139,-0.003392904648409205
-1.28013888,0.10699837783589139,-0.0030608317473594937
-1.2799795200000001,0.10699837783589139,-0.0030608317473594937
-1.27982016,0.10699837783589139,-0.0030608317473594937
-1.2796608000000003,0.10699837783589139,-0.0030608317473594937
-1.2795014400000002,0.10699837783589139,-0.0030608317473594937
-1.2793420800000002,0.10699837783589139,-0.0030608317473594937
-1.27918272,0.10600801059948539,-0.004057050450508637
-1.27902336,0.10435739853880799,-0.006049487856807527
-1.278864,0.10336703130240199,-0.007377779461006231
-1.27870464,0.10237666406599553,-0.008041925263105813
-1.2785452800000001,0.10138629682959022,-0.008706071065204712
-1.27838592,0.10072605200531917,-0.009370216867304517
-1.2782265600000002,0.10006580718104933,-0.010034362669403114
-1.2780672000000002,0.09973568476891363,-0.010366435570453207
-1.2779078400000001,0.09907543994464274,-0.011030581372552861
-1.27774848,0.09808507270823674,-0.011694727174652142
-1.27758912,0.09775495029610111,-0.011694727174652293
-1.27742976,0.097424827883966,-0.012026800075702004
-1.2772704000000001,0.097424827883966,-0.012026800075702004
-1.27711104,0.097424827883966,-0.011694727174652142
-1.2769516800000003,0.097424827883966,-0.011362654273602803
-1.2767923200000002,0.097424827883966,-0.011362654273602502
-1.2766329600000001,0.09709470547183068,-0.011362654273602502
-1.2764736,0.09775495029610126,-0.010366435570453358
-1.27631424,0.0984151951203723,-0.009702289768353252
-1.27615488,0.09907543994464364,-0.008373998164154167
-1.27599552,0.10006580718104964,-0.0073777794610050225
-1.27583616,0.10105617441745496,-0.006381560757856786
-1.2756768,0.101716419241726,-0.005385342054707341
-1.2755174400000002,0.10237666406599584,-0.004721196252608743
-1.2753580800000002,0.10303690889026687,-0.00438912335155865
-1.2751987200000001,0.10336703130240243,-0.0037249775494589965
-1.27503936,0.1036971537145377,-0.003392904648409356
-1.27488,0.10402727612667348,-0.0033929046484090543
-1.27472064,0.10468752095094422,-0.0027287588463098533
-1.2745612800000001,0.10501764336307917,-0.0027287588463098533
-1.27440192,0.10534776577521465,-0.0020646130442103505
-1.2742425600000002,0.1060080105994848,-0.0014004672421116739
-1.2740832000000002,0.10699837783589095,-0.00040424853896237956
-1.2739238400000001,0.10732850024802672,-0.0004042485389619266
-1.27376448,0.10732850024802687,-0.0004042485389619266
-1.27360512,0.10765862266016213,-0.0004042485389619266
-1.27344576,0.10765862266016213,-0.0004042485389619266
-1.2732864000000002,0.10765862266016213,-0.0004042485389619266
-1.27312704,0.10765862266016213,-0.0004042485389619266
-1.27296768,0.10732850024802702,-0.000736321440011567
-1.2728083200000002,0.10765862266016182,-0.000736321440011567
-1.2726489600000002,0.10765862266016213,-0.000736321440011567
-1.2724896,0.10765862266016213,-0.000736321440011567
-1.27233024,0.10765862266016213,-0.000736321440011567
-1.27217088,0.10765862266016213,-0.000736321440011567
-1.27201152,0.10765862266016213,-0.000736321440011567
-1.2718521600000001,0.10765862266016213,-0.000736321440011567
-1.2716928,0.10765862266016213,-0.000736321440011567
-1.2715334400000002,0.10765862266016213,-0.0010683943410609053
-1.2713740800000002,0.10765862266016213,-0.0010683943410612073
-1.2712147200000001,0.10765862266016213,-0.0010683943410612073
-1.27105536,0.10765862266016213,-0.000736321440011567
-1.270896,0.10765862266016243,-0.0007363214400112649
-1.27073664,0.10831886748443408,-7.217563791055407e-5
-1.2705772800000001,0.10963935713297375,0.0015881888673356047
-1.27041792,0.11062972436938034,0.002584407570485503
-1.2702585600000003,0.11162009160578566,0.0032485533725844016
-1.2700992000000002,0.11228033643005678,0.003912699174684207
-1.2699398400000002,0.11294058125432752,0.004908917877833199
-1.26978048,0.11393094849073404,0.005240990778883292
-1.26962112,0.11426107090286974,0.005905136580983248
-1.26946176,0.11525143813927567,0.006901355284131938
-1.2693024,0.11558156055141108,0.00690135528413224
-1.2691430400000001,0.11591168296354626,0.0072334281851815785
-1.26898368,0.11657192778781685,0.00756550108623129
-1.2688243200000002,0.11624180537568182,0.00723342818518188
-1.2686649600000002,0.11624180537568152,0.006901355284132089
-1.2685056000000001,0.11624180537568152,0.006901355284131938
-1.26834624,0.116571927787817,0.006569282383082298
-1.26818688,0.11624180537568152,0.006237209482032284
-1.26802752,0.11624180537568152,0.005905136580982795
-1.2678681600000001,0.11624180537568152,0.005905136580982795
-1.2677088,0.11591168296354626,0.0055730636799331545
-1.2675494400000002,0.11558156055141108,0.005240990778883594
-1.2673900800000002,0.11492131572714034,0.004244772075734602
-1.2672307200000001,0.1142610709028696,0.003580626273634948
-1.26707136,0.11393094849073404,0.0029164804715353654
-1.266912,0.113270703666463,0.0022523346694355607
-1.26675264,0.11261045884219226,0.0015881888673360577
-1.2665932800000002,0.11228033643005723,0.0012561159662868703
-1.26643392,0.11195021401792182,0.0005919701641872166
-1.26627456,0.11128996919365078,0.0002598972631372742
-1.2661152000000002,0.11062972436938094,-0.0004042485389613226
-1.2659558400000002,0.10996947954510991,-0.0014004672421106168
-1.2657964800000001,0.10897911230870361,-0.0027287588463098533
-1.26563712,0.10798874507229723,-0.003392904648409507
-1.26547776,0.10765862266016198,-0.0037249775494589965
-1.2653184,0.10732850024802656,-0.0037249775494589965
-1.2651590400000001,0.10699837783589139,-0.0037249775494589965
-1.26499968,0.10699837783589139,-0.0037249775494589965
-1.2648403200000002,0.10699837783589139,-0.0037249775494589965
-1.2646809600000002,0.10699837783589139,-0.0037249775494589965
-1.2645216000000001,0.10699837783589139,-0.0037249775494589965
-1.26436224,0.10699837783589139,-0.0037249775494589965
-1.26420288,0.10699837783589139,-0.003392904648409356
-1.26404352,0.10699837783589139,-0.003392904648409356
-1.2638841600000001,0.10699837783589139,-0.003392904648409356
-1.2637248,0.10699837783589139,-0.003392904648409356
-1.2635654400000003,0.10699837783589139,-0.003392904648409356
-1.2634060800000002,0.10699837783589139,-0.003392904648409356
-1.2632467200000002,0.10699837783589139,-0.0030608317473596446
-1.26308736,0.10699837783589139,-0.0030608317473594937
-1.262928,0.10699837783589124,-0.003392904648409205
-1.26276864,0.10666825542375628,-0.0030608317473596446
-1.26260928,0.10699837783588989,-0.0033929046484105644
-1.2624499200000001,0.10534776577521465,-0.00472119625260814
-1.26229056,0.10369715371453725,-0.006713633658906879
-1.2621312000000002,0.1027067864781326,-0.007709852362054664
-1.2619718400000002,0.10171641924172614,-0.00837399816415477
-1.2618124800000001,0.10138629682959022,-0.009038143966254575
-1.26165312,0.10039592959318422,-0.010034362669403718
-1.26149376,0.09973568476891317,-0.01036643557045351
-1.2613344,0.09907543994464214,-0.010698508471503602
-1.2611750400000001,0.098415195120372,-0.011362654273602502
-1.26101568,0.09808507270823674,-0.011694727174652142
-1.2608563200000003,0.09775495029610157,-0.012026800075701703
-1.2606969600000002,0.09742482788396616,-0.012026800075702004
-1.2605376000000001,0.097424827883966,-0.011694727174652293
-1.26037824,0.097424827883966,-0.011362654273602502
-1.26021888,0.09742482788396585,-0.011362654273602502
-1.26005952,0.09709470547183083,-0.0113626542736022
-1.25990016,0.0974248278839666,-0.011030581372552258
-1.2597408,0.09808507270823674,-0.010366435570453358
-1.25958144,0.09841519512037245,-0.009370216867303612
-1.2594220800000002,0.0994055623567771,-0.008041925263106417
-1.2592627200000002,0.10039592959318377,-0.007045706559956519
-1.2591033600000001,0.10138629682959022,-0.006049487856806923
-1.258944,0.10204654165386126,-0.005385342054707341
-1.25878464,0.102706786478132,-0.004721196252607838
-1.25862528,0.10336703130240274,-0.004057050450508335
-1.2584659200000001,0.1036971537145377,-0.0037249775494589965
-1.25830656,0.10402727612667317,-0.003392904648409356
-1.2581472000000002,0.10435739853880813,-0.0030608317473597955
-1.2579878400000002,0.10468752095094376,-0.0027287588463100042
-1.2578284800000001,0.10501764336307902,-0.002396685945260364
-1.25766912,0.10567788818734991,-0.0017325401431607101
-1.25750976,0.10633813301162096,-0.0010683943410609053
-1.2573504,0.1069983778358917,-0.0004042485389619266
-1.2571910400000001,0.10732850024802672,-0.0004042485389619266
-1.25703168,0.10732850024802687,-0.0004042485389619266
-1.2568723200000003,0.10732850024802687,-0.0004042485389619266
-1.2567129600000002,0.10765862266016182,-0.0004042485389619266
-1.2565536000000002,0.10765862266016213,-0.0004042485389619266
-1.25639424,0.10765862266016213,-0.0004042485389619266
-1.25623488,0.10732850024802702,-0.000736321440011567
-1.25607552,0.10765862266016213,-0.000736321440011567
-1.25591616,0.10765862266016213,-0.000736321440011567
-1.2557568000000001,0.10765862266016213,-0.000736321440011567
-1.25559744,0.10765862266016213,-0.000736321440011567
-1.2554380800000002,0.10765862266016213,-0.000736321440011567
-1.2552787200000002,0.10765862266016213,-0.000736321440011567
-1.2551193600000001,0.10765862266016213,-0.000736321440011567
-1.25496,0.10765862266016213,-0.000736321440011567
-1.25480064,0.10765862266016213,-0.000736321440011567
-1.25464128,0.10765862266016213,-0.000736321440011567
-1.2544819200000001,0.10765862266016213,-0.000736321440011567
-1.25432256,0.10765862266016213,-0.000736321440011567
-1.2541632000000003,0.10798874507229708,-0.000736321440011567
-1.2540038400000002,0.10897911230870316,0.0005919701641866125
-1.2538444800000001,0.11029960195724449,0.0022523346694351075
-1.25368512,0.11128996919365108,0.0029164804715353654
-1.25352576,0.11195021401792213,0.003580626273634948
-1.2533664,0.112610458842193,0.004244772075734602
-1.25320704,0.11360082607859887,0.005240990778883594
-1.25304768,0.11393094849073404,0.0055730636799331545
-1.25288832,0.11459119331500522,0.005905136580983248
-1.2527289600000002,0.11558156055140988,0.006901355284131033
-1.2525696000000002,0.1159116829635461,0.006901355284131938
-1.2524102400000001,0.11624180537568152,0.0072334281851815785
-1.25225088,0.11624180537568152,0.0072334281851815785
-1.25209152,0.11624180537568152,0.006901355284131787
-1.25193216,0.11624180537568152,0.0065692823830826
-1.2517728000000001,0.11624180537568152,0.006901355284131938
-1.25161344,0.11624180537568152,0.006569282383082298
-1.2514540800000002,0.11624180537568152,0.006237209482032737
-1.2512947200000002,0.11624180537568152,0.005905136580982946
-1.2511353600000001,0.11591168296354641,0.0055730636799333055
-1.250976,0.11591168296354626,0.0055730636799331545
-1.25081664,0.11525143813927537,0.00490891787783335
-1.25065728,0.11492131572713944,0.0042447720757332425
-1.2504979200000002,0.1142610709028696,0.0032485533725854585
-1.25033856,0.11360082607859856,0.002584407570485503
-1.2501792,0.11294058125432752,0.0019202617683859201
-1.2500198400000002,0.11228033643005768,0.0012561159662873235
-1.2498604800000002,0.11228033643005708,0.00092404306523723
-1.24970112,0.11162009160578656,0.0002598972631375762
-1.24954176,0.11128996919365078,-7.21756379125172e-5
-1.2493824,0.1106297243693799,-0.0010683943410616603
-1.24922304,0.10963935713297344,-0.0020646130442112565
-1.2490636800000001,0.10864898989656813,-0.0030608317473594937
-1.24890432,0.10765862266016213,-0.0037249775494589965
-1.2487449600000002,0.10732850024802718,-0.004057050450508335
-1.2485856000000002,0.10732850024802687,-0.0037249775494591474
-1.2484262400000001,0.10732850024802687,-0.0037249775494589965
-1.24826688,0.10732850024802687,-0.0037249775494589965
-1.24810752,0.10699837783589139,-0.0037249775494588456
-1.24794816,0.10699837783589139,-0.003392904648409658
-1.2477888000000001,0.10699837783589139,-0.0037249775494588456
-1.24762944,0.10699837783589139,-0.003392904648409356
-1.2474700800000003,0.10699837783589139,-0.003392904648409356
-1.2473107200000002,0.10699837783589139,-0.003392904648409356
-1.2471513600000002,0.10699837783589139,-0.003392904648409356
-1.246992,0.10699837783589139,-0.0030608317473594937
-1.24683264,0.10699837783589139,-0.0030608317473596446
-1.24667328,0.10699837783589139,-0.003392904648409356
-1.24651392,0.10699837783589139,-0.003392904648409356
-1.2463545600000001,0.10699837783589139,-0.003392904648409356
-1.2461952,0.10699837783589139,-0.003392904648409356
-1.2460358400000002,0.10699837783589139,-0.003392904648409356
-1.2458764800000002,0.10633813301162096,-0.004057050450508335
-1.2457171200000001,0.10468752095094391,-0.005717414955757283
-1.24555776,0.10336703130240243,-0.007045706559956066
-1.2453984,0.10237666406599613,-0.008041925263105511
-1.24523904,0.1017164192417251,-0.008706071065205316
-1.2450796800000001,0.10105617441745496,-0.009370216867304215
-1.24492032,0.10039592959318422,-0.010034362669403718
-1.2447609600000002,0.09973568476891408,-0.010698508471502395
-1.2446016000000002,0.09907543994464305,-0.01103058137255271
-1.2444422400000001,0.0984151951203723,-0.01169472717465184
-1.24428288,0.09775495029610126,-0.012026800075702004
-1.24412352,0.09775495029610096,-0.012026800075702004
-1.24396416,0.09709470547183083,-0.012026800075701703
-1.2438048,0.097424827883966,-0.01169472717465184
-1.24364544,0.097424827883966,-0.011362654273602502
-1.24348608,0.09742482788396585,-0.011362654273602502
-1.2433267200000002,0.09709470547183083,-0.011362654273602502
-1.2431673600000002,0.09775495029610096,-0.0106985084715033
-1.2430080000000001,0.09808507270823674,-0.010034362669403718
-1.24284864,0.09874531753250808,-0.009038143966253971
-1.24268928,0.10006580718104918,-0.0077098523620549655
-1.24252992,0.10105617441745555,-0.006381560757856182
-1.2423705600000001,0.1017164192417257,-0.005717414955757283
-1.2422112,0.10237666406599644,-0.00505326915365778
-1.2420518400000002,0.10303690889026658,-0.004389123351559103
-1.2418924800000002,0.10336703130240228,-0.004057050450508788
-1.2417331200000001,0.1036971537145377,-0.0037249775494589965
-1.24157376,0.10402727612667317,-0.003392904648409356
-1.2414144,0.10468752095094407,-0.003060831747359343
-1.24125504,0.10501764336307948,-0.002728758846309249
-1.2410956800000001,0.1053477657752145,-0.0020646130442106524
-1.24093632,0.10600801059948539,-0.0014004672421110698
-1.2407769600000003,0.10666825542375553,-0.000736321440012171
-1.2406176000000002,0.10699837783589108,-0.0004042485389622286
-1.2404582400000002,0.10732850024802672,-0.0004042485389619266
-1.24029888,0.10765862266016213,-0.0004042485389619266
-1.24013952,0.10765862266016213,-0.0004042485389619266
-1.23998016,0.10765862266016213,-0.0004042485389619266
-1.2398208,0.10765862266016213,-0.0004042485389622286
-1.2396614400000001,0.10765862266016213,-0.000736321440011567
-1.23950208,0.10765862266016213,-0.0004042485389620776
-1.2393427200000002,0.10765862266016213,-0.0007363214400112649
-1.2391833600000002,0.10765862266016213,-0.000736321440011567
-1.2390240000000001,0.10765862266016213,-0.000736321440011567
-1.23886464,0.10765862266016213,-0.000736321440011567
-1.23870528,0.10765862266016213,-0.000736321440011567
-1.23854592,0.10765862266016213,-0.000736321440011567
-1.2383865600000001,0.10765862266016213,-0.000736321440011567
-1.2382272,0.10765862266016213,-0.000736321440011567
-1.2380678400000003,0.10765862266016213,-0.0010683943410609053
-1.2379084800000002,0.10765862266016213,-0.0010683943410612073
-1.2377491200000001,0.10765862266016213,-0.0010683943410612073
-1.23758976,0.10765862266016213,-0.000736321440011567
-1.2374304,0.10831886748443346,-0.00040424853896117155
-1.23727104,0.10963935713297525,0.0012561159662876254
-1.23711168,0.11062972436938094,0.0022523346694367685
-1.23695232,0.11128996919365108,0.0032485533725850058
-1.23679296,0.11228033643005739,0.00391269917468481
-1.2366336000000002,0.11294058125432722,0.004576844976783186
-1.2364742400000002,0.11360082607859825,0.00524099077888299
-1.2363148800000001,0.1142610709028693,0.005905136580982795
