DAQ/testing_accel_4_6/test_full_0046.csv

#Digilent WaveForms Oscilloscope Acquisition
#Device Name: Discovery2
#Serial Number: SN:210321B02866
#Date Time: 2021-04-06 19:02:56.424
#Sample rate: 38343.6Hz
#Samples: 8192
#Trigger: None
#Channel 1: Range: 500 mV/div Offset: -1.15 V Attenuation: 1 X
#Channel 2: Range: 500 mV/div Offset: -1.45 V Attenuation: 1 X
#Power Supplies: ON
#Positive Supply: ON
#Voltage: 3.3 V
#Negative Supply: OFF
#Voltage: -3.3 V

Time (s),Channel 1 (V),Channel 2 (V)
-0.21116975999999998,1.5774774611987181,1.8329702381565216
-0.21114368,1.5761569715501773,1.8356268213649183
-0.2111176,1.5748364819016352,1.8386154774743668
-0.21109151999999998,1.573515992253093,1.8412720606827657
-0.21106544,1.5721955026045529,1.8439286438911613
-0.21103935999999998,1.570875012956011,1.8459210812974607
-0.21101327999999997,1.569884645719604,1.8482455916048095
-0.21098719999999999,1.5685641560710633,1.850238029011107
-0.21096112,1.5672436664225229,1.8522304664174034
-0.21093504,1.5659231767739812,1.8542229038237026
-0.21090895999999998,1.5649328095375743,1.8558832683289521
-0.21088288,1.5639424423011687,1.8572115599331502
-0.21085679999999998,1.5626219526526268,1.85853985153735
-0.21083071999999997,1.5613014630040847,1.8598681431415491
-0.21080464,1.5599809733555439,1.8608643618446978
-0.21077856,1.5586604837070035,1.8615285076467967
-0.21075247999999996,1.5576701164705953,1.8625247263499467
-0.21072639999999998,1.556349626822055,1.8628567992509961
-0.21070032,1.555029137173514,1.8635209450530954
-0.21067423999999998,1.5540387699371074,1.8638530179541453
-0.21064815999999997,1.5530484027007005,1.864185090855195
-0.21062208,1.5517279130521597,1.864185090855195
-0.21059599999999998,1.550407423403618,1.8641850908551947
-0.21056991999999997,1.5494170561672114,1.8638530179541453
-0.21054383999999998,1.5484266889308063,1.8638530179541453
-0.21051776,1.5471061992822654,1.863188872152046
-0.21049168,1.5461158320458588,1.8628567992509961
-0.21046559999999997,1.5447953423973169,1.8618605805478468
-0.21043952,1.5438049751609118,1.8611964347457477
-0.21041343999999998,1.5431447303366403,1.8602002160425983
-0.21038735999999997,1.5418242406880986,1.8592039973394485
-0.21036127999999998,1.5408338734516929,1.8578757057352504
-0.2103352,1.5398435062152873,1.8565474141310523
-0.21030912,1.5391832613910161,1.8552191225268526
-0.21028303999999998,1.5381928941546092,1.8538908309226532
-0.21025696,1.5368724045060693,1.8522304664174059
-0.21023087999999998,1.536212159681798,1.8505701019121568
-0.21020479999999997,1.5355519148575265,1.849241810307957
-0.21017871999999999,1.5342314252089857,1.8475814458027093
-0.21015264,1.5335711803847156,1.8455890083964128
-0.21012656,1.5325808131483094,1.8435965709901134
-0.21010047999999998,1.5319205683240382,1.8412720606827646
-0.2100744,1.5309302010876324,1.8389475503754176
-0.21004831999999998,1.5302699562633615,1.8366230400680685
-0.21002223999999997,1.529279589026955,1.8336343839586198
-0.20999616,1.5286193442026845,1.8306457278491737
-0.20997008,1.5279590993784145,1.82699292593763
-0.20994399999999996,1.5269687321420071,1.8236721969271266
-0.20991791999999998,1.526308487317737,1.8203514679166326
-0.20989184,1.5256482424934665,1.8166986660050872
-0.20986575999999998,1.5249879976691956,1.8130458640935387
-0.20983967999999997,1.5243277528449246,1.8090609892809404
-0.2098136,1.523667508020654,1.8050761144683456
-0.20978751999999998,1.5230072631963831,1.8007591667546972
-0.20976143999999997,1.5226771407842474,1.7964422190410487
-0.20973535999999998,1.5220168959599774,1.7917931984263569
-0.20970928,1.5216867735478423,1.7874762507127124
-0.2096832,1.5210265287235711,1.7824951571969647
-0.20965711999999997,1.5203662838993004,1.7778461365822666
-0.20963104,1.5200361614871654,1.7728650430665254
-0.20960495999999998,1.5193759166628944,1.7678839495507774
-0.20957887999999997,1.5193759166628942,1.7629028560350288
-0.20955279999999998,1.5187156718386237,1.7572576167171863
-0.20952672,1.5183855494264886,1.7522765232014428
-0.20950064,1.5177253046022177,1.7466312838835956
-0.20947455999999998,1.5177253046022174,1.7413181174667973
-0.20944848,1.5173951821900824,1.7353408052479078
-0.20942239999999998,1.517065059777947,1.72969556593006
-0.20939631999999997,1.5167349373658114,1.724050326612212
-0.20937023999999999,1.5164048149536762,1.7180730143933198
-0.20934416,1.5164048149536762,1.7117636292733782
-0.20931808,1.5164048149536762,1.7061183899555301
-0.20929199999999998,1.5164048149536762,1.6998090048355854
-0.20926592,1.516074692541541,1.6934996197156438
-0.20923983999999998,1.5160746925415407,1.6871902345956962
-0.20921375999999997,1.5157445701294052,1.680548776574699
-0.20918768,1.5154144477172702,1.6742393914547573
-0.2091616,1.5154144477172702,1.6679300063348186
-0.20913551999999996,1.5157445701294054,1.6609564754127626
-0.20910943999999998,1.5157445701294054,1.6543150173917742
-0.20908336,1.5154144477172704,1.6476735593707832
-0.20905727999999998,1.5160746925415407,1.640700028448736
-0.20903119999999997,1.5157445701294054,1.6337264975266887
-0.20900512,1.5157445701294054,1.6270850395056975
-0.20897903999999998,1.5160746925415407,1.6197794356826007
-0.20895295999999997,1.516074692541541,1.6131379776616028
-0.20892687999999998,1.5164048149536762,1.6058323738385158
-0.2089008,1.5164048149536762,1.5985267700154253
-0.20887471999999999,1.5164048149536762,1.5912211661923283
-0.20884863999999997,1.5167349373658119,1.5845797081713304
-0.20882256,1.5170650597779467,1.576942031447194
-0.20879647999999998,1.517065059777947,1.5696364276240966
-0.20877039999999997,1.5173951821900824,1.5623308238009994
-0.20874431999999998,1.5177253046022177,1.5546931470768595
-0.20871824,1.5183855494264882,1.5470554703527195
-0.20869216,1.5187156718386237,1.5397498665296223
-0.20866607999999998,1.5190457942507594,1.532444262706525
-0.20864,1.5193759166628942,1.5244745130813389
-0.20861391999999998,1.5197060390750299,1.5168368363571918
-0.20858783999999997,1.5203662838993008,1.509199159633045
-0.20856175999999998,1.5210265287235711,1.5018935558099547
-0.20853568,1.5213566511357064,1.4942558790858147
-0.2085096,1.5220168959599774,1.4866182023616676
-0.20848351999999998,1.5223470183721128,1.478648452736471
-0.20845744,1.5230072631963831,1.4710107760123345
-0.20843135999999998,1.523667508020654,1.4630410263871378
-0.20840527999999997,1.52399763043279,1.4557354225640404
-0.2083792,1.5249879976691956,1.4477656729388508
-0.20835312,1.5256482424934656,1.4401279962147142
-0.20832703999999996,1.5263084873177373,1.4324903194905565
-0.20830095999999998,1.5266386097298725,1.4245205698653707
-0.20827488,1.527628976966278,1.4168828931412307
-0.20824879999999998,1.5282892217905493,1.4092452164170837
-0.20822271999999997,1.5289494666148202,1.401275466791887
-0.20819664,1.5296097114390905,1.393637790067747
-0.20817056,1.5302699562633608,1.3860001133436104
-0.20814447999999997,1.5312603234997682,1.3780303637184035
-0.20811839999999998,1.5319205683240382,1.3703926869942669
-0.20809232,1.5329109355604438,1.3624229373690773
-0.20806623999999999,1.5339013027968504,1.35511733354598
-0.20804015999999997,1.5348916700332569,1.347479656821833
-0.20801408,1.535882037269662,1.3398419800976966
-0.20798799999999998,1.537202526918204,1.3322043033735496
-0.20796191999999997,1.5381928941546104,1.3248986995504524
-0.20793583999999998,1.5391832613910161,1.3172610228263124
-0.20790976,1.540503751039557,1.3102874919042713
-0.20788368,1.5414941182759636,1.302317742279075
-0.20785759999999998,1.5428146079245055,1.2953442113570275
-0.20783152,1.5438049751609109,1.287706534632891
-0.20780543999999998,1.545455587221588,1.280400930809794
-0.20777935999999997,1.5461158320458595,1.2727632540856473
-0.20775327999999998,1.5474363216944003,1.2657897231636064
-0.2077272,1.5480965665186706,1.2581520464394664
-0.20770112,1.5494170561672123,1.2511785155174189
-0.20767503999999998,1.550407423403619,1.2438729116943217
-0.20764896,1.551397790640024,1.2365673078712347
-0.20762287999999998,1.5523881578764307,1.2292617040481375
-0.20759679999999997,1.5537086475249724,1.2226202460271398
-0.20757072,1.5546990147613782,1.2153146422040495
-0.20754464,1.5556893819977833,1.2080090383809623
-0.20751856,1.557009871646325,1.2013675803599644
-0.20749247999999998,1.5580002388827316,1.1943940494379173
-0.2074664,1.5593207285312725,1.1874205185158764
-0.20744031999999998,1.5603110957676791,1.180779060494879
-0.20741423999999997,1.561631585416221,1.1738055295728318
-0.20738816,1.5626219526526268,1.166831998650791
-0.20736208,1.5639424423011672,1.160522613530852
-0.20733599999999996,1.5649328095375754,1.1535490826087962
-0.20730991999999998,1.5662532991861158,1.1469076245878078
-0.20728384,1.5675737888346566,1.1402661665668168
-0.20725775999999999,1.5688942784831987,1.133956781446869
-0.20723167999999997,1.5702147681317407,1.1273153234258717
-0.2072056,1.5715352577802815,1.12100593830593
-0.20717951999999998,1.5725256250166884,1.1146965531859823
-0.20715343999999997,1.5741762370773649,1.1080550951649883
-0.20712735999999998,1.5751666043137704,1.1020777829460962
-0.20710128,1.5761569715501762,1.0957683978261545
-0.2070752,1.5778075836108534,1.0897910856072568
-0.20704911999999998,1.5784678284351248,1.0831496275862598
-0.20702304,1.579788318083665,1.0775043882684199
-0.20699695999999998,1.581108807732207,1.0711950031484725
-0.20697087999999997,1.5824292973807488,1.0655497638306246
-0.20694479999999998,1.5834196646171546,1.0592403787106828
-0.20691872,1.5847401542656954,1.0535951393928402
-0.20689264,1.585730521502102,1.0476178271739427
-0.20686655999999998,1.587051011150644,1.0419725878560948
-0.20684048,1.5880413783870493,1.0359952756372053
-0.20681439999999998,1.5896919904477265,1.0306821092204073
-0.20678831999999997,1.5906823576841331,1.025368942803609
-0.20676223999999999,1.592002847332674,1.0197237034857665
-0.20673616,1.5929932145690793,1.0147426099700252
-0.20671008,1.5943137042176208,1.0094294435532278
-0.20668399999999998,1.595634193866163,1.0047804229385293
-0.20665792,1.5969546835147037,0.9991351836206867
-0.20663183999999998,1.5982751731632459,0.9944861630059881
-0.20660575999999997,1.5989354179875173,0.9895050694902403
-0.20657968,1.6005860300481933,0.9851881217765961
-0.2065536,1.6015763972845987,0.9802070282608549
-0.20652751999999996,1.6025667645210067,0.9758900805471997
-0.20650143999999998,1.603887254169547,0.971241059932508
-0.20647536,1.6048776214059526,0.9669241122188637
-0.20644927999999999,1.6061981110544945,0.9626071645052153
-0.20642319999999997,1.6071884782909012,0.958622289692617
-0.20639712,1.608508967939442,0.9546374148800222
-0.20637103999999998,1.6094993351758486,0.9506525400674238
-0.20634495999999997,1.6108198248243903,0.9469997381558753
-0.20631887999999998,1.6118101920607957,0.9433469362443319
-0.2062928,1.6131306817093365,0.9396941343327866
-0.20626672,1.6141210489457432,0.936041332421238
-0.20624063999999998,1.6154415385942853,0.9327206034107396
-0.20621456,1.6167620282428254,0.9297319473012947
-0.20618847999999998,1.617752395479232,0.9264112182907963
-0.20616239999999997,1.6187427627156388,0.923754635082397
-0.20613631999999998,1.6197331299520443,0.9204339060719013
-0.20611024,1.6210536196005851,0.9177773228635049
-0.20608416,1.6217138644248565,0.9147886667540562
-0.20605807999999998,1.6233644764855335,0.912464156446707
-0.206032,1.6240247213098038,0.9098075732383116
-0.20600591999999998,1.6253452109583455,0.9078151358320121
-0.20597983999999997,1.626005455782617,0.9058226984257131
-0.20595375999999999,1.6273259454311577,0.9041623339204653
-0.20592768,1.6286464350796983,0.9018378236131184
-0.2059016,1.6299669247282405,0.9001774591078687
-0.20587551999999998,1.6306271695525112,0.8988491675036698
-0.20584944,1.6316175367889167,0.897188802998422
-0.20582335999999998,1.6329380264374587,0.8958605113942224
-0.20579727999999997,1.6339283936738653,0.8942001468889733
-0.2057712,1.6349187609102709,0.8932039281858246
-0.20574512,1.6359091281466762,0.8915435636805776
-0.20571903999999996,1.6372296177952192,0.8908794178784758
-0.20569295999999998,1.637889862619489,0.8898831991753274
-0.20566688,1.63921035226803,0.8892190533732284
-0.20564079999999998,1.6398705970923013,0.8885549075711286
-0.20561471999999997,1.6411910867408432,0.8878907617690288
-0.20558864,1.6421814539772488,0.8872266159669298
-0.20556255999999998,1.6431718212136552,0.8865624701648303
-0.20553647999999997,1.6438320660379266,0.8862303972637806
-0.20551039999999998,1.6448224332743318,0.8862303972637806
-0.20548432,1.6458128005107375,0.8862303972637806
-0.20545824,1.6464730453350085,0.8858983243627309
-0.20543215999999997,1.647463412571415,0.8862303972637806
-0.20540608,1.6481236573956852,0.8862303972637806
-0.20537999999999998,1.649444147044227,0.88689454306588
-0.20535391999999997,1.6501043918684979,0.8872266159669302
-0.20532783999999998,1.6510947591049037,0.8882228346700789
-0.20530176,1.6517550039291742,0.8885549075711285
-0.20527568,1.652415248753445,0.8898831991753274
-0.20524959999999998,1.653075493577716,0.8908794178784771
-0.20522352,1.6537357384019862,0.8918756365816254
-0.20519743999999998,1.6547261056383926,0.8932039281858246
-0.20517135999999997,1.6553863504626638,0.8945322197900244
-0.20514527999999999,1.6563767176990694,0.8965246571963218
-0.2051192,1.6567068401112046,0.8978529488005201
-0.20509312,1.6576972073476108,0.899845386206819
-0.20506703999999998,1.6580273297597468,0.9018378236131184
-0.20504096,1.6590176969961519,0.9041623339204642
-0.20501487999999998,1.6593478194082878,0.9061547713267636
-0.20498879999999997,1.660338186644694,0.9088113545351622
-0.20496272,1.6606683090568293,0.9108037919414597
-0.20493664,1.6613285538810991,0.9137924480509044
-0.20491055999999996,1.661658676293236,0.9164490312593078
-0.20488447999999998,1.6623189211175058,0.919769760269802
-0.2048584,1.6629791659417765,0.9224263434781984
-0.20483231999999998,1.6636394107660473,0.9257470724886968
-0.20480623999999997,1.663969533178183,0.9287357285981458
-0.20478016,1.6646297780024535,0.9320564576086414
-0.20475408,1.6649599004145885,0.935709259520185
-0.20472799999999997,1.6652900228267244,0.9390299885306892
-0.20470191999999998,1.6656201452388595,0.9430148633432821
-0.20467584,1.6659502676509945,0.9463355923537777
-0.20464976,1.6662803900631302,0.9503204671663759
-0.20462367999999997,1.666610512475266,0.9543053419789744
-0.2045976,1.6669406348874007,0.9586222896926168
-0.20457151999999998,1.6672707572995362,0.9629392374062651
-0.20454543999999997,1.6676008797116717,0.9672561851199133
-0.20451935999999998,1.6676008797116717,0.9715731328335577
-0.20449328,1.6682611245359422,0.9762221534482516
-0.2044672,1.6682611245359424,0.9808711740629498
-0.20444111999999998,1.6685912469480777,0.9858522675786977
-0.20441504,1.6685912469480777,0.9908333610944391
-0.20438895999999998,1.6689213693602132,0.995814454610187
-0.20436287999999997,1.6689213693602134,1.0007955481259352
-0.20433679999999999,1.6692514917723487,1.006108714542728
-0.20431072,1.6692514917723487,1.0114218809595212
-0.20428464,1.6692514917723487,1.0164029744752694
-0.20425855999999998,1.6692514917723487,1.0220482137931173
-0.20423248,1.6692514917723487,1.027693453110957
-0.20420639999999998,1.6692514917723487,1.033338692428805
-0.20418031999999997,1.6689213693602134,1.0386518588456033
-0.20415424,1.6692514917723487,1.044961243965545
-0.20412816,1.6689213693602134,1.0509385561844344
-0.20410208,1.6689213693602132,1.0572479413043816
-0.20407599999999998,1.6685912469480777,1.0628931806222297
-0.20404992,1.668921369360213,1.069534638643221
-0.20402383999999998,1.6685912469480777,1.075511950862119
-0.20399775999999997,1.6685912469480775,1.0821534088831162
-0.20397168,1.6682611245359424,1.0884627940030578
-0.2039456,1.6682611245359424,1.0954363249250954
-0.20391951999999997,1.6682611245359422,1.101745710045053
-0.20389343999999998,1.6679310021238072,1.1087192409670905
-0.20386736,1.6679310021238072,1.1153606989880818
-0.20384127999999999,1.6679310021238072,1.1226663028111785
-0.20381519999999997,1.6676008797116715,1.1293077608321762
-0.20378912,1.6672707572995362,1.1366133646552667
-0.20376303999999998,1.666940634887401,1.143254822676261
-0.20373695999999997,1.6669406348874007,1.1508924994004075
-0.20371087999999998,1.6662803900631302,1.1575339574213988
-0.2036848,1.6662803900631302,1.1651716341455387
-0.20365872,1.6656201452388595,1.1724772379686361
-0.20363263999999998,1.665290022826724,1.1801149146927827
-0.20360656,1.664959900414589,1.18742051851587
-0.20358047999999998,1.6646297780024535,1.1950581952400168
-0.20355439999999997,1.6639695331781825,1.202363799063114
-0.20352831999999998,1.6636394107660473,1.210001475787254
-0.20350224,1.662979165941777,1.2176391525113939
-0.20347616,1.6626490435296413,1.2256089021365906
-0.20345007999999998,1.6619887987053703,1.2332465788607376
-0.203424,1.6613285538811,1.240884255584874
-0.20339791999999998,1.6606683090568293,1.248521932309021
-0.20337183999999997,1.660008064232558,1.2564916819342178
-0.20334576,1.6593478194082878,1.2644614315594074
-0.20331968,1.6583574521718825,1.272099108283544
-0.2032936,1.6580273297597465,1.2804009308097901
-0.20326751999999998,1.65703696252334,1.288370680434987
-0.20324144,1.656706840111205,1.2963404300601766
-0.20321535999999998,1.6557164728747988,1.3043101796853733
-0.20318927999999997,1.6550562280505274,1.31227992931057
-0.2031632,1.6540658608141219,1.3202496789357598
-0.20313712,1.6534056159898518,1.328551501461995
-0.20311103999999996,1.6524152487534443,1.336521251087203
-0.20308495999999998,1.6517550039291744,1.3444910007123891
-0.20305888,1.6510947591049039,1.3527928232386282
-0.20303279999999999,1.6501043918684974,1.361094645764875
-0.20300671999999997,1.649114024632091,1.3690643953900716
-0.20298064,1.6481236573956854,1.3770341450152612
-0.20295455999999998,1.6474634125714143,1.3853359675415078
-0.20292847999999997,1.6464730453350076,1.393305717166705
-0.20290239999999998,1.6454826780986025,1.4016075396929402
-0.20287632,1.644822433274332,1.4099093622191794
-0.20285024,1.6438320660379258,1.4178791118443763
-0.20282415999999998,1.6431718212136543,1.4258488614695732
-0.20279808,1.6418513315651142,1.4341506839958087
-0.20277199999999998,1.6411910867408428,1.4421204336210056
-0.20274591999999997,1.6402007195044361,1.4500901832462023
-0.20271983999999998,1.6392103522680306,1.4580599328713921
-0.20269376,1.63855010744376,1.4660296824965817
-0.20266768,1.6375597402073538,1.4739994321217784
-0.20264159999999998,1.6365693729709472,1.4819691817469751
-0.20261552,1.635579005734542,1.4899389313721612
-0.20258943999999998,1.6345886384981356,1.497908680997358
-0.20256335999999997,1.633598271261729,1.505546357721505
-0.20253728,1.6326079040253234,1.5135161073466947
-0.2025112,1.6316175367889176,1.5211537840708345
-0.20248512,1.6306271695525116,1.5291235336960278
-0.20245903999999998,1.6296368023161052,1.5367612104201749
-0.20243296,1.6286464350796994,1.5443988871443146
-0.20240687999999998,1.627656067843293,1.5520365638684617
-0.20238079999999997,1.626335578194751,1.5593421676915589
-0.20235472,1.6253452109583455,1.5666477715146492
-0.20232864,1.6243548437219402,1.5742854482387858
-0.20230255999999996,1.623034354073397,1.5815910520618934
-0.20227647999999998,1.6220439868369918,1.58922872878603
-0.2022504,1.6210536196005862,1.5965343326091204
-0.20222431999999999,1.6200632523641796,1.6038399364322176
-0.20219823999999997,1.6187427627156379,1.610813467354265
-0.20217216,1.617752395479232,1.6181190711773552
-0.20214607999999998,1.6164319058306902,1.6250926020994023
-0.20211999999999997,1.6154415385942837,1.6320661330214499
-0.20209391999999998,1.6144511713578784,1.6390396639434874
-0.20206784,1.6134608041214729,1.6460131948655283
-0.20204176,1.612140314472931,1.6529867257875754
-0.20201567999999998,1.6111499472365245,1.659628183808573
-0.2019896,1.6101595800001194,1.666269641829561
-0.20196351999999998,1.6088390903515775,1.6725790269495087
-0.20193743999999997,1.6078487231151706,1.6792204849705061
-0.20191135999999998,1.60652823346663,1.6858619429914974
-0.20188528,1.6058679886423592,1.6921713281114392
-0.2018592,1.6045474989938175,1.6984807132313866
