DAQ/testing_accel_4_6/test_full_0052.csv

#Digilent WaveForms Oscilloscope Acquisition
#Device Name: Discovery2
#Serial Number: SN:210321B02866
#Date Time: 2021-04-06 19:02:57.744
#Sample rate: 38343.6Hz
#Samples: 8192
#Trigger: None
#Channel 1: Range: 500 mV/div Offset: -1.15 V Attenuation: 1 X
#Channel 2: Range: 500 mV/div Offset: -1.45 V Attenuation: 1 X
#Power Supplies: ON
#Positive Supply: ON
#Voltage: 3.3 V
#Negative Supply: OFF
#Voltage: -3.3 V

Time (s),Channel 1 (V),Channel 2 (V)
-0.21116975999999998,1.6464730453350085,1.4819691817469716
-0.21114368,1.6461429229228735,1.4896068584711115
-0.2111176,1.645812800510738,1.4972445351952586
-0.21109151999999998,1.6458128005107378,1.5048822119194056
-0.21106544,1.6454826780986027,1.512519888643542
-0.21103935999999998,1.6454826780986025,1.5201575653676889
-0.21101327999999997,1.6451525556864668,1.5274631691907863
-0.21098719999999999,1.6448224332743318,1.5351008459149262
-0.21096112,1.6448224332743318,1.5424064497380132
-0.21093504,1.6444923108621967,1.5500441264621598
-0.21090895999999998,1.644162188450061,1.5573497302852572
-0.21088288,1.643832066037926,1.5646553341083476
-0.21085679999999998,1.6435019436257903,1.571628865030395
-0.21083071999999997,1.6431718212136548,1.578934468853492
-0.21080464,1.6428416988015195,1.5862400726765826
-0.21077856,1.6425115763893845,1.5932136035986202
-0.21075247999999996,1.6421814539772486,1.600187134520677
-0.21072639999999998,1.6418513315651135,1.6071606654427146
-0.21070032,1.641191086740843,1.6141341963647555
-0.21067423999999998,1.6408609643287075,1.620775654385753
-0.21064815999999997,1.6405308419165718,1.6277491853077999
-0.21062208,1.6402007195044366,1.6340585704277417
-0.21059599999999998,1.639870597092301,1.6410321013497888
-0.21056991999999997,1.6392103522680304,1.647673559370786
-0.21054383999999998,1.6388802298558953,1.6543150173917742
-0.21051776,1.6382199850316248,1.660624402511716
-0.21049168,1.637889862619489,1.6669337876316637
-0.21046559999999997,1.6375597402073536,1.673243172751611
-0.21043952,1.6368994953830833,1.6795525578715498
-0.21041343999999998,1.6365693729709476,1.6858619429914974
-0.21038735999999997,1.6359091281466769,1.691839255210395
-0.21036127999999998,1.6352488833224064,1.697816567429287
-0.2103352,1.634918760910271,1.7037938796481793
-0.21030912,1.6342585160860001,1.709771191867077
-0.21028303999999998,1.6335982712617292,1.715416431184925
-0.21025696,1.632938026437459,1.7210616705027646
-0.21023087999999998,1.6322777816131882,1.7263748369195628
-0.21020479999999997,1.6319476592010522,1.7320200762374103
-0.21017871999999999,1.6309572919646467,1.7373332426542034
-0.21015264,1.6302970471403766,1.742646409070994
-0.21012656,1.6299669247282407,1.747959575487792
-0.21010047999999998,1.6293066799039697,1.75294066900354
-0.2100744,1.6286464350796992,1.7579217625192836
-0.21004831999999998,1.6279861902554282,1.7629028560350315
-0.21002223999999997,1.6273259454311575,1.7675518766497298
-0.20999616,1.6266657006068868,1.7722008972644236
-0.20997008,1.626005455782617,1.7768499178791155
-0.20994399999999996,1.6253452109583448,1.78116686559277
-0.20991791999999998,1.6246849661340748,1.7854838133064121
-0.20989184,1.6240247213098042,1.7898007610200566
-0.20986575999999998,1.6230343540733978,1.7937856358326552
-0.20983967999999997,1.6220439868369916,1.7977705106452535
-0.2098136,1.621383742012721,1.8017553854578483
-0.20978751999999998,1.6203933747763148,1.805408187369397
-0.20976143999999997,1.6197331299520434,1.809393062181995
-0.20973535999999998,1.6187427627156383,1.8127137911924889
-0.20970928,1.6180825178913676,1.8160345202029846
-0.2096832,1.6170921506549614,1.819687322114533
-0.20965711999999997,1.6164319058306902,1.8226759782239816
-0.20963104,1.615441538594285,1.8253325614323772
-0.20960495999999998,1.614781293770014,1.8283212175418257
-0.20957887999999997,1.6137909265336077,1.8309778007502244
-0.20955279999999998,1.6131306817093372,1.833634383958621
-0.20952672,1.6124704368850666,1.8362909671670178
-0.20950064,1.6118101920607957,1.8389475503754165
-0.20947455999999998,1.6111499472365247,1.8409399877817159
-0.20944848,1.6104897024122544,1.8429324251880124
-0.20942239999999998,1.6098294575879835,1.8452569354953612
-0.20939631999999997,1.6088390903515772,1.8469173000006107
-0.20937023999999999,1.6081788455273067,1.8489097374069081
-0.20934416,1.6075186007030362,1.850570101912156
-0.20931808,1.60652823346663,1.851566320615306
-0.20929199999999998,1.605867988642359,1.8532266851205543
-0.20926592,1.6052077438180887,1.854222903823703
-0.20923983999999998,1.6042173765816823,1.854887049625803
-0.20921375999999997,1.603557131757411,1.8558832683289523
-0.20918768,1.6025667645210055,1.8562153412300018
-0.2091616,1.6019065196967355,1.8568794870321006
-0.20913551999999996,1.600916152460328,1.8572115599331507
-0.20910943999999998,1.600255907636058,1.8568794870321013
-0.20908336,1.5989354179875173,1.8568794870321013
-0.20905727999999998,1.5982751731632459,1.8565474141310516
-0.20903119999999997,1.5972848059268394,1.8562153412300015
-0.20900512,1.5966245611025691,1.8558832683289521
-0.20897903999999998,1.5956341938661625,1.8548870496258028
-0.20895295999999997,1.5946438266297562,1.8542229038237028
-0.20892687999999998,1.5939835818054862,1.8535587580216042
-0.2089008,1.5926630921569453,1.8518983935163562
-0.20887471999999999,1.592002847332674,1.8509021748132064
-0.20884863999999997,1.5910124800962675,1.849573883209007
-0.20882256,1.5900221128598622,1.8482455916048093
-0.20879647999999998,1.589361868035591,1.8469173000006098
-0.20877039999999997,1.5883715007991848,1.8455890083964104
-0.20874431999999998,1.5877112559749142,1.8439286438911624
-0.20871824,1.5870510111506437,1.842600352286964
-0.20869216,1.5860606439142375,1.8412720606827646
-0.20866607999999998,1.585070276677831,1.8396116961775153
-0.20864,1.584410031853561,1.837951331672268
-0.20861391999999998,1.5837497870292898,1.8356268213649194
-0.20858783999999997,1.5827594197928836,1.8333023110575704
-0.20856175999999998,1.582099174968613,1.8306457278491737
-0.20853568,1.5811088077322075,1.827989144640777
-0.2085096,1.5804485629079363,1.8253325614323783
-0.20848351999999998,1.57945819567153,1.8220118324218795
-0.20845744,1.5784678284351246,1.8186911034113855
-0.20843135999999998,1.5778075836108534,1.8157024473019365
-0.20840527999999997,1.576817216374447,1.8120496453903878
-0.2083792,1.5758268491380412,1.808064770577793
-0.20835312,1.575166604313771,1.8047440415672988
-0.20832703999999996,1.5741762370773642,1.8007591667546952
-0.20830095999999998,1.573846114665229,1.796442219041053
-0.20827488,1.5731858698409587,1.7927894171295076
-0.20824879999999998,1.5725256250166877,1.7884724694158598
-0.20822271999999997,1.5718653801924167,1.7838234488011617
-0.20819664,1.5712051353681462,1.7795065010875173
-0.20817056,1.5698846457196058,1.775189553373875
-0.20814447999999997,1.5698846457196038,1.7705405327591706
-0.20811839999999998,1.5688942784831987,1.7655594392434293
-0.20809232,1.567903911246793,1.7605783457276858
-0.20806623999999999,1.5675737888346573,1.7559293251129875
-0.20804015999999997,1.5665834215982508,1.7506161586961895
-0.20801408,1.5659231767739807,1.7449709193783496
-0.20798799999999998,1.5649328095375743,1.7396577529615516
-0.20796191999999997,1.5642725647133031,1.7340125136437035
-0.20793583999999998,1.5632821974768976,1.7283672743258611
-0.20790976,1.562621952652627,1.723054107909068
-0.20788368,1.561961707828356,1.716744722789121
-0.20785759999999998,1.5613014630040851,1.7110994834712732
-0.20783152,1.5606412181798148,1.7054542441534333
-0.20780543999999998,1.5599809733555439,1.699144859033486
-0.20777935999999997,1.559320728531273,1.692503401012489
-0.20775327999999998,1.5589906061191379,1.686526088793597
-0.2077272,1.558000238882732,1.6798846307726056
-0.20770112,1.5573399940584611,1.6735752456526578
-0.20767503999999998,1.5570098716463254,1.6672658605327102
-0.20764896,1.5563496268220551,1.6602923296106724
-0.20762287999999998,1.5556893819977842,1.653650871589675
-0.20759679999999997,1.5553592595856487,1.6470094135686775
-0.20757072,1.5546990147613782,1.6400358826466366
-0.20754464,1.554038769937108,1.6327302788235494
-0.20751856,1.5537086475249722,1.6260888208025515
-0.20749247999999998,1.5530484027007012,1.6187832169794547
-0.2074664,1.552388157876431,1.6118096860574138
-0.20744031999999998,1.5520580354642952,1.6048361551353667
-0.20741423999999997,1.5513977906400243,1.5975305513122695
-0.20738816,1.5507375458157537,1.5902249474891792
-0.20736208,1.5504074234036187,1.582919343666092
-0.20733599999999996,1.5500773009914828,1.5756137398429846
-0.20730991999999998,1.5497471785793477,1.5679760631188482
-0.20728384,1.5494170561672125,1.5610025321968073
-0.20725775999999999,1.5487568113429417,1.5533648554726607
-0.20723167999999997,1.5484266889308063,1.545727178748514
-0.2072056,1.5484266889308063,1.5387536478264732
-0.20717951999999998,1.5480965665186706,1.5311159711023261
-0.20715343999999997,1.5477664441065353,1.5231462214771332
-0.20712735999999998,1.5474363216944003,1.5158406176540427
-0.20710128,1.547106199282265,1.507870868028853
-0.2070752,1.5467760768701295,1.5005652642057556
-0.20704911999999998,1.5467760768701293,1.4932596603826584
-0.20702304,1.5464459544579943,1.485621983658522
-0.20699695999999998,1.5461158320458588,1.4776522340333254
-0.20697087999999997,1.5461158320458588,1.4700145573091785
-0.20694479999999998,1.5461158320458588,1.462708953486088
-0.20691872,1.5454555872215883,1.4547392038608984
-0.20689264,1.545455587221588,1.4471015271367513
-0.20686655999999998,1.5454555872215878,1.4394638504126043
-0.20684048,1.5451254648094528,1.431826173688468
-0.20681439999999998,1.5447953423973173,1.424188496964321
-0.20678831999999997,1.5451254648094523,1.416550820240174
-0.20676223999999999,1.5447953423973173,1.408913143516034
-0.20673616,1.5447953423973173,1.4009433938908482
-0.20671008,1.5447953423973173,1.3939698629688
-0.20668399999999998,1.5447953423973173,1.3863321862446534
-0.20665792,1.5447953423973173,1.3783624366194638
-0.20663183999999998,1.5447953423973173,1.371388905697416
-0.20660575999999997,1.5447953423973175,1.363751228973269
-0.20657968,1.5451254648094526,1.3557814793480794
-0.2065536,1.5451254648094526,1.3488079484260418
-0.20652751999999996,1.5451254648094526,1.3411702717018845
-0.20650143999999998,1.5451254648094526,1.3332005220766987
-0.20647536,1.5454555872215878,1.3258949182536084
-0.20644927999999999,1.545455587221588,1.3185893144305112
-0.20642319999999997,1.545455587221588,1.3106195648053147
-0.20639712,1.545455587221588,1.3033139609822242
-0.20637103999999998,1.5457857096337233,1.2956762842580773
-0.20634495999999997,1.5457857096337235,1.2883706804349802
-0.20631887999999998,1.5461158320458588,1.2807330037108435
-0.2062928,1.5461158320458588,1.2734273998877532
-0.20626672,1.5461158320458588,1.2657897231636064
-0.20624063999999998,1.546445954457994,1.2581520464394595
-0.20621456,1.546445954457994,1.2508464426163723
-0.20618847999999998,1.5467760768701295,1.2435408387932754
-0.20616239999999997,1.5467760768701297,1.2362352349701782
-0.20613631999999998,1.5474363216944003,1.2289296311470879
-0.20611024,1.547106199282265,1.2216240273239973
-0.20608416,1.5471061992822648,1.2139863505998505
-0.20605807999999998,1.5474363216944005,1.2070128196778034
-0.206032,1.5477664441065353,1.2000392887557656
-0.20600591999999998,1.5477664441065355,1.1927336849326688
-0.20597983999999997,1.5484266889308065,1.186092226911671
-0.20595375999999999,1.5487568113429417,1.1787866230885806
-0.20592768,1.5487568113429417,1.1718130921665397
-0.2059016,1.5494170561672123,1.1648395612444926
-0.20587551999999998,1.5497471785793477,1.1581981032234983
-0.20584944,1.5497471785793477,1.151556645202507
-0.20582335999999998,1.5504074234036185,1.1449151871815095
-0.20579727999999997,1.550737545815754,1.1379416562594626
-0.2057712,1.5510676682278892,1.1316322711395208
-0.20574512,1.5513977906400243,1.125322886019582
-0.20571903999999996,1.55172791305216,1.1186814279985762
-0.20569295999999998,1.5520580354642952,1.1123720428786374
-0.20566688,1.5527182802885657,1.1060626577586956
-0.20564079999999998,1.5530484027007012,1.0997532726387482
-0.20561471999999997,1.553378525112837,1.0934438875188008
-0.20558864,1.553708647524972,1.0874665752999086
-0.20556255999999998,1.5540387699371077,1.081489263081011
-0.20553647999999997,1.5546990147613784,1.075179877961064
-0.20551039999999998,1.5550291371735134,1.069534638643224
-0.20548432,1.555689381997784,1.0635573264243319
-0.20545824,1.5560195044099197,1.0575800142054341
-0.20543215999999997,1.5566797492341904,1.052266847788636
-0.20540608,1.5570098716463254,1.0462895355697466
-0.20537999999999998,1.5573399940584611,1.040312223350849
-0.20535391999999997,1.5580002388827319,1.0353311298351007
-0.20532783999999998,1.5583303612948671,1.0296858905172581
-0.20530176,1.5589906061191376,1.024372724100465
-0.20527568,1.5596508509434086,1.0187274847826173
-0.20524959999999998,1.559980973355544,1.0134143183658197
-0.20522352,1.5606412181798144,1.0084332248500785
-0.20519743999999998,1.5613014630040853,1.0034521313343303
-0.20517135999999997,1.561631585416221,0.998138964917533
-0.20514527999999999,1.5626219526526268,0.9938220172038887
-0.2051192,1.5629520750647619,0.9888409236881451
-0.20509312,1.5636123198890328,0.9838598301723972
-0.20506703999999998,1.5642725647133038,0.9795428824587488
-0.20504096,1.564932809537574,0.9748938618440569
-0.20501487999999998,1.565593054361845,0.9705769141304086
-0.20498879999999997,1.566253299186116,0.9662599664167602
-0.20496272,1.5669135440103865,0.9619430187031159
-0.20493664,1.5675737888346566,0.9576260709894735
-0.20491055999999996,1.5682340336589287,0.9536411961768693
-0.20488447999999998,1.5688942784831987,0.9496563213642765
-0.2048584,1.5695545233074693,0.9460035194527312
-0.20483231999999998,1.5698846457196047,0.9416865717390832
-0.20480623999999997,1.5708750129560112,0.9383658427285844
-0.20478016,1.5712051353681462,0.9347130408170392
-0.20475408,1.5721955026045513,0.9307281660044463
-0.20472799999999997,1.5728557474288236,0.9277395098949921
-0.20470191999999998,1.5735159922530937,0.924418780884498
-0.20467584,1.5741762370773642,0.9210980518740024
-0.20464976,1.5751666043137704,0.9184414686656031
-0.20462367999999997,1.5758268491380414,0.9154528125561544
-0.2045976,1.5764870939623117,0.9127962293477592
-0.20457151999999998,1.5771473387865826,0.9101396461393602
-0.20454543999999997,1.5778075836108536,0.907815135832011
-0.20451935999999998,1.5784678284351241,0.9054906255246642
-0.20449328,1.57945819567153,0.9031661152173173
-0.2044672,1.5801184404958009,0.9011736778110179
-0.20444111999999998,1.580778685320072,0.8995133133057684
-0.20441504,1.5817690525564774,0.8978529488005215
-0.20438895999999998,1.5824292973807483,0.896192584295272
-0.20436287999999997,1.5830895422050197,0.894532219790023
-0.20433679999999999,1.5840799094414253,0.8932039281858246
-0.20431072,1.5847401542656958,0.8918756365816264
-0.20428464,1.585730521502102,0.8908794178784767
-0.20425855999999998,1.5863907663263732,0.8895511262742775
-0.20423248,1.5873811335627783,0.8888869804721786
-0.20420639999999998,1.588371500799185,0.8882228346700789
-0.20418031999999997,1.5890317456234562,0.8872266159669296
-0.20415424,1.5900221128598617,0.88689454306588
-0.20412816,1.591012480096267,0.8862303972637812
-0.20410208,1.5916727249205385,0.885898324362731
-0.20407599999999998,1.5926630921569447,0.8855662514616812
-0.20404992,1.5933233369812152,0.8855662514616812
-0.20402383999999998,1.5943137042176214,0.8858983243627309
-0.20399775999999997,1.5949739490418926,0.8862303972637807
-0.20397168,1.5959643162782982,0.8865624701648304
-0.2039456,1.5966245611025685,0.8868945430658797
-0.20391951999999997,1.5976149283389758,0.8875586888679801
-0.20389343999999998,1.5982751731632459,0.8882228346700789
-0.20386736,1.5989354179875164,0.8892190533732276
-0.20384127999999999,1.5999257852239226,0.8902152720763772
-0.20381519999999997,1.6009161524603288,0.8915435636805765
-0.20378912,1.6015763972845996,0.8925397823837252
-0.20376303999999998,1.6025667645210055,0.8938680739879241
-0.20373695999999997,1.6035571317574118,0.8951963655921237
-0.20371087999999998,1.603887254169547,0.8968567300973715
-0.2036848,1.6048776214059526,0.8985170946026193
-0.20365872,1.605867988642359,0.9001774591078687
-0.20363263999999998,1.606198111054495,0.9021698965141679
-0.20360656,1.6071884782909,0.9041623339204644
-0.20358047999999998,1.6078487231151712,0.9061547713267636
-0.20355439999999997,1.6085089679394422,0.9084792816341127
-0.20352831999999998,1.6091692127637127,0.9108037919414597
-0.20350224,1.6101595800001185,0.9131283022488065
-0.20347616,1.6108198248243895,0.9157848854572054
-0.20345007999999998,1.6114800696486604,0.9184414686656044
-0.203424,1.6121403144729307,0.9214301247750492
-0.20339791999999998,1.6128005592972017,0.9240867079834483
-0.20337183999999997,1.6134608041214726,0.9274074369939468
-0.20334576,1.6141210489457432,0.9303960931033929
-0.20331968,1.6147812937700132,0.9333847492128376
-0.2032936,1.6154415385942844,0.9367054782233359
-0.20326751999999998,1.6161017834185554,0.9400262072338347
-0.20324144,1.6167620282428259,0.9436790091453798
-0.20321535999999998,1.6174222730670968,0.9473318110569284
-0.20318927999999997,1.6180825178913676,0.950984612968477
-0.2031632,1.6187427627156383,0.9549694877810719
-0.20313712,1.6194030075399082,0.9589543625936648
-0.20311103999999996,1.619733129952045,0.9632713103073186
-0.20308495999999998,1.620393374776315,0.9675882580209612
-0.20305888,1.62072349718845,0.9719052057346054
-0.20303279999999999,1.621383742012721,0.9762221534482537
-0.20300671999999997,1.622043986836992,0.9808711740629519
-0.20298064,1.6223741092491273,0.9855201946776457
-0.20295455999999998,1.623034354073398,0.9905012881933936
-0.20292847999999997,1.623694598897669,0.9951503088080924
-0.20290239999999998,1.624024721309804,1.0004634752248829
-0.20287632,1.624354843721939,1.0054445687406266
-0.20285024,1.62501508854621,1.0107577351574242
-0.20282415999999998,1.6253452109583457,1.0160709015742224
-0.20279808,1.626005455782616,1.021716140892062
-0.20277199999999998,1.6263355781947515,1.02736138020991
-0.20274591999999997,1.626665700606887,1.0330066195277579
-0.20271983999999998,1.6273259454311577,1.0386518588456004
-0.20269376,1.627986190255428,1.0446291710644926
-0.20266768,1.6279861902554282,1.0506064832833901
-0.20264159999999998,1.6286464350796992,1.0569158684033377
-0.20261552,1.6289765574918342,1.0632252535232765
-0.20258943999999998,1.6293066799039697,1.0692025657421742
-0.20256335999999997,1.6299669247282407,1.075511950862122
-0.20253728,1.630297047140376,1.0821534088831133
-0.2025112,1.630627169552511,1.088462794003055
-0.20248512,1.6309572919646464,1.0947721791229996
-0.20245903999999998,1.631287414376782,1.1017457100450465
-0.20243296,1.631617536788917,1.1083871680660378
-0.20240687999999998,1.6319476592010527,1.1153606989880849
-0.20238079999999997,1.6326079040253234,1.1220021570090823
-0.20235472,1.6326079040253234,1.1286436150300734
-0.20232864,1.6329380264374584,1.1359492188531606
-0.20230255999999996,1.6335982712617296,1.1429227497752177
-0.20227647999999998,1.6339283936738649,1.1498962806972552
-0.2022504,1.6339283936738649,1.1568698116192961
-0.20222431999999999,1.6342585160860001,1.1641754154423931
-0.20219823999999997,1.6345886384981358,1.1714810192654903
-0.20217216,1.6349187609102709,1.1787866230885806
-0.20214607999999998,1.6352488833224066,1.1860922269116776
-0.20211999999999997,1.6355790057345418,1.1933978307347748
-0.20209391999999998,1.635909128146677,1.200703434557862
-0.20206784,1.635909128146677,1.2080090383809523
-0.20204176,1.6365693729709476,1.2156467151050991
-0.20201567999999998,1.6365693729709478,1.223284391829246
-0.2019896,1.6368994953830829,1.230589995652333
-0.20196351999999998,1.6372296177952186,1.2382276723764798
-0.20193743999999997,1.6372296177952188,1.2458653491006269
-0.20191135999999998,1.6375597402073538,1.2535030258247668
-0.20188528,1.6375597402073538,1.2611407025489068
-0.2018592,1.637889862619489,1.2691104521741035
