DAQ/testing_accel_4_6/test_full_0050.csv

#Digilent WaveForms Oscilloscope Acquisition
#Device Name: Discovery2
#Serial Number: SN:210321B02866
#Date Time: 2021-04-06 19:02:57.304
#Sample rate: 38343.6Hz
#Samples: 8192
#Trigger: None
#Channel 1: Range: 500 mV/div Offset: -1.15 V Attenuation: 1 X
#Channel 2: Range: 500 mV/div Offset: -1.45 V Attenuation: 1 X
#Power Supplies: ON
#Positive Supply: ON
#Voltage: 3.3 V
#Negative Supply: OFF
#Voltage: -3.3 V

Time (s),Channel 1 (V),Channel 2 (V)
-0.21116975999999998,1.6606683090568293,1.2302579227512866
-0.21114368,1.660338186644694,1.2382276723764762
-0.2111176,1.6600080642325583,1.2461974220016732
-0.21109151999999998,1.6596779418204228,1.25383509872582
-0.21106544,1.6590176969961525,1.261804848351006
-0.21103935999999998,1.6586875745840168,1.269774597976203
-0.21101327999999997,1.658027329759746,1.2777443476013999
-0.21098719999999999,1.6576972073476108,1.2860461701276389
-0.21096112,1.6570369625233408,1.294015919752825
-0.21093504,1.6563767176990696,1.3023177422790713
-0.21090895999999998,1.6557164728747988,1.3102874919042682
-0.21088288,1.655056228050528,1.318257241529458
-0.21085679999999998,1.6547261056383926,1.3265590640557043
-0.21083071999999997,1.6540658608141217,1.3345288136809013
-0.21080464,1.6534056159898511,1.3428306362071405
-0.21077856,1.652745371165581,1.351132458733376
-0.21075247999999996,1.652085126341309,1.359102208358584
-0.21072639999999998,1.651424881517039,1.3670719579837698
-0.21070032,1.6507646366927686,1.3753737805100088
-0.21067423999999998,1.6501043918684974,1.3836756030362556
-0.21064815999999997,1.6494441470442265,1.3916453526614523
-0.21062208,1.6484537798078207,1.3996151022866419
-0.21059599999999998,1.6474634125714143,1.407252779010789
-0.21056991999999997,1.6464730453350076,1.4148904557349358
-0.21054383999999998,1.6454826780986025,1.4225281324590724
-0.21051776,1.6441621884500617,1.4301658091832123
-0.21049168,1.643171821213655,1.4374714130063095
-0.21046559999999997,1.6421814539772484,1.444777016829407
-0.21043952,1.6411910867408432,1.452746766454593
-0.21041343999999998,1.6398705970923013,1.4600523702776904
-0.21038735999999997,1.6388802298558949,1.4673579741007876
-0.21036127999999998,1.637889862619489,1.4749956508249276
-0.2103352,1.6365693729709483,1.482301254648018
-0.21030912,1.635909128146677,1.4902710042732146
-0.21028303999999998,1.6345886384981352,1.4975766080963118
-0.21025696,1.6335982712617299,1.5052142848204482
-0.21023087999999998,1.6322777816131882,1.5128519615445952
-0.21020479999999997,1.6316175367889165,1.520489638268742
-0.21017871999999999,1.630297047140376,1.5277952420918324
-0.21015264,1.6293066799039706,1.5351008459149196
-0.21012656,1.627986190255429,1.5424064497380165
-0.21010047999999998,1.6273259454311577,1.5497120535611137
-0.2100744,1.626005455782617,1.557017657384204
-0.21004831999999998,1.6246849661340748,1.5643232612073013
-0.21002223999999997,1.6240247213098034,1.571628865030398
-0.20999616,1.6227042316612625,1.5786023959524391
-0.20997008,1.6217138644248574,1.585907999775526
-0.20994399999999996,1.6207234971884494,1.5928815306975832
-0.20991791999999998,1.6197331299520443,1.5998550616196208
-0.20989184,1.6184126403035035,1.6071606654427113
-0.20986575999999998,1.6174222730670968,1.6141341963647586
-0.20983967999999997,1.61643190583069,1.620775654385756
-0.2098136,1.6151114161821494,1.627749185307797
-0.20978751999999998,1.6141210489457427,1.6343906433287945
-0.20976143999999997,1.613130681709336,1.6410321013497922
-0.20973535999999998,1.6118101920607957,1.6480056322718297
-0.20970928,1.6104897024122549,1.653982944490722
-0.2096832,1.609499335175848,1.660624402511719
-0.20965711999999997,1.6085089679394413,1.667265860532716
-0.20963104,1.6071884782909012,1.6732431727516055
-0.20960495999999998,1.605867988642359,1.6798846307726025
-0.20957887999999997,1.6048776214059524,1.6861940158925497
-0.20955279999999998,1.6035571317574115,1.692171328111442
-0.20952672,1.6022366421088707,1.6981486403303343
-0.20950064,1.601246274872464,1.7044580254502815
-0.20947455999999998,1.5999257852239221,1.710435337669179
-0.20944848,1.598935417987517,1.7164126498880687
-0.20942239999999998,1.5976149283389751,1.7220578892059164
-0.20939631999999997,1.5962944386904332,1.7277031285237643
-0.20937023999999999,1.5953040714540276,1.7336804407426565
-0.20934416,1.5943137042176219,1.7386615342584
-0.20931808,1.5929932145690802,1.7436426277741481
-0.20929199999999998,1.592002847332674,1.7492878670919931
-0.20926592,1.5903522352719979,1.7542689606077366
-0.20923983999999998,1.589361868035591,1.758917981222435
-0.20921375999999997,1.588041378387049,1.7638990747381829
-0.20918768,1.5867208887385083,1.7685480953528767
-0.2091616,1.5854003990899679,1.7725329701654697
-0.20913551999999996,1.5840799094414242,1.7775140636812226
-0.20910943999999998,1.5827594197928838,1.7814989384938156
-0.20908336,1.581438930144343,1.78581588620746
-0.20905727999999998,1.5804485629079363,1.7901328339211082
-0.20903119999999997,1.578797950847259,1.7941177087337068
-0.20900512,1.5778075836108534,1.7981025835463016
-0.20897903999999998,1.5764870939623115,1.8017553854578499
-0.20895295999999997,1.5754967267259048,1.805076114468349
-0.20892687999999998,1.5741762370773644,1.8087289163798923
-0.2089008,1.5731858698409589,1.812049645390388
-0.20887471999999999,1.571865380192417,1.815038301499837
-0.20884863999999997,1.5705448905438748,1.8180269576092856
-0.20882256,1.5692244008953347,1.8206835408176811
-0.20879647999999998,1.5679039112467925,1.8230080511250302
-0.20877039999999997,1.5669135440103859,1.825664634333429
-0.20874431999999998,1.565593054361845,1.8283212175418257
-0.20871824,1.563942442301169,1.8303136549481231
-0.20869216,1.562952075064762,1.832638165255472
-0.20866607999999998,1.5619617078283554,1.834630602661771
-0.20864,1.5606412181798153,1.8362909671670182
-0.20861391999999998,1.5596508509434086,1.8382834045733172
-0.20858783999999997,1.5586604837070017,1.839943769078566
-0.20856175999999998,1.5573399940584611,1.840939987781715
-0.20853568,1.5566797492341904,1.842268279385913
-0.2085096,1.555359259585649,1.8435965709901125
-0.20848351999999998,1.5540387699371068,1.8442607167922125
-0.20845744,1.5527182802885666,1.8452569354953607
-0.20843135999999998,1.5520580354642952,1.8462531541985103
-0.20840527999999997,1.550407423403618,1.8465852270995604
-0.2083792,1.5494170561672123,1.8469173000006098
-0.20835312,1.548096566518672,1.8475814458027087
-0.20832703999999996,1.5471061992822637,1.8472493729016595
-0.20830095999999998,1.5457857096337233,1.8472493729016595
-0.20827488,1.5447953423973178,1.8472493729016595
-0.20824879999999998,1.5438049751609113,1.8469173000006098
-0.20822271999999997,1.5424844855123694,1.84658522709956
-0.20819664,1.5414941182759636,1.8462531541985103
-0.20817056,1.5405037510395585,1.8455890083964117
-0.20814447999999997,1.5391832613910152,1.8449248625943107
-0.20811839999999998,1.53819289415461,1.8439286438911624
-0.20809232,1.5372025269182044,1.8432644980890631
-0.20806623999999999,1.536212159681798,1.8419362064848641
-0.20804015999999997,1.5348916700332562,1.8409399877817143
-0.20801408,1.534231425208986,1.8396116961775166
-0.20798799999999998,1.5332410579725797,1.8382834045733172
-0.20796191999999997,1.5322506907361733,1.8369551129691175
-0.20793583999999998,1.5315904459119027,1.8352947484638698
-0.20790976,1.5306000786754972,1.8339664568596714
-0.20788368,1.529939833851226,1.8323060923544223
-0.20785759999999998,1.5289494666148198,1.8306457278491728
-0.20783152,1.5282892217905495,1.8286532904428763
-0.20780543999999998,1.5276289769662785,1.826660853036577
-0.20777935999999997,1.5269687321420073,1.824336342729228
-0.20775327999999998,1.5259783649056016,1.822011832421881
-0.2077272,1.5253181200813313,1.819023176312435
-0.20770112,1.5246578752570603,1.8160345202029862
-0.20767503999999998,1.5239976304327894,1.8133779369945868
-0.20764896,1.523337385608519,1.8100572079840929
-0.20762287999999998,1.522677140784248,1.8064044060725444
-0.20759679999999997,1.5223470183721124,1.8030836770620458
-0.20757072,1.521686773547842,1.7994308751505004
-0.20754464,1.5210265287235718,1.7954460003379074
-0.20751856,1.520696406311436,1.7917931984263584
-0.20749247999999998,1.5200361614871651,1.7878083236137603
-0.2074664,1.5193759166628946,1.7831593029990664
-0.20744031999999998,1.5190457942507591,1.7791744281864676
-0.20741423999999997,1.5187156718386234,1.7745254075717694
-0.20738816,1.5180554270143531,1.7698763869570757
-0.20736208,1.5177253046022179,1.7655594392434333
-0.20733599999999996,1.5173951821900815,1.7605783457276791
-0.20730991999999998,1.5167349373658117,1.7555972522119379
-0.20728384,1.5167349373658117,1.7506161586961944
-0.20725775999999999,1.5164048149536762,1.7456350651804464
-0.20723167999999997,1.5157445701294052,1.739989825862599
-0.2072056,1.5154144477172702,1.7350087323468553
-0.20717951999999998,1.5150843253051345,1.7296955659300572
-0.20715343999999997,1.5147542028929994,1.7240503266122122
-0.20712735999999998,1.5147542028929994,1.7187371601954193
-0.20710128,1.5144240804808642,1.7130919208775768
-0.2070752,1.5140939580687287,1.7067825357576294
-0.20704911999999998,1.5140939580687287,1.7014693693408314
-0.20702304,1.5140939580687287,1.6954920571219418
-0.20699695999999998,1.513433713244458,1.6895147449030443
-0.20697087999999997,1.5134337132444577,1.6838695055851962
-0.20694479999999998,1.5131035908323227,1.6775601204652544
-0.20691872,1.5131035908323227,1.6712507353453128
-0.20689264,1.5131035908323227,1.6656054960274647
-0.20686655999999998,1.5131035908323225,1.659296110907517
-0.20684048,1.5127734684201875,1.652654652886529
-0.20681439999999998,1.5127734684201872,1.646345267766581
-0.20678831999999997,1.5127734684201872,1.6397038097455838
-0.20676223999999999,1.5127734684201872,1.6330623517245926
-0.20673616,1.5131035908323225,1.6267529666046536
-0.20671008,1.5131035908323227,1.619779435682607
-0.20668399999999998,1.5131035908323227,1.6131379776616095
-0.20665792,1.5131035908323227,1.6068285925416679
-0.20663183999999998,1.5131035908323227,1.5995229887185711
-0.20660575999999997,1.513103590832323,1.5928815306975737
-0.20657968,1.513433713244458,1.5859079997755328
-0.2065536,1.513433713244458,1.5789344688534952
-0.20652751999999996,1.5134337132444582,1.5716288650303885
-0.20650143999999998,1.5137638356565932,1.564655334108351
-0.20647536,1.5137638356565932,1.55768180318631
-0.20644927999999999,1.5140939580687287,1.5503761993632132
-0.20642319999999997,1.5144240804808642,1.5434026684411655
-0.20639712,1.5147542028929994,1.5357649917170257
-0.20637103999999998,1.515084325305135,1.5284593878939288
-0.20634495999999997,1.5154144477172702,1.5214858569718805
-0.20631887999999998,1.5154144477172702,1.5135161073466947
-0.2062928,1.5160746925415405,1.5062105035236042
-0.20626672,1.5164048149536762,1.4989048997005072
-0.20624063999999998,1.5167349373658119,1.4912672229763604
-0.20621456,1.5170650597779467,1.4839616191532732
-0.20618847999999998,1.5173951821900822,1.4759918695280767
-0.20616239999999997,1.5180554270143534,1.4686862657049795
-0.20613631999999998,1.5183855494264884,1.4613806618818892
-0.20611024,1.519045794250759,1.4534109122566996
-0.20608416,1.5193759166628944,1.4457732355325525
-0.20605807999999998,1.5200361614871654,1.4378034859073558
-0.206032,1.5203662838993004,1.4301658091832194
-0.20600591999999998,1.5210265287235711,1.422860205360122
-0.20597983999999997,1.5213566511357068,1.4148904557349253
-0.20595375999999999,1.5220168959599774,1.4072527790107854
-0.20592768,1.5226771407842479,1.3996151022866454
-0.2059016,1.5233373856085188,1.3916453526614487
-0.20587551999999998,1.5239976304327896,1.3840076759373052
-0.20584944,1.52465787525706,1.376702072114215
-0.20582335999999998,1.525318120081331,1.3687323224890184
-0.20579727999999997,1.5263084873177373,1.3610946457648714
-0.2057712,1.5269687321420078,1.3534569690407314
-0.20574512,1.5276289769662779,1.3458192923165948
-0.20571903999999996,1.5286193442026852,1.3385136884934872
-0.20569295999999998,1.5292795890269553,1.3308760117693508
-0.20566688,1.530269956263361,1.3235704079462602
-0.20564079999999998,1.5312603234997675,1.3159327312221134
-0.20561471999999997,1.532250690736174,1.3086271273990164
-0.20558864,1.5332410579725797,1.301321523575926
-0.20556255999999998,1.534231425208986,1.293683846851779
-0.20553647999999997,1.5348916700332573,1.286378243028682
-0.20551039999999998,1.5358820372696624,1.2790726392055949
-0.20548432,1.536542282093933,1.2717670353825046
-0.20545824,1.5375326493303394,1.2644614315594074
-0.20543215999999997,1.5385230165667456,1.2571558277363104
-0.20540608,1.539183261391016,1.2498502239132232
-0.20537999999999998,1.5405037510395576,1.2428766929911759
-0.20535391999999997,1.541494118275964,1.235571089168079
-0.20532783999999998,1.5424844855123698,1.228597558246038
-0.20530176,1.5434748527487754,1.221624027323997
-0.20527568,1.5444652199851818,1.21465049640195
-0.20524959999999998,1.5454555872215885,1.2076769654799029
-0.20522352,1.5464459544579936,1.2010355074589147
-0.20519743999999998,1.5474363216944003,1.193729903635818
-0.20517135999999997,1.548426688930807,1.1870884456148205
-0.20514527999999999,1.5497471785793477,1.1801149146927794
-0.2051192,1.5504074234036183,1.1734734566717884
-0.20509312,1.5513977906400245,1.1664999257497413
-0.20506703999999998,1.5527182802885664,1.1598584677287436
-0.20504096,1.5537086475249715,1.1532170097077556
-0.20501487999999998,1.5546990147613782,1.1465755516867582
-0.20498879999999997,1.55601950440992,1.1402661665668106
-0.20496272,1.5570098716463256,1.1332926356447695
-0.20493664,1.5580002388827308,1.126651177623781
-0.20491055999999996,1.558990606119139,1.1203417925038246
-0.20488447999999998,1.5603110957676791,1.1137003344828362
-0.2048584,1.561301463004085,1.1073909493628944
-0.20483231999999998,1.5622918302404916,1.101081564242947
-0.20480623999999997,1.5629520750647627,1.09444010622195
-0.20478016,1.5642725647133036,1.0884627940030578
-0.20475408,1.5652629319497087,1.082153408883119
-0.20472799999999997,1.5662532991861169,1.0761760966642124
-0.20470191999999998,1.5675737888346573,1.0698667115442737
-0.20467584,1.5685641560710628,1.0638893993253815
-0.20464976,1.5695545233074695,1.057912087106484
-0.20462367999999997,1.5708750129560114,1.0519347748875862
-0.2045976,1.5718653801924165,1.0459574626686967
-0.20457151999999998,1.5731858698409584,1.040312223350849
-0.20454543999999997,1.574176237077365,1.0346669840330012
-0.20451935999999998,1.575496726725906,1.0290217447151586
-0.20449328,1.5768172163744467,1.023376505397316
-0.2044672,1.5778075836108534,1.018063338980518
-0.20444111999999998,1.57879795084726,1.0124180996626704
-0.20441504,1.5801184404958002,1.00710493324588
-0.20438895999999998,1.5814389301443423,1.0021238397301315
-0.20436287999999997,1.582429297380749,0.996810673313334
-0.20433679999999999,1.5837497870292898,0.9918295797975905
-0.20431072,1.5850702766778306,0.9871805591828965
-0.20428464,1.5860606439142375,0.9821994656671487
-0.20425855999999998,1.5873811335627792,0.9778825179535001
-0.20423248,1.5883715007991845,0.9732334973388084
-0.20420639999999998,1.5896919904477265,0.9689165496251599
-0.20418031999999997,1.5906823576841331,0.964599601911512
-0.20415424,1.592002847332674,0.960614727098917
-0.20412816,1.5929932145690793,0.9562977793852746
-0.20410208,1.5943137042176208,0.9526449774737255
-0.20407599999999998,1.595634193866163,0.948992175562177
-0.20404992,1.5969546835147037,0.9453393736506318
-0.20402383999999998,1.5976149283389751,0.942018644640133
-0.20399775999999997,1.5992655403996523,0.9383658427285845
-0.20397168,1.600255907636058,0.9350451137180888
-0.2039456,1.6015763972845984,0.9320564576086441
-0.20391951999999997,1.6025667645210067,0.9290678014991913
-0.20389343999999998,1.603887254169547,0.9260791453897466
-0.20386736,1.6048776214059526,0.9230904892803005
-0.20384127999999999,1.6061981110544945,0.9204339060719013
-0.20381519999999997,1.6075186007030364,0.9181093957645522
-0.20378912,1.608508967939442,0.9154528125561556
-0.20376303999999998,1.6098294575879835,0.9131283022488076
-0.20373695999999997,1.6108198248243901,0.9111358648425082
-0.20371087999999998,1.612140314472931,0.9088113545351613
-0.2036848,1.6134608041214717,0.9071509900299135
-0.20365872,1.6144511713578784,0.9051585526236144
-0.20363263999999998,1.6157716610064206,0.903498188118365
-0.20360656,1.6170921506549607,0.901837823613118
-0.20358047999999998,1.6180825178913674,0.9001774591078687
-0.20355439999999997,1.6194030075399093,0.8991812404047188
-0.20352831999999998,1.620393374776315,0.8975208758994709
-0.20350224,1.6217138644248559,0.8965246571963222
-0.20347616,1.6227042316612625,0.8951963655921229
-0.20345007999999998,1.6236945988976692,0.8942001468889732
-0.203424,1.6246849661340743,0.8928718552847755
-0.20339791999999998,1.6256753333704808,0.8918756365816258
-0.20337183999999997,1.6269958230190227,0.891211490779526
-0.20334576,1.6279861902554282,0.8905473449774269
-0.20331968,1.6293066799039686,0.8895511262742787
-0.2032936,1.6302970471403755,0.8892190533732282
-0.20326751999999998,1.631287414376782,0.8885549075711286
-0.20324144,1.6322777816131877,0.8885549075711286
-0.20321535999999998,1.6332681488495941,0.8882228346700789
-0.20318927999999997,1.6345886384981358,0.8878907617690293
-0.2031632,1.6352488833224064,0.8882228346700789
-0.20313712,1.6362392505588115,0.8882228346700789
-0.20311103999999996,1.6372296177952195,0.8882228346700795
-0.20308495999999998,1.6382199850316246,0.8888869804721783
-0.20305888,1.6392103522680301,0.8895511262742775
-0.20303279999999999,1.6402007195044366,0.8902152720763772
-0.20300671999999997,1.640860964328708,0.8908794178784771
-0.20298064,1.6418513315651135,0.8918756365816258
-0.20295455999999998,1.6428416988015198,0.8932039281858252
-0.20292847999999997,1.6435019436257912,0.8945322197900247
-0.20290239999999998,1.6444923108621965,0.8958605113942224
-0.20287632,1.6451525556864668,0.8971888029984206
-0.20285024,1.6461429229228732,0.8988491675036698
-0.20282415999999998,1.6468031677471444,0.900841604909969
-0.20279808,1.6477935349835495,0.9028340423162655
-0.20277199999999998,1.6484537798078207,0.9048264797225647
-0.20274591999999997,1.649114024632092,0.9071509900299136
-0.20271983999999998,1.6501043918684974,0.909143427436211
-0.20269376,1.6507646366927682,0.9118000106446076
-0.20266768,1.651424881517039,0.9141245209519567
-0.20264159999999998,1.6524152487534451,0.9167811041603559
-0.20261552,1.6530754935777157,0.9197697602698006
-0.20258943999999998,1.6534056159898511,0.9227584163792494
-0.20256335999999997,1.6540658608141223,0.9257470724886984
-0.20253728,1.6550562280505279,0.929067801499194
-0.2025112,1.6553863504626631,0.9323885305096896
-0.20248512,1.6560465952869339,0.9360413324212363
-0.20245903999999998,1.6567068401112048,0.9396941343327849
-0.20243296,1.6573670849354751,0.9433469362443302
-0.20240687999999998,1.6573670849354754,0.9473318110569284
-0.20238079999999997,1.6580273297597465,0.9513166858695268
-0.20235472,1.6586875745840168,0.9553015606821216
-0.20232864,1.659017696996152,0.9592864354947145
-0.20230255999999996,1.6596779418204233,0.9639354561094181
-0.20227647999999998,1.6600080642325583,0.9682524038230605
-0.2022504,1.6603381866446936,0.9725693515367049
-0.20222431999999999,1.6609984314689643,0.9768862992503531
-0.20219823999999997,1.6616586762932355,0.9818673927661011
-0.20217216,1.6619887987053705,0.9868484862818446
-0.20214607999999998,1.6626490435296415,0.9921616526986423
-0.20211999999999997,1.6633092883539127,0.9971427462143909
-0.20209391999999998,1.6639695331781827,1.002787985532231
-0.20206784,1.664299655590318,1.0081011519490242
-0.20204176,1.6646297780024535,1.013414318365822
-0.20201567999999998,1.6652900228267244,1.0190595576836698
-0.2019896,1.6656201452388593,1.0247047970015095
-0.20196351999999998,1.6662803900631302,1.0303500363193574
-0.20193743999999997,1.666610512475266,1.0359952756372053
-0.20191135999999998,1.666940634887401,1.0419725878560975
-0.20188528,1.667270757299536,1.0479499000749897
-0.2018592,1.6676008797116717,1.054259285194937
