DAQ/testing_accel_4_6/test_full_0030.csv

#Digilent WaveForms Oscilloscope Acquisition
#Device Name: Discovery2
#Serial Number: SN:210321B02866
#Date Time: 2021-04-06 19:02:52.904
#Sample rate: 38343.6Hz
#Samples: 8192
#Trigger: None
#Channel 1: Range: 500 mV/div Offset: -1.15 V Attenuation: 1 X
#Channel 2: Range: 500 mV/div Offset: -1.45 V Attenuation: 1 X
#Power Supplies: ON
#Positive Supply: ON
#Voltage: 3.3 V
#Negative Supply: OFF
#Voltage: -3.3 V

Time (s),Channel 1 (V),Channel 2 (V)
-0.21116975999999998,1.6563767176990694,0.9250829266865974
-0.21114368,1.6567068401112046,0.9293998744002417
-0.2111176,1.65703696252334,0.9337168221138901
-0.21109151999999998,1.657697207347611,0.9383658427285881
-0.21106544,1.658027329759746,0.94301486334328
-0.21103935999999998,1.6586875745840168,0.9476638839579781
-0.21101327999999997,1.6590176969961525,0.9523129045726764
-0.21098719999999999,1.6593478194082878,0.9572939980884199
-0.21096112,1.6596779418204228,0.962275091604161
-0.21093504,1.660008064232558,0.9675882580209587
-0.21090895999999998,1.6603381866446938,0.9729014244377565
-0.21088288,1.660668309056829,0.9778825179535
-0.21085679999999998,1.6609984314689643,0.9838598301723972
-0.21083071999999997,1.6609984314689645,0.9891729965891952
-0.21080464,1.6613285538810998,0.9948182359070379
-0.21077856,1.661658676293235,1.0007955481259274
-0.21075247999999996,1.6619887987053705,1.0067728603448327
-0.21072639999999998,1.6619887987053705,1.0124180996626728
-0.21070032,1.6623189211175056,1.0187274847826144
-0.21067423999999998,1.6623189211175058,1.025036869902562
-0.21064815999999997,1.6623189211175056,1.0310141821214596
-0.21062208,1.6619887987053705,1.0369914943403518
-0.21059599999999998,1.6619887987053705,1.0429688065592497
-0.21056991999999997,1.6619887987053703,1.049610264580246
-0.21054383999999998,1.6616586762932353,1.0552555038980862
-0.21051776,1.6613285538811,1.0618969619190775
-0.21049168,1.6613285538810998,1.068538419940075
-0.21046559999999997,1.660998431468964,1.075179877961072
-0.21043952,1.6606683090568295,1.081489263081011
-0.21041343999999998,1.6603381866446938,1.0884627940030578
-0.21038735999999997,1.660008064232558,1.095436324925105
-0.21036127999999998,1.659677941820423,1.1024098558471458
-0.2103352,1.659347819408288,1.1097154596702363
-0.21030912,1.6590176969961523,1.1170210634933335
-0.21028303999999998,1.6586875745840166,1.1243266673164305
-0.21025696,1.6583574521718818,1.1316322711395175
-0.21023087999999998,1.6583574521718816,1.1392699478636645
-0.21020479999999997,1.657697207347611,1.1469076245878114
-0.21017871999999999,1.6580273297597463,1.1545453013119513
-0.21015264,1.657367084935476,1.1618509051350385
-0.21012656,1.6570369625233403,1.1698206547602348
-0.21010047999999998,1.6567068401112048,1.1777904043854315
-0.2100744,1.6560465952869343,1.1854280811095714
-0.21004831999999998,1.6557164728747988,1.193729903635818
-0.21002223999999997,1.6553863504626631,1.201367580359965
-0.20999616,1.6550562280505279,1.2096694028862043
-0.20997008,1.654395983226258,1.217307079610341
-0.20994399999999996,1.6537357384019862,1.2259409750376478
-0.20991791999999998,1.6534056159898511,1.2339107246628336
-0.20989184,1.653075493577716,1.2425446200901222
-0.20986575999999998,1.6520851263413097,1.2505143697153194
-0.20983967999999997,1.6517550039291742,1.258816192241566
-0.2098136,1.6510947591049037,1.2671180147678052
-0.20978751999999998,1.6504345142806327,1.2754198372940522
-0.20976143999999997,1.6501043918684966,1.284053732721348
-0.20973535999999998,1.6491140246320914,1.292023482346534
-0.20970928,1.648453779807821,1.3006573777738226
-0.2096832,1.6474634125714147,1.3089592003000694
-0.20965711999999997,1.6468031677471437,1.3175930957273658
-0.20963104,1.6461429229228735,1.3258949182536013
-0.20960495999999998,1.645812800510738,1.3345288136808975
-0.20957887999999997,1.6448224332743315,1.3431627091081941
-0.20955279999999998,1.644162188450061,1.3517966045354828
-0.20952672,1.6435019436257905,1.360098427061722
-0.20950064,1.6428416988015195,1.3687323224890184
-0.20947455999999998,1.6418513315651133,1.377366217916315
-0.20944848,1.641191086740843,1.3860001133435995
-0.20942239999999998,1.6402007195044366,1.3943019358698465
-0.20939631999999997,1.6392103522680304,1.4029358312971432
-0.20937023999999999,1.6385501074437598,1.4115697267244318
-0.20934416,1.6375597402073543,1.4195394763496214
-0.20931808,1.636899495383083,1.4285054446779673
-0.20929199999999998,1.635909128146677,1.4368072672042103
-0.20926592,1.6349187609102713,1.4451090897304493
-0.20923983999999998,1.6339283936738649,1.453410912256696
-0.20921375999999997,1.6329380264374582,1.461380661881893
-0.20918768,1.6319476592010527,1.469682484408132
-0.2091616,1.6309572919646476,1.477652234033318
-0.20913551999999996,1.6299669247282393,1.4862861294606249
-0.20910943999999998,1.628646435079699,1.4939238061847613
-0.20908336,1.6279861902554285,1.50255770161205
-0.20905727999999998,1.6269958230190222,1.5105274512372473
-0.20903119999999997,1.626005455782616,1.5188292737634939
-0.20900512,1.6253452109583455,1.527131096289733
-0.20897903999999998,1.6240247213098036,1.5347687730138804
-0.20895295999999997,1.623034354073397,1.5430705955401263
-0.20892687999999998,1.6220439868369918,1.5507082722642629
-0.2089008,1.6210536196005862,1.5586780218894525
-0.20887471999999999,1.6197331299520443,1.56598362571255
-0.20884863999999997,1.6187427627156379,1.5739533753377466
-0.20882256,1.6177523954792326,1.5819231249629326
-0.20879647999999998,1.6164319058306906,1.58922872878603
-0.20877039999999997,1.6157716610064192,1.5968664055101767
-0.20874431999999998,1.6144511713578784,1.6041720093332672
-0.20871824,1.6137909265336081,1.6121417589584568
-0.20869216,1.6124704368850664,1.6194473627815542
-0.20866607999999998,1.6114800696486595,1.6267529666046512
-0.20864,1.6101595800001196,1.6340585704277384
-0.20861391999999998,1.6091692127637127,1.6416962471518852
-0.20858783999999997,1.608178845527306,1.649001850974982
-0.20856175999999998,1.6068583558787652,1.6559753818970229
-0.20853568,1.6061981110544947,1.6632809857201134
-0.2085096,1.6052077438180885,1.6702545166421607
-0.20848351999999998,1.6038872541695466,1.6772280475642078
-0.20845744,1.6028968869331413,1.6842015784862456
-0.20843135999999998,1.6015763972845996,1.690843036507243
-0.20840527999999997,1.6005860300481929,1.6981486403303399
-0.2083792,1.5995956628117873,1.7044580254502815
-0.20835312,1.598275173163247,1.711431556372319
-0.20832703999999996,1.5972848059268385,1.717740941492276
-0.20830095999999998,1.5959643162782982,1.7240503266122147
-0.20827488,1.5949739490418926,1.730691784633206
-0.20824879999999998,1.5933233369812154,1.7363370239510543
-0.20822271999999997,1.5923329697448088,1.7426464090710017
-0.20819664,1.5913426025084032,1.7486237212898939
-0.20817056,1.5900221128598628,1.7546010335087834
-0.20814447999999997,1.5887016232113191,1.7602462728266388
-0.20811839999999998,1.5873811335627788,1.7658915121444791
-0.20809232,1.5863907663263732,1.7715367514623215
-0.20806623999999999,1.5850702766778313,1.7765178449780699
-0.20804015999999997,1.5840799094414248,1.7821630842959173
-0.20801408,1.5830895422050197,1.7871441778116586
-0.20798799999999998,1.5817690525564778,1.7921252713274067
-0.20796191999999997,1.580778685320071,1.7977705106452537
-0.20793583999999998,1.5794581956715303,1.8020874583588982
-0.20790976,1.5784678284351246,1.8070685518746417
-0.20788368,1.5771473387865826,1.8117175724893397
-0.20785759999999998,1.5758268491380407,1.8160345202029884
-0.20783152,1.5748364819016356,1.82068354081768
-0.20780543999999998,1.5735159922530937,1.8246684156302788
-0.20777935999999997,1.572525625016687,1.8289853633439268
-0.20775327999999998,1.570875012956011,1.8329702381565216
-0.2077272,1.5695545233074701,1.836623040068067
-0.20770112,1.5685641560710633,1.840607914880665
-0.20767503999999998,1.5672436664225216,1.843928643891164
-0.20764896,1.5665834215982513,1.8475814458027078
-0.20762287999999998,1.5652629319497096,1.8509021748132064
-0.20759679999999997,1.5639424423011679,1.8538908309226554
-0.20757072,1.562952075064762,1.857211559933151
-0.20754464,1.5616315854162217,1.8598681431415462
-0.20751856,1.560641218179815,1.8628567992509948
-0.20749247999999998,1.5593207285312731,1.865181309558344
-0.2074664,1.5583303612948676,1.867505819865691
-0.20744031999999998,1.5573399940584611,1.8698303301730401
-0.20741423999999997,1.5560195044099192,1.8714906946782897
-0.20738816,1.5550291371735134,1.873483132084587
-0.20736208,1.5540387699371083,1.8751434965898341
-0.20733599999999996,1.5530484027007003,1.876471788194036
-0.20730991999999998,1.5520580354642952,1.8781321526992831
-0.20728384,1.5510676682278897,1.8787962985013824
-0.20725775999999999,1.550077300991483,1.8797925172045318
-0.20723167999999997,1.5490869337550763,1.8804566630066313
-0.2072056,1.5477664441065355,1.8811208088087306
-0.20717951999999998,1.5471061992822643,1.88178495461083
-0.20715343999999997,1.5461158320458583,1.8817849546108303
-0.20712735999999998,1.5451254648094526,1.8821170275118797
-0.20710128,1.544135097573047,1.8821170275118797
-0.2070752,1.5431447303366403,1.8821170275118797
-0.20704911999999998,1.5421543631002337,1.8817849546108298
-0.20702304,1.5408338734516935,1.8811208088087308
-0.20699695999999998,1.5401736286274224,1.8811208088087306
-0.20697087999999997,1.5391832613910157,1.8801245901055812
-0.20694479999999998,1.53819289415461,1.879460444303482
-0.20691872,1.5372025269182044,1.8784642256003332
-0.20689264,1.5358820372696624,1.877135933996134
-0.20686655999999998,1.5352217924453913,1.8764717881940338
-0.20684048,1.533901302796851,1.8748114236887867
-0.20681439999999998,1.5329109355604442,1.873483132084587
-0.20678831999999997,1.5319205683240378,1.8721548404803876
-0.20676223999999999,1.530930201087632,1.8704944759751396
-0.20673616,1.529939833851227,1.869166184370942
-0.20671008,1.5289494666148205,1.8671737469646434
-0.20668399999999998,1.5279590993784138,1.8658454553604435
-0.20665792,1.5272988545541433,1.8641850908551956
-0.20663183999999998,1.526308487317737,1.8615285076467973
-0.20660575999999997,1.525648242493466,1.8595360702404977
-0.20657968,1.5249879976691956,1.8565474141310516
-0.2065536,1.5239976304327905,1.8535587580216069
-0.20652751999999996,1.523337385608518,1.850902174813203
-0.20650143999999998,1.5223470183721126,1.8472493729016595
-0.20647536,1.5216867735478423,1.8442607167922134
-0.20644927999999999,1.5206964063114359,1.840607914880665
-0.20642319999999997,1.520036161487165,1.8372871858701665
-0.20639712,1.5193759166628944,1.833634383958621
-0.20637103999999998,1.5183855494264882,1.8296495091460225
-0.20634495999999997,1.5177253046022174,1.8253325614323748
-0.20631887999999998,1.5173951821900822,1.8213476866197817
-0.2062928,1.5164048149536766,1.8170307389061373
-0.20626672,1.5160746925415407,1.8127137911924889
-0.20624063999999998,1.51541444771727,1.8080647705777908
-0.20621456,1.5147542028929997,1.8034157499630992
-0.20618847999999998,1.514424080480864,1.7987667293484009
-0.20616239999999997,1.513763835656593,1.7934535629316033
-0.20613631999999998,1.513433713244458,1.7884724694158598
-0.20611024,1.5127734684201875,1.7831593029990667
-0.20608416,1.5124433460080517,1.7778461365822689
-0.20605807999999998,1.5121132235959163,1.7725329701654706
-0.206032,1.511452978771646,1.766887730847631
-0.20600591999999998,1.5111228563595105,1.7615745644308327
-0.20597983999999997,1.5111228563595103,1.7559293251129848
-0.20595375999999999,1.510792733947375,1.7502840857951423
-0.20592768,1.51046261153524,1.7446388464773
-0.2059016,1.509802366710969,1.7383294613573526
-0.20587551999999998,1.5094722442988335,1.7323521491384577
-0.20584944,1.5094722442988335,1.7260427640185159
-0.20582335999999998,1.5088119994745628,1.7197333788985685
-0.20579727999999997,1.509142121886698,1.7137560666796707
-0.2057712,1.5088119994745628,1.707446681559729
-0.20574512,1.5084818770624278,1.7008052235387405
-0.20571903999999996,1.5084818770624275,1.6944958384187843
-0.20569295999999998,1.5084818770624275,1.6881864532988453
-0.20566688,1.5084818770624275,1.6815449952778543
-0.20564079999999998,1.5084818770624275,1.6749035372568568
-0.20561471999999997,1.5081517546502925,1.6679300063348097
-0.20558864,1.5084818770624275,1.6609564754127686
-0.20556255999999998,1.5081517546502923,1.6543150173917711
-0.20553647999999997,1.5081517546502923,1.6473414864697236
-0.20551039999999998,1.5081517546502923,1.6400358826466366
-0.20548432,1.5084818770624273,1.6330623517245957
-0.20545824,1.5084818770624275,1.6257567479014987
-0.20543215999999997,1.5088119994745628,1.6184511440784017
-0.20540608,1.5088119994745628,1.6111455402553145
-0.20537999999999998,1.5088119994745628,1.6038399364322176
-0.20535391999999997,1.5091421218866985,1.5965343326091201
-0.20532783999999998,1.5094722442988335,1.5888966558849802
-0.20530176,1.5098023667109688,1.5815910520618899
-0.20527568,1.509802366710969,1.573953375337743
-0.20524959999999998,1.5101324891231045,1.5663156986135962
-0.20522352,1.5104626115352395,1.559010094790509
-0.20519743999999998,1.510792733947375,1.5510403451653125
-0.20517135999999997,1.5111228563595107,1.5434026684411655
-0.20514527999999999,1.5114529787716457,1.5357649917170257
-0.2051192,1.5121132235959163,1.5274631691907865
-0.20509312,1.5124433460080517,1.5198254924666392
-0.20506703999999998,1.5127734684201875,1.5118557428414425
-0.20504096,1.5131035908323225,1.5038859932162565
-0.20501487999999998,1.5137638356565932,1.4962483164921094
-0.20498879999999997,1.514093958068729,1.4879464939658629
-0.20496272,1.5147542028929994,1.4799767443406733
-0.20493664,1.5150843253051345,1.4720069947154875
-0.20491055999999996,1.5154144477172709,1.4637051721892298
-0.20488447999999998,1.5160746925415407,1.455735422564044
-0.2048584,1.5167349373658114,1.4477656729388544
-0.20483231999999998,1.5173951821900822,1.4394638504126078
-0.20480623999999997,1.5180554270143534,1.4311620278863615
-0.20478016,1.5187156718386237,1.423192278261172
-0.20475408,1.519045794250759,1.4148904557349364
-0.20472799999999997,1.5197060390750305,1.4065886332086788
-0.20470191999999998,1.5203662838993006,1.3986188835834927
-0.20467584,1.521026528723571,1.3903170610572537
-0.20464976,1.521686773547842,1.3823473114320568
-0.20462367999999997,1.5226771407842483,1.3740454889058102
-0.2045976,1.5233373856085186,1.3660757392806242
-0.20457151999999998,1.5243277528449248,1.3577739167543776
-0.20454543999999997,1.5249879976691958,1.3498041671291807
-0.20451935999999998,1.5256482424934663,1.3415023446029417
-0.20449328,1.526638609729872,1.333532594977752
-0.2044672,1.527298854554143,1.3255628453525552
-0.20444111999999998,1.5282892217905495,1.3175930957273585
-0.20441504,1.5289494666148198,1.3096233461021725
-0.20438895999999998,1.529939833851226,1.3016535964769758
-0.20436287999999997,1.5309302010876324,1.2936838468517788
-0.20433679999999999,1.5319205683240382,1.2857140972265892
-0.20431072,1.5325808131483087,1.2777443476013997
-0.20428464,1.533571180384715,1.2701066708772526
-0.20425855999999998,1.5345615476211214,1.262136921252056
-0.20423248,1.5355519148575267,1.2541671716268699
-0.20420639999999998,1.5365422820939332,1.2465294949027228
-0.20418031999999997,1.5375326493303398,1.2388918181785757
-0.20415424,1.5385230165667454,1.2312541414544358
-0.20412816,1.5391832613910155,1.2236164647302992
-0.20410208,1.540173628627422,1.216310860907202
-0.20407599999999998,1.5411639958638284,1.2086731841830551
-0.20404992,1.5424844855123692,1.2013675803599646
-0.20402383999999998,1.5434748527487758,1.1940619765368676
-0.20399775999999997,1.5447953423973178,1.1867563727137704
-0.20397168,1.5457857096337233,1.1794507688906801
-0.2039456,1.5467760768701286,1.172145165067593
-0.20391951999999997,1.5477664441065366,1.1648395612444862
-0.20389343999999998,1.549086933755077,1.1578660303224484
-0.20386736,1.5504074234036178,1.1508924994004075
-0.20384127999999999,1.5513977906400245,1.1439189684783604
-0.20381519999999997,1.5523881578764314,1.1369454375563133
-0.20378912,1.553708647524972,1.1299719066342724
-0.20376303999999998,1.5546990147613782,1.1229983757122284
-0.20373695999999997,1.5560195044099203,1.1166889905922806
-0.20371087999999998,1.5573399940584611,1.1097154596702397
-0.2036848,1.5583303612948667,1.1030740016492484
-0.20365872,1.5593207285312731,1.096432543628251
-0.20363263999999998,1.560641218179815,1.0901231585083033
-0.20360656,1.5616315854162202,1.0834817004873152
-0.20358047999999998,1.562952075064762,1.0768402424663177
-0.20355439999999997,1.564272564713304,1.0705308573463703
-0.20352831999999998,1.5652629319497096,1.0642214722264285
-0.20350224,1.5662532991861153,1.0579120871064869
-0.20347616,1.5675737888346573,1.0516027019865393
-0.20345007999999998,1.568564156071064,1.0456253897676415
-0.203424,1.569884645719604,1.0393160046477028
-0.20339791999999998,1.5712051353681462,1.033338692428805
-0.20337183999999997,1.5725256250166884,1.0273613802099073
-0.20334576,1.573846114665229,1.021384067991015
-0.20331968,1.5751666043137693,1.015738828673175
-0.2032936,1.5761569715501762,1.0100935893553276
-0.20326751999999998,1.5774774611987181,1.0047804229385293
-0.20324144,1.5787979508472587,0.9991351836206867
-0.20321535999999998,1.5801184404958009,0.9938220172038887
-0.20318927999999997,1.5811088077322077,0.9885088507870907
-0.2031632,1.5824292973807483,0.9831956843702978
-0.20313712,1.5837497870292887,0.9778825179535071
-0.20311103999999996,1.5850702766778324,0.9732334973388014
-0.20308495999999998,1.5863907663263728,0.9679203309220108
-0.20305888,1.5873811335627783,0.9632713103073168
-0.20303279999999999,1.5887016232113202,0.9586222896926188
-0.20300671999999997,1.5900221128598624,0.9536411961768709
-0.20298064,1.5913426025084032,0.9493242484632267
-0.20295455999999998,1.5926630921569453,0.9446752278485286
-0.20292847999999997,1.5939835818054873,0.9403582801348804
-0.20290239999999998,1.5953040714540276,0.936041332421238
-0.20287632,1.5966245611025685,0.9320564576086432
-0.20285024,1.5976149283389751,0.9280715827960448
-0.20282415999999998,1.5989354179875173,0.9240867079834466
-0.20279808,1.6002559076360574,0.920433906071903
-0.20277199999999998,1.6015763972845996,0.9167811041603545
-0.20274591999999997,1.602566764521006,0.913128302248806
-0.20271983999999998,1.6035571317574115,0.9098075732383104
-0.20269376,1.6048776214059524,0.9068189171288643
-0.20266768,1.6061981110544945,0.9034981881183658
-0.20264159999999998,1.6075186007030366,0.9008416049099668
-0.20261552,1.6088390903515768,0.897852948800522
-0.20258943999999998,1.610159580000119,0.8948642926910733
-0.20256335999999997,1.6111499472365256,0.8922077094826742
-0.20253728,1.6124704368850664,0.8895511262742778
-0.2025112,1.6137909265336072,0.8872266159669309
-0.20248512,1.6147812937700134,0.8849021056595828
-0.20245903999999998,1.6161017834185554,0.8829096682532834
-0.20243296,1.617092150654961,0.8805851579459365
-0.20240687999999998,1.6184126403035028,0.8789247934406869
-0.20238079999999997,1.619733129952045,0.8772644289354373
-0.20235472,1.6210536196005858,0.8752719915291399
-0.20232864,1.622043986836991,0.8739436999249424
-0.20230255999999996,1.623034354073399,0.8722833354196916
-0.20227647999999998,1.6243548437219393,0.8712871167165434
-0.2022504,1.62567533337048,0.869958825112345
-0.20222431999999999,1.6266657006068868,0.8689626064091953
-0.20219823999999997,1.6283163126675644,0.8682984606070956
-0.20217216,1.6296368023161052,0.8676343148049965
-0.20214607999999998,1.6309572919646473,0.8673022419039464
-0.20211999999999997,1.6322777816131893,0.866638096101847
-0.20209391999999998,1.6335982712617294,0.8663060232007976
-0.20206784,1.6349187609102702,0.865973950299748
-0.20204176,1.635909128146677,0.8659739502997479
-0.20201567999999998,1.6375597402073545,0.8656418773986984
-0.2019896,1.6388802298558947,0.8659739502997478
-0.20196351999999998,1.6398705970923013,0.8663060232007976
-0.20193743999999997,1.640860964328708,0.8659739502997482
-0.20191135999999998,1.6418513315651135,0.8666380961018474
-0.20188528,1.6431718212136543,0.8673022419039464
-0.2018592,1.644162188450061,0.8679663877060462
