DAQ/testing_accel_4_6/test_full_0047.csv

#Digilent WaveForms Oscilloscope Acquisition
#Device Name: Discovery2
#Serial Number: SN:210321B02866
#Date Time: 2021-04-06 19:02:56.644
#Sample rate: 38343.6Hz
#Samples: 8192
#Trigger: None
#Channel 1: Range: 500 mV/div Offset: -1.15 V Attenuation: 1 X
#Channel 2: Range: 500 mV/div Offset: -1.45 V Attenuation: 1 X
#Power Supplies: ON
#Positive Supply: ON
#Voltage: 3.3 V
#Negative Supply: OFF
#Voltage: -3.3 V

Time (s),Channel 1 (V),Channel 2 (V)
-0.21116975999999998,1.6583574521718816,1.2940159197528323
-0.21114368,1.6573670849354758,1.3019856693780218
-0.2111176,1.6567068401112048,1.3099554190032185
-0.21109151999999998,1.6560465952869339,1.3179251686284157
-0.21106544,1.6553863504626636,1.3265590640557003
-0.21103935999999998,1.6547261056383926,1.3341967407798478
-0.21101327999999997,1.6540658608141217,1.3424985633060946
-0.21098719999999999,1.6534056159898511,1.3508003858323336
-0.21096112,1.6524152487534458,1.359102208358569
-0.21093504,1.6517550039291746,1.3670719579837662
-0.21090895999999998,1.6507646366927684,1.3753737805100126
-0.21088288,1.6501043918684977,1.3833435301352024
-0.21085679999999998,1.649444147044227,1.391313279760399
-0.21083071999999997,1.6484537798078205,1.3996151022866454
-0.21080464,1.64779353498355,1.4075848519118352
-0.21077856,1.64713329015928,1.415554601537021
-0.21075247999999996,1.6461429229228723,1.4235243511622289
-0.21072639999999998,1.645152555686467,1.4314941007874147
-0.21070032,1.6444923108621967,1.4394638504126043
-0.21067423999999998,1.6435019436257903,1.4477656729388508
-0.21064815999999997,1.6425115763893838,1.455403349662998
-0.21062208,1.641521209152978,1.4633730992881875
-0.21059599999999998,1.640860964328707,1.4713428489133842
-0.21056991999999997,1.6398705970923004,1.478980525637531
-0.21054383999999998,1.6388802298558953,1.4866182023616676
-0.21051776,1.6378898626194895,1.4942558790858076
-0.21049168,1.636899495383083,1.5018935558099547
-0.21046559999999997,1.6359091281466767,1.5095312325341017
-0.21043952,1.6349187609102713,1.5171689092582379
-0.21041343999999998,1.6335982712617294,1.524806585982385
-0.21038735999999997,1.632607904025323,1.532444262706532
-0.21036127999999998,1.6316175367889172,1.540081939430672
-0.2103352,1.6306271695525116,1.5473875432537623
-0.21030912,1.6299669247282405,1.555025219977909
-0.21028303999999998,1.6286464350796985,1.5623308238010063
-0.21025696,1.6276560678432934,1.5696364276240933
-0.21023087999999998,1.6263355781947515,1.5769420314471905
-0.21020479999999997,1.625345210958345,1.5842476352702872
-0.21017871999999999,1.6243548437219393,1.5912211661923283
-0.21015264,1.6233644764855342,1.5985267700154153
-0.21012656,1.6223741092491277,1.6058323738385125
-0.21010047999999998,1.6210536196005858,1.6128059047605598
-0.2100744,1.619733129952045,1.6197794356826007
-0.21004831999999998,1.6187427627156383,1.6267529666046479
-0.21002223999999997,1.6174222730670964,1.6333944246256453
-0.20999616,1.6164319058306906,1.6403679555476862
-0.20997008,1.6151114161821505,1.6470094135686746
-0.20994399999999996,1.614121048945742,1.65431501739178
-0.20991791999999998,1.6128005592972017,1.660624402511719
-0.20989184,1.6118101920607961,1.6675979334337598
-0.20986575999999998,1.6104897024122542,1.6742393914547573
-0.20983967999999997,1.6098294575879828,1.680548776574705
-0.2098136,1.608508967939442,1.6871902345956962
-0.20978751999999998,1.6071884782909,1.6938316926166932
-0.20976143999999997,1.6061981110544936,1.6998090048355914
-0.20973535999999998,1.6052077438180885,1.7064504628565798
-0.20970928,1.6042173765816827,1.7127598479765216
-0.2096832,1.6028968869331408,1.7184050872943697
-0.20965711999999997,1.6019065196967341,1.7247144724143169
-0.20963104,1.600586030048194,1.7306917846332064
-0.20960495999999998,1.5995956628117873,1.7363370239510543
-0.20957887999999997,1.5982751731632452,1.7419822632689022
-0.20955279999999998,1.5969546835147044,1.7479595754877943
-0.20952672,1.5959643162782986,1.7532727419045873
-0.20950064,1.594643826629757,1.7585859083213853
-0.20947455999999998,1.59365345939335,1.7638990747381829
-0.20944848,1.5923329697448099,1.7688801682539244
-0.20942239999999998,1.591012480096268,1.7738612617696723
-0.20939631999999997,1.590022112859861,1.7788423552854202
-0.20937023999999999,1.5887016232113202,1.7834913759001139
-0.20934416,1.5873811335627794,1.7878083236137583
-0.20931808,1.5860606439142375,1.792789417129506
-0.20929199999999998,1.584740154265696,1.7967742919421026
-0.20926592,1.5837497870292903,1.8007591667546974
-0.20923983999999998,1.5827594197928838,1.8054081873693952
-0.20921375999999997,1.5817690525564774,1.8093930621819936
-0.20918768,1.5807786853200716,1.8133779369945884
-0.2091616,1.5797883180836665,1.8173628118071814
-0.20913551999999996,1.5784678284351235,1.8206835408176858
-0.20910943999999998,1.5778075836108534,1.8246684156302788
-0.20908336,1.5764870939623126,1.827657071739725
-0.20905727999999998,1.575496726725906,1.8309778007502233
-0.20903119999999997,1.5745063594894992,1.8339664568596719
-0.20900512,1.5731858698409584,1.8366230400680685
-0.20897903999999998,1.5721955026045515,1.8392796232764674
-0.20895295999999997,1.5708750129560098,1.841936206484866
-0.20892687999999998,1.5695545233074695,1.8439286438911624
-0.2089008,1.568894278483199,1.846585227099559
-0.20887471999999999,1.5675737888346573,1.8485776645058585
-0.20884863999999997,1.5662532991861156,1.8505701019121577
-0.20882256,1.5655930543618453,1.8525625393184542
-0.20879647999999998,1.5642725647133036,1.8542229038237035
-0.20877039999999997,1.5632821974768971,1.8555511954279031
-0.20874431999999998,1.5622918302404916,1.857211559933151
-0.20871824,1.5609713405919508,1.8582077786362996
-0.20869216,1.5599809733555439,1.8592039973394492
-0.20866607999999998,1.5589906061191372,1.8602002160425986
-0.20864,1.557670116470597,1.8608643618446976
-0.20861391999999998,1.5566797492341902,1.861860580547847
-0.20858783999999997,1.5553592595856485,1.8621926534488968
-0.20856175999999998,1.5543688923492427,1.8625247263499465
-0.20853568,1.5533785251128371,1.8631888721520455
-0.2085096,1.5520580354642952,1.8631888721520458
-0.20848351999999998,1.5510676682278888,1.8631888721520458
-0.20845744,1.5500773009914834,1.8631888721520458
-0.20843135999999998,1.549086933755077,1.8625247263499465
-0.20840527999999997,1.5480965665186703,1.8625247263499463
-0.2083792,1.5471061992822648,1.8621926534488966
-0.20835312,1.5461158320458597,1.861528507646798
-0.20832703999999996,1.545125464809452,1.8611964347457466
-0.20830095999999998,1.5444652199851818,1.8602002160425983
-0.20827488,1.543144730336641,1.8592039973394496
-0.20824879999999998,1.5424844855123698,1.8582077786363
-0.20822271999999997,1.5414941182759634,1.8565474141310512
-0.20819664,1.5408338734516929,1.8555511954279025
-0.20817056,1.5398435062152878,1.8538908309226554
-0.20814447999999997,1.5388531389788802,1.852230466417404
-0.20811839999999998,1.53819289415461,1.8509021748132064
-0.20809232,1.5372025269182044,1.848909737406909
-0.20806623999999999,1.5365422820939332,1.8475814458027093
-0.20804015999999997,1.535551914857527,1.8455890083964102
-0.20801408,1.5348916700332567,1.8435965709901134
-0.20798799999999998,1.5342314252089857,1.8419362064848641
-0.20796191999999997,1.5335711803847147,1.8392796232764652
-0.20793583999999998,1.5329109355604442,1.8369551129691182
-0.20790976,1.5319205683240387,1.8342985297607217
-0.20788368,1.5315904459119027,1.8313098736512732
-0.20785759999999998,1.5309302010876318,1.8283212175418242
-0.20783152,1.5302699562633617,1.8246684156302804
-0.20780543999999998,1.5296097114390905,1.8213476866197817
-0.20777935999999997,1.5292795890269548,1.8176948847082326
-0.20775327999999998,1.5282892217905493,1.8130458640935387
-0.2077272,1.527959099378414,1.8093930621819934
-0.20770112,1.527298854554143,1.8047440415672957
-0.20767503999999998,1.5269687321420076,1.8000950209525979
-0.20764896,1.5266386097298728,1.7957780732389554
-0.20762287999999998,1.5259783649056016,1.7907969797232077
-0.20759679999999997,1.525648242493466,1.786480032009559
-0.20757072,1.5249879976691956,1.7814989384938156
-0.20754464,1.5246578752570605,1.776849917879124
-0.20751856,1.524327752844925,1.7718688243633762
-0.20749247999999998,1.5239976304327896,1.7662235850455288
-0.2074664,1.5236675080206543,1.761242491529785
-0.20744031999999998,1.5230072631963834,1.7555972522119379
-0.20741423999999997,1.5226771407842479,1.7502840857951396
-0.20738816,1.5223470183721126,1.7446388464772973
-0.20736208,1.5220168959599776,1.7383294613573583
-0.20733599999999996,1.5216867735478419,1.732684222039502
-0.20730991999999998,1.5213566511357066,1.7267069098206125
-0.20728384,1.5210265287235714,1.7203975247006709
-0.20725775999999999,1.5213566511357066,1.7144202124817731
-0.20723167999999997,1.5206964063114359,1.7084429002628752
-0.2072056,1.5206964063114359,1.7021335151429335
-0.20717951999999998,1.5203662838993006,1.695824130022986
-0.20715343999999997,1.5203662838993006,1.6895147449030414
-0.20712735999999998,1.5203662838993006,1.6832053597830996
-0.20710128,1.5200361614871654,1.6762318288610587
-0.2070752,1.5200361614871651,1.669922443741111
-0.20704911999999998,1.5197060390750299,1.6632809857201138
-0.20702304,1.5197060390750299,1.656971600600175
-0.20699695999999998,1.5200361614871651,1.6503301425791777
-0.20697087999999997,1.5197060390750299,1.6433566116571305
-0.20694479999999998,1.5197060390750299,1.6367151536361393
-0.20691872,1.5197060390750299,1.6300736956151483
-0.20689264,1.5197060390750299,1.623100164693101
-0.20686655999999998,1.5200361614871651,1.6164587066721037
-0.20684048,1.5200361614871651,1.6094851757500657
-0.20681439999999998,1.5203662838993006,1.602179571926969
-0.20678831999999997,1.5203662838993006,1.5948739681038717
-0.20676223999999999,1.5203662838993006,1.5875683642807814
-0.20673616,1.5210265287235705,1.580926906259793
-0.20671008,1.5210265287235711,1.573289229535647
-0.20668399999999998,1.5213566511357066,1.56598362571255
-0.20665792,1.5216867735478419,1.5586780218894594
-0.20663183999999998,1.521686773547842,1.5510403451653125
-0.20660575999999997,1.5220168959599776,1.5437347413422153
-0.20657968,1.5223470183721126,1.5360970646180754
-0.2065536,1.5226771407842479,1.5284593878939388
-0.20652751999999996,1.5230072631963834,1.5211537840708307
-0.20650143999999998,1.5230072631963834,1.5131840344456449
-0.20647536,1.5236675080206539,1.5058784306225546
-0.20644927999999999,1.5239976304327896,1.4985728267994574
-0.20642319999999997,1.524327752844925,1.4906030771742609
-0.20639712,1.5249879976691956,1.4832974733511706
-0.20637103999999998,1.524987997669196,1.4753277237259736
-0.20634495999999997,1.5259783649056018,1.4676900470018264
-0.20631887999999998,1.526308487317737,1.4597202973766406
-0.2062928,1.5269687321420076,1.4520826206525006
-0.20626672,1.5276289769662785,1.444112871027304
-0.20624063999999998,1.5282892217905495,1.4361431214021072
-0.20621456,1.5289494666148198,1.4285054446779708
-0.20618847999999998,1.5296097114390905,1.4202036221517245
-0.20616239999999997,1.530269956263362,1.4122338725265275
-0.20613631999999998,1.5312603234997675,1.404264122901338
-0.20611024,1.531920568324038,1.395962300375099
-0.20608416,1.532580813148309,1.3883246236509517
-0.20605807999999998,1.53324105797258,1.380022801124705
-0.206032,1.5339013027968502,1.372053051499519
-0.20600591999999998,1.5348916700332564,1.3640833018743224
-0.20597983999999997,1.5358820372696627,1.3561135522491257
-0.20595375999999999,1.5365422820939332,1.3484758755249857
-0.20592768,1.5372025269182037,1.3401740529987465
-0.2059016,1.53819289415461,1.3325363762745992
-0.20587551999999998,1.5388531389788809,1.324566626649406
-0.20584944,1.5398435062152864,1.3165968770242165
-0.20582335999999998,1.5405037510395576,1.3089592003000694
-0.20579727999999997,1.541163995863829,1.3009894506748727
-0.2057712,1.5424844855123698,1.2933517739507328
-0.20574512,1.5431447303366397,1.285382024325547
-0.20571903999999996,1.5441350975730472,1.2777443476013888
-0.20569295999999998,1.5447953423973173,1.269774597976203
-0.20566688,1.5457857096337229,1.2624689941531124
-0.20564079999999998,1.546445954457994,1.2548313174289656
-0.20561471999999997,1.5474363216944007,1.2471936407048192
-0.20558864,1.5484266889308063,1.240220109782778
-0.20556255999999998,1.5487568113429422,1.2322503601575818
-0.20553647999999997,1.5497471785793486,1.2252768292355343
-0.20551039999999998,1.5507375458157537,1.217971225412447
-0.20548432,1.5517279130521593,1.2106656215893568
-0.20545824,1.552718280288566,1.2036920906673094
-0.20543215999999997,1.5533785251128374,1.1963864868442124
-0.20540608,1.5546990147613775,1.1897450288232243
-0.20537999999999998,1.555359259585649,1.1827714979011772
-0.20535391999999997,1.5566797492341904,1.17579796697913
-0.20532783999999998,1.5573399940584611,1.1688244360570892
-0.20530176,1.5583303612948667,1.162182978036098
-0.20527568,1.5596508509434086,1.1552094471140508
-0.20524959999999998,1.5603110957676798,1.1482359161920037
-0.20522352,1.56163158541622,1.1415944581710156
-0.20519743999999998,1.5622918302404916,1.1346209272489685
-0.20517135999999997,1.5636123198890333,1.127979469227971
-0.20514527999999999,1.564602687125439,1.1213380112069797
-0.2051192,1.5655930543618446,1.1150286260870381
-0.20509312,1.5669135440103865,1.1083871680660409
-0.20506703999999998,1.567573788834658,1.1017457100450438
-0.20504096,1.568894278483198,1.0957683978261543
-0.20501487999999998,1.5698846457196047,1.0891269398051573
-0.20498879999999997,1.5708750129560114,1.0831496275862595
-0.20496272,1.571865380192417,1.0768402424663177
-0.20493664,1.572855747428822,1.0708629302474282
-0.20491055999999996,1.5741762370773653,1.0645535451274726
-0.20488447999999998,1.5751666043137704,1.0582441600075336
-0.2048584,1.5764870939623112,1.052598920689691
-0.20483231999999998,1.5771473387865826,1.046289535569744
-0.20480623999999997,1.5784678284351246,1.0403122233508464
-0.20478016,1.5794581956715303,1.0343349111319542
-0.20475408,1.5804485629079355,1.0290217447151635
-0.20472799999999997,1.5814389301443434,1.0227123595952088
-0.20470191999999998,1.5827594197928838,1.017067120277369
-0.20467584,1.5837497870292894,1.0117539538605758
-0.20464976,1.584740154265696,1.006108714542728
-0.20462367999999997,1.5857305215021025,1.00079554812593
-0.2045976,1.5867208887385078,0.9951503088080901
-0.20457151999999998,1.5880413783870497,0.9905012881933914
-0.20454543999999997,1.588701623211321,0.9848560488755442
-0.20451935999999998,1.5900221128598617,0.9802070282608504
-0.20449328,1.5910124800962675,0.9748938618440572
-0.2044672,1.592002847332674,0.9702448412293588
-0.20444111999999998,1.5933233369812159,0.965263747713611
-0.20441504,1.594313704217621,0.9609467999999688
-0.20438895999999998,1.5953040714540276,0.9562977793852707
-0.20436287999999997,1.5962944386904343,0.9516487587705729
-0.20433679999999999,1.5976149283389751,0.9476638839579781
-0.20431072,1.5986052955753807,0.9433469362443339
-0.20428464,1.5999257852239226,0.9396941343327849
-0.20425855999999998,1.600916152460329,0.9353771866191369
-0.20423248,1.6019065196967344,0.9317243847075934
-0.20420639999999998,1.6028968869331408,0.9284036556970946
-0.20418031999999997,1.6042173765816827,0.924750853785546
-0.20415424,1.6052077438180885,0.9210980518740008
-0.20412816,1.6061981110544936,0.9177773228635067
-0.20410208,1.6075186007030353,0.9147886667540576
-0.20407599999999998,1.608508967939442,0.9118000106446088
-0.20404992,1.6098294575879828,0.9088113545351626
-0.20402383999999998,1.6108198248243895,0.9064868442278133
-0.20399775999999997,1.6118101920607963,0.9038302610194144
-0.20397168,1.6131306817093372,0.9015057507120675
-0.2039456,1.6144511713578773,0.899513313305771
-0.20391951999999997,1.6157716610064208,0.8971888029984194
-0.20389343999999998,1.616762028242826,0.8951963655921229
-0.20386736,1.6180825178913667,0.8932039281858255
-0.20384127999999999,1.6194030075399088,0.8912114907795263
-0.20381519999999997,1.6203933747763157,0.8895511262742772
-0.20378912,1.6217138644248565,0.8882228346700789
-0.20376303999999998,1.6227042316612625,0.88689454306588
-0.20373695999999997,1.6240247213098045,0.8855662514616807
-0.20371087999999998,1.62501508854621,0.8842379598574823
-0.2036848,1.6260054557826158,0.8832417411543336
-0.20365872,1.6273259454311577,0.882245522451184
-0.20363263999999998,1.6286464350796994,0.8812493037480345
-0.20360656,1.6296368023161047,0.8802530850448862
-0.20358047999999998,1.6306271695525112,0.8795889392427862
-0.20355439999999997,1.6316175367889179,0.8789247934406865
-0.20352831999999998,1.6329380264374587,0.8782606476385875
-0.20350224,1.6339283936738644,0.8775965018364883
-0.20347616,1.6349187609102709,0.8769323560343886
-0.20345007999999998,1.6359091281466775,0.8766002831333388
-0.203424,1.6368994953830827,0.8766002831333388
-0.20339791999999998,1.637889862619489,0.8762682102322891
-0.20337183999999997,1.6388802298558958,0.8762682102322892
-0.20334576,1.6398705970923013,0.8766002831333388
-0.20331968,1.6408609643287067,0.8769323560343882
-0.2032936,1.641851331565113,0.8772644289354381
-0.20326751999999998,1.6428416988015195,0.877596501836488
-0.20324144,1.6438320660379253,0.8782606476385871
-0.20321535999999998,1.6444923108621965,0.8792568663417366
-0.20318927999999997,1.6451525556864675,0.8799210121438366
-0.2031632,1.6461429229228732,0.8812493037480349
-0.20313712,1.6468031677471433,0.8822455224511832
-0.20311103999999996,1.6477935349835509,0.883573814055384
-0.20308495999999998,1.648783902219956,0.8849021056595817
-0.20305888,1.6497742694563617,0.8865624701648296
-0.20303279999999999,1.6501043918684974,0.8882228346700789
-0.20300671999999997,1.651094759104904,0.8898831991753285
-0.20298064,1.6520851263413097,0.8922077094826755
-0.20295455999999998,1.653075493577716,0.8942001468889749
-0.20292847999999997,1.653405615989852,0.8965246571963242
-0.20290239999999998,1.6543959832262574,0.8991812404047196
-0.20287632,1.6550562280505277,0.9015057507120664
-0.20285024,1.6557164728747988,0.9041623339204653
-0.20282415999999998,1.6563767176990696,0.907150990029914
-0.20279808,1.6570369625233399,0.9098075732383092
-0.20277199999999998,1.6576972073476108,0.9131283022488076
-0.20274591999999997,1.6583574521718818,0.9161169583582566
-0.20271983999999998,1.6586875745840168,0.9194376873687522
-0.20269376,1.659017696996152,0.9230904892802975
-0.20266768,1.659677941820423,0.926743291191846
-0.20264159999999998,1.660338186644694,0.9303960931033946
-0.20261552,1.660668309056829,0.934048895014938
-0.20258943999999998,1.6613285538810998,0.9380337698275364
-0.20256335999999997,1.6616586762932355,0.942018644640135
-0.20253728,1.6623189211175058,0.9463355923537793
-0.2025112,1.662649043529641,0.9509846129684731
-0.20248512,1.6629791659417765,0.9553015606821196
-0.20245903999999998,1.663309288353912,0.9596185083957679
-0.20243296,1.663639410766047,0.9642675290104618
-0.20240687999999998,1.6639695331781827,0.9689165496251599
-0.20238079999999997,1.663969533178183,0.9738976431409078
-0.20235472,1.6646297780024535,0.9785466637556017
-0.20232864,1.6646297780024535,0.9835277572713429
-0.20230255999999996,1.6649599004145887,0.9888409236881475
-0.20227647999999998,1.6649599004145887,0.9938220172038887
-0.2022504,1.665290022826724,0.9991351836206817
-0.20222431999999999,1.6652900228267242,1.0044483500374797
-0.20219823999999997,1.6656201452388595,1.0097615164542775
-0.20217216,1.6656201452388595,1.0150746828710706
-0.20214607999999998,1.6659502676509947,1.0207199221889183
-0.20211999999999997,1.6659502676509947,1.0266972344078156
-0.20209391999999998,1.6659502676509947,1.0323424737256557
-0.20206784,1.6659502676509947,1.0379877130434982
-0.20204176,1.6659502676509947,1.0442970981634456
-0.20201567999999998,1.6659502676509947,1.0499423374812935
-0.2019896,1.6659502676509947,1.0562517226012325
-0.20196351999999998,1.6659502676509947,1.0622290348201302
-0.20193743999999997,1.6656201452388595,1.0685384199400778
-0.20191135999999998,1.6656201452388595,1.0748478050600194
-0.20188528,1.6656201452388595,1.081157190179961
-0.2018592,1.6656201452388595,1.0881307211020081
