DAQ/testing_accel_4_6/test_full_0063.csv

#Digilent WaveForms Oscilloscope Acquisition
#Device Name: Discovery2
#Serial Number: SN:210321B02866
#Date Time: 2021-04-06 19:03:00.164
#Sample rate: 38343.6Hz
#Samples: 8192
#Trigger: None
#Channel 1: Range: 500 mV/div Offset: -1.15 V Attenuation: 1 X
#Channel 2: Range: 500 mV/div Offset: -1.45 V Attenuation: 1 X
#Power Supplies: ON
#Positive Supply: ON
#Voltage: 3.3 V
#Negative Supply: OFF
#Voltage: -3.3 V

Time (s),Channel 1 (V),Channel 2 (V)
-0.21116975999999998,1.6471332901592792,1.3521286774365326
-0.21114368,1.6464730453350087,1.359434281259623
-0.2111176,1.6461429229228732,1.3677361037858693
-0.21109151999999998,1.6454826780986023,1.3750417076089665
-0.21106544,1.6451525556864672,1.3830114572341525
-0.21103935999999998,1.6444923108621965,1.3909812068593492
-0.21101327999999997,1.6441621884500608,1.3986188835834963
-0.21098719999999999,1.6438320660379258,1.406588633208686
-0.21096112,1.6431718212136557,1.414558382833872
-0.21093504,1.6428416988015198,1.4225281324590688
-0.21090895999999998,1.6421814539772488,1.430165809183216
-0.21088288,1.6415212091529783,1.4378034859073558
-0.21085679999999998,1.6408609643287075,1.445441162631503
-0.21083071999999997,1.6405308419165716,1.4534109122566994
-0.21080464,1.639540474680166,1.4607165160797897
-0.21077856,1.6392103522680308,1.4686862657049755
-0.21075247999999996,1.6385501074437592,1.475991869528084
-0.21072639999999998,1.637889862619489,1.4839616191532699
-0.21070032,1.6368994953830835,1.4912672229763604
-0.21067423999999998,1.6365693729709476,1.4992369726015569
-0.21064815999999997,1.6355790057345414,1.506542576424654
-0.21062208,1.6349187609102709,1.514180253148794
-0.21059599999999998,1.634258516086,1.521817929872941
-0.21056991999999997,1.6339283936738642,1.5294556065970877
-0.21054383999999998,1.6332681488495941,1.5367612104201749
-0.21051776,1.6322777816131886,1.5443988871443146
-0.21049168,1.6316175367889172,1.551704490967412
-0.21046559999999997,1.6309572919646464,1.5590100947905092
-0.21043952,1.6306271695525114,1.5666477715146456
-0.21041343999999998,1.6296368023161052,1.5732892295356435
-0.21038735999999997,1.628976557491834,1.5809269062597902
-0.21036127999999998,1.6279861902554282,1.5875683642807814
-0.2103352,1.627325945431158,1.5948739681038717
-0.21030912,1.6266657006068868,1.601847499025919
-0.21028303999999998,1.6256753333704805,1.6088210299479664
-0.21025696,1.6250150885462102,1.6157945608700042
-0.21023087999999998,1.624024721309804,1.6224360188910016
-0.21020479999999997,1.6230343540733974,1.6294095498130485
-0.21017871999999999,1.6220439868369918,1.6357189349329901
-0.21015264,1.6217138644248568,1.6430245387560773
-0.21012656,1.6207234971884508,1.6493339238760256
-0.21010047999999998,1.6200632523641796,1.6559753818970229
-0.2100744,1.619072885127774,1.661952694115915
-0.21004831999999998,1.6184126403035028,1.668926225037962
-0.21002223999999997,1.6174222730670964,1.6749035372568597
-0.20999616,1.6164319058306906,1.6812129223768013
-0.20997008,1.6154415385942855,1.6871902345956908
-0.20994399999999996,1.614781293770013,1.693499619715646
-0.20991791999999998,1.613790926533608,1.699144859033486
-0.20989184,1.6128005592972021,1.7051221712523783
-0.20986575999999998,1.612140314472931,1.7110994834712758
-0.20983967999999997,1.6108198248243892,1.716412649888074
-0.2098136,1.610159580000119,1.7220578892059164
-0.20978751999999998,1.6088390903515772,1.7273710556227146
-0.20976143999999997,1.6081788455273056,1.7330162949405612
-0.20973535999999998,1.6068583558787652,1.737665315555253
-0.20970928,1.6061981110544947,1.7429784819720462
-0.2096832,1.6052077438180885,1.7479595754877943
-0.20965711999999997,1.6042173765816818,1.7529406690035423
-0.20963104,1.6032270093452767,1.7579217625192836
-0.20960495999999998,1.60223664210887,1.7622387102329322
-0.20957887999999997,1.6012462748724636,1.7668877308476305
-0.20955279999999998,1.600255907636058,1.7715367514623241
-0.20952672,1.5992655403996523,1.7758536991759686
-0.20950064,1.5982751731632459,1.7798385739885672
-0.20947455999999998,1.5972848059268392,1.784155521702215
-0.20944848,1.596294438690434,1.7878083236137587
-0.20942239999999998,1.5953040714540276,1.7921252713274067
-0.20939631999999997,1.593983581805486,1.7954460003379054
-0.20937023999999999,1.5933233369812154,1.7990988022494507
-0.20934416,1.5920028473326746,1.802751604160996
-0.20931808,1.591012480096268,1.8057402602704449
-0.20929199999999998,1.5900221128598617,1.8093930621819918
-0.20926592,1.5890317456234562,1.8120496453903885
-0.20923983999999998,1.5880413783870497,1.815038301499837
-0.20921375999999997,1.586720888738508,1.8176948847082361
-0.20918768,1.5860606439142375,1.8206835408176822
-0.2091616,1.5847401542656971,1.823008051125028
-0.20913551999999996,1.5840799094414244,1.8253325614323805
-0.20910943999999998,1.5830895422050193,1.8276570717397262
-0.20908336,1.5820991749686135,1.829981582047073
-0.20905727999999998,1.581108807732207,1.8319740194533725
-0.20903119999999997,1.5801184404958002,1.8336343839586218
-0.20900512,1.5787979508472594,1.8352947484638698
-0.20897903999999998,1.577807583610853,1.8366230400680692
-0.20895295999999997,1.5768172163744465,1.838283404573318
-0.20892687999999998,1.5758268491380412,1.8392796232764663
-0.2089008,1.5748364819016356,1.8406079148806644
-0.20887471999999999,1.573846114665229,1.8412720606827646
-0.20884863999999997,1.5725256250166872,1.842268279385914
-0.20882256,1.571535257780282,1.8426003522869632
-0.20879647999999998,1.5705448905438755,1.8435965709901125
-0.20877039999999997,1.569554523307469,1.8439286438911626
-0.20874431999999998,1.5685641560710633,1.844260716792212
-0.20871824,1.5675737888346577,1.844260716792212
-0.20869216,1.566583421598251,1.8439286438911624
-0.20866607999999998,1.5655930543618446,1.8442607167922118
-0.20864,1.5646026871254395,1.8435965709901128
-0.20861391999999998,1.5639424423011683,1.843264498089063
-0.20858783999999997,1.5626219526526266,1.8426003522869632
-0.20856175999999998,1.561961707828356,1.8419362064848641
-0.20853568,1.5609713405919505,1.8412720606827648
-0.2085096,1.5603110957676791,1.8402758419796155
-0.20848351999999998,1.5589906061191376,1.8396116961775153
-0.20845744,1.5583303612948673,1.8382834045733178
-0.20843135999999998,1.5576701164705964,1.8369551129691182
-0.20840527999999997,1.5566797492341897,1.835294748463869
-0.2083792,1.5556893819977842,1.8339664568596707
-0.20835312,1.555029137173514,1.8319740194533742
-0.20832703999999996,1.5543688923492416,1.830645727849172
-0.20830095999999998,1.5530484027007012,1.8286532904428754
-0.20827488,1.552388157876431,1.8269929259376274
-0.20824879999999998,1.5513977906400245,1.8250004885313285
-0.20822271999999997,1.5507375458157533,1.8226759782239796
-0.20819664,1.5497471785793477,1.8206835408176822
-0.20817056,1.5490869337550777,1.8176948847082375
-0.20814447999999997,1.5484266889308056,1.8153703744008836
-0.20811839999999998,1.5477664441065355,1.8120496453903896
-0.20809232,1.547106199282265,1.8090609892809435
-0.20806623999999999,1.5461158320458588,1.8054081873693952
-0.20804015999999997,1.5457857096337226,1.802419531259946
-0.20801408,1.5444652199851825,1.798434656447353
-0.20798799999999998,1.5441350975730466,1.7951139274368542
-0.20796191999999997,1.5434748527487756,1.7911290526242556
-0.20793583999999998,1.542814607924505,1.7871441778116608
-0.20790976,1.5421543631002346,1.7828272300980166
-0.20788368,1.5414941182759636,1.778842355285418
-0.20785759999999998,1.5411639958638281,1.7741933346707197
-0.20783152,1.5405037510395578,1.769544314056028
-0.20780543999999998,1.5401736286274224,1.7652273663423796
-0.20777935999999997,1.539183261391016,1.7605783457276813
-0.20775327999999998,1.5388531389788809,1.7559293251129875
-0.2077272,1.5385230165667456,1.750948231597244
-0.20770112,1.53819289415461,1.7462992109825457
-0.20767503999999998,1.5375326493303394,1.7409860445657481
-0.20764896,1.5375326493303394,1.7360049510500069
-0.20762287999999998,1.5368724045060687,1.730691784633209
-0.20759679999999997,1.5368724045060684,1.725378618216411
-0.20757072,1.536212159681798,1.7194013059975188
-0.20754464,1.5358820372696627,1.7140881395807281
-0.20751856,1.5355519148575274,1.7084429002628807
-0.20749247999999998,1.535221792445392,1.7027976609450328
-0.2074664,1.535221792445392,1.6968203487261406
-0.20744031999999998,1.5348916700332564,1.691175109408293
-0.20741423999999997,1.5345615476211207,1.685197797189395
-0.20738816,1.5339013027968504,1.6788884120694534
-0.20736208,1.5339013027968504,1.6729110998505639
-0.20733599999999996,1.533571180384715,1.6669337876316583
-0.20730991999999998,1.533571180384715,1.6609564754127686
-0.20728384,1.53324105797258,1.6543150173917773
-0.20725775999999999,1.5332410579725797,1.6483377051728794
-0.20723167999999997,1.5325808131483092,1.6413641742508325
-0.2072056,1.5329109355604442,1.6350547891308909
-0.20717951999999998,1.532580813148309,1.6284133311098936
-0.20715343999999997,1.532580813148309,1.6221039459899487
-0.20712735999999998,1.532580813148309,1.6151304150679078
-0.20710128,1.532580813148309,1.6084889570469165
-0.2070752,1.5322506907361735,1.6015154261248694
-0.20704911999999998,1.5322506907361735,1.594873968103872
-0.20702304,1.5322506907361735,1.5879004371818342
-0.20699695999999998,1.5322506907361735,1.5812589791608367
-0.20697087999999997,1.5322506907361735,1.57395337533774
-0.20694479999999998,1.5322506907361735,1.566979844415699
-0.20691872,1.5322506907361735,1.5596742405926085
-0.20689264,1.5322506907361735,1.5523686367695115
-0.20686655999999998,1.5319205683240384,1.5450630329464146
-0.20684048,1.5322506907361733,1.5380895020243768
-0.20681439999999998,1.5322506907361735,1.5307838982012798
-0.20678831999999997,1.5322506907361737,1.5234782943781828
-0.20676223999999999,1.532580813148309,1.5161726905550923
-0.20673616,1.532580813148309,1.508535013830956
-0.20671008,1.532580813148309,1.501561482908908
-0.20668399999999998,1.5329109355604442,1.4942558790858111
-0.20665792,1.5332410579725795,1.4869502752627206
-0.20663183999999998,1.533571180384715,1.4796446714396236
-0.20660575999999997,1.5335711803847152,1.4723390676165262
-0.20657968,1.5342314252089857,1.4647013908923863
-0.2065536,1.5345615476211207,1.4577278599703487
-0.20652751999999996,1.5348916700332567,1.4504222561472417
-0.20650143999999998,1.535221792445392,1.4427845794231051
-0.20647536,1.535551914857527,1.4354789756000146
-0.20644927999999999,1.5358820372696624,1.4281733717769176
-0.20642319999999997,1.5365422820939334,1.4208677679538204
-0.20639712,1.5368724045060687,1.41356216413073
-0.20637103999999998,1.5372025269182041,1.4059244874065833
-0.20634495999999997,1.5375326493303396,1.3986188835834863
-0.20631887999999998,1.5378627717424747,1.3916453526614487
-0.2062928,1.5385230165667452,1.3843397488383584
-0.20626672,1.5391832613910161,1.3767020721142116
-0.20624063999999998,1.539843506215287,1.3697285411921643
-0.20621456,1.5401736286274221,1.362422937369077
-0.20618847999999998,1.5408338734516929,1.35511733354598
-0.20616239999999997,1.5411639958638286,1.3478117297228829
-0.20613631999999998,1.541824240688099,1.3405061258997926
-0.20611024,1.5424844855123696,1.3328684491756526
-0.20608416,1.5434748527487758,1.325894918253605
-0.20605807999999998,1.5438049751609115,1.3182572415294584
-0.206032,1.5444652199851816,1.3112837106074204
-0.20600591999999998,1.5451254648094526,1.3039781067843237
-0.20597983999999997,1.5457857096337235,1.2966725029612265
-0.20595375999999999,1.546445954457994,1.2893668991381362
-0.20592768,1.5471061992822646,1.2820612953150456
-0.2059016,1.5480965665186708,1.2750877643929983
-0.20587551999999998,1.5487568113429417,1.2677821605699047
-0.20584944,1.549417056167212,1.2604765567468141
-0.20582335999999998,1.550077300991483,1.2531709529237172
-0.20579727999999997,1.5507375458157542,1.2465294949027197
-0.2057712,1.5517279130521597,1.2395559639806788
-0.20574512,1.55238815787643,1.232582433058641
-0.20571903999999996,1.553048402700702,1.2256089021365841
-0.20569295999999998,1.5540387699371074,1.2186353712145466
-0.20566688,1.554699014761378,1.2116618402925057
-0.20564079999999998,1.5556893819977842,1.2046883093704586
-0.20561471999999997,1.5563496268220554,1.1977147784484115
-0.20558864,1.5573399940584611,1.1907412475263706
-0.20556255999999998,1.5576701164705968,1.1840997895053729
-0.20553647999999997,1.558660483707003,1.177126258583326
-0.20551039999999998,1.5593207285312731,1.1704848005623378
-0.20548432,1.5603110957676787,1.1638433425413466
-0.20545824,1.56097134059195,1.1572018845203491
-0.20543215999999997,1.5619617078283563,1.1505604264993516
-0.20540608,1.5626219526526266,1.1439189684783635
-0.20537999999999998,1.5636123198890328,1.1376095833584159
-0.20535391999999997,1.5646026871254395,1.131300198238468
-0.20532783999999998,1.565593054361845,1.1246587402174768
-0.20530176,1.5662532991861156,1.1183493550975352
-0.20527568,1.5672436664225218,1.1120399699775878
-0.20524959999999998,1.5679039112467927,1.1057305848576402
-0.20522352,1.568564156071063,1.0994211997377012
-0.20519743999999998,1.569224400895334,1.0931118146177539
-0.20517135999999997,1.5702147681317402,1.0871345023988563
-0.20514527999999999,1.570875012956011,1.081157190179964
-0.2051192,1.5718653801924165,1.0748478050600223
-0.20509312,1.5725256250166877,1.0688704928411246
-0.20506703999999998,1.5735159922530941,1.0632252535232767
-0.20504096,1.5745063594894995,1.0575800142054368
-0.20501487999999998,1.5751666043137704,1.0516027019865393
-0.20498879999999997,1.5758268491380416,1.0459574626686914
-0.20496272,1.5768172163744474,1.040312223350849
-0.20493664,1.5778075836108525,1.0349990569340584
-0.20491055999999996,1.578467828435125,1.0296858905172532
-0.20488447999999998,1.5794581956715303,1.0243727241004625
-0.2048584,1.580448562907936,1.01872748478262
-0.20483231999999998,1.5814389301443423,1.0137463912668716
-0.20480623999999997,1.5820991749686135,1.0087652977511237
-0.20478016,1.5830895422050193,1.0041162771364298
-0.20475408,1.5840799094414244,0.9991351836206886
-0.20472799999999997,1.584740154265697,0.9944861630059839
-0.20470191999999998,1.585730521502102,0.9898371423912921
-0.20467584,1.5867208887385078,0.9851881217765982
-0.20464976,1.5877112559749142,0.9808711740629498
-0.20462367999999997,1.5883715007991854,0.9768862992503511
-0.2045976,1.5893618680355905,0.9725693515367089
-0.20457151999999998,1.5903522352719972,0.9685844767241103
-0.20454543999999997,1.5910124800962684,0.9642675290104621
-0.20451935999999998,1.592002847332674,0.9602826541978673
-0.20449328,1.5929932145690797,0.9566298522863221
-0.2044672,1.5939835818054862,0.9526449774737238
-0.20444111999999998,1.5949739490418926,0.9493242484632252
-0.20441504,1.5959643162782977,0.9460035194527311
-0.20438895999999998,1.5969546835147044,0.9426827904422324
-0.20436287999999997,1.5976149283389756,0.9390299885306842
-0.20433679999999999,1.5986052955753811,0.936041332421238
-0.20431072,1.599595662811787,0.9327206034107425
-0.20428464,1.6005860300481933,0.9300640202023431
-0.20425855999999998,1.6015763972845998,0.9270753640928945
-0.20423248,1.6022366421088698,0.9244187808844992
-0.20420639999999998,1.6032270093452763,0.9217621976761002
-0.20418031999999997,1.6042173765816825,0.919437687368751
-0.20415424,1.604877621405953,0.9167811041603545
-0.20412816,1.6058679886423581,0.9144565938530086
-0.20410208,1.6068583558787648,0.9121320835456596
-0.20407599999999998,1.6078487231151712,0.9101396461393602
-0.20404992,1.608839090351577,0.9081472087330628
-0.20402383999999998,1.609499335175848,0.9064868442278133
-0.20399775999999997,1.6104897024122544,0.9051585526236137
-0.20397168,1.611149947236525,0.9034981881183658
-0.2039456,1.61214031447293,0.9018378236131188
-0.20391951999999997,1.613130681709338,0.9005095320089171
-0.20389343999999998,1.6141210489457432,0.8991812404047196
-0.20386736,1.6147812937700137,0.8978529488005212
-0.20384127999999999,1.61577166100642,0.8971888029984212
-0.20381519999999997,1.616431905830691,0.8958605113942221
-0.20378912,1.6174222730670968,0.8951963655921229
-0.20376303999999998,1.6184126403035028,0.8942001468889738
-0.20373695999999997,1.619072885127774,0.893536001086874
-0.20371087999999998,1.6200632523641796,0.892871855284775
-0.2036848,1.62072349718845,0.8925397823837253
-0.20365872,1.6217138644248565,0.8922077094826755
-0.20363263999999998,1.6223741092491277,0.8918756365816258
-0.20360656,1.6233644764855328,0.8918756365816258
-0.20358047999999998,1.624024721309804,0.8918756365816258
-0.20355439999999997,1.624684966134075,0.8922077094826754
-0.20352831999999998,1.62501508854621,0.8918756365816258
-0.20350224,1.6256753333704805,0.8922077094826754
-0.20347616,1.6260054557826162,0.8922077094826755
-0.20345007999999998,1.6263355781947517,0.8932039281858247
-0.203424,1.6266657006068865,0.8935360010868743
-0.20339791999999998,1.6269958230190222,0.8945322197900235
-0.20337183999999997,1.6276560678432932,0.8951963655921233
-0.20334576,1.6279861902554282,0.896192584295272
-0.20331968,1.6286464350796983,0.8975208758994697
-0.2032936,1.6289765574918342,0.8988491675036693
-0.20326751999999998,1.6296368023161052,0.9005095320089184
-0.20324144,1.6299669247282402,0.9018378236131167
-0.20321535999999998,1.6306271695525112,0.9038302610194155
-0.20318927999999997,1.630957291964647,0.9051585526236156
-0.2031632,1.6316175367889172,0.9074830629309625
-0.20313712,1.6322777816131875,0.909475500337259
-0.20311103999999996,1.6326079040253236,0.9114679377435612
-0.20308495999999998,1.6329380264374587,0.9137924480509071
-0.20305888,1.6335982712617292,0.9164490312593035
-0.20303279999999999,1.6339283936738649,0.9194376873687522
-0.20300671999999997,1.6342585160860004,0.9217621976761016
-0.20298064,1.6349187609102709,0.9247508537855477
-0.20295455999999998,1.6352488833224066,0.927407436993947
-0.20292847999999997,1.6359091281466773,0.9307281660044451
-0.20290239999999998,1.6362392505588124,0.9333847492128403
-0.20287632,1.6365693729709474,0.9367054782233359
-0.20285024,1.636899495383083,0.9400262072338347
-0.20282415999999998,1.6372296177952188,0.9433469362443336
-0.20279808,1.6378898626194889,0.9473318110569267
-0.20277199999999998,1.6382199850316246,0.9503204671663759
-0.20274591999999997,1.6385501074437598,0.9546374148800238
-0.20271983999999998,1.6385501074437598,0.958290216791569
-0.20269376,1.638880229855895,0.9622750916041638
-0.20266768,1.6392103522680306,0.966592039317812
-0.20264159999999998,1.6395404746801663,0.9705769141304106
-0.20261552,1.639870597092301,0.9748938618440528
-0.20258943999999998,1.6398705970923013,0.9792108095577012
-0.20256335999999997,1.6402007195044366,0.9838598301723992
-0.20253728,1.6402007195044366,0.9881767778860435
-0.2025112,1.6405308419165718,0.9928257985007375
-0.20248512,1.640530841916572,0.9974748191154335
-0.20245903999999998,1.6408609643287075,1.0024559126311812
-0.20243296,1.6411910867408426,1.0074370061469249
-0.20240687999999998,1.6411910867408428,1.0127501725637225
-0.20238079999999997,1.641521209152978,1.0180633389805205
-0.20235472,1.641521209152978,1.0233765053973134
-0.20232864,1.641521209152978,1.029353817616203
-0.20230255999999996,1.6415212091529783,1.0343349111319595
-0.20227647999999998,1.6418513315651135,1.040312223350849
-0.2022504,1.6418513315651135,1.0462895355697412
-0.20222431999999999,1.6421814539772488,1.051934774887589
-0.20219823999999997,1.6421814539772488,1.0579120871064867
-0.20217216,1.6421814539772488,1.0638893993253788
-0.20214607999999998,1.6421814539772488,1.0698667115442764
-0.20211999999999997,1.6421814539772488,1.0758440237631743
-0.20209391999999998,1.6421814539772488,1.0821534088831133
-0.20206784,1.6421814539772488,1.088462794003055
-0.20204176,1.6421814539772488,1.0951042520240521
-0.20201567999999998,1.6425115763893843,1.1017457100450494
-0.2019896,1.6425115763893843,1.1080550951649881
-0.20196351999999998,1.6425115763893843,1.1153606989880849
-0.20193743999999997,1.642181453977249,1.1216700841080325
-0.20191135999999998,1.6425115763893843,1.1286436150300734
-0.20188528,1.642181453977249,1.1356171459521145
-0.2018592,1.6421814539772488,1.1425906768741616
